corner points
-34.2387352    -45.16042328
-34.31114197    -45.33610153
-34.49765778    -45.10506821
-34.57097244    -45.28057861
========== RESULTS WAVE VERSION 16.10.2018 ====================
IMAGE SIZE  X: 5599     Y:4910    col:row     POLARIZATION:VV
COVERAGE    X: 21.1824048km       Y: 20.29661926km 
RESOLUTION dX: 3.783247865m       dY:4.13373101m  
resolution of original product 3.783247865m x 4.13373101m;   raster step x:5996.447866m  
===============================================================
FLAGS: H=HIGH PROBABILITY SEA STATE, I=LAND(ISLAND), O=OUTLIER NO SEA STATE, N=NO WIND AVAILABLE, SEA STATE NOT VISIBLE, M=MEAN PROBABILITY SEA STATE, L= LOW PROBABILITY SEA STATE
Filtering wave length
 integration  Lmin=1m
 integration  Lmax=2200m
  peak        Lmin=100m
               FFT=1024pixels, 3874.045814m 
   mean-Hs (SWH_c)=0.6732418823m
         mean-wind=6.252058029m/s
--------------0--------------1---------2---------3---------4---------5---------6---------7---------8---------9--------10--------11--------12--------13--------14--------15--------16--------17--------18--------19------------------20--------21--------22--------23--------24--------25--------26--------27--------28--------29--------30--------31--------32--------33--------34--------35--------36--------37--------38--------39--------40--------41--------42--------43--------44--------45--------46--------47--------48--------49--------50--------51--------52--------53--------54--------55--------56--------57--------58--------59--------60--------61--------62--------63--------64--------65--------66--------67--------68--------69--------70--------71--------72--------73
            LAT            LON  P-LENGHT     SWH_o     SWH_c     P-DIR      LINE     POINT     ROW-Y     COL-X  M-INTENC        dB      WIND INC-ANGLE  ENERGY-M  ENERGY-N  ENERGY-R ENERGY-NN  FG-DEPTH      FLAG         HEADING-DEG    E30-75   E75-390  E390-600 meanincut   meanout   cut/out  STD-NORM  SPEC-MAX   GL-MEAN    GL-VAR      CORR   ENTROPY   HOMOGEN    ENERGY  CONTRAST  DISSIMIL     STD-O    E 1-30 E600-2000   E2000 >      GODA  LONG-HIG     Tmean  CONVOLUT  MEAN-DIR  relation     Sy/Sx  SKEWNESS  KURTOSIS  cutoff-A >50/10000     INT*V   INT-LOG  S-1_g1f1  S-2_g1f2  S-3_g1f3  S-4_g2f1  S-5_g2f2  S-6_g2f3  S-7_g3f1  S-8_g3f2  S-9_g3f3 S-10_g1f4 S-11_g2f4 S-12_g3f4 S-13_g1f5 S-14_g2f5 S-15_g3f5 S-16_g4f1 S-17_g4f2 S-18_g4f3 S-19_g4f4 S-20_g4f5
--------------1--------------2---------3---------4---------5---------6---------7---------8---------9--------10--------11--------12--------13--------14--------15--------16--------17--------18--------19--------20------------------21--------22--------23--------24--------25--------26--------27--------28--------29--------30--------31--------32--------33--------34--------35--------36--------37--------38--------39--------40--------41--------42--------43--------44--------45--------46--------47--------48--------49--------50--------51--------52--------53--------54--------55--------56--------57--------58--------59--------60--------61--------62--------63--------64--------65--------66--------67--------68--------69--------70--------71--------72--------73--------74
     -45.186085     -34.301067     132.0      0.48      1.92      81.0         1         1      1000      1000   2694.71    -5.695       6.2      22.7   272.100     0.710      65.1   0.16085      11.5         H               194.4  0.080853  0.044718  0.000780  4.012119  0.941241  4.262586  1.193944     44.36    4.9025   40.4361   0.25644   5.31161   0.25716   0.01227  60.13298   5.00654    3217.4  0.583090  0.000741  0.000031  0.000226  0.173086  7.045545  0.740436     71.97  1.000170  1.000019     3.168    21.363      81.3      84.1      76.0     397.8      9.60      2.11      1.56      5.89      3.61      5.11      5.23      3.42      4.67      2.78      4.15      4.24     -0.21     -0.05      0.98      1.71      4.30      7.31      4.76      0.26
     -45.170250     -34.375305     128.8      0.59      1.92      68.6         1         2      1000      2585   2433.64    -6.137       6.2      23.2   276.175     0.726      82.4   0.16805      10.9         H               194.4  0.083875  0.048720  0.000834  4.012901  0.958166  4.188108  1.207223     58.97    4.3851   33.8896   0.26211   5.10539   0.27978   0.01529  50.01310   4.51691    2937.9  0.592065  0.000959  0.000049  0.000247  0.177066  7.078472  0.758444     70.70  1.000155  1.000018     3.259    22.488      84.8      82.0      62.6     364.7      9.81      2.81      1.72      6.14      4.28      6.02      5.38      4.16      5.23      3.34      5.45      5.03      0.12     -0.53      1.04      1.89      4.03      8.15      6.04     -0.35
     -45.154667     -34.448109     125.8      0.61      1.92      65.4         1         3      1000      4170   2236.62    -6.504       6.4      23.7   276.566     0.726      55.8   0.16754      10.4         H               194.4  0.083850  0.049104  0.000874  4.164972  0.959882  4.339046  1.207059     51.38    3.9914   28.6595   0.26244   4.93716   0.29684   0.01807  42.27592   4.14665    2699.5  0.592283  0.000585  0.000014  0.000240  0.175930  7.068298  0.759232     73.05  1.000156  1.000017     3.279    23.447      86.6      80.2      52.6     352.4      9.78      2.70      1.82      6.07      4.05      6.13      5.56      3.99      5.47      3.28      5.04      4.87     -0.24      0.40      1.36      1.68      3.82      8.13      5.08      1.18
     -45.238007     -34.322502     115.2      0.84      1.92      79.0         2         1      2451      1000   2658.62    -5.753       6.1      22.7   279.034     0.742      53.2   0.17488       8.6         H               194.4  0.085837  0.055176  0.000878  4.483200  0.952403  4.707249  1.220651     78.00    4.8308   40.9200   0.27014   5.27483   0.26382   0.01312  59.73068   4.93229    3245.0  0.600252  0.000462  0.000009  0.000281  0.175039  7.102519  0.777569     77.08  1.000170  1.000021     3.347    24.407      90.6      83.4      76.1     433.2      9.70      2.27      1.88      5.65      3.54      5.44      5.16      3.60      5.75      3.04      4.71      4.73     -0.15      0.65      1.51      1.87      4.20      7.01      5.72      2.06
     -45.222157     -34.396816     118.0      0.88      1.92      77.1         2         2      2451      2585   2388.48    -6.219       6.1      23.2   281.728     0.754      65.4   0.17996       9.0         H               194.4  0.088238  0.057488  0.000920  4.428483  0.973603  4.548550  1.229595    102.47    4.2964   33.6730   0.27313   5.06103   0.28594   0.01635  48.95033   4.43395    2936.9  0.607561  0.000719  0.000020  0.000317  0.177105  7.128034  0.791390     77.61  1.000157  1.000020     3.464    27.376      92.7      81.2      61.9     415.5      9.60      2.67      2.09      5.77      3.59      6.00      5.41      3.78      6.03      3.11      5.05      5.01      0.44      1.04      2.28      2.24      3.67      8.26      6.30      2.01
     -45.206558     -34.469696     122.4      0.63      1.92      78.3         2         3      2451      4170   2301.48    -6.380       6.6      23.7   280.849     0.748      57.1   0.17811       9.8         H               194.4  0.089444  0.050328  0.000910  4.357608  0.984799  4.424870  1.225752     69.76    4.1207   31.0465   0.26908   4.98899   0.29246   0.01734  45.38490   4.26965    2821.0  0.607457  0.000612  0.000014  0.000245  0.173806  7.045908  0.782983     76.41  1.000185  1.000023     3.468    26.818      88.6      80.6      57.1     383.0      9.87      2.41      1.57      5.49      3.02      5.20      4.92      3.43      5.15      2.66      4.33      4.23     -0.41      0.40      1.74      1.04      2.76      7.40      5.04      1.44
     -45.289925     -34.343971     120.8      0.68      1.92      75.1         3         1      3902      1000   2700.28    -5.686       6.2      22.7   276.818     0.733      55.0   0.17172       9.5         H               194.4  0.086998  0.051242  0.000780  4.256934  0.954761  4.458636  1.214241     61.73    4.9124   41.7735   0.26734   5.30790   0.26003   0.01261  61.21130   5.01287    3278.8  0.593942  0.000556  0.000012  0.000252  0.172742  7.025944  0.767353     73.10  1.000198  1.000023     3.275    22.665      84.8      83.8      77.9     410.5      9.60      2.49      1.31      5.89      3.66      5.06      5.08      3.71      5.07      2.90      4.63      4.58     -0.38     -0.21      0.69      2.02      4.06      7.16      5.66      0.40
     -45.274059     -34.418365     120.8      0.66      1.92      75.1         3         2      3902      2585   2418.18    -6.165       6.2      23.2   279.626     0.742      63.5   0.17500       9.5         H               194.4  0.088479  0.051897  0.000865  4.286029  0.974014  4.400376  1.221345     76.99    4.3513   34.0433   0.26931   5.08673   0.28275   0.01579  49.75018   4.48409    2953.4  0.600732  0.000694  0.000021  0.000263  0.174047  7.057693  0.776998     73.42  1.000196  1.000022     3.358    24.038      86.6      81.6      62.7     371.1      9.76      2.36      1.54      5.70      3.97      5.62      5.17      3.97      5.37      3.44      5.06      5.15     -0.38      0.23      1.18      1.78      4.52      7.73      5.72      1.00
     -45.258446     -34.491318     133.9      0.70      1.92      75.3         3         3      3902      4170   2235.28    -6.507       6.4      23.7   282.713     0.754      62.0   0.17998      11.9         H               194.4  0.091209  0.053535  0.000892  4.459292  0.949561  4.696163  1.230500     85.43    3.9913   29.6400   0.27189   4.92936   0.30017   0.01860  43.16255   4.14803    2750.2  0.608388  0.000705  0.000015  0.000276  0.174342  7.055110  0.789809     74.51  1.000203  1.000024     3.427    25.554      92.7      79.9      54.1     369.0      9.80      3.03      2.09      6.29      4.20      6.16      5.42      4.18      5.69      3.79      5.53      5.28     -0.02      0.45      1.46      2.03      3.95      8.18      5.76      1.41
