corner points
-20.62684631    5.85806942
-20.66411209    5.678260326
-20.80755424    5.895895004
-20.84477997    5.71611166
========== RESULTS WAVE VERSION 16.10.2018 ====================
IMAGE SIZE  X: 5599     Y:4902    col:row     POLARIZATION:VV
COVERAGE    X: 20.38147951km       Y: 20.36697146km 
RESOLUTION dX: 3.640199949m       dY:4.154828938m  
resolution of original product 3.640199949m x 4.154828938m;   raster step x:5999.049516m  
===============================================================
FLAGS: H=HIGH PROBABILITY SEA STATE, I=LAND(ISLAND), O=OUTLIER NO SEA STATE, N=NO WIND AVAILABLE, SEA STATE NOT VISIBLE, M=MEAN PROBABILITY SEA STATE, L= LOW PROBABILITY SEA STATE
Filtering wave length
 integration  Lmin=1m
 integration  Lmax=2200m
  peak        Lmin=100m
               FFT=1024pixels, 3727.564748m 
   mean-Hs (SWH_c)=0.03333333254m
         mean-wind=2.012345791m/s
--------------0--------------1---------2---------3---------4---------5---------6---------7---------8---------9--------10--------11--------12--------13--------14--------15--------16--------17--------18--------19------------------20--------21--------22--------23--------24--------25--------26--------27--------28--------29--------30--------31--------32--------33--------34--------35--------36--------37--------38--------39--------40--------41--------42--------43--------44--------45--------46--------47--------48--------49--------50--------51--------52--------53--------54--------55--------56--------57--------58--------59--------60--------61--------62--------63--------64--------65--------66--------67--------68--------69--------70--------71--------72--------73
            LAT            LON  P-LENGHT     SWH_o     SWH_c     P-DIR      LINE     POINT     ROW-Y     COL-X  M-INTENC        dB      WIND INC-ANGLE  ENERGY-M  ENERGY-N  ENERGY-R ENERGY-NN  FG-DEPTH      FLAG         HEADING-DEG    E30-75   E75-390  E390-600 meanincut   meanout   cut/out  STD-NORM  SPEC-MAX   GL-MEAN    GL-VAR      CORR   ENTROPY   HOMOGEN    ENERGY  CONTRAST  DISSIMIL     STD-O    E 1-30 E600-2000   E2000 >      GODA  LONG-HIG     Tmean  CONVOLUT  MEAN-DIR  relation     Sy/Sx  SKEWNESS  KURTOSIS  cutoff-A >50/10000     INT*V   INT-LOG  S-1_g1f1  S-2_g1f2  S-3_g1f3  S-4_g2f1  S-5_g2f2  S-6_g2f3  S-7_g3f1  S-8_g3f2  S-9_g3f3 S-10_g1f4 S-11_g2f4 S-12_g3f4 S-13_g1f5 S-14_g2f5 S-15_g3f5 S-16_g4f1 S-17_g4f2 S-18_g4f3 S-19_g4f4 S-20_g4f5
--------------1--------------2---------3---------4---------5---------6---------7---------8---------9--------10--------11--------12--------13--------14--------15--------16--------17--------18--------19--------20------------------21--------22--------23--------24--------25--------26--------27--------28--------29--------30--------31--------32--------33--------34--------35--------36--------37--------38--------39--------40--------41--------42--------43--------44--------45--------46--------47--------48--------49--------50--------51--------52--------53--------54--------55--------56--------57--------58--------59--------60--------61--------62--------63--------64--------65--------66--------67--------68--------69--------70--------71--------72--------73--------74
       5.828317     -20.667557     387.0      0.14      1.88      24.5         1         1      1000      1000    700.26   -11.547       1.9      23.7   508.909     0.972    4751.5   0.29324     100.0         H               192.0  0.076264  0.077865  0.036769  4.786464  1.090276  4.390139  1.424833    178.83    0.9800    3.6839   0.36688   2.58174   0.67034   0.16948   4.66456   1.05347     997.5  0.670252  0.106655  0.004539  0.000171  0.247537  7.527452  1.063910     24.89  0.998888  0.999872     5.935    74.037     181.9      49.6       6.3     170.5     16.25      5.01     -8.37    -15.01     -4.03     11.70     12.83      3.12     -9.60     -3.04      4.21     -2.71      2.30     -3.92      3.37    -60.82    -16.55     44.16     14.87    -14.73
       5.839573     -20.721306     372.8      0.14      1.88      90.0         1         2      1000      2648    529.69   -12.760       2.1      24.2   670.379     1.350    9324.4   0.48140     100.0         M               192.0  0.095297  0.124064  0.046701  6.933256  1.293504  5.360058  1.473350    370.09    0.7451    3.2728   0.40962   2.22220   0.71583   0.24171   3.86406   0.85470     780.3  0.872051  0.204240  0.007986  0.000263  0.272137  7.838873  1.494162     82.66  1.000208  1.000012     7.749   154.412     404.2      39.6       5.3     241.2     17.38      5.58      4.46    -14.11     -3.87     -2.00      9.82      2.56      0.74     -2.11      3.41     -1.24      5.68     -4.74      1.15    -53.61    -14.82     -7.11      9.26    -12.86
       5.850621     -20.774086     348.3      0.15      1.88      10.8         1         3      1000      4296    494.39   -13.059       2.1      24.6   439.645     0.746    1399.6   0.17137     100.0         H               192.0  0.069632  0.055521  0.009408  3.906110  0.896303  4.358024  1.229918    184.67    0.6036    1.4222   0.26560   2.05954   0.71379   0.27855   2.08888   0.77699     608.0  0.583130  0.027895  0.001222  0.000170  0.224195  7.272151  0.794578     14.09  0.999721  0.999981     3.152    20.030     102.3      34.3       2.8      65.1     15.49      4.06     -5.72     -9.05     -1.56      6.36      5.59      0.35     -0.91     -2.97      4.15     -0.93      3.87     -5.21      1.70    -34.24     -4.86     14.45      9.73    -12.88
       5.775341     -20.678534     348.3      0.13      1.88      10.8         2         1      2444      1000    488.28   -13.113       1.9      23.7   456.659     0.790    1449.7   0.19290     100.0         H               192.0  0.079578  0.071230  0.010722  5.357918  1.033009  5.186712  1.270217    152.20    0.5838    1.4591   0.28775   2.00267   0.72775   0.30125   2.07846   0.74699     620.1  0.600756  0.026664  0.001365  0.000151  0.221277  7.321382  0.845360     22.41  0.999921  0.999994     3.460    24.225      92.7      32.6       2.8      68.7     15.01      4.66     -2.43     -7.06     -1.57      2.60      4.55      1.22      0.44     -1.68      1.76      0.86      2.90     -3.70      0.61    -29.57     -7.51      4.61      2.88     -8.58
       5.786599     -20.732281     348.3      0.14      1.88      10.8         2         2      2444      2648    602.07   -12.204       2.0      24.2   436.511     0.733    1171.0   0.16598     100.0         H               192.0  0.069453  0.055775  0.008560  3.933339  0.910307  4.320891  1.217842    180.47    0.7838    2.0096   0.26283   2.38729   0.65828   0.20634   2.96290   0.97655     733.2  0.576872  0.021544  0.000877  0.000180  0.225464  7.302841  0.777604     15.32  0.999808  0.999984     3.124    20.077      90.6      41.1       3.9      77.3     15.32      6.32     -6.01     -8.02     -3.28      6.62      4.66      1.92     -0.87     -3.08      4.57     -0.40      4.02     -5.15      0.71    -30.74    -12.38     15.06      9.64    -11.43
       5.797649     -20.785055     353.0      0.20      1.88       5.4         2         3      2444      4296    573.06   -12.418       2.2      24.6   429.282     0.710     461.5   0.15557     100.0         H               192.0  0.073343  0.053279  0.005546  4.052585  0.934930  4.334639  1.196310    131.93    0.7308    1.7513   0.24819   2.30660   0.66773   0.21750   2.63333   0.92615     685.6  0.569576  0.008803  0.000348  0.000159  0.208714  7.179280  0.751140     25.71  0.999788  0.999984     2.989    18.301      63.2      39.7       3.5      69.5     14.12      5.71     -5.83     -4.78     -1.59      5.23      3.07      0.94     -0.23     -2.79      3.93     -0.17      2.65     -4.73      0.78    -22.43     -8.23     12.19      8.38    -10.01
       5.722364     -20.689510     378.7      0.12      1.88      11.7         3         1      3888      1000    313.13   -15.043       1.6      23.7   494.497     0.884    2768.6   0.23151     100.0         N               192.0  0.085907  0.077299  0.013674  5.511485  1.105403  4.985950  1.337060    147.22    0.2736    0.5578   0.28656   1.25328   0.84529   0.52220   0.79588   0.37937     418.7  0.650702  0.053945  0.002676  0.000149  0.226208  7.358448  0.952614     29.20  0.999686  0.999977     3.711    27.208     128.8      18.5       1.1      44.1     15.21      3.40     -2.35     -7.68     -0.40      3.36      5.11      0.43     -1.07     -2.30      3.36     -0.64      4.01     -4.19      1.04    -32.90     -3.83      8.85      7.79    -11.82
       5.733625     -20.743254     348.3      0.12      1.88      10.8         3         2      3888      2648    339.85   -14.687       1.7      24.2   488.724     0.887    2551.5   0.23995     100.0         N               192.0  0.088437  0.082064  0.015194  5.824024  1.078336  5.400938  1.353801    124.94    0.3212    0.7200   0.30621   1.37615   0.82870   0.48802   0.99908   0.43408     460.1  0.647622  0.052746  0.001992  0.000153  0.230950  7.391929  0.958940     32.32  1.000126  1.000008     3.935    30.620     128.8      20.5       1.3      52.5     15.36      4.28     -0.61     -8.10     -1.48      0.29      5.16      0.65      2.05     -0.32      0.94      0.70      3.14     -3.35      0.47    -34.19     -6.72     -3.04      0.74     -8.63
       5.744677     -20.796026     378.7      0.14      1.88      11.7         3         3      3888      4296    468.18   -13.296       2.0      24.6   466.295     0.816    1866.5   0.20596     100.0         H               192.0  0.083079  0.073302  0.012081  5.118375  1.116602  4.583885  1.288090    201.69    0.5409    1.3538   0.29622   1.90721   0.74478   0.32909   1.90559   0.69524     603.0  0.612613  0.033686  0.002190  0.000161  0.221553  7.308909  0.876155     18.55  0.999750  0.999981     3.539    25.290      97.3      30.5       2.5      66.4     14.98      5.89     -4.80     -7.80     -2.71      4.05      5.13      1.38     -0.14     -2.78      3.88     -0.92      3.10     -4.48      1.30    -31.68    -10.60      9.71      9.47    -11.36
