corner points
-22.09107018    7.083396435
-22.12691498    6.908118248
-22.27059746    7.120126247
-22.3063736    6.944884777
========== RESULTS WAVE VERSION 16.10.2018 ====================
IMAGE SIZE  X: 4466     Y:4786    col:row     POLARIZATION:VV
COVERAGE    X: 20.18113444km       Y: 19.84024177km 
RESOLUTION dX: 4.518838879m       dY:4.14547467m  
resolution of original product 4.518838879m x 4.14547467m;   raster step x:5996.499193m  
===============================================================
FLAGS: H=HIGH PROBABILITY SEA STATE, I=LAND(ISLAND), O=OUTLIER NO SEA STATE, N=NO WIND AVAILABLE, SEA STATE NOT VISIBLE, M=MEAN PROBABILITY SEA STATE, L= LOW PROBABILITY SEA STATE
Filtering wave length
 integration  Lmin=1m
 integration  Lmax=2200m
  peak        Lmin=100m
               FFT=1024pixels, 4627.291013m 
   mean-Hs (SWH_c)=0.2m
         mean-wind=6.295679092m/s
--------------0--------------1---------2---------3---------4---------5---------6---------7---------8---------9--------10--------11--------12--------13--------14--------15--------16--------17--------18--------19------------------20--------21--------22--------23--------24--------25--------26--------27--------28--------29--------30--------31--------32--------33--------34--------35--------36--------37--------38--------39--------40--------41--------42--------43--------44--------45--------46--------47--------48--------49--------50--------51--------52--------53--------54--------55--------56--------57--------58--------59--------60--------61--------62--------63--------64--------65--------66--------67--------68--------69--------70--------71--------72--------73
            LAT            LON  P-LENGHT     SWH_o     SWH_c     P-DIR      LINE     POINT     ROW-Y     COL-X  M-INTENC        dB      WIND INC-ANGLE  ENERGY-M  ENERGY-N  ENERGY-R ENERGY-NN  FG-DEPTH      FLAG         HEADING-DEG    E30-75   E75-390  E390-600 meanincut   meanout   cut/out  STD-NORM  SPEC-MAX   GL-MEAN    GL-VAR      CORR   ENTROPY   HOMOGEN    ENERGY  CONTRAST  DISSIMIL     STD-O    E 1-30 E600-2000   E2000 >      GODA  LONG-HIG     Tmean  CONVOLUT  MEAN-DIR  relation     Sy/Sx  SKEWNESS  KURTOSIS  cutoff-A >50/10000     INT*V   INT-LOG  S-1_g1f1  S-2_g1f2  S-3_g1f3  S-4_g2f1  S-5_g2f2  S-6_g2f3  S-7_g3f1  S-8_g3f2  S-9_g3f3 S-10_g1f4 S-11_g2f4 S-12_g3f4 S-13_g1f5 S-14_g2f5 S-15_g3f5 S-16_g4f1 S-17_g4f2 S-18_g4f3 S-19_g4f4 S-20_g4f5
--------------1--------------2---------3---------4---------5---------6---------7---------8---------9--------10--------11--------12--------13--------14--------15--------16--------17--------18--------19--------20------------------21--------22--------23--------24--------25--------26--------27--------28--------29--------30--------31--------32--------33--------34--------35--------36--------37--------38--------39--------40--------41--------42--------43--------44--------45--------46--------47--------48--------49--------50--------51--------52--------53--------54--------55--------56--------57--------58--------59--------60--------61--------62--------63--------64--------65--------66--------67--------68--------69--------70--------71--------72--------73--------74
       7.055092     -22.139215     349.7      0.40      2.06       8.7         1         1      1000      1000    198.86   -17.014       6.4      36.9   217.927     0.541     172.5   0.05900     100.0         H               192.0  0.038309  0.015756  0.001944  1.280860  0.631118  2.029509  1.044627     28.08    3.4996   17.1766   0.08090   4.76088   0.28717   0.01708  31.57418   3.86153     207.7  0.481723  0.003164  0.000363  0.000099  0.193942  6.953264  0.544802     21.48  1.000010  1.000000     2.261    11.294      97.3      80.5      35.1     203.0     14.00      1.33     -2.15     -5.25      0.65      1.70      4.27     -0.08      0.73     -1.43      2.68     -0.51      3.08     -4.27      1.22    -24.73      0.57      1.46      6.23     -9.79
       7.066052     -22.192757     349.7      0.39      2.06       8.7         1         2      1000      2327    185.69   -17.312       6.3      37.3   216.139     0.532      75.5   0.05525     100.0         H               192.0  0.037092  0.014437  0.001278  1.192609  0.614412  1.941057  1.035570     32.54    3.2398   14.7024   0.07040   4.62748   0.30027   0.01921  27.33469   3.60391     192.3  0.478491  0.001235  0.000134  0.000100  0.189242  6.934813  0.535062     14.03  0.999938  0.999998     2.196    10.637      90.6      79.3      30.5     173.0     13.56      2.80     -4.28     -3.91     -0.13      4.09      3.16      0.50     -0.72     -1.72      3.35     -0.60      3.47     -4.90      1.32    -19.64     -3.01      9.45      7.21    -10.82
       7.076912     -22.245842     352.7      0.38      2.06       4.4         1         3      1000      3654    172.78   -17.625       6.2      37.7   216.291     0.530     120.7   0.05381     100.0         H               192.0  0.035955  0.014084  0.001203  1.105998  0.603546  1.832500  1.033907     39.95    2.9819   12.6746   0.06673   4.48411   0.31569   0.02207  23.65749   3.35160     178.6  0.477220  0.001895  0.000282  0.000102  0.191551  6.933333  0.532810     10.15  0.999829  0.999994     2.187    10.549      94.9      77.7      26.6     161.2     13.48      2.01     -5.87     -3.99     -0.13      5.92      3.21      0.14     -1.42     -1.97      2.79      0.01      4.31     -5.63      1.65    -19.26     -1.30     14.19      5.71    -12.58
       7.002090     -22.150049     352.7      0.39      2.06       4.4         2         1      2447      1000    194.46   -17.112       6.3      36.9   216.835     0.536      96.2   0.05620     100.0         H               192.0  0.037105  0.015305  0.001227  1.256631  0.610460  2.058498  1.039167     26.79    3.4118   16.2501   0.07330   4.71730   0.29086   0.01770  30.11789   3.78036     202.1  0.480347  0.001872  0.000140  0.000097  0.193772  6.961174  0.538735     18.54  1.000010  1.000001     2.221    10.892      90.6      80.1      33.4     187.8     13.60      2.13     -2.93     -3.34      0.17      3.26      2.39      0.22     -0.43     -1.20      2.20      0.17      3.01     -4.14      1.02    -17.94     -1.25      6.62      4.26     -9.03
       7.013053     -22.203585     325.7      0.39      2.06       4.0         2         2      2447      2327    185.20   -17.324       6.3      37.3   216.550     0.532      72.6   0.05535     100.0         H               192.0  0.036956  0.015010  0.001248  1.201303  0.604724  1.986532  1.035679     33.50    3.2292   14.6213   0.07107   4.62167   0.30070   0.01933  27.16437   3.59279     191.8  0.478125  0.001360  0.000088  0.000101  0.192439  6.946006  0.535113     12.00  0.999942  0.999999     2.193    10.618      88.6      79.3      30.3     177.5     13.55      2.16     -4.57     -3.76      0.08      3.97      2.69     -0.35      0.34     -2.50      3.28     -0.32      3.02     -4.35      0.79    -18.79     -0.32      7.47      7.45     -8.53
       7.023917     -22.256664     349.7      0.39      2.06       8.7         2         3      2447      3654    179.96   -17.448       6.4      37.7   216.075     0.532      85.5   0.05482     100.0         H               192.0  0.036561  0.014594  0.001334  1.117285  0.604177  1.849269  1.035356     49.96    3.1247   13.7981   0.07024   4.56465   0.30726   0.02047  25.65772   3.49029     186.3  0.478540  0.001428  0.000129  0.000106  0.192959  6.946521  0.535186      9.74  0.999838  0.999994     2.184    10.406      90.6      78.6      28.7     162.0     13.61      2.63     -7.00     -4.56     -0.67      6.90      3.67      0.29     -1.67     -2.76      3.67     -0.80      4.47     -6.30      1.99    -20.79     -3.07     16.68      8.77    -14.43
       6.949088     -22.160885     352.7      0.37      2.06       4.4         3         1      3894      1000    183.32   -17.368       6.0      36.9   217.700     0.535      74.0   0.05454     100.0         H               192.0  0.036676  0.015171  0.001367  1.236927  0.594013  2.082323  1.038282     32.90    3.1905   14.4085   0.06796   4.60068   0.30257   0.01978  26.85868   3.56909     190.3  0.480460  0.001229  0.000100  0.000100  0.193839  6.967367  0.537287     16.05  0.999911  0.999998     2.213    10.757      90.6      78.9      29.9     175.9     13.66      2.27     -4.74     -3.89     -0.32      5.23      3.11      0.30     -1.01     -1.95      2.50     -0.27      4.23     -5.46      1.97    -19.63     -2.46     11.91      6.21    -13.51
       6.960054     -22.214415     323.3      0.39      2.06       8.0         3         2      3894      2327    186.12   -17.302       6.3      37.3   217.684     0.538     115.9   0.05696     100.0         H               192.0  0.037029  0.015995  0.001636  1.271820  0.619335  2.053524  1.041255     35.01    3.2482   14.9231   0.07568   4.63123   0.30060   0.01928  27.58776   3.61257     193.8  0.481428  0.001854  0.000214  0.000101  0.201690  6.995375  0.541187     14.40  0.999962  0.999999     2.226    10.878      92.7      79.3      30.8     176.3     14.52      0.57     -3.04     -5.34      0.68      3.81      2.87     -0.03     -0.92     -3.24      3.38     -0.24      4.07     -5.17      1.68    -22.15      1.06      7.86      8.14    -11.93
       6.970922     -22.267488     349.7      0.40      2.06       8.7         3         3      3894      3654    181.80   -17.404       6.4      37.7   217.461     0.536     113.7   0.05589     100.0         H               192.0  0.036450  0.014963  0.001526  1.176637  0.599077  1.964082  1.039022     36.27    3.1608   14.1812   0.07207   4.58419   0.30524   0.02014  26.31836   3.52798     188.9  0.480799  0.002454  0.000149  0.000101  0.196499  6.974254  0.539027     12.69  0.999974  0.999999     2.220    10.811      92.7      78.8      29.4     168.0     13.73      2.26     -5.06     -4.34      0.28      5.40      3.49     -0.40     -1.10     -2.79      3.61     -0.33      3.46     -5.17      1.58    -21.31     -0.09     12.49      8.40    -11.62
