corner points
-23.93977928    -1.766483545
-23.97704124    -1.941651702
-24.11794853    -1.727760792
-24.15523529    -1.902884722
========== RESULTS WAVE VERSION 16.10.2018 ====================
IMAGE SIZE  X: 4466     Y:4786    col:row     POLARIZATION:VV
COVERAGE    X: 20.22062011km       Y: 19.86653435km 
RESOLUTION dX: 4.527680275m       dY:4.150968314m  
resolution of original product 4.527680275m x 4.150968314m;   raster step x:5999.176364m  
===============================================================
FLAGS: H=HIGH PROBABILITY SEA STATE, I=LAND(ISLAND), O=OUTLIER NO SEA STATE, N=NO WIND AVAILABLE, SEA STATE NOT VISIBLE, M=MEAN PROBABILITY SEA STATE, L= LOW PROBABILITY SEA STATE
Filtering wave length
 integration  Lmin=1m
 integration  Lmax=2200m
  peak        Lmin=100m
               FFT=1024pixels, 4636.344601m 
   mean-Hs (SWH_c)=0.2m
         mean-wind=9.005144119m/s
--------------0--------------1---------2---------3---------4---------5---------6---------7---------8---------9--------10--------11--------12--------13--------14--------15--------16--------17--------18--------19------------------20--------21--------22--------23--------24--------25--------26--------27--------28--------29--------30--------31--------32--------33--------34--------35--------36--------37--------38--------39--------40--------41--------42--------43--------44--------45--------46--------47--------48--------49--------50--------51--------52--------53--------54--------55--------56--------57--------58--------59--------60--------61--------62--------63--------64--------65--------66--------67--------68--------69--------70--------71--------72--------73
            LAT            LON  P-LENGHT     SWH_o     SWH_c     P-DIR      LINE     POINT     ROW-Y     COL-X  M-INTENC        dB      WIND INC-ANGLE  ENERGY-M  ENERGY-N  ENERGY-R ENERGY-NN  FG-DEPTH      FLAG         HEADING-DEG    E30-75   E75-390  E390-600 meanincut   meanout   cut/out  STD-NORM  SPEC-MAX   GL-MEAN    GL-VAR      CORR   ENTROPY   HOMOGEN    ENERGY  CONTRAST  DISSIMIL     STD-O    E 1-30 E600-2000   E2000 >      GODA  LONG-HIG     Tmean  CONVOLUT  MEAN-DIR  relation     Sy/Sx  SKEWNESS  KURTOSIS  cutoff-A >50/10000     INT*V   INT-LOG  S-1_g1f1  S-2_g1f2  S-3_g1f3  S-4_g2f1  S-5_g2f2  S-6_g2f3  S-7_g3f1  S-8_g3f2  S-9_g3f3 S-10_g1f4 S-11_g2f4 S-12_g3f4 S-13_g1f5 S-14_g2f5 S-15_g3f5 S-16_g4f1 S-17_g4f2 S-18_g4f3 S-19_g4f4 S-20_g4f5
--------------1--------------2---------3---------4---------5---------6---------7---------8---------9--------10--------11--------12--------13--------14--------15--------16--------17--------18--------19--------20------------------21--------22--------23--------24--------25--------26--------27--------28--------29--------30--------31--------32--------33--------34--------35--------36--------37--------38--------39--------40--------41--------42--------43--------44--------45--------46--------47--------48--------49--------50--------51--------52--------53--------54--------55--------56--------57--------58--------59--------60--------61--------62--------63--------64--------65--------66--------67--------68--------69--------70--------71--------72--------73--------74
      -1.794320     -23.987921     385.1      0.53      1.78       4.8         1         1      1000      1000    300.59   -15.220       8.9      36.8   216.580     0.539      55.8   0.06326     100.0         H               192.0  0.043301  0.013331  0.000680  1.285110  0.651593  1.972259  1.041410     11.29    5.5265   39.0347   0.09075   5.58193   0.20962   0.00755  70.98459   5.83010     313.0  0.480600  0.000895  0.000093  0.000110  0.160508  6.763333  0.542044     81.40  0.999978  0.999999     2.220    10.741      78.1      88.0      79.3     292.4     11.54      1.28     -3.85      0.35      0.12      3.72      2.62     -0.94     -1.31     -0.23      0.37      0.41      0.67     -2.22      1.94    -10.94      0.50     11.41      0.25     -5.94
      -1.782785     -24.040987     385.1      0.54      1.78     175.2         1         2      1000      2325    296.10   -15.286       9.1      37.2   217.378     0.541      44.9   0.06364     100.0         H               192.0  0.043380  0.014130  0.000619  1.347649  0.646627  2.084120  1.043839      6.92    5.4393   38.0383   0.09150   5.55247   0.21229   0.00779  69.11528   5.74973     309.1  0.482405  0.000743  0.000056  0.000110  0.163722  6.798169  0.544415     82.78  1.000006  1.000001     2.229    10.822      76.6      87.8      77.0     283.2     11.51      1.89     -3.40      0.87      0.54      2.92      2.05     -1.32     -0.20      0.15      0.63      0.63     -0.20     -1.33      1.20     -9.27      1.02      8.34      0.10     -2.87
      -1.771348     -24.093596     385.1      0.49      1.78     175.2         1         3      1000      3650    246.40   -16.084       8.2      37.6   216.907     0.539      48.7   0.06164     100.0         H               192.0  0.043313  0.013498  0.000587  1.278403  0.635775  2.010780  1.042048      9.39    4.4471   26.2781   0.08775   5.18688   0.24484   0.01120  47.94444   4.77915     256.8  0.481252  0.000730  0.000076  0.000111  0.162822  6.774393  0.542789     82.50  0.999977  1.000000     2.218    10.719      83.0      84.8      53.1     237.9     11.47      1.83     -3.96      0.66      0.13      2.98      1.89     -1.18     -0.40     -0.21      0.48      0.75      0.07     -1.85      1.80     -9.23     -0.06      9.14      0.12     -4.63
      -1.847216     -23.999174     385.1      0.54      1.78       4.8         2         1      2445      1000    308.40   -15.109       9.1      36.8   217.786     0.542      54.9   0.06334     100.0         H               192.0  0.043305  0.013707  0.000977  1.298924  0.657034  1.976951  1.044834     19.59    5.6812   41.3248   0.09116   5.63236   0.20567   0.00721  75.11546   5.98906     322.2  0.483593  0.000864  0.000085  0.000111  0.160933  6.775334  0.545795     83.16  0.999962  0.999998     2.245    10.984      81.3      88.4      83.9     304.7     11.81      1.79     -4.79     -0.93      0.27      5.15      4.00     -1.03     -2.87     -0.13      0.39      0.37      1.41     -3.56      3.58    -15.52      0.34     17.62      0.47    -12.19
      -1.835677     -24.052240     385.1      0.53      1.78     175.2         2         2      2445      2325    292.82   -15.334       9.0      37.2   216.346     0.539      52.3   0.06300     100.0         H               192.0  0.042682  0.014171  0.000814  1.355278  0.638693  2.121956  1.041537     15.52    5.3743   37.0359   0.09076   5.53071   0.21425   0.00795  67.34895   5.67597     305.0  0.480418  0.000672  0.000099  0.000112  0.163360  6.798429  0.542025     80.97  0.999972  0.999999     2.225    10.842      79.7      87.7      75.2     277.7     11.78      1.47     -4.27     -0.35      0.62      4.13      2.84     -1.38     -1.84      0.19     -0.06      0.84      0.44     -2.79      3.11    -12.67      1.38     13.37     -1.34     -8.25
      -1.824236     -24.104853     385.1      0.51      1.78     175.2         2         3      2445      3650    261.77   -15.821       8.6      37.6   219.043     0.546     133.6   0.06376     100.0         H               192.0  0.043577  0.013753  0.000886  1.315368  0.659008  1.995981  1.048925     11.40    4.7529   30.0071   0.09251   5.30606   0.23458   0.01002  54.46172   5.08052     274.5  0.485311  0.002009  0.000320  0.000111  0.162705  6.780259  0.549574     79.87  0.999975  0.999998     2.280    11.533      83.0      85.7      60.4     273.9     11.86      1.64     -3.88     -0.71      0.48      3.43      3.05     -1.27     -1.60      0.33      0.31      0.85      0.52     -2.27      2.61    -14.05      1.54     12.08     -0.88     -7.44
      -1.900111     -24.010429     385.1      0.56      1.78       4.8         3         1      3890      1000    329.96   -14.815       9.5      36.8   217.293     0.541      92.3   0.06356     100.0         H               192.0  0.043232  0.013442  0.000717  1.283356  0.651201  1.970754  1.043846     12.20    6.1097   47.1460   0.09197   5.76627   0.19492   0.00630  85.62038   6.40703     344.4  0.482112  0.001427  0.000205  0.000115  0.160166  6.773838  0.544419     79.31  0.999963  0.999998     2.235    10.851      76.6      89.4      96.5     306.3     11.67      1.15     -3.85     -0.07      0.45      3.24      2.53     -0.73     -1.17      0.24      0.36      0.27      1.02     -2.33      1.96    -11.66      1.00     10.56     -0.04     -7.06
      -1.888568     -24.063499     385.1      0.56      1.78       4.8         3         2      3890      2325    310.63   -15.078       9.4      37.2   216.684     0.539      53.0   0.06346     100.0         H               192.0  0.042951  0.014128  0.000838  1.358887  0.652242  2.083410  1.042347     12.87    5.7287   41.7134   0.09153   5.64793   0.20442   0.00707  75.79076   6.02527     323.8  0.480894  0.000788  0.000088  0.000113  0.162219  6.787379  0.543180     80.78  0.999978  0.999999     2.231    10.862      79.7      88.5      84.9     297.4     11.67      1.52     -4.19     -0.29      0.67      3.83      3.02     -1.07     -1.68      0.09      0.42      0.84      0.30     -2.27      2.81    -12.95      1.38     13.20     -0.29     -7.06
      -1.877123     -24.116112     385.1      0.54      1.78     175.2         3         3      3890      3650    289.92   -15.377       9.2      37.6   216.257     0.538      51.8   0.06330     100.0         H               192.0  0.042953  0.014519  0.000822  1.396234  0.637377  2.190593  1.041336     13.49    5.3149   36.2992   0.09259   5.51018   0.21625   0.00813  65.87634   5.61392     301.9  0.479596  0.000828  0.000070  0.000112  0.164930  6.809661  0.542205     78.88  0.999967  0.999999     2.223    10.870      76.6      87.5      73.5     285.0     11.93      1.49     -4.20     -0.58      0.67      4.11      2.81     -1.51     -1.47      0.52     -0.17      0.23      0.56     -2.57      2.18    -12.93      1.74     12.75     -1.23     -7.21
