corner points
-30.9839592    -29.93618774
-31.03671074    -30.10903168
-31.18941689    -29.88760948
-31.24254036    -30.06035995
========== RESULTS WAVE VERSION 16.10.2018 ====================
IMAGE SIZE  X: 4466     Y:4781    col:row     POLARIZATION:VV
COVERAGE    X: 20.48223273km       Y: 19.83449836km 
RESOLUTION dX: 4.586259008m       dY:4.148608735m  
resolution of original product 4.586259008m x 4.148608735m;   raster step x:5998.826782m  
===============================================================
FLAGS: H=HIGH PROBABILITY SEA STATE, I=LAND(ISLAND), O=OUTLIER NO SEA STATE, N=NO WIND AVAILABLE, SEA STATE NOT VISIBLE, M=MEAN PROBABILITY SEA STATE, L= LOW PROBABILITY SEA STATE
Filtering wave length
 integration  Lmin=1m
 integration  Lmax=2200m
  peak        Lmin=100m
               FFT=1024pixels, 4696.329224m 
   mean-Hs (SWH_c)=0.2m
         mean-wind=7.31111145m/s
--------------0--------------1---------2---------3---------4---------5---------6---------7---------8---------9--------10--------11--------12--------13--------14--------15--------16--------17--------18--------19------------------20--------21--------22--------23--------24--------25--------26--------27--------28--------29--------30--------31--------32--------33--------34--------35--------36--------37--------38--------39--------40--------41--------42--------43--------44--------45--------46--------47--------48--------49--------50--------51--------52--------53--------54--------55--------56--------57--------58--------59--------60--------61--------62--------63--------64--------65--------66--------67--------68--------69--------70--------71--------72--------73
            LAT            LON  P-LENGHT     SWH_o     SWH_c     P-DIR      LINE     POINT     ROW-Y     COL-X  M-INTENC        dB      WIND INC-ANGLE  ENERGY-M  ENERGY-N  ENERGY-R ENERGY-NN  FG-DEPTH      FLAG         HEADING-DEG    E30-75   E75-390  E390-600 meanincut   meanout   cut/out  STD-NORM  SPEC-MAX   GL-MEAN    GL-VAR      CORR   ENTROPY   HOMOGEN    ENERGY  CONTRAST  DISSIMIL     STD-O    E 1-30 E600-2000   E2000 >      GODA  LONG-HIG     Tmean  CONVOLUT  MEAN-DIR  relation     Sy/Sx  SKEWNESS  KURTOSIS  cutoff-A >50/10000     INT*V   INT-LOG  S-1_g1f1  S-2_g1f2  S-3_g1f3  S-4_g2f1  S-5_g2f2  S-6_g2f3  S-7_g3f1  S-8_g3f2  S-9_g3f3 S-10_g1f4 S-11_g2f4 S-12_g3f4 S-13_g1f5 S-14_g2f5 S-15_g3f5 S-16_g4f1 S-17_g4f2 S-18_g4f3 S-19_g4f4 S-20_g4f5
--------------1--------------2---------3---------4---------5---------6---------7---------8---------9--------10--------11--------12--------13--------14--------15--------16--------17--------18--------19--------20------------------21--------22--------23--------24--------25--------26--------27--------28--------29--------30--------31--------32--------33--------34--------35--------36--------37--------38--------39--------40--------41--------42--------43--------44--------45--------46--------47--------48--------49--------50--------51--------52--------53--------54--------55--------56--------57--------58--------59--------60--------61--------62--------63--------64--------65--------66--------67--------68--------69--------70--------71--------72--------73--------74
     -29.961365     -31.041571     271.2      0.44      1.40      16.8         1         1      1000      1000    246.55   -16.081       7.2      36.3   247.474     0.537      29.6   0.06021     100.0         H               192.8  0.042165  0.011592  0.000382  1.093748  0.648496  1.686590  1.039493      5.12    4.4477   26.1679   0.08124   5.18775   0.24358   0.01109  48.08372   4.79088     256.3  0.482431  0.000448  0.000033  0.000098  0.158686  6.717637  0.538593     95.51  1.000099  1.000006     2.248    11.274      78.1      84.8      53.1     255.8     10.95      0.73     -1.33      2.08      0.29      0.48      1.77     -0.69      0.77     -0.28      0.52      0.25      0.57     -0.06      0.10     -5.93      1.19      0.24      0.46      0.05
     -29.947086     -31.102018     271.2      0.44      1.40      16.8         1         2      1000      2308    233.49   -16.317       7.2      36.7   246.215     0.533      34.4   0.05939     100.0         H               192.8  0.041230  0.011153  0.000309  1.042055  0.659117  1.580987  1.036200      4.13    4.1890   23.3061   0.07901   5.08057   0.25376   0.01227  42.92956   4.52997     241.9  0.480558  0.000404  0.000058  0.000095  0.159429  6.729805  0.534923     95.68  1.000091  1.000005     2.204    10.665      75.2      84.0      47.4     216.5     10.68      0.70     -1.24      2.67      0.26      0.26      1.69     -0.81      0.43     -0.43      0.40      0.23      0.32     -0.17      0.00     -4.30      0.78      0.72      0.56      0.48
     -29.932905     -31.161917     259.0      0.44      1.40      12.7         1         3      1000      3616    227.58   -16.429       7.3      37.0   246.621     0.534      31.9   0.05923      95.8         H               192.8  0.041381  0.011214  0.000325  1.059335  0.645430  1.641287  1.037281      4.93    4.0714   22.2081   0.07903   5.02951   0.25835   0.01296  40.90613   4.42133     236.0  0.480953  0.000428  0.000042  0.000098  0.157633  6.718470  0.535786     95.96  1.000097  1.000005     2.211    10.758      75.2      83.3      45.2     214.2     10.75      0.71     -0.96      2.56     -0.03     -0.14      1.46     -0.43      0.58     -0.81      0.29      0.44      0.26      0.02      0.39     -4.64     -0.18     -0.60      0.12      0.40
     -30.013647     -31.057547     255.5      0.44      1.40      15.8         2         1      2446      1000    246.81   -16.076       7.2      36.3   246.909     0.535      36.9   0.05984      83.7         H               192.8  0.041925  0.011128  0.000392  1.022881  0.654064  1.563885  1.038198      5.62    4.4528   26.1675   0.08041   5.18992   0.24332   0.01104  48.12681   4.79392     256.2  0.481563  0.000487  0.000058  0.000097  0.158788  6.702614  0.536851     92.70  1.000092  1.000006     2.238    11.079      73.8      84.9      53.0     240.3     10.90      0.92     -1.48      1.83     -0.11     -0.15      1.78     -0.73      1.16     -0.88      0.55      0.43      0.39      0.10      0.06     -6.20      0.10     -0.89      0.46      0.86
     -29.999361     -31.118027     235.7      0.44      1.40       2.9         2         2      2446      2308    235.86   -16.273       7.2      36.7   246.538     0.535      29.4   0.06017      53.9         H               192.8  0.041725  0.011433  0.000369  1.073433  0.650437  1.650326  1.037450      3.79    4.2367   23.8392   0.08115   5.10060   0.25155   0.01205  43.80891   4.57641     244.7  0.481164  0.000472  0.000029  0.000096  0.159659  6.732087  0.536638     94.28  1.000111  1.000006     2.228    11.080      75.2      84.1      48.5     237.9     10.85      0.32     -0.89      2.25      0.46     -0.19      1.61     -0.85      0.59     -0.28      0.49     -0.15      0.38     -0.09      0.22     -5.45      1.75     -0.77      0.88      0.30
     -29.985170     -31.177959     255.5      0.44      1.40      15.8         2         3      2446      3616    228.40   -16.413       7.3      37.0   248.188     0.537      29.0   0.05944      83.7         H               192.8  0.041402  0.011490  0.000335  1.062995  0.646278  1.644795  1.040013      7.07    4.0866   22.4871   0.07856   5.03598   0.25776   0.01291  41.44071   4.44374     237.5  0.483744  0.000403  0.000030  0.000097  0.159959  6.731885  0.538776     91.63  1.000111  1.000007     2.230    10.931      76.6      83.3      45.6     214.5     10.78      1.22     -1.26      2.32     -0.37      0.04      1.55     -0.37      0.72     -0.72      0.72      0.27      0.35     -0.05      0.23     -4.73     -0.96     -0.15      1.01      0.04
     -30.065926     -31.073540     226.0      0.45      1.40      16.8         3         1      3892      1000    251.10   -16.001       7.4      36.3   247.591     0.540      36.5   0.06215      46.0         H               192.8  0.043700  0.011617  0.000341  1.089671  0.663105  1.643287  1.043014      3.80    4.5385   27.3112   0.08530   5.22357   0.24053   0.01075  49.96356   4.87672     261.9  0.484323  0.000482  0.000062  0.000099  0.159498  6.711326  0.542321     95.30  1.000124  1.000005     2.277    11.569      79.7      85.1      55.2     251.3     10.88      0.60     -0.87      2.36     -0.07      0.00      1.49     -0.02      0.74     -0.39      0.46      0.24      0.52     -0.06      0.22     -4.90     -0.64     -0.13      0.74      0.22
     -30.051630     -31.134052     244.4      0.45      1.40      12.0         3         2      3892      2308    244.65   -16.114       7.4      36.7   248.252     0.541      42.7   0.06247      63.4         H               192.8  0.043470  0.011312  0.000349  1.083943  0.662536  1.636052  1.043210      4.21    4.4112   25.9327   0.08577   5.17225   0.24569   0.01128  47.41689   4.74730     255.2  0.485359  0.000546  0.000081  0.000100  0.156105  6.698083  0.542768     93.38  1.000126  1.000008     2.271    11.418      78.1      84.7      52.4     246.1     10.78      0.25     -0.88      2.37      0.06      0.31      1.74     -0.60      0.28     -0.57      0.45      0.30      0.37      0.31      0.63     -5.22      0.96      0.15      0.67      0.42
     -30.037434     -31.194019     246.9      0.45      1.40      21.6         3         3      3892      3616    233.62   -16.315       7.5      37.0   247.300     0.537      29.5   0.05978      66.8         H               192.8  0.041875  0.011246  0.000345  1.065293  0.644473  1.652966  1.039457      4.39    4.1908   23.5088   0.08088   5.08086   0.25362   0.01234  43.21503   4.54091     242.9  0.483041  0.000428  0.000033  0.000098  0.158895  6.716073  0.538471     92.96  1.000102  1.000005     2.231    10.970      78.1      83.7      47.7     226.0     10.89      0.51     -0.96      2.41     -0.20     -0.05      1.47     -0.53      0.79     -0.82      0.42      0.38      0.58     -0.21      0.53     -5.30     -0.21     -1.12      0.42     -0.83
