corner points
-28.86607552    -29.48147202
-28.91568947    -29.66023445
-29.07526207    -29.43531036
-29.12535095    -29.61398315
========== RESULTS WAVE VERSION 16.10.2018 ====================
IMAGE SIZE  X: 5599     Y:4919    col:row     POLARIZATION:VV
COVERAGE    X: 20.85291537km       Y: 20.4035017km 
RESOLUTION dX: 3.724399958m       dY:4.147896259m  
resolution of original product 3.724399958m x 4.147896259m;   raster step x:5996.283933m  
===============================================================
FLAGS: H=HIGH PROBABILITY SEA STATE, I=LAND(ISLAND), O=OUTLIER NO SEA STATE, N=NO WIND AVAILABLE, SEA STATE NOT VISIBLE, M=MEAN PROBABILITY SEA STATE, L= LOW PROBABILITY SEA STATE
Filtering wave length
 integration  Lmin=1m
 integration  Lmax=2200m
  peak        Lmin=100m
               FFT=1024pixels, 3813.785557m 
   mean-Hs (SWH_c)=0.2m
         mean-wind=5.114609241m/s
--------------0--------------1---------2---------3---------4---------5---------6---------7---------8---------9--------10--------11--------12--------13--------14--------15--------16--------17--------18--------19------------------20--------21--------22--------23--------24--------25--------26--------27--------28--------29--------30--------31--------32--------33--------34--------35--------36--------37--------38--------39--------40--------41--------42--------43--------44--------45--------46--------47--------48--------49--------50--------51--------52--------53--------54--------55--------56--------57--------58--------59--------60--------61--------62--------63--------64--------65--------66--------67--------68--------69--------70--------71--------72--------73
            LAT            LON  P-LENGHT     SWH_o     SWH_c     P-DIR      LINE     POINT     ROW-Y     COL-X  M-INTENC        dB      WIND INC-ANGLE  ENERGY-M  ENERGY-N  ENERGY-R ENERGY-NN  FG-DEPTH      FLAG         HEADING-DEG    E30-75   E75-390  E390-600 meanincut   meanout   cut/out  STD-NORM  SPEC-MAX   GL-MEAN    GL-VAR      CORR   ENTROPY   HOMOGEN    ENERGY  CONTRAST  DISSIMIL     STD-O    E 1-30 E600-2000   E2000 >      GODA  LONG-HIG     Tmean  CONVOLUT  MEAN-DIR  relation     Sy/Sx  SKEWNESS  KURTOSIS  cutoff-A >50/10000     INT*V   INT-LOG  S-1_g1f1  S-2_g1f2  S-3_g1f3  S-4_g2f1  S-5_g2f2  S-6_g2f3  S-7_g3f1  S-8_g3f2  S-9_g3f3 S-10_g1f4 S-11_g2f4 S-12_g3f4 S-13_g1f5 S-14_g2f5 S-15_g3f5 S-16_g4f1 S-17_g4f2 S-18_g4f3 S-19_g4f4 S-20_g4f5
--------------1--------------2---------3---------4---------5---------6---------7---------8---------9--------10--------11--------12--------13--------14--------15--------16--------17--------18--------19--------20------------------21--------22--------23--------24--------25--------26--------27--------28--------29--------30--------31--------32--------33--------34--------35--------36--------37--------38--------39--------40--------41--------42--------43--------44--------45--------46--------47--------48--------49--------50--------51--------52--------53--------54--------55--------56--------57--------58--------59--------60--------61--------62--------63--------64--------65--------66--------67--------68--------69--------70--------71--------72--------73--------74
     -29.509375     -28.914558     245.0      0.32      1.51      22.7         1         1      1000      1000   2124.17    -6.728       5.1      23.1   305.131     0.599      86.0   0.11396      64.1         H               192.7  0.057862  0.022383  0.000582  2.018332  0.815056  2.476311  1.097773     15.47    3.7641   21.5451   0.20686   4.86700   0.29225   0.01709  34.17651   3.91530    2331.7  0.516833  0.001320  0.000082  0.000122  0.174657  6.872867  0.619851     84.65  1.000097  1.000006     2.579    14.345      50.4      81.1      42.0     246.7     11.54      2.17     -3.07      1.96      0.79      0.69     -0.27     -0.66      2.67     -0.10      0.91      0.69     -0.01     -1.51     -0.15     -4.49      0.23     -0.19      0.31     -1.41
     -29.495962     -28.975428     241.7      0.32      1.51      14.7         1         2      1000      2610   1894.92    -7.224       5.1      23.6   306.582     0.602      81.2   0.11553      60.1         H               192.7  0.058740  0.022503  0.000849  2.099472  0.845573  2.482899  1.101266      9.99    3.3173   17.3254   0.20799   4.64399   0.31776   0.02138  27.44403   3.49100    2086.8  0.519286  0.001426  0.000058  0.000120  0.173237  6.868368  0.623718     86.28  1.000122  1.000008     2.611    14.753      49.7      78.6      33.8     217.1     11.52      2.56     -1.27      1.98      0.98      0.32      1.11     -0.36      2.26      0.22      0.83      0.88     -0.77     -1.14     -0.27     -6.65     -0.41     -1.68     -0.12     -0.18
     -29.482771     -29.035154     250.7      0.32      1.51      19.2         1         3      1000      4220   1716.66    -7.653       5.1      24.1   306.517     0.602     102.0   0.11468      73.0         H               192.7  0.057653  0.021574  0.000823  1.956886  0.822614  2.378862  1.099377     10.23    2.9589   14.1573   0.20642   4.44631   0.34048   0.02586  22.46961   3.15019    1887.2  0.520010  0.001865  0.000079  0.000118  0.173755  6.864852  0.622578     86.33  1.000107  1.000007     2.617    14.799      50.4      76.4      27.9     194.3     11.50      1.55     -2.34      1.77      1.52      0.75      0.87     -0.74      2.14      0.13      0.63      0.48      0.02     -1.21     -0.53     -6.89      1.78      0.26     -0.00     -0.34
     -29.561930     -28.929167     250.7      0.32      1.51      19.2         2         1      2446      1000   2097.47    -6.783       5.0      23.1   305.898     0.599      69.6   0.11335      73.0         H               192.7  0.057374  0.022428  0.000721  2.051876  0.837873  2.448910  1.097601     14.71    3.7185   21.0621   0.20495   4.84575   0.29452   0.01742  33.49083   3.87467    2302.0  0.517235  0.001245  0.000035  0.000121  0.175473  6.879072  0.619632     82.90  1.000108  1.000007     2.586    14.620      49.1      80.9      41.1     248.8     11.69      2.27     -1.99      1.64      0.91      0.51      0.58     -0.12      2.68     -0.34      1.40      0.89     -0.12     -1.52     -0.36     -5.90     -0.08     -0.64      1.30     -1.16
     -29.548512     -28.990076     237.4      0.32      1.51      18.1         2         2      2446      2610   1864.60    -7.294       5.0      23.6   306.266     0.600      73.3   0.11365      55.5         H               192.7  0.057502  0.022262  0.000753  2.016008  0.834514  2.415788  1.098335     12.17    3.2455   16.5859   0.20521   4.60664   0.32158   0.02212  26.36505   3.42466    2047.9  0.518255  0.001424  0.000031  0.000119  0.173704  6.868215  0.620886     83.93  1.000104  1.000006     2.593    14.820      49.1      78.2      32.6     223.5     11.59      1.79     -2.28      1.60      0.54      0.51      0.61      0.10      2.62      0.49      1.33      0.75      0.16     -1.30     -0.41     -6.19     -0.53     -0.81      0.74     -1.20
     -29.535311     -29.049841     245.0      0.33      1.51      22.7         2         3      2446      4220   1766.34    -7.529       5.3      24.1   306.090     0.603      93.2   0.11620      64.1         H               192.7  0.057840  0.022179  0.000886  2.008940  0.811385  2.475941  1.100827     10.61    3.0542   14.9808   0.20854   4.50036   0.33422   0.02460  23.71365   3.24062    1944.5  0.520258  0.001818  0.000040  0.000119  0.175194  6.886699  0.623788     83.90  1.000115  1.000008     2.602    14.556      51.0      77.0      29.5     198.9     11.73      0.82     -2.12      1.24      1.57      0.73      0.92     -0.56      1.85     -0.15      0.50      0.92     -0.30     -1.07     -0.11     -7.55      2.60      0.73     -0.29     -0.77
     -29.614485     -28.943787     250.7      0.32      1.51      19.2         3         1      3892      1000   2124.96    -6.726       5.1      23.1   304.557     0.596      73.2   0.11335      73.0         H               192.7  0.057013  0.022705  0.000720  1.981815  0.822230  2.410291  1.095507     18.62    3.7626   21.4423   0.20588   4.86673   0.29235   0.01705  34.05573   3.90990    2327.8  0.515025  0.001278  0.000045  0.000119  0.177851  6.895185  0.617328     69.39  1.000090  1.000005     2.568    14.267      48.5      81.1      41.9     241.4     11.86      1.44     -2.89      1.10      0.54      0.75     -0.09     -0.10      2.75     -0.56      1.13      1.04      0.26     -0.78     -0.34     -6.03     -0.06     -0.25      1.17     -0.45
     -29.601057     -29.004736     250.7      0.33      1.51      19.2         3         2      3892      2610   1920.57    -7.166       5.2      23.6   307.781     0.602      70.5   0.11412      73.0         H               192.7  0.058207  0.021980  0.000904  2.013690  0.824042  2.443675  1.100773      9.44    3.3647   17.7462   0.20456   4.66946   0.31406   0.02076  28.23235   3.54262    2114.2  0.519974  0.001483  0.000028  0.000120  0.172215  6.865472  0.622777     82.75  1.000128  1.000009     2.611    14.690      49.7      78.9      34.7     222.5     11.56      1.54     -2.20      1.29      0.69      0.28      1.22      0.00      2.63      0.02      0.43      1.07     -0.02     -1.56      0.09     -7.70     -0.19     -1.33     -0.54     -2.25
     -29.587851     -29.064543     238.6      0.32      1.51      26.0         3         3      3892      4220   1705.19    -7.682       5.1      24.1   306.257     0.600     118.3   0.11466      56.8         H               192.7  0.057648  0.022362  0.001156  2.059874  0.832310  2.474886  1.098477      9.30    2.9322   13.8964   0.20671   4.43069   0.34243   0.02632  22.04779   3.12348    1873.1  0.517297  0.002265  0.000087  0.000119  0.173879  6.872127  0.621487     84.73  1.000105  1.000007     2.607    14.888      51.0      76.1      27.4     198.5     11.79      1.74     -1.45      0.80      0.97      0.57      1.74     -0.53      1.64      0.35      0.26      1.12     -0.02     -1.02      0.04     -9.70      0.64      0.44     -1.14     -1.26
