corner points
-33.51827621    -43.4344635
-33.5868721    -43.61061478
-33.77051926    -43.38035202
-33.83996201    -43.55634689
========== RESULTS WAVE VERSION 16.10.2018 ====================
IMAGE SIZE  X: 5599     Y:4911    col:row     POLARIZATION:VV
COVERAGE    X: 21.20556035km       Y: 20.30914042km 
RESOLUTION dX: 3.787383523m       dY:4.135438897m  
resolution of original product 3.787383523m x 4.135438897m;   raster step x:5999.215501m  
===============================================================
FLAGS: H=HIGH PROBABILITY SEA STATE, I=LAND(ISLAND), O=OUTLIER NO SEA STATE, N=NO WIND AVAILABLE, SEA STATE NOT VISIBLE, M=MEAN PROBABILITY SEA STATE, L= LOW PROBABILITY SEA STATE
Filtering wave length
 integration  Lmin=1m
 integration  Lmax=2200m
  peak        Lmin=100m
               FFT=1024pixels, 3878.280728m 
   mean-Hs (SWH_c)=0.2692178917m
         mean-wind=7.62263298m/s
--------------0--------------1---------2---------3---------4---------5---------6---------7---------8---------9--------10--------11--------12--------13--------14--------15--------16--------17--------18--------19------------------20--------21--------22--------23--------24--------25--------26--------27--------28--------29--------30--------31--------32--------33--------34--------35--------36--------37--------38--------39--------40--------41--------42--------43--------44--------45--------46--------47--------48--------49--------50--------51--------52--------53--------54--------55--------56--------57--------58--------59--------60--------61--------62--------63--------64--------65--------66--------67--------68--------69--------70--------71--------72--------73
            LAT            LON  P-LENGHT     SWH_o     SWH_c     P-DIR      LINE     POINT     ROW-Y     COL-X  M-INTENC        dB      WIND INC-ANGLE  ENERGY-M  ENERGY-N  ENERGY-R ENERGY-NN  FG-DEPTH      FLAG         HEADING-DEG    E30-75   E75-390  E390-600 meanincut   meanout   cut/out  STD-NORM  SPEC-MAX   GL-MEAN    GL-VAR      CORR   ENTROPY   HOMOGEN    ENERGY  CONTRAST  DISSIMIL     STD-O    E 1-30 E600-2000   E2000 >      GODA  LONG-HIG     Tmean  CONVOLUT  MEAN-DIR  relation     Sy/Sx  SKEWNESS  KURTOSIS  cutoff-A >50/10000     INT*V   INT-LOG  S-1_g1f1  S-2_g1f2  S-3_g1f3  S-4_g2f1  S-5_g2f2  S-6_g2f3  S-7_g3f1  S-8_g3f2  S-9_g3f3 S-10_g1f4 S-11_g2f4 S-12_g3f4 S-13_g1f5 S-14_g2f5 S-15_g3f5 S-16_g4f1 S-17_g4f2 S-18_g4f3 S-19_g4f4 S-20_g4f5
--------------1--------------2---------3---------4---------5---------6---------7---------8---------9--------10--------11--------12--------13--------14--------15--------16--------17--------18--------19--------20------------------21--------22--------23--------24--------25--------26--------27--------28--------29--------30--------31--------32--------33--------34--------35--------36--------37--------38--------39--------40--------41--------42--------43--------44--------45--------46--------47--------48--------49--------50--------51--------52--------53--------54--------55--------56--------57--------58--------59--------60--------61--------62--------63--------64--------65--------66--------67--------68--------69--------70--------71--------72--------73--------74
     -43.460442     -33.578606     111.8      0.43      2.27      59.9         1         1      1000      1000   2988.97    -5.245       7.1      22.7   264.987     0.697      67.2   0.15673       8.0         H               194.1  0.076555  0.032471  0.001001  3.235847  0.949010  3.409706  1.183609     14.00    5.4911   48.3289   0.24728   5.52411   0.23451   0.00966  72.75600   5.56842    3537.4  0.586191  0.001118  0.000023  0.000143  0.172508  6.942771  0.724714     78.91  1.000230  1.000023     3.219    23.319      81.3      86.2      93.1     473.7     10.72      1.08      0.44      3.51      1.11      2.57      3.11      0.83      3.06      0.40      1.06      0.86     -0.83      0.33      0.98     -3.88      0.67      3.07      1.56      1.45
     -43.444969     -33.650883     117.9      0.45      2.27      70.5         1         2      1000      2584   2765.15    -5.583       7.3      23.2   264.967     0.697      72.4   0.15736       9.0         H               194.1  0.077763  0.032693  0.000851  3.239128  0.919276  3.523566  1.184085     18.38    5.0368   41.5204   0.24790   5.36651   0.24926   0.01132  62.45299   5.14028    3273.9  0.585346  0.001086  0.000041  0.000148  0.174791  6.929790  0.724962     79.89  1.000225  1.000024     3.223    22.687      84.8      84.9      79.0     416.0     10.88      1.24      0.72      3.80      1.24      2.91      2.54      1.01      2.69      0.95      1.12      1.32     -0.49     -0.05      1.07     -2.90      1.05      3.45      0.96      0.51
     -43.429745     -33.721764     124.2      0.45      2.27      96.7         1         3      1000      4168   2509.87    -6.003       7.4      23.6   265.955     0.699      68.0   0.15696      10.1         H               194.1  0.077801  0.033593  0.000857  3.367211  0.932709  3.610139  1.185260     19.90    4.5380   34.6287   0.24649   5.17776   0.26811   0.01362  52.18563   4.67159    2974.9  0.586504  0.000973  0.000033  0.000148  0.174802  6.943925  0.727115     85.21  1.000236  1.000024     3.244    23.511      83.0      83.2      65.2     397.1     10.78      0.91      0.92      3.96      1.04      3.60      3.00      0.41      2.74      1.03      0.85      0.61     -0.42      0.35      1.88     -2.59      1.11      4.82      0.51      0.65
     -43.512455     -33.598892     113.1      0.46      2.27      64.7         2         1      2450      1000   3163.91    -4.998       7.7      22.7   264.885     0.693      63.0   0.15420       8.2         H               194.1  0.075486  0.034258  0.001061  3.381781  0.909486  3.718341  1.180350     15.16    5.8290   53.5814   0.24563   5.63393   0.22507   0.00865  80.83978   5.88237    3734.2  0.582186  0.001036  0.000016  0.000150  0.175874  6.963823  0.721460     80.75  1.000224  1.000021     3.150    21.591      83.0      87.2     104.1     471.6     11.13      1.11      0.37      3.04      1.00      2.94      2.70      0.64      3.16      1.03      0.88      1.05     -0.63      0.30      1.51     -4.60      0.76      2.93      0.51      0.99
     -43.496971     -33.671242     120.4      0.47      2.27      96.5         2         2      2450      2584   2890.48    -5.390       7.8      23.2   266.055     0.701      94.8   0.15889       9.4         H               194.1  0.077359  0.033794  0.000833  3.364209  0.941061  3.574912  1.186448     18.22    5.2882   45.5520   0.24807   5.45412   0.24173   0.01041  68.50287   5.38196    3429.4  0.587997  0.001395  0.000075  0.000151  0.172336  6.935105  0.728604     84.38  1.000228  1.000024     3.201    22.580      83.0      85.6      87.1     451.0     10.85      0.50      0.31      3.42      0.82      2.90      2.67      0.66      2.83      0.72      0.75      0.47     -0.55      0.18      1.49     -3.09      0.86      3.84      0.60      0.79
     -43.481731     -33.742191     131.6      0.48      2.27      71.9         2         3      2450      4168   2651.50    -5.765       7.9      23.6   266.416     0.699      65.1   0.15648      11.5         H               194.1  0.077314  0.034670  0.001053  3.412109  0.940554  3.627764  1.185045     16.83    4.8135   38.3977   0.24632   5.28398   0.25745   0.01231  57.87859   4.93457    3141.9  0.585182  0.001040  0.000018  0.000151  0.176382  6.939487  0.726446     81.46  1.000231  1.000025     3.230    23.080      83.0      84.1      72.6     402.9     11.07      1.08      0.90      3.36      1.24      3.38      2.99      0.81      3.32      1.00      1.68      0.88     -0.11      0.78      1.84     -4.04      1.28      3.37      2.42      1.04
     -43.564465     -33.619213     106.7      0.46      2.27      69.3         3         1      3900      1000   3126.29    -5.050       7.5      22.7   265.391     0.700      64.2   0.15853       7.3         H               194.1  0.077976  0.035630  0.000941  3.521127  0.958830  3.672316  1.186088     25.93    5.7558   52.8286   0.24964   5.60868   0.22733   0.00892  79.28062   5.81170    3707.9  0.584995  0.000995  0.000021  0.000158  0.174849  6.965392  0.728921     73.62  1.000220  1.000022     3.184    21.840      81.3      86.9     102.3     468.5     11.00      0.87      0.51      3.35      1.08      2.63      2.55      0.90      3.10      1.01      1.02      0.94     -0.44      0.43      0.97     -3.65      0.83      2.68      0.75      1.59
     -43.548965     -33.691635     111.5      0.47      2.27      71.6         3         2      3900      2584   2884.62    -5.399       7.8      23.2   268.698     0.712      78.5   0.16354       8.0         H               194.1  0.079397  0.036490  0.000919  3.635786  0.952346  3.817717  1.196599     25.52    5.2762   46.0494   0.25280   5.44641   0.24320   0.01059  68.81577   5.37180    3451.7  0.594752  0.001385  0.000023  0.000161  0.174350  6.959220  0.741878     76.07  1.000234  1.000025     3.233    22.283      86.6      85.4      87.7     432.0     11.07      1.22      0.67      3.31      0.47      3.33      2.58      0.81      3.23      0.77      1.01      1.10     -0.28      0.68      1.57     -3.60     -0.34      3.67      1.00      1.42
     -43.533714     -33.762653     110.5      0.49      2.27      70.2         3         3      3900      4168   2713.08    -5.665       8.1      23.6   269.955     0.715      91.9   0.16420       7.9         H               194.1  0.080263  0.036443  0.001203  3.607295  0.953442  3.783444  1.199600     19.38    4.9320   40.7612   0.25267   5.32441   0.25442   0.01194  60.92393   5.04468    3254.6  0.595790  0.001604  0.000042  0.000158  0.175305  6.951633  0.744087     79.84  1.000222  1.000024     3.376    25.651      84.8      84.4      77.3     442.1     11.06      0.33      1.06      3.07      0.99      3.15      3.27      0.65      3.26      0.80      0.92      0.71     -0.14      0.99      1.90     -4.82      1.69      3.26      1.03      1.40
