corner points
-102.9363098    -69.11242676
-103.2010193    -69.26764679
-103.4105606    -69.00794983
-103.6776199    -69.16243744
========== RESULTS WAVE VERSION 16.10.2018 ====================
IMAGE SIZE  X: 5715     Y:4897    col:row     POLARIZATION:VV
COVERAGE    X: 22.09405642km       Y: 20.13792851km 
RESOLUTION dX: 3.865976626m       dY:4.112299063m  
resolution of original product 3.865976626m x 4.112299063m;   raster step x:5999.995724m  
===============================================================
FLAGS: H=HIGH PROBABILITY SEA STATE, I=LAND(ISLAND), O=OUTLIER NO SEA STATE, N=NO WIND AVAILABLE, SEA STATE NOT VISIBLE, M=MEAN PROBABILITY SEA STATE, L= LOW PROBABILITY SEA STATE
Filtering wave length
 integration  Lmin=1m
 integration  Lmax=2200m
  peak        Lmin=100m
               FFT=1024pixels, 3958.760065m 
   mean-Hs (SWH_c)=0.2m
         mean-wind=2.587037325m/s
--------------0--------------1---------2---------3---------4---------5---------6---------7---------8---------9--------10--------11--------12--------13--------14--------15--------16--------17--------18--------19------------------20--------21--------22--------23--------24--------25--------26--------27--------28--------29--------30--------31--------32--------33--------34--------35--------36--------37--------38--------39--------40--------41--------42--------43--------44--------45--------46--------47--------48--------49--------50--------51--------52--------53--------54--------55--------56--------57--------58--------59--------60--------61--------62--------63--------64--------65--------66--------67--------68--------69--------70--------71--------72--------73
            LAT            LON  P-LENGHT     SWH_o     SWH_c     P-DIR      LINE     POINT     ROW-Y     COL-X  M-INTENC        dB      WIND INC-ANGLE  ENERGY-M  ENERGY-N  ENERGY-R ENERGY-NN  FG-DEPTH      FLAG         HEADING-DEG    E30-75   E75-390  E390-600 meanincut   meanout   cut/out  STD-NORM  SPEC-MAX   GL-MEAN    GL-VAR      CORR   ENTROPY   HOMOGEN    ENERGY  CONTRAST  DISSIMIL     STD-O    E 1-30 E600-2000   E2000 >      GODA  LONG-HIG     Tmean  CONVOLUT  MEAN-DIR  relation     Sy/Sx  SKEWNESS  KURTOSIS  cutoff-A >50/10000     INT*V   INT-LOG  S-1_g1f1  S-2_g1f2  S-3_g1f3  S-4_g2f1  S-5_g2f2  S-6_g2f3  S-7_g3f1  S-8_g3f2  S-9_g3f3 S-10_g1f4 S-11_g2f4 S-12_g3f4 S-13_g1f5 S-14_g2f5 S-15_g3f5 S-16_g4f1 S-17_g4f2 S-18_g4f3 S-19_g4f4 S-20_g4f5
--------------1--------------2---------3---------4---------5---------6---------7---------8---------9--------10--------11--------12--------13--------14--------15--------16--------17--------18--------19--------20------------------21--------22--------23--------24--------25--------26--------27--------28--------29--------30--------31--------32--------33--------34--------35--------36--------37--------38--------39--------40--------41--------42--------43--------44--------45--------46--------47--------48--------49--------50--------51--------52--------53--------54--------55--------56--------57--------58--------59--------60--------61--------62--------63--------64--------65--------66--------67--------68--------69--------70--------71--------72--------73--------74
     -69.125397    -103.075989     370.5      0.20     -0.50     110.6         1         1      1000      1000   1220.79    -9.134       2.4      22.2   215.820     0.835     250.2   0.19930     100.0         H               206.0  0.114815  0.050243  0.003248  3.987188  2.409484  1.654789  1.290414     15.53    1.9893    9.7571   0.27961   3.71014   0.46638   0.07044  14.05772   2.23219    1575.2  0.662028  0.004875  0.000155  0.000105  0.176459  6.890112  0.881941    119.68  0.999938  0.999995     3.560    28.352      32.9      61.6      17.2     212.8     11.05     -0.30     -1.76      0.63     -0.27     -1.00      2.66      0.31     -0.76     -0.06      0.39     -0.06      0.41      0.27      0.77    -10.31     -0.93      0.26      0.83     -0.61
     -69.096672    -103.206848     382.2      0.20     -0.50      50.6         1         2      1000      2552   1141.55    -9.425       2.4      22.6   241.719     0.962     325.1   0.24787     100.0         H               206.0  0.143627  0.062001  0.005084  5.017680  2.805818  1.788313  1.387604     21.40    1.8542    9.9068   0.30353   3.53877   0.50368   0.09504  13.79954   2.10861    1584.0  0.744846  0.007230  0.000159  0.000102  0.175900  6.872650  1.023579    103.50  0.999938  0.999998     3.609    27.851      35.8      56.7      16.6     223.2     11.38      0.45     -1.83     -0.21     -0.88     -0.76      3.31      0.38     -0.45      0.65     -0.17      0.33      0.52      0.05      0.56    -13.54     -2.26      0.54     -1.35     -0.84
     -69.068405    -103.334862     262.6      0.20     -0.50     138.4         1         3      1000      4104   1209.88    -9.173       2.9      23.1   258.324     1.056     350.8   0.29060     124.0         H               206.0  0.168892  0.073640  0.004730  6.185350  3.253330  1.901237  1.453866     21.16    1.9823   11.5233   0.31726   3.63270   0.49394   0.08959  15.73472   2.22928    1758.6  0.802340  0.007027  0.000204  0.000103  0.175068  6.881514  1.127955    109.63  0.999947  0.999998     8.565   518.001      33.7      57.8      19.7     466.6     11.35     -0.66     -1.59      0.48     -0.36     -0.54      2.25      0.49     -0.71      0.69      0.14      0.04      0.27      0.17      0.68    -10.82     -1.15      1.20     -0.43     -0.69
     -69.171631    -103.154839     375.9      0.20     -0.50      10.9         2         1      2459      1000   1157.16    -9.366       2.3      22.2   232.310     0.914     451.0   0.23057     100.0         H               206.0  0.130711  0.059603  0.004577  4.717537  2.716052  1.736910  1.355776     25.88    1.8675    9.5009   0.29717   3.58749   0.48826   0.08228  13.35493   2.11306    1568.8  0.710764  0.008988  0.000320  0.000104  0.178831  6.894595  0.969917    117.49  0.999955  0.999996     4.518    62.949      39.8      59.1      16.5     286.7     11.44      0.48     -1.90     -0.31     -0.87     -0.55      2.93      0.21     -1.00      0.06      0.25      0.40      0.73      0.16      0.23    -12.66     -2.45      1.50     -0.07     -0.13
     -69.142845    -103.285896     382.2      0.20     -0.50      50.6         2         2      2459      2552   1189.94    -9.245       2.5      22.6   235.909     0.949     223.3   0.25414     100.0         H               206.0  0.145724  0.064440  0.003302  5.001903  3.150644  1.587581  1.379748     20.15    1.9202    9.6911   0.29577   3.63167   0.48359   0.08039  13.64953   2.15610    1641.6  0.732054  0.004366  0.000109  0.000107  0.172604  6.877976  1.011891    138.41  0.999904  0.999994    13.121  1323.555      27.0      59.6      17.4     455.7     10.51      0.12     -2.10      1.64     -0.84     -1.69      2.21      0.06     -0.63      0.56      0.25      0.40      0.43      0.82      0.15     -7.58     -1.48     -0.92     -0.74      1.45
     -69.114517    -103.414101     381.7      0.20     -0.50      35.3         2         3      2459      4104   1139.51    -9.433       2.8      23.1   247.441     0.994     292.0   0.26293     100.0         H               206.0  0.150606  0.073996  0.005403  5.820766  3.063503  1.900036  1.416110     25.96    1.8478   10.0407   0.31088   3.53211   0.50509   0.09563  13.83844   2.09444    1613.6  0.758240  0.006182  0.000117  0.000103  0.181857  6.937969  1.059569    121.45  0.999912  0.999994     4.408    56.303      34.0      56.6      16.9     289.5     11.36     -0.24     -1.78      0.02     -1.39     -0.64      2.94     -0.20      0.18      0.61      0.05     -0.35     -0.02      0.54      0.18    -11.84     -2.14     -0.11     -0.23      1.20
     -69.217827    -103.234016     387.5      0.20     -0.50      23.0         3         1      3918      1000   1286.46    -8.906       2.6      22.2   221.720     0.858     236.8   0.20836     100.0         H               206.0  0.115946  0.051390  0.002717  4.168111  2.371255  1.757765  1.312035     15.28    2.1065   10.2867   0.27270   3.82386   0.44339   0.05873  14.96313   2.34476    1687.7  0.684721  0.004113  0.000202  0.000103  0.177411  6.901050  0.905655    112.34  0.999963  0.999997    12.832  1225.880      30.4      64.5      19.5     500.3     10.94      0.20     -1.60      1.30     -0.48     -1.23      2.16      0.14     -0.45      0.18      0.74      0.16      0.58     -0.09      0.32     -8.35     -1.06     -0.09      0.93     -0.60
     -69.188980    -103.365265     395.9      0.20     -0.50      90.0         3         2      3918      2552   1130.96    -9.466       2.4      22.6   235.426     0.935     269.6   0.23780     100.0         H               206.0  0.140515  0.064039  0.003176  5.077572  3.153572  1.610102  1.373873     19.13    1.8249    9.1976   0.29991   3.53664   0.50016   0.09068  12.87821   2.06219    1553.7  0.722477  0.005265  0.000159  0.000107  0.171739  6.882489  0.994436    133.89  0.999919  0.999995     7.335   600.102      29.0      57.6      16.0     316.0     10.39     -0.28     -1.89      1.79     -0.24     -1.61      2.29     -0.14     -0.59      0.29      0.68     -0.27      0.44      0.13      0.53     -7.18     -0.25     -1.32      1.10     -0.11
     -69.160599    -103.493652     385.3      0.20     -0.50      42.9         3         3      3918      4104   1199.98    -9.208       2.9      23.1   222.249     0.874     304.6   0.21831     100.0         H               206.0  0.127094  0.062103  0.003895  4.644649  2.770332  1.676568  1.327101     19.58    1.9576    9.7496   0.29307   3.66985   0.47762   0.07661  13.78450   2.18504    1592.3  0.676009  0.005904  0.000200  0.000108  0.177095  6.926407  0.927809    142.10  0.999905  0.999994     5.189   169.122      30.6      60.4      17.3     338.9     10.66      0.14     -2.76      1.01     -0.78     -1.44      2.39      0.09     -0.41      0.56      0.47      0.15      0.46      0.97     -0.18     -9.30     -2.02     -0.10      0.17      1.91
