corner points
-105.4432755    -67.45652008
-105.6996078    -67.60334778
-105.8526764    -67.35035706
-106.1104889    -67.49654388
========== RESULTS WAVE VERSION 16.10.2018 ====================
IMAGE SIZE  X: 4500     Y:4752    col:row     POLARIZATION:VV
COVERAGE    X: 21.05681345km       Y: 19.58503585km 
RESOLUTION dX: 4.679291877m       dY:4.121430102m  
resolution of original product 4.679291877m x 4.121430102m;   raster step x:5998.852187m  
===============================================================
FLAGS: H=HIGH PROBABILITY SEA STATE, I=LAND(ISLAND), O=OUTLIER NO SEA STATE, N=NO WIND AVAILABLE, SEA STATE NOT VISIBLE, M=MEAN PROBABILITY SEA STATE, L= LOW PROBABILITY SEA STATE
Filtering wave length
 integration  Lmin=1m
 integration  Lmax=2200m
  peak        Lmin=100m
               FFT=1024pixels, 4791.594882m 
   mean-Hs (SWH_c)=1.269033585m
         mean-wind=12.90699577m/s
--------------0--------------1---------2---------3---------4---------5---------6---------7---------8---------9--------10--------11--------12--------13--------14--------15--------16--------17--------18--------19------------------20--------21--------22--------23--------24--------25--------26--------27--------28--------29--------30--------31--------32--------33--------34--------35--------36--------37--------38--------39--------40--------41--------42--------43--------44--------45--------46--------47--------48--------49--------50--------51--------52--------53--------54--------55--------56--------57--------58--------59--------60--------61--------62--------63--------64--------65--------66--------67--------68--------69--------70--------71--------72--------73
            LAT            LON  P-LENGHT     SWH_o     SWH_c     P-DIR      LINE     POINT     ROW-Y     COL-X  M-INTENC        dB      WIND INC-ANGLE  ENERGY-M  ENERGY-N  ENERGY-R ENERGY-NN  FG-DEPTH      FLAG         HEADING-DEG    E30-75   E75-390  E390-600 meanincut   meanout   cut/out  STD-NORM  SPEC-MAX   GL-MEAN    GL-VAR      CORR   ENTROPY   HOMOGEN    ENERGY  CONTRAST  DISSIMIL     STD-O    E 1-30 E600-2000   E2000 >      GODA  LONG-HIG     Tmean  CONVOLUT  MEAN-DIR  relation     Sy/Sx  SKEWNESS  KURTOSIS  cutoff-A >50/10000     INT*V   INT-LOG  S-1_g1f1  S-2_g1f2  S-3_g1f3  S-4_g2f1  S-5_g2f2  S-6_g2f3  S-7_g3f1  S-8_g3f2  S-9_g3f3 S-10_g1f4 S-11_g2f4 S-12_g3f4 S-13_g1f5 S-14_g2f5 S-15_g3f5 S-16_g4f1 S-17_g4f2 S-18_g4f3 S-19_g4f4 S-20_g4f5
--------------1--------------2---------3---------4---------5---------6---------7---------8---------9--------10--------11--------12--------13--------14--------15--------16--------17--------18--------19--------20------------------21--------22--------23--------24--------25--------26--------27--------28--------29--------30--------31--------32--------33--------34--------35--------36--------37--------38--------39--------40--------41--------42--------43--------44--------45--------46--------47--------48--------49--------50--------51--------52--------53--------54--------55--------56--------57--------58--------59--------60--------61--------62--------63--------64--------65--------66--------67--------68--------69--------70--------71--------72--------73--------74
     -67.463623    -105.589500     167.9      0.70     -7.34      50.5         1         1      1000      1000    556.67   -12.544      12.3      35.4   462.665     0.983     939.2   0.23268      20.1         H               205.1  0.125181  0.095172  0.007827  7.429284  2.484220  2.990590  1.408132     83.51   10.1664  158.5527   0.26790   6.57801   0.15183   0.00335 232.15210  10.09486     783.7  0.735360  0.018160  0.001934  0.000110  0.197624  7.220019  1.032245     54.71  0.999701  0.999977     5.109    62.150      56.1      93.0     427.6    1189.5     11.76      0.32     -2.08      0.66      5.85      1.77      3.36     -2.02     -0.85      1.79      0.41      1.18     -2.63     -1.55     -0.48    -14.13     11.65      6.46     -2.33      0.87
     -67.433243    -105.706894     167.4      3.91     -7.34      53.5         1         2      1000      2282    449.33   -13.474      10.9      35.8   408.717     0.836     525.5   0.17482      20.0         H               205.1  0.093022  0.085549  0.004714  6.065731  1.890025  3.209339  1.297975    103.56    8.3250  103.3352   0.21871   6.28020   0.16684   0.00426 161.47023   8.46082     583.2  0.642399  0.010219  0.000975  0.000126  0.206583  7.363225  0.871388     53.99  0.999783  0.999983     5.439    84.851      59.4      91.9     244.5    1042.6     11.84      1.54     -2.42      1.85      4.44      1.21      1.08     -0.49      0.55      1.53      1.55     -0.19     -3.40     -1.51      0.08     -9.77      5.24      3.85      1.18      1.64
     -67.403061    -105.822906     166.5      3.77     -7.34      56.5         1         3      1000      3564    483.39   -13.157      11.8      36.1   374.639     0.746     598.4   0.14393      19.7         H               205.1  0.071491  0.069806  0.006076  5.107426  1.391313  3.670940  1.226765     60.12    9.0172  109.6316   0.18928   6.44955   0.15286   0.00344 177.76028   9.08049     592.9  0.586223  0.011874  0.001085  0.000142  0.215645  7.465908  0.771773     52.81  0.999759  0.999980     5.232    94.172      76.6      93.1     263.0    1034.6     12.61      3.01     -1.80      0.20      5.49      3.42      2.61     -1.24     -0.96      1.95      0.61      1.13     -2.69     -2.58      1.56    -15.22      7.03      9.58     -2.06     -3.33
     -67.508560    -105.667984     172.2      0.77     -7.34      52.3         2         1      2455      1000    671.25   -11.731      13.8      35.4   487.662     1.061    2391.6   0.26568      21.4         H               205.1  0.126131  0.108293  0.010665  7.887533  2.645645  2.981327  1.469739    119.82   12.0011  210.6182   0.29570   6.81547   0.13983   0.00266 296.67194  11.55555     986.5  0.770401  0.040934  0.005762  0.000125  0.204632  7.295405  1.121678     53.12  0.999881  0.999991     5.281    63.947      92.7      94.2     663.6    1352.6     12.31      0.44     -1.41     -0.43      6.94      0.21      3.40     -3.21      0.39      0.45      0.51      0.76     -3.94     -0.44     -0.55    -17.73     14.69      1.47     -0.56      4.37
     -67.478127    -105.785500     172.6      3.75     -7.34      49.1         2         2      2455      2282    478.71   -13.199      11.4      35.8   442.465     0.929     702.8   0.20910      21.5         H               205.1  0.114329  0.089568  0.005490  6.777657  2.304692  2.940808  1.368932     83.58    8.8211  122.0248   0.24696   6.35477   0.16479   0.00413 183.77654   8.92492     655.3  0.706364  0.012880  0.001464  0.000112  0.202722  7.261556  0.973801     50.25  0.999788  0.999984     5.801   108.940      53.8      92.0     299.3    1105.6     11.84      1.51     -2.41      1.31      3.99      1.83      1.78     -0.31     -0.41      1.21      0.49      0.46     -3.18     -1.72      0.97    -10.92      4.04      6.05      0.13     -0.52
     -67.447884    -105.901642     386.2      0.72     -7.34     156.2         2         3      2455      3564    545.09   -12.635      12.7      36.1   475.854     1.040    1654.0   0.25966     100.0         H               205.1  0.127044  0.117823  0.011956  8.276333  2.745042  3.015011  1.452399    150.42    9.9096  157.3365   0.29104   6.51206   0.15827   0.00369 223.08911   9.79196     791.6  0.752501  0.027304  0.004228  0.000115  0.214663  7.354597  1.100734     67.54  0.999608  0.999968     5.325    67.715      73.8      92.5     428.0    1189.4     12.95     -2.42     -3.32     -1.89      6.64      2.61      2.78     -2.13     -1.27      2.30     -1.77      1.49     -3.93     -0.62      0.76    -18.71     15.07      9.09     -6.50      2.23
     -67.553459    -105.746750     167.6      0.85     -7.34      44.4         3         1      3910      1000    799.05   -10.974      15.3      35.4   466.592     1.006    1799.1   0.24631      20.0         H               205.1  0.121651  0.100312  0.008016  7.302496  2.491057  2.931484  1.427789    101.58   14.0952  263.1684   0.28958   7.05290   0.12752   0.00206 373.91751  13.26601    1140.8  0.738124  0.035336  0.003720  0.000131  0.203139  7.280785  1.060969     46.76  0.999908  0.999993     4.496    43.913      81.3      95.4     913.0    1413.7     11.95      2.17     -1.65      1.09      6.13      0.83      2.46     -2.47     -0.25      0.52     -0.06      1.37     -3.59     -2.20      0.49    -13.78     10.47      4.00     -2.40      0.37
     -67.522972    -105.864395     167.6      0.72     -7.34      44.4         3         2      3910      2282    569.33   -12.446      12.7      35.8   472.234     1.012     866.0   0.24550      20.0         H               205.1  0.132843  0.103238  0.005368  7.488862  2.697397  2.776330  1.428925    118.51   10.3616  165.0599   0.27313   6.60291   0.15138   0.00330 239.95410  10.25626     813.5  0.753728  0.015858  0.001841  0.000121  0.201117  7.245276  1.064653     47.41  0.999793  0.999983     5.219    63.409      50.4      93.2     457.0    1219.3     11.61      1.51     -1.75      2.06      5.21      0.35      1.22     -1.38      0.00      0.67      0.41      1.27     -3.96     -1.49      0.82     -9.09      7.26      2.58     -1.36      0.88
     -67.492676    -105.980667     167.9      0.85     -7.34      50.5         3         3      3910      3564    751.79   -11.239      15.3      36.1   456.839     0.983    1208.0   0.23699      20.1         H               205.1  0.125223  0.102819  0.006444  7.880967  2.742604  2.873534  1.410151     89.90   13.4095  246.7502   0.28632   6.98469   0.13249   0.00229 352.19968  12.76550    1060.0  0.725359  0.020521  0.003020  0.000116  0.203008  7.265777  1.035045     49.65  0.999864  0.999990     4.254    38.609      61.3      94.8     795.9    1334.8     11.86      0.75     -1.41      1.27      5.52     -0.05      1.69     -0.79      0.05     -0.03      0.37      0.66     -3.41     -1.40      0.48    -11.08      8.48      1.53     -0.11      0.71
