corner points
-87.2758255    -52.72225571
-87.37162018    -52.89526367
-87.58191681    -52.6578064
-87.67899323    -52.83057022
========== RESULTS WAVE VERSION 16.10.2018 ====================
IMAGE SIZE  X: 5715     Y:4906    col:row     POLARIZATION:VV
COVERAGE    X: 21.79690307km       Y: 20.24362827km 
RESOLUTION dX: 3.81398129m       dY:4.126300096m  
resolution of original product 3.81398129m x 4.126300096m;   raster step x:5999.392569m  
===============================================================
FLAGS: H=HIGH PROBABILITY SEA STATE, I=LAND(ISLAND), O=OUTLIER NO SEA STATE, N=NO WIND AVAILABLE, SEA STATE NOT VISIBLE, M=MEAN PROBABILITY SEA STATE, L= LOW PROBABILITY SEA STATE
Filtering wave length
 integration  Lmin=1m
 integration  Lmax=2200m
  peak        Lmin=100m
               FFT=1024pixels, 3905.516841m 
   mean-Hs (SWH_c)=2.111474762m
         mean-wind=12.30432129m/s
--------------0--------------1---------2---------3---------4---------5---------6---------7---------8---------9--------10--------11--------12--------13--------14--------15--------16--------17--------18--------19------------------20--------21--------22--------23--------24--------25--------26--------27--------28--------29--------30--------31--------32--------33--------34--------35--------36--------37--------38--------39--------40--------41--------42--------43--------44--------45--------46--------47--------48--------49--------50--------51--------52--------53--------54--------55--------56--------57--------58--------59--------60--------61--------62--------63--------64--------65--------66--------67--------68--------69--------70--------71--------72--------73
            LAT            LON  P-LENGHT     SWH_o     SWH_c     P-DIR      LINE     POINT     ROW-Y     COL-X  M-INTENC        dB      WIND INC-ANGLE  ENERGY-M  ENERGY-N  ENERGY-R ENERGY-NN  FG-DEPTH      FLAG         HEADING-DEG    E30-75   E75-390  E390-600 meanincut   meanout   cut/out  STD-NORM  SPEC-MAX   GL-MEAN    GL-VAR      CORR   ENTROPY   HOMOGEN    ENERGY  CONTRAST  DISSIMIL     STD-O    E 1-30 E600-2000   E2000 >      GODA  LONG-HIG     Tmean  CONVOLUT  MEAN-DIR  relation     Sy/Sx  SKEWNESS  KURTOSIS  cutoff-A >50/10000     INT*V   INT-LOG  S-1_g1f1  S-2_g1f2  S-3_g1f3  S-4_g2f1  S-5_g2f2  S-6_g2f3  S-7_g3f1  S-8_g3f2  S-9_g3f3 S-10_g1f4 S-11_g2f4 S-12_g3f4 S-13_g1f5 S-14_g2f5 S-15_g3f5 S-16_g4f1 S-17_g4f2 S-18_g4f3 S-19_g4f4 S-20_g4f5
--------------1--------------2---------3---------4---------5---------6---------7---------8---------9--------10--------11--------12--------13--------14--------15--------16--------17--------18--------19--------20------------------21--------22--------23--------24--------25--------26--------27--------28--------29--------30--------31--------32--------33--------34--------35--------36--------37--------38--------39--------40--------41--------42--------43--------44--------45--------46--------47--------48--------49--------50--------51--------52--------53--------54--------55--------56--------57--------58--------59--------60--------61--------62--------63--------64--------65--------66--------67--------68--------69--------70--------71--------72--------73--------74
     -52.745975     -87.350533     167.7      2.10      3.37      80.9         1         1      1000      1000   4716.09    -3.264      12.2      22.5   252.891     0.782      95.2   0.19223      20.0         H               196.0  0.091896  0.064338  0.001417  6.146447  1.006072  6.109349  1.254363     55.70    8.7979  116.8835   0.27816   6.35880   0.17248   0.00442 168.74496   8.57416    5915.3  0.624247  0.001074  0.000034  0.000236  0.190868  7.185584  0.820930     83.83  1.000308  1.000040     3.706    35.047     117.4      91.7     259.6     843.5     11.97      0.72      5.69      5.45      0.21      8.09      2.83      0.87      3.45      0.77      1.04      0.97      1.81      4.77      3.57     -1.77     -0.46      6.91      0.78      4.40
     -52.728035     -87.435982     158.6      2.31      3.37      77.0         1         2      1000      2573   4378.76    -3.586      12.5      23.0   254.070     0.788      93.2   0.19601      17.5         H               196.0  0.091492  0.069165  0.001526  6.254769  0.991632  6.307550  1.258528     76.45    8.1652  104.2673   0.28280   6.22060   0.18331   0.00514 149.56047   8.00217    5510.7  0.625996  0.001005  0.000024  0.000245  0.197396  7.232374  0.828414     80.86  1.000307  1.000041     3.628    29.011     121.0      90.8     223.9     760.5     12.36      0.48      6.53      5.45      0.99      7.86      1.80      1.58      2.45      0.97      2.28      1.64      2.35      4.33      2.87     -1.97      0.41      5.94      2.16      3.51
     -52.710377     -87.519737     162.7      2.17      3.37      90.0         1         3      1000      4146   4054.35    -3.921      12.6      23.4   251.430     0.771      86.0   0.18659      18.6         H               196.0  0.087370  0.064678  0.001443  5.917016  0.985304  6.005267  1.244906     61.03    7.5449   90.2144   0.27512   6.08293   0.19334   0.00587 130.78920   7.45466    5047.2  0.617349  0.001051  0.000021  0.000233  0.197162  7.239475  0.808601     85.48  1.000334  1.000042     3.538    27.234     117.4      89.9     187.6     686.5     12.14      0.24      6.34      5.89      0.62      8.16      2.35      0.99      3.06      0.54      1.18      1.27      2.38      4.86      3.50     -1.64      0.86      6.10      1.27      3.78
     -52.797249     -87.378975     166.5      2.14      3.37      78.6         2         1      2454      1000   4786.58    -3.200      12.4      22.5   246.982     0.756     110.5   0.18213      19.7         H               196.0  0.086001  0.062298  0.001344  6.024555  0.956550  6.298211  1.232561     41.75    8.9459  118.4821   0.27484   6.39417   0.16960   0.00421 171.83646   8.69035    5899.9  0.605619  0.001299  0.000053  0.000229  0.192746  7.217315  0.792694     82.49  1.000273  1.000033     3.363    23.964     114.0      92.1     261.6     764.0     12.11      0.46      4.95      5.02      0.13      7.64      2.13      1.09      3.00      0.40      1.30      1.17      1.55      3.96      3.35     -2.25     -0.31      6.50      1.42      3.51
     -52.779289     -87.464523     153.6      2.01      3.37      79.5         2         2      2454      2573   4414.15    -3.552      12.6      23.0   248.024     0.759      82.7   0.18288      16.3         H               196.0  0.087824  0.060324  0.001323  5.976444  0.970454  6.158399  1.234674     49.74    8.2365  103.0718   0.27260   6.24660   0.17954   0.00487 149.95020   8.06675    5449.8  0.608821  0.001077  0.000019  0.000229  0.189299  7.175987  0.794873     82.18  1.000271  1.000034     3.495    27.130     114.0      91.2     221.2     743.6     11.97      0.29      5.03      5.32      0.95      7.34      2.26      1.07      3.07      1.05      1.50      1.42      1.25      3.74      3.08     -1.94      1.15      5.95      1.08      3.66
     -52.761612     -87.548386     160.8      2.10      3.37      81.2         2         3      2454      4146   4043.70    -3.932      12.6      23.4   246.923     0.753      78.6   0.18026      18.1         H               196.0  0.084734  0.062275  0.001338  5.749802  0.957127  6.007356  1.229410     52.43    7.5293   88.4340   0.27204   6.08473   0.19176   0.00578 128.75185   7.43059    4971.1  0.603989  0.000847  0.000019  0.000232  0.193391  7.212495  0.788161     83.42  1.000313  1.000038     3.452    26.544     114.0      90.0     183.2     678.5     12.05      0.50      5.86      5.72      0.72      7.86      2.24      1.01      3.11      0.75      1.44      1.57      2.20      4.42      3.55     -1.46      0.74      6.24      1.21      3.68
     -52.848518     -87.407471     160.8      1.95      3.37      81.2         3         1      3908      1000   4519.66    -3.449      11.6      22.5   250.442     0.767      81.8   0.18554      18.1         H               196.0  0.088191  0.061573  0.001390  5.824017  0.984238  5.917284  1.241445     65.27    8.4327  107.7674   0.27396   6.28687   0.17727   0.00471 156.48718   8.24684    5610.8  0.615418  0.000842  0.000027  0.000223  0.193395  7.189862  0.802939     83.96  1.000298  1.000038     3.525    27.326     114.0      91.3     234.2     759.7     11.96      0.10      5.84      5.85      0.45      7.89      2.54      1.11      3.14      0.89      0.81      0.93      1.84      4.50      3.45     -1.67      0.17      6.04      0.50      4.07
     -52.830540     -87.493126     166.5      2.04      3.37      78.6         3         2      3908      2573   4206.36    -3.761      11.9      23.0   250.280     0.769      80.1   0.18720      19.7         H               196.0  0.087766  0.063515  0.001456  5.892123  0.985595  5.978240  1.241321     67.98    7.8440   95.8429   0.27546   6.15486   0.18734   0.00542 138.88475   7.71995    5220.9  0.615777  0.000915  0.000014  0.000236  0.194328  7.207150  0.805621     82.48  1.000286  1.000035     3.529    27.288     114.0      90.4     202.6     711.1     12.15      0.77      5.74      5.60      0.70      7.79      2.20      0.98      2.98      1.37      1.76      0.79      1.97      4.23      3.70     -2.12      0.26      6.24      1.76      3.02
     -52.812840     -87.577095     163.5      2.18      3.37      74.3         3         3      3908      4146   3978.96    -4.002      12.3      23.4   250.336     0.765      91.9   0.18439      18.8         H               196.0  0.086269  0.065478  0.001358  5.686571  0.949727  5.987582  1.240283     71.20    7.4025   87.0777   0.27578   6.04912   0.19582   0.00607 126.12604   7.31430    4934.4  0.611901  0.001027  0.000025  0.000237  0.198970  7.259188  0.802382     80.49  1.000298  1.000036     3.529    28.026     117.4      89.7     179.2     686.8     12.31      0.99      6.22      5.78      0.97      8.19      1.74      1.53      2.65      1.82      2.57      1.38      2.27      4.69      3.23     -1.62     -0.08      5.91      1.77      3.36
