corner points
-80.03639221    -28.90228653
-80.0880661    -29.07528305
-80.2413559    -28.85387802
-80.29338074    -29.0267849
========== RESULTS WAVE VERSION 16.10.2018 ====================
IMAGE SIZE  X: 4500     Y:4781    col:row     POLARIZATION:VV
COVERAGE    X: 20.62548865km       Y: 19.83743063km 
RESOLUTION dX: 4.583441922m       dY:4.149222051m  
resolution of original product 4.583441922m x 4.149222051m;   raster step x:5999.725476m  
===============================================================
FLAGS: H=HIGH PROBABILITY SEA STATE, I=LAND(ISLAND), O=OUTLIER NO SEA STATE, N=NO WIND AVAILABLE, SEA STATE NOT VISIBLE, M=MEAN PROBABILITY SEA STATE, L= LOW PROBABILITY SEA STATE
Filtering wave length
 integration  Lmin=1m
 integration  Lmax=2200m
  peak        Lmin=100m
               FFT=1024pixels, 4693.444528m 
   mean-Hs (SWH_c)=0.2m
         mean-wind=8.061317444m/s
--------------0--------------1---------2---------3---------4---------5---------6---------7---------8---------9--------10--------11--------12--------13--------14--------15--------16--------17--------18--------19------------------20--------21--------22--------23--------24--------25--------26--------27--------28--------29--------30--------31--------32--------33--------34--------35--------36--------37--------38--------39--------40--------41--------42--------43--------44--------45--------46--------47--------48--------49--------50--------51--------52--------53--------54--------55--------56--------57--------58--------59--------60--------61--------62--------63--------64--------65--------66--------67--------68--------69--------70--------71--------72--------73
            LAT            LON  P-LENGHT     SWH_o     SWH_c     P-DIR      LINE     POINT     ROW-Y     COL-X  M-INTENC        dB      WIND INC-ANGLE  ENERGY-M  ENERGY-N  ENERGY-R ENERGY-NN  FG-DEPTH      FLAG         HEADING-DEG    E30-75   E75-390  E390-600 meanincut   meanout   cut/out  STD-NORM  SPEC-MAX   GL-MEAN    GL-VAR      CORR   ENTROPY   HOMOGEN    ENERGY  CONTRAST  DISSIMIL     STD-O    E 1-30 E600-2000   E2000 >      GODA  LONG-HIG     Tmean  CONVOLUT  MEAN-DIR  relation     Sy/Sx  SKEWNESS  KURTOSIS  cutoff-A >50/10000     INT*V   INT-LOG  S-1_g1f1  S-2_g1f2  S-3_g1f3  S-4_g2f1  S-5_g2f2  S-6_g2f3  S-7_g3f1  S-8_g3f2  S-9_g3f3 S-10_g1f4 S-11_g2f4 S-12_g3f4 S-13_g1f5 S-14_g2f5 S-15_g3f5 S-16_g4f1 S-17_g4f2 S-18_g4f3 S-19_g4f4 S-20_g4f5
--------------1--------------2---------3---------4---------5---------6---------7---------8---------9--------10--------11--------12--------13--------14--------15--------16--------17--------18--------19--------20------------------21--------22--------23--------24--------25--------26--------27--------28--------29--------30--------31--------32--------33--------34--------35--------36--------37--------38--------39--------40--------41--------42--------43--------44--------45--------46--------47--------48--------49--------50--------51--------52--------53--------54--------55--------56--------57--------58--------59--------60--------61--------62--------63--------64--------65--------66--------67--------68--------69--------70--------71--------72--------73--------74
     -28.927616     -80.093323     136.7      0.46      1.67      54.6         1         1      1000      1000    260.76   -15.838       7.6      36.3   249.238     0.551      84.4   0.06590      12.5         H               192.7  0.044677  0.014142  0.000500  1.360213  0.667435  2.037971  1.053944      6.07    4.7313   30.0618   0.09368   5.29728   0.23531   0.01012  54.49103   5.06992     274.8  0.491048  0.001251  0.000186  0.000102  0.166135  6.802503  0.554974     77.31  1.000116  1.000007     2.341    12.219      84.8      85.6      60.3     285.0     10.95      0.70     -0.52      2.71      1.90      1.13      2.24      0.77      1.04      1.12      0.99      0.65     -1.51     -0.74      0.66     -5.81      2.24      1.45      0.75      0.13
     -28.913481     -80.153214     149.3      0.44      1.67      55.8         1         2      1000      2309    238.71   -16.221       7.3      36.7   248.145     0.547      69.7   0.06372      15.2         H               192.7  0.043311  0.014016  0.000543  1.339204  0.653809  2.048311  1.049032      7.26    4.2928   24.9555   0.08921   5.12276   0.25112   0.01196  45.45811   4.63211     250.4  0.487820  0.001162  0.000123  0.000100  0.168573  6.818120  0.549967     73.37  1.000116  1.000007     2.303    11.755      84.8      84.2      50.3     253.2     11.06      0.71     -0.08      2.65      1.81      0.30      2.23      0.83      1.58      0.85      1.23      0.12     -0.98     -1.36      0.55     -6.37      1.81     -1.23      1.79     -1.25
     -28.899445     -80.212578     138.2      0.49      1.67      58.6         1         3      1000      3618    263.82   -15.787       8.2      37.1   249.011     0.551     158.7   0.06679      12.8         H               192.7  0.043308  0.015088  0.000743  1.431932  0.657250  2.178672  1.053774      9.18    4.7933   30.7942   0.09691   5.32050   0.23339   0.00994  55.61971   5.12364     278.0  0.488821  0.002621  0.000360  0.000102  0.173371  6.862104  0.554564     64.86  1.000076  1.000005     2.304    11.563      84.8      85.7      61.6     259.3     11.27      0.72     -0.31      2.06      3.15      0.65      2.87      0.20      1.67      1.17      1.74      0.30     -1.77     -1.58      0.02     -8.57      5.18     -0.53      2.50     -0.24
     -28.979944     -80.108963     148.2      0.49      1.67      58.5         2         1      2446      1000    286.36   -15.431       8.2      36.3   248.771     0.551     226.3   0.06657      15.0         H               192.7  0.042862  0.014617  0.000695  1.365578  0.666967  2.047445  1.053947      5.50    5.2420   36.2752   0.09776   5.48335   0.21926   0.00847  65.45750   5.56108     301.8  0.488872  0.003166  0.000614  0.000099  0.172840  6.856520  0.554640     72.97  1.000114  1.000007     2.305    11.553      88.6      87.1      72.9     286.6     11.52      0.24     -0.18      1.63      1.89     -0.17      2.22      0.62      2.23      0.74      1.32      0.40     -1.03     -1.33      0.21     -8.87      2.76     -3.16      1.85     -0.82
     -28.965801     -80.168900     125.4      0.52      1.67      55.9         2         2      2446      2309    295.49   -15.295       8.7      36.7   247.527     0.547     229.1   0.06614      10.3         H               192.7  0.042115  0.014958  0.000658  1.376318  0.667378  2.062277  1.050703      6.98    5.4246   38.3794   0.09826   5.54629   0.21372   0.00792  69.21610   5.72958     310.4  0.485953  0.003140  0.000654  0.000100  0.174678  6.866487  0.551175     71.39  1.000030  1.000002     2.269    11.121      84.8      87.7      77.3     285.3     11.41     -0.14     -0.82      1.73      2.31      0.36      2.09      1.23      1.59      1.01      1.12      0.45     -1.74     -1.70      0.60     -7.85      3.34     -0.35      1.41     -1.51
     -28.951757     -80.228279     124.6      0.47      1.67      58.1         2         3      2446      3618    244.23   -16.122       7.7      37.1   248.807     0.548     168.2   0.06431      10.2         H               192.7  0.042324  0.015330  0.000572  1.435067  0.645176  2.224304  1.051396     11.81    4.4021   26.2841   0.09289   5.16741   0.24722   0.01153  47.68529   4.74285     256.8  0.487528  0.002205  0.000435  0.000105  0.174182  6.877466  0.552153     63.35  1.000051  1.000002     2.297    11.497      84.8      84.4      52.8     239.2     11.15      0.64     -1.08      2.49      2.53      1.07      2.17      1.07      1.42      1.39      1.32      0.91     -2.07     -1.51     -0.16     -6.33      3.40      2.02      1.09     -0.29
     -29.032270     -80.124626     139.2      0.49      1.67      56.2         3         1      3892      1000    284.39   -15.461       8.1      36.3   247.954     0.547     261.1   0.06585      13.0         H               192.7  0.042114  0.014970  0.000569  1.401753  0.656630  2.134767  1.051500     10.16    5.2017   35.5999   0.09687   5.46960   0.22015   0.00856  64.30269   5.52136     299.0  0.486101  0.003292  0.000724  0.000101  0.174524  6.871349  0.551266     62.79  1.000053  1.000003     2.283    11.397      90.6      87.0      71.5     291.5     11.20      0.26     -0.11      2.53      2.03      0.36      2.12      1.15      1.63      0.94      1.62      0.79     -1.65     -1.51      0.11     -6.35      2.93     -0.61      2.14     -1.08
     -29.018120     -80.184586     129.5      0.51      1.67      58.8         3         2      3892      2309    293.06   -15.330       8.6      36.7   246.881     0.544     130.5   0.06437      11.1         H               192.7  0.041964  0.015059  0.000684  1.405266  0.658267  2.134795  1.046811      8.65    5.3766   37.4754   0.09413   5.53082   0.21445   0.00799  67.89531   5.68622     306.7  0.484143  0.002193  0.000278  0.000102  0.173964  6.876060  0.547873     67.25  1.000074  1.000004     2.255    11.038      81.3      87.6      75.7     278.2     11.33      0.45     -0.76      1.75      2.19      0.59      2.53      0.84      1.84      1.19      1.19      0.91     -1.90     -1.52      0.52     -8.31      3.02     -0.22      0.52     -1.16
     -29.004068     -80.244003     123.3      0.48      1.67      54.5         3         3      3892      3618    255.12   -15.933       8.0      37.1   246.659     0.542      92.7   0.06293       9.9         H               192.7  0.041787  0.015280  0.000561  1.452416  0.656009  2.214019  1.045208      8.27    4.6196   28.3274   0.09010   5.25507   0.23859   0.01050  51.55019   4.94868     266.7  0.483207  0.001376  0.000205  0.000106  0.172145  6.871820  0.545636     66.49  1.000048  1.000003     2.263    11.329      79.7      85.2      57.2     260.8     11.05      0.84     -0.89      2.51      2.76      0.93      2.41      1.09      1.92      1.53      1.31      0.92     -1.64     -1.82      0.22     -6.20      3.68      0.76      0.82     -1.42
