corner points
-120.8351364    18.5514946
-120.8707199    18.72653961
-120.6507797    18.58537292
-120.6861649    18.76039124
========== RESULTS WAVE VERSION 16.10.2018 ====================
IMAGE SIZE  X: 4376     Y:4783    col:row     POLARIZATION:VV
COVERAGE    X: 19.750045km       Y: 19.77409208km 
RESOLUTION dX: 4.513264397m       dY:4.134244633m  
resolution of original product 4.513264397m x 4.134244633m;   raster step x:5998.128383m  
===============================================================
FLAGS: H=HIGH PROBABILITY SEA STATE, I=LAND(ISLAND), O=OUTLIER NO SEA STATE, N=NO WIND AVAILABLE, SEA STATE NOT VISIBLE, M=MEAN PROBABILITY SEA STATE, L= LOW PROBABILITY SEA STATE
Filtering wave length
 integration  Lmin=1m
 integration  Lmax=2200m
  peak        Lmin=100m
               FFT=1024pixels, 4621.582742m 
   mean-Hs (SWH_c)=0.384371376m
         mean-wind=6.769135952m/s
--------------0--------------1---------2---------3---------4---------5---------6---------7---------8---------9--------10--------11--------12--------13--------14--------15--------16--------17--------18--------19------------------20--------21--------22--------23--------24--------25--------26--------27--------28--------29--------30--------31--------32--------33--------34--------35--------36--------37--------38--------39--------40--------41--------42--------43--------44--------45--------46--------47--------48--------49--------50--------51--------52--------53--------54--------55--------56--------57--------58--------59--------60--------61--------62--------63--------64--------65--------66--------67--------68--------69--------70--------71--------72--------73
            LAT            LON  P-LENGHT     SWH_o     SWH_c     P-DIR      LINE     POINT     ROW-Y     COL-X  M-INTENC        dB      WIND INC-ANGLE  ENERGY-M  ENERGY-N  ENERGY-R ENERGY-NN  FG-DEPTH      FLAG         HEADING-DEG    E30-75   E75-390  E390-600 meanincut   meanout   cut/out  STD-NORM  SPEC-MAX   GL-MEAN    GL-VAR      CORR   ENTROPY   HOMOGEN    ENERGY  CONTRAST  DISSIMIL     STD-O    E 1-30 E600-2000   E2000 >      GODA  LONG-HIG     Tmean  CONVOLUT  MEAN-DIR  relation     Sy/Sx  SKEWNESS  KURTOSIS  cutoff-A >50/10000     INT*V   INT-LOG  S-1_g1f1  S-2_g1f2  S-3_g1f3  S-4_g2f1  S-5_g2f2  S-6_g2f3  S-7_g3f1  S-8_g3f2  S-9_g3f3 S-10_g1f4 S-11_g2f4 S-12_g3f4 S-13_g1f5 S-14_g2f5 S-15_g3f5 S-16_g4f1 S-17_g4f2 S-18_g4f3 S-19_g4f4 S-20_g4f5
--------------1--------------2---------3---------4---------5---------6---------7---------8---------9--------10--------11--------12--------13--------14--------15--------16--------17--------18--------19--------20------------------21--------22--------23--------24--------25--------26--------27--------28--------29--------30--------31--------32--------33--------34--------35--------36--------37--------38--------39--------40--------41--------42--------43--------44--------45--------46--------47--------48--------49--------50--------51--------52--------53--------54--------55--------56--------57--------58--------59--------60--------61--------62--------63--------64--------65--------66--------67--------68--------69--------70--------71--------72--------73--------74
      18.595943    -120.799973     313.3      0.42      2.32      48.2         1         1      1000      1000    213.90   -16.698       6.9      37.0   222.681     0.557     168.0   0.06841     100.0         H               347.8  0.039087  0.022072  0.001596  1.453200  0.659808  2.202459  1.059709     52.62    3.7993   20.4677   0.10239   4.90247   0.27518   0.01522  36.74400   4.14083     226.7  0.491727  0.002384  0.000354  0.000125  0.232374  7.233350  0.560929     46.17  0.999986  0.999999     2.335    11.917      86.6      81.7      41.1     220.1     15.07      8.24     -3.57     -5.34     -4.90      1.82     -1.02     -1.83     -0.00      0.35      0.97     -1.17     -3.92      0.31      3.09    -17.77     -9.94      5.71      2.85     -1.58
      18.606272    -120.743782     284.9      0.41      2.32      47.7         1         2      1000      2329    200.28   -16.984       6.8      37.3   223.005     0.558     221.2   0.06842     100.0         H               347.8  0.038846  0.022771  0.001710  1.447615  0.647197  2.236745  1.061053     43.67    3.5307   17.9564   0.10404   4.77287   0.28928   0.01729  32.17626   3.86776     212.5  0.491319  0.003079  0.000495  0.000129  0.235443  7.273572  0.562315     44.79  0.999923  0.999996     2.333    11.777      88.6      80.5      36.2     196.7     14.99      8.61     -4.25     -5.18     -4.95      2.31     -1.12     -1.82      0.11      0.07      0.85     -0.57     -3.66     -0.04      2.66    -17.57    -10.97      6.80      1.80     -1.34
      18.616497    -120.688057     298.2      0.43      2.32      45.2         1         3      1000      3658    203.40   -16.917       7.1      37.7   222.737     0.557     148.2   0.06785     100.0         H               347.8  0.038937  0.022295  0.001874  1.433214  0.660989  2.168289  1.059286     50.61    3.5910   18.4645   0.10160   4.80295   0.28547   0.01675  33.17714   3.93158     215.4  0.491687  0.002217  0.000253  0.000129  0.235073  7.247728  0.561074     45.20  0.999948  0.999997     2.338    11.973      88.6      80.7      37.2     210.0     15.16      8.60     -4.43     -5.77     -4.91      3.27     -0.45     -1.76     -0.89     -0.11      1.13     -1.11     -3.81     -0.42      3.43    -19.18    -10.76      9.98      3.14     -2.89
      18.649055    -120.810753     313.3      0.42      2.32      48.2         2         1      2451      1000    211.75   -16.742       6.8      37.0   222.544     0.558     219.1   0.06925     100.0         H               347.8  0.039858  0.021575  0.001482  1.410442  0.658107  2.143181  1.060790     49.16    3.7563   20.0833   0.10530   4.88187   0.27808   0.01557  35.93707   4.08932     224.6  0.491152  0.003396  0.000488  0.000119  0.227510  7.204887  0.561906     47.15  1.000012  1.000000     2.344    11.967      88.6      81.5      40.3     221.2     14.74      8.11     -3.72     -4.67     -4.76      1.68     -1.27     -1.51      0.20      0.40      0.66     -0.77     -4.23      1.49      2.14    -16.29    -10.79      5.65      1.93      2.15
      18.659382    -120.754547     298.2      0.45      2.32      45.2         2         2      2451      2329    198.62   -17.020       6.7      37.3   224.052     0.561     202.8   0.06916     100.0         H               347.8  0.039586  0.023652  0.001742  1.458533  0.662381  2.201953  1.063840     67.23    3.4970   17.7447   0.10514   4.75565   0.29152   0.01762  31.75818   3.83412     211.3  0.493058  0.002780  0.000438  0.000145  0.236197  7.275746  0.565651     45.75  0.999948  0.999996     2.370    12.298      90.6      80.4      35.7     207.7     15.21      9.73     -2.99     -5.50     -5.74      1.51     -1.36     -2.41     -0.43      0.77      0.21     -0.76     -5.91      1.82      3.56    -17.60    -11.72      5.87      0.65      1.15
      18.669605    -120.698807     379.6      0.42      2.32       9.5         2         3      2451      3658    194.17   -17.118       6.8      37.7   224.193     0.562     310.2   0.06999     100.0         H               347.8  0.039304  0.022822  0.002239  1.379716  0.665622  2.072824  1.065371     48.65    3.4085   17.0194   0.10723   4.71020   0.29632   0.01851  30.38876   3.74894     206.8  0.493314  0.003868  0.000795  0.000136  0.239262  7.267888  0.566985     45.93  0.999943  0.999997     2.362    12.055      99.7      79.7      34.2     197.4     15.56      8.94     -4.35     -6.62     -5.45      3.79     -0.35     -1.64     -1.85     -0.42      2.61     -2.69     -3.57     -0.28      3.63    -21.37    -12.10     12.16      8.12     -3.07
      18.702166    -120.821541     298.0      0.40      2.32      50.7         3         1      3902      1000    199.51   -17.000       6.5      37.0   222.386     0.556     227.8   0.06835     100.0         H               347.8  0.039877  0.021934  0.001739  1.420436  0.666672  2.130638  1.059756     39.11    3.5122   17.7926   0.10417   4.76354   0.28987   0.01748  31.87866   3.85221     211.4  0.489543  0.002955  0.000557  0.000120  0.229771  7.229499  0.560767     46.62  0.999943  0.999996     2.335    11.838      86.6      80.3      35.9     207.2     14.91      8.18     -3.92     -5.20     -5.05      1.95     -0.92     -1.06      0.12      0.36      1.02     -1.28     -3.94      0.90      2.31    -17.85    -12.15      6.43      3.10      0.74
      18.712492    -120.765312     284.9      0.40      2.32      47.7         3         2      3902      2329    192.47   -17.156       6.5      37.3   222.515     0.556     222.0   0.06898     100.0         H               347.8  0.039175  0.023205  0.001541  1.530032  0.664578  2.302263  1.059523     46.67    3.3748   16.5293   0.10491   4.69368   0.29830   0.01870  29.59053   3.70772     203.9  0.489135  0.002989  0.000507  0.000125  0.233193  7.268422  0.560593     46.97  0.999975  0.999998     2.326    11.765      88.6      79.7      33.5     191.6     14.89      8.78     -2.87     -4.51     -4.66      1.48     -1.60     -2.03      0.02      0.68      1.34     -1.31     -4.38      0.76      2.39    -15.80    -10.50      4.50      2.89      0.56
      18.722712    -120.709549     295.1      0.50      2.32      56.1         3         3      3902      3658    193.95   -17.123       6.8      37.7   224.980     0.564     266.6   0.07010     100.0         H               347.8  0.039309  0.024035  0.001976  1.470649  0.664688  2.212540  1.067072     52.10    3.4032   17.0266   0.10744   4.70739   0.29639   0.01853  30.39479   3.74529     206.9  0.494799  0.003686  0.000609  0.000133  0.239524  7.308499  0.569334     46.65  0.999937  0.999997     2.403    12.634      94.9      79.7      34.2     206.8     15.39      8.94     -4.39     -6.08     -5.63      3.21     -1.01     -1.44     -0.86     -0.21      1.93     -1.97     -3.89      0.63      2.55    -19.19    -12.59      9.97      6.16     -0.02
