corner points
-110.4321136    -33.90869141
-110.4858856    -33.73042297
-110.2164154    -33.86147308
-110.2707443    -33.68330765
========== RESULTS WAVE VERSION 16.10.2018 ====================
IMAGE SIZE  X: 5471     Y:4920    col:row     POLARIZATION:VV
COVERAGE    X: 20.53923554km       Y: 20.39085172km 
RESOLUTION dX: 3.754201341m       dY:4.144482058m  
resolution of original product 3.754201341m x 4.144482058m;   raster step x:5999.213743m  
===============================================================
FLAGS: H=HIGH PROBABILITY SEA STATE, I=LAND(ISLAND), O=OUTLIER NO SEA STATE, N=NO WIND AVAILABLE, SEA STATE NOT VISIBLE, M=MEAN PROBABILITY SEA STATE, L= LOW PROBABILITY SEA STATE
Filtering wave length
 integration  Lmin=1m
 integration  Lmax=2200m
  peak        Lmin=100m
               FFT=1024pixels, 3844.302173m 
   mean-Hs (SWH_c)=0.3679031372m
         mean-wind=9.333127022m/s
--------------0--------------1---------2---------3---------4---------5---------6---------7---------8---------9--------10--------11--------12--------13--------14--------15--------16--------17--------18--------19------------------20--------21--------22--------23--------24--------25--------26--------27--------28--------29--------30--------31--------32--------33--------34--------35--------36--------37--------38--------39--------40--------41--------42--------43--------44--------45--------46--------47--------48--------49--------50--------51--------52--------53--------54--------55--------56--------57--------58--------59--------60--------61--------62--------63--------64--------65--------66--------67--------68--------69--------70--------71--------72--------73
            LAT            LON  P-LENGHT     SWH_o     SWH_c     P-DIR      LINE     POINT     ROW-Y     COL-X  M-INTENC        dB      WIND INC-ANGLE  ENERGY-M  ENERGY-N  ENERGY-R ENERGY-NN  FG-DEPTH      FLAG         HEADING-DEG    E30-75   E75-390  E390-600 meanincut   meanout   cut/out  STD-NORM  SPEC-MAX   GL-MEAN    GL-VAR      CORR   ENTROPY   HOMOGEN    ENERGY  CONTRAST  DISSIMIL     STD-O    E 1-30 E600-2000   E2000 >      GODA  LONG-HIG     Tmean  CONVOLUT  MEAN-DIR  relation     Sy/Sx  SKEWNESS  KURTOSIS  cutoff-A >50/10000     INT*V   INT-LOG  S-1_g1f1  S-2_g1f2  S-3_g1f3  S-4_g2f1  S-5_g2f2  S-6_g2f3  S-7_g3f1  S-8_g3f2  S-9_g3f3 S-10_g1f4 S-11_g2f4 S-12_g3f4 S-13_g1f5 S-14_g2f5 S-15_g3f5 S-16_g4f1 S-17_g4f2 S-18_g4f3 S-19_g4f4 S-20_g4f5
--------------1--------------2---------3---------4---------5---------6---------7---------8---------9--------10--------11--------12--------13--------14--------15--------16--------17--------18--------19--------20------------------21--------22--------23--------24--------25--------26--------27--------28--------29--------30--------31--------32--------33--------34--------35--------36--------37--------38--------39--------40--------41--------42--------43--------44--------45--------46--------47--------48--------49--------50--------51--------52--------53--------54--------55--------56--------57--------58--------59--------60--------61--------62--------63--------64--------65--------66--------67--------68--------69--------70--------71--------72--------73--------74
     -33.863621    -110.402573     286.3      0.55      2.56     137.9         1         1      1000      1000   3471.55    -4.595       9.3      22.9   300.349     0.691      74.2   0.15569     100.0         H               347.0  0.077348  0.031316  0.001111  3.001565  0.923128  3.251516  1.178585     15.03    6.4349   63.6308   0.24393   5.81587   0.20869   0.00718  96.21769   6.45399    4091.2  0.581258  0.000914  0.000045  0.000142  0.180236  6.900235  0.719050     89.35  1.000190  1.000020     3.126    21.117      78.1      88.6     126.1     520.0     12.59      0.14      0.38      0.97      1.25      1.84      0.53      0.98      1.05      0.56      1.19      0.31     -1.82      0.31      0.98     -7.62     -0.51      1.94      1.15      1.67
     -33.849705    -110.338913     324.7      0.52      2.56     122.4         1         2      1000      2598   3014.13    -5.208       8.7      23.4   302.505     0.697      69.7   0.15853     100.0         H               347.0  0.078978  0.033391  0.001337  3.139415  0.929064  3.379115  1.183869     19.93    5.5365   49.1963   0.24789   5.53815   0.23381   0.00954  74.00092   5.60765    3568.1  0.583180  0.000788  0.000033  0.000144  0.183027  6.910702  0.725365     89.02  1.000176  1.000019     3.179    22.126      78.1      86.3      94.7     462.6     12.84     -0.62      0.17      0.28      1.73      2.01      0.85      0.91      1.20      0.13      1.30      0.41     -1.61      0.59      0.24     -9.16      0.94      2.25      1.52      2.43
     -33.836018    -110.276459     315.7      0.56      2.56     144.9         1         3      1000      4196   2912.38    -5.358       9.4      23.9   299.720     0.692      85.1   0.15771     100.0         H               347.0  0.077407  0.032782  0.001388  3.078655  0.922047  3.338934  1.179978     19.16    5.3296   45.6895   0.24827   5.46965   0.23965   0.01018  68.69272   5.40369    3436.5  0.580001  0.001113  0.000047  0.000140  0.183349  6.920484  0.720403     89.40  1.000203  1.000022     3.176    22.670      78.1      85.8      87.7     463.3     12.82     -0.27      0.20      0.06      1.22      2.12      1.14      0.90      1.13      0.95      0.22      0.37     -1.86      0.67      0.72     -9.57      0.20      2.12     -0.41      2.08
     -33.811188    -110.418434     324.7      0.56      2.56     122.4         2         1      2447      1000   3537.27    -4.513       9.5      22.9   299.571     0.689      65.4   0.15538     100.0         H               347.0  0.077274  0.031011  0.001156  2.938565  0.936780  3.136878  1.176389     15.15    6.5578   65.5655   0.24427   5.85095   0.20621   0.00692  99.09981   6.55865    4161.4  0.579123  0.000795  0.000033  0.000145  0.179685  6.878710  0.716332     88.88  1.000201  1.000020     3.107    20.869      79.7      88.9     130.4     527.2     12.60      0.35      0.59      0.88      1.33      2.11      0.87      0.26      0.68      0.41      1.18      0.21     -1.89      0.59      0.42     -8.14      0.46      2.49      1.27      2.25
     -33.797279    -110.354820     330.5      0.55      2.56     148.9         2         2      2447      2598   3156.72    -5.008       9.3      23.4   298.742     0.687      55.5   0.15544     100.0         H               347.0  0.076544  0.031580  0.001101  3.002737  0.932551  3.219918  1.176443     18.60    5.8163   53.0097   0.24498   5.63083   0.22457   0.00863  80.04559   5.86387    3713.4  0.577986  0.000630  0.000013  0.000143  0.178959  6.898119  0.714825     88.94  1.000170  1.000017     3.128    21.432      75.2      87.1     102.9     479.5     12.52     -0.46     -0.45      0.58      1.76      2.41      0.92      0.44      0.99      1.43      0.41      0.17     -2.17      0.40      0.87     -7.97      1.82      3.45     -0.36      1.90
     -33.783600    -110.292412     311.3      0.55      2.56     125.9         2         3      2447      4196   2872.12    -5.418       9.3      23.9   298.595     0.680      73.9   0.15007     100.0         H               347.0  0.075020  0.031361  0.001131  2.956821  0.905695  3.264699  1.169293     21.25    5.2479   43.7518   0.24038   5.44513   0.24125   0.01033  66.46848   5.33346    3358.3  0.571735  0.000871  0.000047  0.000142  0.181690  6.903635  0.705958     87.94  1.000175  1.000016     3.096    21.007      76.6      85.7      83.9     419.2     12.72     -0.14      0.13      0.45      1.59      1.86      0.54      0.59      0.95      0.16      1.36      0.63     -2.52      0.79      0.91     -8.19      0.82      2.35      1.39      3.09
     -33.758755    -110.434273     357.8      0.56      2.56     139.3         3         1      3894      1000   3519.86    -4.535       9.5      23.0   302.011     0.696      66.9   0.15809     100.0         H               347.0  0.079080  0.031883  0.001293  3.050041  0.941820  3.238454  1.182726     12.74    6.5274   65.2061   0.24596   5.84145   0.20684   0.00698  98.33656   6.52861    4163.1  0.583774  0.000791  0.000032  0.000147  0.178502  6.884746  0.724593     87.70  1.000192  1.000018     3.235    23.300      78.1      88.8     130.1     545.8     12.57      0.42      0.48      0.74      1.05      1.77      1.09      0.52      1.21      0.71      0.91      0.05     -1.80      0.75      0.47     -8.70     -0.37      1.47      0.49      2.69
     -33.744854    -110.370712     356.1      0.55      2.56     132.2         3         2      3894      2598   3149.74    -5.017       9.3      23.4   301.619     0.693      60.4   0.15634     100.0         H               347.0  0.078019  0.031567  0.001136  3.026296  0.922141  3.281816  1.179459     15.52    5.8011   53.0178   0.24499   5.62555   0.22523   0.00868  80.05790   5.85775    3714.7  0.581714  0.000692  0.000021  0.000148  0.178619  6.883362  0.720366     88.07  1.000191  1.000019     3.160    21.712      78.1      87.1     103.1     472.6     12.47      0.13      0.55      0.89      1.55      1.59      1.12      0.38      1.60      0.64      0.87      0.41     -1.88      0.62      0.84     -7.77      1.02      1.10      0.30      2.40
     -33.731182    -110.308357     315.7      0.57      2.56     144.9         3         3      3894      4196   2976.57    -5.263       9.7      23.9   299.111     0.682      68.2   0.15162     100.0         H               347.0  0.075784  0.031100  0.001266  2.904705  0.931933  3.116862  1.171209     14.90    5.4584   47.0195   0.24176   5.51669   0.23437   0.00960  71.30527   5.53177    3485.8  0.573995  0.000838  0.000035  0.000145  0.178313  6.896636  0.709132     87.72  1.000193  1.000018     3.124    21.359      76.6      86.3      90.7     441.4     12.50      0.16     -0.17      0.33      1.07      1.48      1.16      0.77      1.10      1.07      0.56      0.15     -1.92      0.61      0.49     -9.16     -0.20      1.31     -0.03      2.67
