corner points
-116.3519821    -11.01776028
-116.3917236    -10.83718395
-116.1722641    -10.978055
-116.2121811    -10.79752731
========== RESULTS WAVE VERSION 16.10.2018 ====================
IMAGE SIZE  X: 5471     Y:4930    col:row     POLARIZATION:VV
COVERAGE    X: 20.05832103km       Y: 20.49613162km 
RESOLUTION dX: 3.666298854m       dY:4.157430348m  
resolution of original product 3.666298854m x 4.157430348m;   raster step x:5998.064925m  
===============================================================
FLAGS: H=HIGH PROBABILITY SEA STATE, I=LAND(ISLAND), O=OUTLIER NO SEA STATE, N=NO WIND AVAILABLE, SEA STATE NOT VISIBLE, M=MEAN PROBABILITY SEA STATE, L= LOW PROBABILITY SEA STATE
Filtering wave length
 integration  Lmin=1m
 integration  Lmax=2200m
  peak        Lmin=100m
               FFT=1024pixels, 3754.290027m 
   mean-Hs (SWH_c)=1.566511078m
         mean-wind=9.759670258m/s
--------------0--------------1---------2---------3---------4---------5---------6---------7---------8---------9--------10--------11--------12--------13--------14--------15--------16--------17--------18--------19------------------20--------21--------22--------23--------24--------25--------26--------27--------28--------29--------30--------31--------32--------33--------34--------35--------36--------37--------38--------39--------40--------41--------42--------43--------44--------45--------46--------47--------48--------49--------50--------51--------52--------53--------54--------55--------56--------57--------58--------59--------60--------61--------62--------63--------64--------65--------66--------67--------68--------69--------70--------71--------72--------73
            LAT            LON  P-LENGHT     SWH_o     SWH_c     P-DIR      LINE     POINT     ROW-Y     COL-X  M-INTENC        dB      WIND INC-ANGLE  ENERGY-M  ENERGY-N  ENERGY-R ENERGY-NN  FG-DEPTH      FLAG         HEADING-DEG    E30-75   E75-390  E390-600 meanincut   meanout   cut/out  STD-NORM  SPEC-MAX   GL-MEAN    GL-VAR      CORR   ENTROPY   HOMOGEN    ENERGY  CONTRAST  DISSIMIL     STD-O    E 1-30 E600-2000   E2000 >      GODA  LONG-HIG     Tmean  CONVOLUT  MEAN-DIR  relation     Sy/Sx  SKEWNESS  KURTOSIS  cutoff-A >50/10000     INT*V   INT-LOG  S-1_g1f1  S-2_g1f2  S-3_g1f3  S-4_g2f1  S-5_g2f2  S-6_g2f3  S-7_g3f1  S-8_g3f2  S-9_g3f3 S-10_g1f4 S-11_g2f4 S-12_g3f4 S-13_g1f5 S-14_g2f5 S-15_g3f5 S-16_g4f1 S-17_g4f2 S-18_g4f3 S-19_g4f4 S-20_g4f5
--------------1--------------2---------3---------4---------5---------6---------7---------8---------9--------10--------11--------12--------13--------14--------15--------16--------17--------18--------19--------20------------------21--------22--------23--------24--------25--------26--------27--------28--------29--------30--------31--------32--------33--------34--------35--------36--------37--------38--------39--------40--------41--------42--------43--------44--------45--------46--------47--------48--------49--------50--------51--------52--------53--------54--------55--------56--------57--------58--------59--------60--------61--------62--------63--------64--------65--------66--------67--------68--------69--------70--------71--------72--------73--------74
     -10.973692    -116.326363     110.1      1.57      2.37      85.6         1         1      1000      1000   3212.67    -4.931       9.8      23.5   442.929     0.847     107.5   0.22332       7.8         H               347.9  0.111843  0.068541  0.001201  6.075803  1.032344  5.885442  1.304206     63.63    5.8910   63.4911   0.30186   5.60483   0.23921   0.01020  88.65215   5.92558    4190.0  0.664513  0.001507  0.000063  0.000298  0.164850  7.015906  0.897661     85.74  1.000271  1.000044     3.968    35.151     114.0      85.6     123.2     622.0     10.66      1.16      0.66      3.02     -0.26      4.88      3.47      0.44      4.39     -0.06      1.08      0.94     -0.46      1.82      3.05     -2.39     -0.64      7.64      1.78      3.73
     -10.961707    -116.272087     109.8      1.45      2.37      84.1         1         2      1000      2636   2765.38    -5.582       9.1      24.0   445.922     0.849      99.6   0.22123       7.7         H               347.9  0.111285  0.068154  0.001291  6.143120  1.001623  6.133164  1.305943     66.52    5.0327   48.8385   0.29898   5.31834   0.26663   0.01355  68.47340   5.13330    3611.0  0.668380  0.001199  0.000058  0.000309  0.164716  7.002270  0.900184     85.09  1.000271  1.000045     3.982    35.606     117.4      83.1      90.9     545.6     10.85      1.48      1.06      2.90     -0.61      5.58      3.97      0.89      4.66     -0.39      1.92      1.02     -0.06      2.46      3.04     -2.87     -1.58      8.19      3.45      4.37
     -10.949930    -116.218803     113.1      1.49      2.37      83.9         1         3      1000      4272   2678.43    -5.721       9.8      24.5   435.700     0.815      89.9   0.20554       8.3         H               347.9  0.102883  0.064644  0.001326  5.868877  0.976244  6.011693  1.277878     75.52    4.8599   44.4399   0.28932   5.26530   0.26987   0.01400  63.16481   4.97151    3422.6  0.645592  0.001113  0.000042  0.000296  0.167626  7.021421  0.861876     85.45  1.000254  1.000040     3.787    32.213     114.0      82.7      82.6     507.1     10.67      1.30      1.00      2.90      0.05      5.38      4.10      0.99      5.05      0.14      1.58      1.41      0.05      2.68      3.54     -2.72     -0.70      8.02      2.44      4.61
     -10.920831    -116.338005     106.1      1.62      2.37      81.4         2         1      2443      1000   3197.92    -4.951       9.8      23.5   446.839     0.856     104.7   0.22704       7.2         H               347.9  0.113143  0.070430  0.001368  6.311326  1.038850  6.075300  1.312476     57.88    5.8590   63.4769   0.30302   5.59283   0.24058   0.01034  88.48450   5.89499    4197.1  0.671075  0.001367  0.000058  0.000304  0.164372  7.014056  0.908510     86.60  1.000271  1.000046     4.031    36.609     117.4      85.4     123.0     648.0     11.21      1.43      0.79      2.34      0.18      4.59      3.14      0.88      4.00      0.08      1.26      1.32     -0.87      1.87      2.74     -3.93     -0.55      6.73      2.11      3.53
     -10.908849    -116.283752     111.8      1.63      2.37      79.4         2         2      2443      2636   2939.01    -5.318       9.9      24.0   440.167     0.837     100.0   0.21817       8.0         H               347.9  0.108769  0.069474  0.001228  5.996820  1.021841  5.868643  1.296939     76.54    5.3740   54.0274   0.29933   5.44013   0.25446   0.01194  75.71042   5.44231    3811.5  0.656641  0.001364  0.000052  0.000322  0.163893  7.037635  0.887051     84.70  1.000247  1.000041     3.864    32.137     117.4      84.2     102.0     543.7     10.44      0.44      1.25      3.52      0.71      5.09      3.88      0.98      4.38      0.62      1.10      1.29      0.01      1.78      3.31     -1.86      0.86      8.14      1.42      3.52
     -10.897077    -116.230476     120.7      1.63      2.37      85.1         2         3      2443      4272   2634.92    -5.792       9.6      24.5   442.228     0.842      87.2   0.22039       9.5         H               347.9  0.109331  0.070962  0.001272  6.312613  1.018719  6.196618  1.298632     61.89    4.7713   44.0435   0.29954   5.22521   0.27489   0.01475  61.70130   4.88003    3421.4  0.659933  0.001018  0.000033  0.000289  0.168653  7.062557  0.892805     87.29  1.000272  1.000045     4.041    38.796     114.0      82.2      81.5     551.9     10.71      1.70      1.29      3.37     -0.04      5.63      3.79      0.70      5.01      0.19      1.58      1.10     -0.58      2.71      3.62     -1.65     -1.04      8.50      2.01      5.20
     -10.867968    -116.349655     113.4      1.53      2.37      85.4         3         1      3886      1000   3255.20    -4.874      10.0      23.6   449.582     0.867      96.9   0.23101       8.3         H               347.9  0.118012  0.068758  0.001647  6.288427  1.040296  6.044846  1.320649     59.03    5.9685   65.8024   0.30480   5.62545   0.23727   0.00999  91.49146   6.00129    4299.0  0.677851  0.001325  0.000031  0.000306  0.163940  6.979998  0.919793     87.45  1.000283  1.000049     4.257    46.234     121.0      85.8     128.6     720.0     11.03      0.94      1.28      2.40      0.31      5.00      3.93      0.58      4.10      0.51      1.31      0.99     -0.70      2.35      3.26     -4.44      0.32      7.89      1.89      4.47
     -10.855990    -116.295410     110.4      1.60      2.37      90.0         3         2      3886      2636   3025.45    -5.192      10.2      24.0   445.011     0.849      84.8   0.22344       7.8         H               347.9  0.112774  0.068660  0.001445  6.207257  1.010477  6.142897  1.306725     55.90    5.5327   56.8790   0.30013   5.49284   0.24843   0.01126  79.61589   5.59103    3953.3  0.666312  0.001047  0.000029  0.000311  0.163514  6.979765  0.900363     87.38  1.000288  1.000047     4.162    41.514     117.4      84.8     109.2     648.1     10.80      1.09      0.92      2.89     -0.19      5.58      3.88      0.57      3.89      0.40      0.91      0.76      0.06      1.82      3.17     -3.48     -0.85      9.17      1.25      3.32
     -10.844223    -116.242149     121.1      1.58      2.37      88.4         3         3      3886      4272   2641.08    -5.782       9.7      24.5   440.791     0.842      85.6   0.22025       9.6         H               347.9  0.110270  0.069884  0.001312  6.172452  1.027789  6.005562  1.299073     59.95    4.7856   44.3221   0.29983   5.22996   0.27451   0.01471  62.06581   4.89408    3430.6  0.659920  0.001025  0.000028  0.000308  0.165921  7.034662  0.892129     88.49  1.000275  1.000047     4.009    36.589     121.0      82.2      82.1     535.0     10.55      0.65      1.58      3.50      0.64      5.88      4.19      0.63      5.19      0.42      1.06      1.04      0.37      2.83      3.97     -1.62      0.65      8.97      1.35      5.12
