corner points
-115.6932144    -6.228849888
-115.7315979    -6.05368948
-115.5176392    -6.18978548
-115.5560913    -6.014673233
========== RESULTS WAVE VERSION 16.10.2018 ====================
IMAGE SIZE  X: 4376     Y:4789    col:row     POLARIZATION:VV
COVERAGE    X: 19.84302663km       Y: 19.88752359km 
RESOLUTION dX: 4.534512485m       dY:4.152750801m  
resolution of original product 4.534512485m x 4.152750801m;   raster step x:5999.160017m  
===============================================================
FLAGS: H=HIGH PROBABILITY SEA STATE, I=LAND(ISLAND), O=OUTLIER NO SEA STATE, N=NO WIND AVAILABLE, SEA STATE NOT VISIBLE, M=MEAN PROBABILITY SEA STATE, L= LOW PROBABILITY SEA STATE
Filtering wave length
 integration  Lmin=1m
 integration  Lmax=2200m
  peak        Lmin=100m
               FFT=1024pixels, 4643.340784m 
   mean-Hs (SWH_c)=1.266154938m
         mean-wind=11.49403286m/s
--------------0--------------1---------2---------3---------4---------5---------6---------7---------8---------9--------10--------11--------12--------13--------14--------15--------16--------17--------18--------19------------------20--------21--------22--------23--------24--------25--------26--------27--------28--------29--------30--------31--------32--------33--------34--------35--------36--------37--------38--------39--------40--------41--------42--------43--------44--------45--------46--------47--------48--------49--------50--------51--------52--------53--------54--------55--------56--------57--------58--------59--------60--------61--------62--------63--------64--------65--------66--------67--------68--------69--------70--------71--------72--------73
            LAT            LON  P-LENGHT     SWH_o     SWH_c     P-DIR      LINE     POINT     ROW-Y     COL-X  M-INTENC        dB      WIND INC-ANGLE  ENERGY-M  ENERGY-N  ENERGY-R ENERGY-NN  FG-DEPTH      FLAG         HEADING-DEG    E30-75   E75-390  E390-600 meanincut   meanout   cut/out  STD-NORM  SPEC-MAX   GL-MEAN    GL-VAR      CORR   ENTROPY   HOMOGEN    ENERGY  CONTRAST  DISSIMIL     STD-O    E 1-30 E600-2000   E2000 >      GODA  LONG-HIG     Tmean  CONVOLUT  MEAN-DIR  relation     Sy/Sx  SKEWNESS  KURTOSIS  cutoff-A >50/10000     INT*V   INT-LOG  S-1_g1f1  S-2_g1f2  S-3_g1f3  S-4_g2f1  S-5_g2f2  S-6_g2f3  S-7_g3f1  S-8_g3f2  S-9_g3f3 S-10_g1f4 S-11_g2f4 S-12_g3f4 S-13_g1f5 S-14_g2f5 S-15_g3f5 S-16_g4f1 S-17_g4f2 S-18_g4f3 S-19_g4f4 S-20_g4f5
--------------1--------------2---------3---------4---------5---------6---------7---------8---------9--------10--------11--------12--------13--------14--------15--------16--------17--------18--------19--------20------------------21--------22--------23--------24--------25--------26--------27--------28--------29--------30--------31--------32--------33--------34--------35--------36--------37--------38--------39--------40--------41--------42--------43--------44--------45--------46--------47--------48--------49--------50--------51--------52--------53--------54--------55--------56--------57--------58--------59--------60--------61--------62--------63--------64--------65--------66--------67--------68--------69--------70--------71--------72--------73--------74
      -6.183247    -115.660660     110.8      1.28      2.42      78.0         1         1      1000      1000    423.06   -13.736      11.3      36.8   231.468     0.606     112.2   0.09452       7.9         H               348.0  0.057124  0.027948  0.000882  2.842496  0.730442  3.891476  1.104099     26.81    7.9441   82.9222   0.14459   6.23773   0.16549   0.00419 141.86359   8.12830     467.2  0.517800  0.001956  0.000192  0.000187  0.167596  6.943302  0.615171     79.49  1.000212  1.000020     2.674    15.806     121.0      92.0     174.8     549.1     11.19      1.36      0.27      1.40      1.80      4.10      4.40      0.59      3.02      0.43      3.00      2.39     -0.80      1.95      1.86     -7.13      4.40      6.68      4.59      4.21
      -6.171400    -115.607391     114.6      1.21      2.42      80.7         1         2      1000      2323    403.67   -13.940      11.3      37.2   230.052     0.598     110.6   0.09156       8.5         H               348.0  0.056424  0.027125  0.000647  2.713406  0.728986  3.722165  1.097879     26.69    7.5666   75.4913   0.14101   6.14924   0.17150   0.00457 129.69122   7.76863     443.2  0.512473  0.001637  0.000212  0.000179  0.168700  6.940718  0.607377     80.16  1.000181  1.000016     2.607    14.803     114.0      91.4     157.1     491.7     11.26      1.82      0.01      1.84      1.14      3.80      3.24      0.87      3.15      0.66      2.84      2.40     -0.93      1.89      1.41     -4.94      2.24      5.33      3.84      4.28
      -6.159649    -115.554588     110.8      1.28      2.42      78.0         1         3      1000      3646    411.78   -13.853      11.6      37.5   230.375     0.601     128.5   0.09300       7.9         H               348.0  0.056651  0.027252  0.000758  2.761728  0.734980  3.757557  1.099998     23.11    7.7232   78.6260   0.14373   6.18639   0.16896   0.00442 134.64919   7.92180     453.0  0.514274  0.002095  0.000255  0.000184  0.166391  6.936700  0.610574     81.18  1.000182  1.000017     2.612    15.003     117.4      91.7     164.0     515.6     11.25      2.01     -0.23      1.45      1.07      3.92      3.78      0.56      2.71      0.62      2.79      2.76     -0.93      1.49      2.10     -6.55      2.46      6.58      3.10      2.90
      -6.130424    -115.672241     108.8      1.24      2.42      79.7         2         1      2444      1000    421.78   -13.749      11.3      36.8   230.053     0.602     130.4   0.09356       7.6         H               348.0  0.056583  0.027266  0.000859  2.754382  0.726043  3.793689  1.100687     32.81    7.9195   82.2632   0.14395   6.23255   0.16567   0.00421 140.84415   8.10725     464.3  0.514823  0.002101  0.000267  0.000194  0.166586  6.936360  0.611172     80.45  1.000185  1.000016     2.616    14.759     117.4      91.9     173.0     501.9     11.24      1.30      0.41      1.51      2.03      3.52      4.19      0.81      3.22      0.72      2.75      2.44     -1.22      1.89      1.58     -7.26      4.39      4.78      3.82      4.45
      -6.118581    -115.618980     110.1      1.26      2.42      76.5         2         2      2444      2323    422.16   -13.745      11.6      37.2   228.934     0.599     133.9   0.09384       7.8         H               348.0  0.056466  0.026874  0.000851  2.748891  0.733343  3.748437  1.098248     29.38    7.9314   82.1181   0.14577   6.23557   0.16558   0.00421 140.29410   8.10119     463.7  0.512189  0.002515  0.000240  0.000192  0.165905  6.932110  0.608396     78.95  1.000188  1.000017     2.593    14.682     114.0      91.9     172.7     510.9     11.22      0.35      0.10      1.49      2.82      3.36      3.90      0.60      3.04      0.79      2.53      2.12     -0.94      1.43      1.46     -6.97      5.82      5.05      3.68      3.58
      -6.106835    -115.566185     114.7      1.27      2.42      74.4         2         3      2444      3646    416.22   -13.807      11.7      37.5   229.180     0.598     124.5   0.09146       8.5         H               348.0  0.055644  0.026517  0.000719  2.680443  0.725848  3.692845  1.097071     24.11    7.8113   79.9119   0.14182   6.20809   0.16750   0.00432 137.15677   8.00739     456.6  0.512719  0.002109  0.000230  0.000188  0.167330  6.932024  0.606928     79.11  1.000163  1.000015     2.596    14.937     114.0      91.8     167.4     523.7     11.09      1.68      0.45      2.12      1.66      3.84      3.80      1.38      2.91      1.05      2.93      2.78     -0.71      1.48      1.80     -5.40      2.63      5.94      3.67      3.16
      -6.077601    -115.683823     111.2      1.18      2.42      73.3         3         1      3888      1000    412.51   -13.846      11.1      36.8   230.267     0.602     132.1   0.09336       8.0         H               348.0  0.057048  0.027030  0.000950  2.657950  0.734907  3.616714  1.100718     37.46    7.7373   78.9348   0.14437   6.18939   0.16886   0.00441 135.07925   7.93463     454.0  0.514399  0.002253  0.000263  0.000191  0.166685  6.929035  0.611354     76.57  1.000210  1.000019     2.624    15.164     117.4      91.7     164.9     520.3     11.25      0.73      0.16      1.24      1.76      3.40      4.22      0.44      3.12      0.50      2.33      1.85     -0.41      1.84      1.56     -8.28      4.35      4.80      3.90      3.96
      -6.065763    -115.630569     115.5      1.30      2.42      75.9         3         2      3888      2323    420.51   -13.762      11.6      37.2   230.220     0.602     133.5   0.09382       8.6         H               348.0  0.056975  0.027604  0.000912  2.799997  0.732917  3.820349  1.101146     24.11    7.8981   81.9292   0.14536   6.22713   0.16670   0.00425 140.04041   8.07546     463.0  0.514238  0.002196  0.000264  0.000191  0.167574  6.938959  0.611690     79.84  1.000193  1.000018     2.622    15.199     117.4      91.9     172.1     546.7     11.32      0.76      0.42      1.29      1.92      3.47      3.97      0.66      3.34      0.66      2.65      2.40     -1.05      2.25      1.54     -7.41      4.64      5.13      3.67      5.55
      -6.054021    -115.577774     113.4      1.38      2.42      77.7         3         3      3888      3646    433.29   -13.632      12.0      37.5   228.652     0.596     123.5   0.09209       8.3         H               348.0  0.055961  0.027305  0.000768  2.697634  0.737396  3.658325  1.095688     32.48    8.1478   86.1253   0.14372   6.28549   0.16230   0.00399 147.49289   8.31698     474.7  0.510421  0.002025  0.000242  0.000198  0.168032  6.954295  0.605730     79.21  1.000191  1.000018     2.550    13.878     117.4      92.3     181.9     501.9     11.07      1.98      0.73      1.86      1.25      3.85      4.27      1.33      3.58      1.27      2.79      2.75     -0.72      2.14      2.26     -5.62      2.16      5.65      3.53      3.77
