corner points
-105.9877701    -46.07037354
-106.0618591    -45.89484024
-105.729805    -46.01537704
-105.8048172    -45.84001541
========== RESULTS WAVE VERSION 16.10.2018 ====================
IMAGE SIZE  X: 5471     Y:4911    col:row     POLARIZATION:VV
COVERAGE    X: 20.77503344km       Y: 20.29686221km 
RESOLUTION dX: 3.79730094m       dY:4.132938751m  
resolution of original product 3.79730094m x 4.132938751m;   raster step x:5999.735485m  
===============================================================
FLAGS: H=HIGH PROBABILITY SEA STATE, I=LAND(ISLAND), O=OUTLIER NO SEA STATE, N=NO WIND AVAILABLE, SEA STATE NOT VISIBLE, M=MEAN PROBABILITY SEA STATE, L= LOW PROBABILITY SEA STATE
Filtering wave length
 integration  Lmin=1m
 integration  Lmax=2200m
  peak        Lmin=100m
               FFT=1024pixels, 3888.436162m 
   mean-Hs (SWH_c)=1.340025177m
         mean-wind=7.597119808m/s
--------------0--------------1---------2---------3---------4---------5---------6---------7---------8---------9--------10--------11--------12--------13--------14--------15--------16--------17--------18--------19------------------20--------21--------22--------23--------24--------25--------26--------27--------28--------29--------30--------31--------32--------33--------34--------35--------36--------37--------38--------39--------40--------41--------42--------43--------44--------45--------46--------47--------48--------49--------50--------51--------52--------53--------54--------55--------56--------57--------58--------59--------60--------61--------62--------63--------64--------65--------66--------67--------68--------69--------70--------71--------72--------73
            LAT            LON  P-LENGHT     SWH_o     SWH_c     P-DIR      LINE     POINT     ROW-Y     COL-X  M-INTENC        dB      WIND INC-ANGLE  ENERGY-M  ENERGY-N  ENERGY-R ENERGY-NN  FG-DEPTH      FLAG         HEADING-DEG    E30-75   E75-390  E390-600 meanincut   meanout   cut/out  STD-NORM  SPEC-MAX   GL-MEAN    GL-VAR      CORR   ENTROPY   HOMOGEN    ENERGY  CONTRAST  DISSIMIL     STD-O    E 1-30 E600-2000   E2000 >      GODA  LONG-HIG     Tmean  CONVOLUT  MEAN-DIR  relation     Sy/Sx  SKEWNESS  KURTOSIS  cutoff-A >50/10000     INT*V   INT-LOG  S-1_g1f1  S-2_g1f2  S-3_g1f3  S-4_g2f1  S-5_g2f2  S-6_g2f3  S-7_g3f1  S-8_g3f2  S-9_g3f3 S-10_g1f4 S-11_g2f4 S-12_g3f4 S-13_g1f5 S-14_g2f5 S-15_g3f5 S-16_g4f1 S-17_g4f2 S-18_g4f3 S-19_g4f4 S-20_g4f5
--------------1--------------2---------3---------4---------5---------6---------7---------8---------9--------10--------11--------12--------13--------14--------15--------16--------17--------18--------19--------20------------------21--------22--------23--------24--------25--------26--------27--------28--------29--------30--------31--------32--------33--------34--------35--------36--------37--------38--------39--------40--------41--------42--------43--------44--------45--------46--------47--------48--------49--------50--------51--------52--------53--------54--------55--------56--------57--------58--------59--------60--------61--------62--------63--------64--------65--------66--------67--------68--------69--------70--------71--------72--------73--------74
     -46.024349    -105.954437     340.5      1.50      2.86     118.9         1         1      1000      1000   3044.16    -5.165       7.2      22.7   261.655     0.719     110.6   0.16669     100.0         H               345.5  0.075963  0.062657  0.001992  5.191714  0.943351  5.503483  1.202815    101.90    5.5950   51.5273   0.26707   5.54733   0.23717   0.00986  75.53226   5.62279    3661.4  0.578022  0.000929  0.000033  0.000182  0.216178  7.317837  0.753014    110.05  1.000229  1.000021     3.302    27.301      90.6      86.1      98.6     509.3     14.69     -7.99      6.58     -0.53      4.52      1.56     -1.24      3.00     -0.30     -5.12      2.24      2.18     -2.63      3.52      1.98     -8.59      8.30     -0.80      4.74      5.21
     -46.008327    -105.879135     313.3      1.29      2.86     126.3         1         2      1000      2580   2814.62    -5.506       7.4      23.1   258.698     0.706     121.4   0.16187     100.0         H               345.5  0.075906  0.057802  0.001800  4.994917  0.952627  5.243309  1.191387     82.25    5.1388   43.8391   0.26220   5.39549   0.25062   0.01138  64.68873   5.20184    3353.0  0.569798  0.001103  0.000076  0.000175  0.211308  7.256006  0.738094    106.81  1.000247  1.000022     3.096    20.024      86.6      84.8      82.7     394.5     14.56     -7.46      5.95     -0.49      3.72      1.84     -1.23      2.96     -0.13     -4.12      1.61      1.70     -2.30      3.32      1.96     -8.18      6.80      0.01      3.52      4.77
     -45.992561    -105.805305     287.3      1.13      2.86     138.3         1         3      1000      4160   2563.87    -5.911       7.5      23.6   261.135     0.717     106.4   0.16671     100.0         H               345.5  0.079690  0.055920  0.001837  4.811985  0.967725  4.972473  1.200116     58.97    4.6413   37.0685   0.26510   5.20867   0.26905   0.01374  54.48331   4.74142    3076.6  0.578650  0.001009  0.000041  0.000174  0.207744  7.207672  0.749309     98.51  1.000253  1.000023     3.180    21.441      86.6      83.1      69.0     386.0     14.56     -6.77      4.97     -0.75      3.82      2.41     -1.47      3.05     -0.49     -2.52      1.19      1.63     -2.49      3.74      1.73     -8.66      6.85      1.40      2.19      5.79
     -45.972485    -105.976402     294.5      1.47      2.86     114.7         2         1      2451      1000   3156.87    -5.007       7.5      22.7   262.595     0.719     106.0   0.16596     100.0         H               345.5  0.076633  0.060905  0.001814  5.045911  0.951089  5.305403  1.202393     92.26    5.8176   55.2113   0.26355   5.61937   0.23040   0.00916  81.31973   5.84377    3795.4  0.579269  0.000948  0.000030  0.000179  0.214990  7.289382  0.752421    108.06  1.000236  1.000022     3.218    22.736      88.6      86.6     106.3     505.0     14.80     -7.74      5.86     -0.97      3.74      1.83     -1.82      3.29     -0.96     -4.32      1.41      2.43     -2.00      3.17      1.20     -8.21      6.77      1.04      2.59      5.08
     -45.956478    -105.901176     286.3      1.37      2.86     132.6         2         2      2451      2580   3016.62    -5.205       8.1      23.1   258.256     0.705     109.3   0.16117     100.0         H               345.5  0.074855  0.056743  0.001448  4.967812  0.944685  5.258696  1.190376     77.26    5.5361   49.9441   0.26101   5.53181   0.23737   0.00988  73.81627   5.57404    3590.7  0.571255  0.001008  0.000053  0.000174  0.210315  7.258243  0.736643    110.49  1.000242  1.000022     3.085    19.893      86.6      86.0      95.2     431.6     14.22     -7.26      4.98      0.18      2.94      2.78     -1.52      3.46     -0.05     -2.82      0.17      1.57     -2.78      3.38      2.84     -6.59      5.32      1.72      1.16      4.04
     -45.940727    -105.827423     299.7      1.10      2.86     129.6         2         3      2451      4160   2517.39    -5.991       7.3      23.6   262.957     0.721      87.6   0.16694     100.0         H               345.5  0.079584  0.055706  0.001765  4.997867  0.946608  5.279761  1.204462     80.57    4.5518   35.9113   0.26339   5.17297   0.27296   0.01431  52.90519   4.66349    3032.1  0.583695  0.000736  0.000015  0.000175  0.206125  7.195095  0.753201    100.75  1.000226  1.000022     3.234    22.389      86.6      82.6      66.8     378.1     14.22     -6.78      5.09     -0.21      4.03      2.40     -0.68      2.53      0.09     -3.36      1.41      1.98     -2.32      3.67      1.53     -8.13      7.46      1.26      2.81      5.52
     -45.920620    -105.998329     305.2      1.60      2.86     120.3         3         1      3902      1000   3275.64    -4.847       8.0      22.7   259.667     0.709     123.9   0.16264     100.0         H               345.5  0.073348  0.061117  0.001738  5.001086  0.930804  5.372868  1.193803     84.76    6.0403   58.3785   0.26342   5.69030   0.22363   0.00846  86.00032   6.03685    3910.4  0.572038  0.001197  0.000053  0.000184  0.218592  7.340635  0.741945    112.81  1.000218  1.000020     3.133    20.602      90.6      87.3     113.3     468.5     14.73     -8.18      5.85     -0.69      3.97      2.09     -1.67      3.70     -0.02     -3.80      1.12      1.77     -2.67      3.51      2.36     -7.84      6.50      0.15      2.78      4.60
     -45.904629    -105.923187     316.0      1.40      2.86     116.6         3         2      3902      2580   3020.88    -5.199       8.1      23.1   260.585     0.712     168.6   0.16255     100.0         H               345.5  0.074792  0.057261  0.001895  4.856467  0.927267  5.237397  1.195979     86.88    5.5386   50.3519   0.26165   5.53118   0.23785   0.00994  74.35399   5.58475    3612.7  0.576250  0.001902  0.000128  0.000171  0.215216  7.286086  0.743921    111.07  1.000221  1.000021     3.144    20.928      88.6      86.0      95.9     453.5     14.67     -7.65      5.44     -1.07      4.38      2.02     -0.97      2.49     -0.04     -3.50      1.51      1.26     -2.73      3.82      1.49     -9.15      8.20      0.47      3.44      6.23
     -45.888889    -105.849510     327.0      1.20      2.86     122.7         3         3      3902      4160   2513.72    -5.997       7.3      23.6   258.838     0.703      98.8   0.15914     100.0         H               345.5  0.073210  0.055586  0.001728  4.785772  0.925002  5.173794  1.187976     79.87    4.5485   35.1040   0.25747   5.17627   0.27154   0.01407  52.13086   4.65498    2986.3  0.571772  0.000904  0.000034  0.000170  0.211143  7.285406  0.733491    108.07  1.000238  1.000021     3.121    20.903      86.6      82.8      65.5     373.1     14.15     -7.50      5.73     -0.11      4.23      1.80     -0.63      2.93      0.48     -3.56      1.93      1.87     -2.65      3.56      2.03     -7.36      7.79     -0.02      3.62      5.61
