corner points
-110.9005356    -25.60374451
-110.9490356    -25.43026543
-110.706955    -25.55817795
-110.7557449    -25.38477898
========== RESULTS WAVE VERSION 16.10.2018 ====================
IMAGE SIZE  X: 4376     Y:4782    col:row     POLARIZATION:VV
COVERAGE    X: 20.01893181km       Y: 19.84947992km 
RESOLUTION dX: 4.574710194m       dY:4.150874094m  
resolution of original product 4.574710194m x 4.150874094m;   raster step x:5997.445065m  
===============================================================
FLAGS: H=HIGH PROBABILITY SEA STATE, I=LAND(ISLAND), O=OUTLIER NO SEA STATE, N=NO WIND AVAILABLE, SEA STATE NOT VISIBLE, M=MEAN PROBABILITY SEA STATE, L= LOW PROBABILITY SEA STATE
Filtering wave length
 integration  Lmin=1m
 integration  Lmax=2200m
  peak        Lmin=100m
               FFT=1024pixels, 4684.503239m 
   mean-Hs (SWH_c)=0.2m
         mean-wind=7.550822735m/s
--------------0--------------1---------2---------3---------4---------5---------6---------7---------8---------9--------10--------11--------12--------13--------14--------15--------16--------17--------18--------19------------------20--------21--------22--------23--------24--------25--------26--------27--------28--------29--------30--------31--------32--------33--------34--------35--------36--------37--------38--------39--------40--------41--------42--------43--------44--------45--------46--------47--------48--------49--------50--------51--------52--------53--------54--------55--------56--------57--------58--------59--------60--------61--------62--------63--------64--------65--------66--------67--------68--------69--------70--------71--------72--------73
            LAT            LON  P-LENGHT     SWH_o     SWH_c     P-DIR      LINE     POINT     ROW-Y     COL-X  M-INTENC        dB      WIND INC-ANGLE  ENERGY-M  ENERGY-N  ENERGY-R ENERGY-NN  FG-DEPTH      FLAG         HEADING-DEG    E30-75   E75-390  E390-600 meanincut   meanout   cut/out  STD-NORM  SPEC-MAX   GL-MEAN    GL-VAR      CORR   ENTROPY   HOMOGEN    ENERGY  CONTRAST  DISSIMIL     STD-O    E 1-30 E600-2000   E2000 >      GODA  LONG-HIG     Tmean  CONVOLUT  MEAN-DIR  relation     Sy/Sx  SKEWNESS  KURTOSIS  cutoff-A >50/10000     INT*V   INT-LOG  S-1_g1f1  S-2_g1f2  S-3_g1f3  S-4_g2f1  S-5_g2f2  S-6_g2f3  S-7_g3f1  S-8_g3f2  S-9_g3f3 S-10_g1f4 S-11_g2f4 S-12_g3f4 S-13_g1f5 S-14_g2f5 S-15_g3f5 S-16_g4f1 S-17_g4f2 S-18_g4f3 S-19_g4f4 S-20_g4f5
--------------1--------------2---------3---------4---------5---------6---------7---------8---------9--------10--------11--------12--------13--------14--------15--------16--------17--------18--------19--------20------------------21--------22--------23--------24--------25--------26--------27--------28--------29--------30--------31--------32--------33--------34--------35--------36--------37--------38--------39--------40--------41--------42--------43--------44--------45--------46--------47--------48--------49--------50--------51--------52--------53--------54--------55--------56--------57--------58--------59--------60--------61--------62--------63--------64--------65--------66--------67--------68--------69--------70--------71--------72--------73--------74
     -25.556953    -110.865944     222.7      0.47      2.16      38.2         1         1      1000      1000    264.30   -15.779       7.8      36.4   241.492     0.549      55.2   0.06781      43.8         H               347.5  0.044627  0.016121  0.000799  1.326664  0.677052  1.959470  1.051402     18.28    4.8049   30.7792   0.10017   5.32483   0.23339   0.00988  55.39198   5.11806     277.9  0.486677  0.000870  0.000063  0.000104  0.190489  6.902446  0.553312     38.73  1.000097  1.000006     2.279    11.244      81.3      85.9      61.8     255.5     12.87      5.79     -2.58     -0.61     -1.46      0.42     -0.84     -1.91      1.98     -1.80      0.08      1.83     -3.39      1.38      1.31    -10.21     -5.87      0.47      0.45      4.45
     -25.543266    -110.807747     259.3      0.45      2.16      37.5         1         2      1000      2311    242.15   -16.159       7.5      36.8   243.265     0.552      69.2   0.06728      97.5         H               347.5  0.043993  0.016110  0.000799  1.301583  0.661734  1.966927  1.053800     19.89    4.3616   25.9485   0.09821   5.14991   0.24989   0.01178  46.79982   4.69042     255.2  0.489869  0.001002  0.000114  0.000108  0.191581  6.905155  0.555934     36.44  1.000091  1.000005     2.307    11.530      79.7      84.3      52.1     235.3     12.94      6.68     -2.85     -0.81     -1.81     -0.08     -1.20     -2.44      2.54     -2.68      0.26      2.59     -3.44      0.93      1.96    -10.14     -6.16     -0.85      0.04      2.51
     -25.529676    -110.750076     208.1      0.43      2.16      38.4         1         3      1000      3622    216.43   -16.647       7.1      37.2   242.749     0.549      57.0   0.06574      35.3         H               347.5  0.043820  0.016459  0.000845  1.361522  0.666909  2.041540  1.051417     18.90    3.8509   20.6147   0.09541   4.92781   0.27137   0.01464  37.29585   4.18857     227.5  0.486963  0.000883  0.000071  0.000112  0.193778  6.923482  0.553241     38.31  1.000101  1.000006     2.285    11.360      83.0      82.1      41.6     216.9     13.00      7.03     -2.89     -0.74     -1.68      0.39     -1.06     -2.59      2.34     -2.64      0.10      2.39     -4.16      0.63      2.05    -10.60     -6.63     -0.13     -0.02      3.15
     -25.504528    -110.880630     222.7      0.48      2.16      38.2         2         1      2445      1000    270.62   -15.676       7.9      36.4   242.398     0.551      53.3   0.06799      43.8         H               347.5  0.044286  0.016492  0.000698  1.368809  0.666712  2.053073  1.053667     23.27    4.9309   32.3713   0.09965   5.37174   0.22941   0.00944  58.29042   5.24410     285.1  0.488946  0.000818  0.000066  0.000110  0.191296  6.897344  0.555374     39.84  1.000098  1.000005     2.301    11.481      81.3      86.3      65.0     264.3     12.76      6.54     -2.36     -0.10     -1.54      0.40     -1.31     -2.85      2.01     -1.87      0.35      2.12     -4.02      1.18      2.19     -8.56     -5.28      0.14      0.27      3.21
     -25.490849    -110.822456     222.7      0.46      2.16      38.2         2         2      2445      2311    246.25   -16.086       7.6      36.8   243.269     0.554      70.2   0.06866      43.8         H               347.5  0.044883  0.018196  0.000815  1.392356  0.682795  2.039199  1.055951     37.71    4.4430   26.9420   0.10199   5.18268   0.24712   0.01146  48.38810   4.76787     260.0  0.489309  0.000933  0.000109  0.000123  0.199266  6.959743  0.559140     37.74  1.000079  1.000005     2.317    11.699      84.8      84.6      53.9     250.4     13.23      7.89     -3.57     -0.80     -1.65      1.28     -2.09     -3.67      1.92     -3.62      1.28      2.58     -4.65      0.58      2.92     -9.33     -5.60      2.72      2.64      2.21
     -25.477264    -110.764816     247.2      0.44      2.16      35.5         2         3      2445      3622    221.88   -16.539       7.2      37.2   243.177     0.551      60.9   0.06628      67.2         H               347.5  0.043655  0.017021  0.000956  1.366775  0.672907  2.031152  1.053323     27.34    3.9598   21.7613   0.09693   4.97706   0.26631   0.01401  39.30389   4.30140     233.8  0.488665  0.000932  0.000081  0.000109  0.195459  6.942149  0.555828     37.14  1.000084  1.000005     2.285    11.387      83.0      82.5      43.8     223.9     13.12      6.75     -2.90     -1.07     -2.13      0.75     -0.91     -1.73      1.81     -2.60      0.56      2.19     -3.95      1.63      1.37    -11.31     -7.87      1.33      1.09      4.88
     -25.452101    -110.895302     219.6      0.49      2.16      34.2         3         1      3890      1000    278.52   -15.551       8.1      36.4   243.059     0.554      69.2   0.06944      41.8         H               347.5  0.044779  0.018438  0.000980  1.505606  0.678870  2.217813  1.056641     30.33    5.0883   34.4605   0.10406   5.42826   0.22500   0.00898  61.74895   5.39612     294.3  0.489211  0.001028  0.000100  0.000117  0.198777  6.970963  0.559370     36.48  1.000102  1.000007     2.318    11.746      83.0      86.7      69.1     288.1     13.21      7.46     -2.38     -0.94     -1.99      0.09     -1.33     -2.49      2.44     -2.31     -0.16      2.90     -4.45      0.74      2.26    -10.79     -7.66     -0.78     -1.15      3.44
     -25.438429    -110.837158     232.2      0.47      2.16      40.1         3         2      3890      2311    251.84   -15.989       7.7      36.8   243.247     0.553      72.7   0.06830      50.8         H               347.5  0.044695  0.017231  0.000744  1.402232  0.675419  2.076091  1.055425     30.05    4.5549   28.1535   0.10143   5.22771   0.24262   0.01093  50.59549   4.87862     265.8  0.489610  0.001276  0.000101  0.000113  0.194837  6.933279  0.558389     37.98  1.000084  1.000004     2.321    11.727      79.7      85.0      56.4     248.1     12.92      6.82     -2.84     -0.13     -1.10      0.26     -1.82     -3.21      2.34     -2.23     -0.07      2.51     -3.73      0.32      2.46     -8.88     -4.87     -0.15     -0.62      1.45
     -25.424852    -110.779541     247.2      0.43      2.16      35.5         3         3      3890      3622    214.48   -16.686       7.1      37.2   244.185     0.554      71.0   0.06707      67.2         H               347.5  0.044123  0.018798  0.000887  1.417241  0.670353  2.114170  1.056480     37.96    3.8118   20.4255   0.09895   4.90898   0.27333   0.01500  36.80869   4.15269     226.6  0.489322  0.001027  0.000099  0.000126  0.202760  6.996202  0.559299     36.28  1.000088  1.000005     2.322    11.845      84.8      81.8      41.1     221.6     13.37      8.79     -3.56     -1.28     -2.46      0.61     -2.10     -3.48      2.55     -3.67      0.61      3.04     -5.00      1.52      2.41    -10.04     -7.69      0.79      1.15      4.27
