corner points
148.9581451    8.51955986
148.9206238    8.700382233
149.1422577    8.557560921
149.1048126    8.738360405
========== RESULTS WAVE VERSION 16.10.2018 ====================
IMAGE SIZE  X: 5683     Y:4930    col:row     POLARIZATION:VV
COVERAGE    X: 20.63458296km       Y: 20.47731209km 
RESOLUTION dX: 3.630931368m       dY:4.153612999m  
resolution of original product 3.630931368m x 4.153612999m;   raster step x:5998.29862m  
===============================================================
FLAGS: H=HIGH PROBABILITY SEA STATE, I=LAND(ISLAND), O=OUTLIER NO SEA STATE, N=NO WIND AVAILABLE, SEA STATE NOT VISIBLE, M=MEAN PROBABILITY SEA STATE, L= LOW PROBABILITY SEA STATE
Filtering wave length
 integration  Lmin=1m
 integration  Lmax=2200m
  peak        Lmin=100m
               FFT=1024pixels, 3718.073721m 
   mean-Hs (SWH_c)=0.7976376343m
         mean-wind=10.40534973m/s
--------------0--------------1---------2---------3---------4---------5---------6---------7---------8---------9--------10--------11--------12--------13--------14--------15--------16--------17--------18--------19------------------20--------21--------22--------23--------24--------25--------26--------27--------28--------29--------30--------31--------32--------33--------34--------35--------36--------37--------38--------39--------40--------41--------42--------43--------44--------45--------46--------47--------48--------49--------50--------51--------52--------53--------54--------55--------56--------57--------58--------59--------60--------61--------62--------63--------64--------65--------66--------67--------68--------69--------70--------71--------72--------73
            LAT            LON  P-LENGHT     SWH_o     SWH_c     P-DIR      LINE     POINT     ROW-Y     COL-X  M-INTENC        dB      WIND INC-ANGLE  ENERGY-M  ENERGY-N  ENERGY-R ENERGY-NN  FG-DEPTH      FLAG         HEADING-DEG    E30-75   E75-390  E390-600 meanincut   meanout   cut/out  STD-NORM  SPEC-MAX   GL-MEAN    GL-VAR      CORR   ENTROPY   HOMOGEN    ENERGY  CONTRAST  DISSIMIL     STD-O    E 1-30 E600-2000   E2000 >      GODA  LONG-HIG     Tmean  CONVOLUT  MEAN-DIR  relation     Sy/Sx  SKEWNESS  KURTOSIS  cutoff-A >50/10000     INT*V   INT-LOG  S-1_g1f1  S-2_g1f2  S-3_g1f3  S-4_g2f1  S-5_g2f2  S-6_g2f3  S-7_g3f1  S-8_g3f2  S-9_g3f3 S-10_g1f4 S-11_g2f4 S-12_g3f4 S-13_g1f5 S-14_g2f5 S-15_g3f5 S-16_g4f1 S-17_g4f2 S-18_g4f3 S-19_g4f4 S-20_g4f5
--------------1--------------2---------3---------4---------5---------6---------7---------8---------9--------10--------11--------12--------13--------14--------15--------16--------17--------18--------19--------20------------------21--------22--------23--------24--------25--------26--------27--------28--------29--------30--------31--------32--------33--------34--------35--------36--------37--------38--------39--------40--------41--------42--------43--------44--------45--------46--------47--------48--------49--------50--------51--------52--------53--------54--------55--------56--------57--------58--------59--------60--------61--------62--------63--------64--------65--------66--------67--------68--------69--------70--------71--------72--------73--------74
       8.563113     148.983780     144.5      0.81      2.29      76.2         1         1      1000      1000   3304.40    -4.809      10.6      23.7   449.627     0.772      83.1   0.18757      14.1         H               348.0  0.100915  0.043385  0.000919  4.562109  0.927144  4.920606  1.246579     24.34    6.0981   63.0748   0.27618   5.69289   0.22559   0.00873  91.31073   6.13030    4118.9  0.626277  0.001063  0.000038  0.000256  0.169170  6.844562  0.813783     90.79  1.000263  1.000036     3.539    26.665     107.8      87.0     122.8     543.3     11.75     -0.54      2.79      4.04      1.00      5.07      2.31      0.75      2.91      0.63      0.97      0.01     -0.45      1.84      2.62     -2.71      0.43      5.11      0.92      1.91
       8.574284     149.037888     148.7      0.81      2.29     106.2         1         2      1000      2652   3047.59    -5.160      10.7      24.2   454.494     0.786      67.8   0.19390      15.1         H               348.0  0.103380  0.044369  0.000981  4.610370  0.938496  4.912510  1.255435     24.19    5.5708   54.2338   0.27953   5.52581   0.24101   0.01036  78.14874   5.63450    3826.0  0.637506  0.000762  0.000022  0.000262  0.170384  6.844716  0.829088     90.09  1.000256  1.000036     3.799    33.535     107.8      85.6     104.5     567.9     12.01     -0.72      2.33      3.73      1.42      4.98      1.74      0.05      2.65      0.95      0.01     -0.73     -1.28      1.77      2.30     -3.44      1.20      4.96     -0.52      2.59
       8.585246     149.091019     140.4      0.78      2.29      70.7         1         3      1000      4304   2737.03    -5.627      10.6      24.7   450.756     0.774      91.2   0.18916      13.2         H               348.0  0.101421  0.044240  0.000894  4.693416  0.909330  5.161399  1.246171     23.55    4.9681   44.2857   0.27765   5.31910   0.26032   0.01269  63.97914   5.07277    3410.7  0.626884  0.001250  0.000055  0.000266  0.166943  6.842578  0.816079     90.18  1.000245  1.000034     3.648    30.354     107.8      83.7      82.9     491.8     11.66     -0.18      2.27      3.87      1.21      5.09      2.29      0.61      2.97      0.95      0.80     -0.15     -0.97      1.61      2.19     -2.63      0.37      5.54      0.46      2.57
       8.616085     148.972794     157.1      0.82      2.29      68.3         2         1      2444      1000   3263.71    -4.863      10.5      23.7   459.867     0.801      83.6   0.20088      17.1         H               348.0  0.108154  0.045619  0.001032  4.927366  0.967476  5.093013  1.270713     28.23    6.0094   62.8910   0.28499   5.65881   0.22971   0.00916  89.93652   6.04357    4147.2  0.645607  0.001055  0.000040  0.000271  0.164235  6.828217  0.845689     90.98  1.000258  1.000038     3.798    31.503     110.8      86.5     122.7     586.1     11.63      0.30      2.46      4.08      1.27      5.08      2.29      0.35      2.35      1.23      0.85     -0.00     -0.78      1.11      2.30     -3.19      0.65      5.68     -0.14      1.41
       8.627254     149.026901     128.8      0.79      2.29     104.0         2         2      2444      2652   2910.39    -5.360      10.2      24.2   456.246     0.787      82.6   0.19476      10.9         H               348.0  0.104966  0.046124  0.000943  4.875773  0.947449  5.146211  1.259013     24.94    5.3254   50.7079   0.28051   5.44151   0.24916   0.01132  72.96808   5.41660    3664.2  0.634931  0.001036  0.000040  0.000270  0.168469  6.853969  0.830417     89.84  1.000257  1.000035     3.731    32.380     107.8      84.8      95.9     536.8     11.78     -0.34      2.02      4.04      0.84      5.24      1.99      0.30      3.48      0.66      0.21     -0.89     -0.90      1.64      2.78     -2.69      0.05      5.12     -0.15      2.31
       8.638215     149.080048     138.1      0.69      2.29     105.1         2         3      2444      4304   2653.46    -5.762      10.2      24.7   452.896     0.775      78.3   0.18890      12.8         H               348.0  0.102581  0.043522  0.001035  4.641691  0.957338  4.848541  1.247785     24.86    4.8307   42.1047   0.27627   5.26891   0.26496   0.01334  60.94537   4.94636    3310.7  0.627595  0.001014  0.000035  0.000253  0.166369  6.846366  0.816957     89.49  1.000253  1.000036     3.706    32.113     107.8      83.3      78.8     490.4     11.80     -0.42      2.11      3.63      0.78      5.08      2.31      0.11      2.36      0.66     -0.16     -1.22     -0.91      1.02      2.18     -3.81     -0.30      5.89     -0.46      1.51
       8.669058     148.961807     127.7      0.85      2.29      95.2         3         1      3888      1000   3195.74    -4.954      10.2      23.7   461.059     0.801      77.3   0.19977      10.7         H               348.0  0.108070  0.047489  0.000970  5.005871  0.968014  5.171282  1.269030     23.01    5.8673   60.6021   0.28398   5.61419   0.23429   0.00963  86.78481   5.91838    4055.3  0.644371  0.000988  0.000031  0.000272  0.165770  6.845528  0.846088     91.04  1.000274  1.000041     3.723    29.814     110.8      86.1     117.2     558.9     11.46      0.07      2.34      4.18      0.64      5.24      2.74      0.35      3.31      0.48      0.30     -0.28     -0.61      1.92      2.61     -2.45      0.06      5.89     -0.03      2.88
       8.680224     149.015915     141.0      0.87      2.29      99.5         3         2      3888      2652   2941.70    -5.314      10.3      24.2   461.772     0.807      84.4   0.20358      13.4         H               348.0  0.108986  0.048421  0.001131  5.092234  0.958299  5.313825  1.274531     21.72    5.3880   52.4538   0.28625   5.45809   0.24849   0.01128  74.87903   5.46940    3749.0  0.647547  0.001047  0.000038  0.000273  0.165735  6.846672  0.852435     89.17  1.000260  1.000038     3.863    33.468     110.8      84.7      99.7     551.9     12.00     -1.17      1.97      3.30      1.01      5.18      2.17      0.37      2.60      0.38     -0.36     -0.18     -0.70      1.70      2.27     -4.14      1.36      6.18     -0.73      2.39
       8.691183     149.069077     111.3      0.76      2.29      99.0         3         3      3888      4304   2654.67    -5.760      10.2      24.7   457.521     0.788      88.7   0.19384       8.0         H               348.0  0.103964  0.045609  0.001008  4.844266  0.966942  5.009884  1.259224     23.26    4.8049   42.3489   0.28068   5.25543   0.26688   0.01359  60.92430   4.92229    3342.5  0.636402  0.001104  0.000056  0.000267  0.165037  6.853714  0.830878     90.33  1.000265  1.000038     3.747    31.662     110.8      83.1      78.9     488.1     11.85     -0.90      2.09      3.53      0.46      5.12      2.11      0.20      2.72      0.53     -0.48     -0.90     -0.60      1.83      2.68     -3.47      0.43      5.99     -0.64      2.34
