corner points
147.5552979    23.90263176
147.519165    24.07744217
147.7517548    23.93658829
147.7158966    24.1113739
========== RESULTS WAVE VERSION 16.10.2018 ====================
IMAGE SIZE  X: 4492     Y:4781    col:row     POLARIZATION:VV
COVERAGE    X: 20.27736373km       Y: 19.73333432km 
RESOLUTION dX: 4.514105907m       dY:4.127449135m  
resolution of original product 4.514105907m x 4.127449135m;   raster step x:5999.24675m  
===============================================================
FLAGS: H=HIGH PROBABILITY SEA STATE, I=LAND(ISLAND), O=OUTLIER NO SEA STATE, N=NO WIND AVAILABLE, SEA STATE NOT VISIBLE, M=MEAN PROBABILITY SEA STATE, L= LOW PROBABILITY SEA STATE
Filtering wave length
 integration  Lmin=1m
 integration  Lmax=2200m
  peak        Lmin=100m
               FFT=1024pixels, 4622.444449m 
   mean-Hs (SWH_c)=1.550905457m
         mean-wind=7.601852417m/s
--------------0--------------1---------2---------3---------4---------5---------6---------7---------8---------9--------10--------11--------12--------13--------14--------15--------16--------17--------18--------19------------------20--------21--------22--------23--------24--------25--------26--------27--------28--------29--------30--------31--------32--------33--------34--------35--------36--------37--------38--------39--------40--------41--------42--------43--------44--------45--------46--------47--------48--------49--------50--------51--------52--------53--------54--------55--------56--------57--------58--------59--------60--------61--------62--------63--------64--------65--------66--------67--------68--------69--------70--------71--------72--------73
            LAT            LON  P-LENGHT     SWH_o     SWH_c     P-DIR      LINE     POINT     ROW-Y     COL-X  M-INTENC        dB      WIND INC-ANGLE  ENERGY-M  ENERGY-N  ENERGY-R ENERGY-NN  FG-DEPTH      FLAG         HEADING-DEG    E30-75   E75-390  E390-600 meanincut   meanout   cut/out  STD-NORM  SPEC-MAX   GL-MEAN    GL-VAR      CORR   ENTROPY   HOMOGEN    ENERGY  CONTRAST  DISSIMIL     STD-O    E 1-30 E600-2000   E2000 >      GODA  LONG-HIG     Tmean  CONVOLUT  MEAN-DIR  relation     Sy/Sx  SKEWNESS  KURTOSIS  cutoff-A >50/10000     INT*V   INT-LOG  S-1_g1f1  S-2_g1f2  S-3_g1f3  S-4_g2f1  S-5_g2f2  S-6_g2f3  S-7_g3f1  S-8_g3f2  S-9_g3f3 S-10_g1f4 S-11_g2f4 S-12_g3f4 S-13_g1f5 S-14_g2f5 S-15_g3f5 S-16_g4f1 S-17_g4f2 S-18_g4f3 S-19_g4f4 S-20_g4f5
--------------1--------------2---------3---------4---------5---------6---------7---------8---------9--------10--------11--------12--------13--------14--------15--------16--------17--------18--------19--------20------------------21--------22--------23--------24--------25--------26--------27--------28--------29--------30--------31--------32--------33--------34--------35--------36--------37--------38--------39--------40--------41--------42--------43--------44--------45--------46--------47--------48--------49--------50--------51--------52--------53--------54--------55--------56--------57--------58--------59--------60--------61--------62--------63--------64--------65--------66--------67--------68--------69--------70--------71--------72--------73--------74
      23.946871     147.591980     253.5      1.75      3.66      61.3         1         1      1000      1000    238.75   -16.221       7.5      36.9   238.740     0.609      75.4   0.08817      78.6         H               347.6  0.048687  0.041668  0.001070  2.886673  0.700859  4.118766  1.107605    138.62    4.2934   27.7594   0.13667   5.11094   0.25972   0.01308  47.92998   4.63348     264.5  0.517532  0.000763  0.000039  0.000245  0.241170  7.501552  0.618228     60.82  1.000125  1.000009     2.659    15.462     142.7      83.1      53.8     290.0     15.12      9.49      5.67      0.49      0.52      3.85     -4.09     -5.37     -2.07      8.57      1.65     -4.02     -2.96      1.16      3.73     -5.76     -0.76      3.70      0.17      0.99
      23.956964     147.650345     253.5      1.44      3.66      61.3         1         2      1000      2329    238.38   -16.227       7.8      37.3   236.751     0.601      68.5   0.08501      78.6         H               347.6  0.048340  0.036728  0.000960  2.616681  0.699458  3.741012  1.099735     79.17    4.2883   27.2723   0.13090   5.11086   0.25863   0.01289  47.40457   4.62191     262.1  0.514493  0.000660  0.000036  0.000188  0.237535  7.407884  0.608276     59.37  1.000165  1.000010     2.632    15.271     133.1      83.4      53.1     283.9     15.22      9.33      4.93     -0.30     -0.14      2.88     -4.45     -5.58     -1.89      6.93      0.95     -3.01     -3.26      1.48      3.61     -6.72     -1.34      2.01     -0.99      1.38
      23.966949     147.708237     241.8      1.56      3.66      62.8         1         3      1000      3658    234.30   -16.302       7.9      37.7   238.166     0.606      78.9   0.08627      60.1         H               347.6  0.048696  0.038173  0.001031  2.816982  0.698460  4.033134  1.104110    104.39    4.2051   26.5310   0.13224   5.07502   0.26216   0.01341  46.04502   4.54746     258.7  0.517336  0.000816  0.000069  0.000202  0.236573  7.409580  0.613609     63.77  1.000167  1.000011     2.676    16.074     137.8      82.9      51.6     299.8     15.08      8.45      5.61      0.29      0.60      3.95     -3.77     -4.89     -2.22      7.81      1.54     -3.60     -1.70      1.51      2.96     -6.33     -0.71      3.71     -0.18      1.08
      24.000008     147.581024     241.8      1.80      3.66      62.8         2         1      2453      1000    232.52   -16.335       7.3      36.9   241.832     0.623      86.6   0.09267      60.1         H               347.6  0.051158  0.043677  0.001123  3.112539  0.703441  4.424734  1.119823    146.40    4.1689   26.8084   0.14242   5.05607   0.26553   0.01390  45.97980   4.51640     260.4  0.526284  0.000906  0.000065  0.000236  0.236557  7.456152  0.632723     62.03  1.000227  1.000018     2.850    20.450     148.0      82.5      51.8     351.0     15.23      8.85      6.11      0.32      0.48      3.61     -4.43     -5.42     -2.91      8.86      0.93     -4.66     -2.27      1.09      3.19     -6.11     -0.55      3.47     -0.70      0.78
      24.010099     147.639420     253.5      1.47      3.66      61.3         2         2      2453      2329    235.58   -16.279       7.7      37.3   238.698     0.612      84.5   0.08929      78.6         H               347.6  0.051241  0.038410  0.001040  2.931491  0.707441  4.143794  1.109767     85.27    4.2324   27.1246   0.13788   5.08501   0.26230   0.01338  46.76865   4.57173     261.4  0.520479  0.000897  0.000089  0.000192  0.226994  7.357093  0.620289     64.74  1.000263  1.000020     2.681    15.904     142.7      83.0      52.5     300.8     14.66      8.02      6.09      0.99      0.63      3.89     -3.06     -4.38     -1.89      7.55      1.68     -3.31     -1.47      1.75      2.69     -5.78     -0.62      3.23      0.12      1.95
      24.020081     147.697311     247.9      1.45      3.66      65.8         2         3      2453      3658    226.27   -16.454       7.7      37.7   239.300     0.610      82.4   0.08720      68.3         H               347.6  0.050424  0.037784  0.001087  2.827334  0.692227  4.084400  1.107283     77.83    4.0456   24.8904   0.13310   5.00535   0.26899   0.01440  43.15511   4.39429     250.5  0.519467  0.001038  0.000068  0.000194  0.228868  7.363998  0.617464     64.38  1.000228  1.000017     2.717    16.517     142.7      82.2      48.4     288.0     14.94      8.43      6.27      0.65      0.77      3.47     -3.71     -5.12     -2.53      7.94      1.50     -3.95     -1.84      1.32      2.77     -6.37     -0.40      2.77     -0.39      1.39
      24.053143     147.570053     241.8      1.58      3.66      62.8         3         1      3906      1000    233.49   -16.317       7.4      36.9   241.378     0.619      80.6   0.09103      60.1         H               347.6  0.051625  0.040799  0.001102  2.947126  0.700462  4.207404  1.116490    115.50    4.1892   26.9397   0.13798   5.06562   0.26382   0.01368  46.44543   4.54128     260.7  0.525067  0.000978  0.000048  0.000215  0.233560  7.412489  0.628272     62.27  1.000253  1.000018     2.780    17.464     142.7      82.7      52.1     311.4     15.11      8.72      5.94      0.22      0.46      3.09     -4.24     -5.73     -2.37      8.08      1.00     -4.44     -2.81      1.37      3.26     -6.36     -0.33      2.23     -0.83      1.58
      24.063232     147.628464     231.0      1.37      3.66      64.1         3         2      3906      2329    227.73   -16.426       7.5      37.3   238.480     0.609      75.1   0.08801      49.8         H               347.6  0.051121  0.037474  0.000857  2.736500  0.702714  3.894187  1.107132    102.02    4.0766   25.2435   0.13468   5.01886   0.26813   0.01421  43.68712   4.41812     252.2  0.519403  0.000746  0.000065  0.000201  0.228894  7.340567  0.617437     62.36  1.000218  1.000015     2.678    15.661     142.7      82.4      49.0     275.3     14.88      9.05      5.39      0.57      0.35      3.17     -4.26     -5.58     -2.11      7.61      1.27     -3.91     -3.09      1.01      3.73     -5.19     -0.68      2.80     -0.12      0.91
      24.073214     147.686401     266.2      1.55      3.66      59.7         3         3      3906      3658    224.43   -16.489       7.7      37.7   238.454     0.608      90.0   0.08789     100.0         H               347.6  0.050376  0.039208  0.001065  2.695851  0.705722  3.819992  1.106377    102.50    4.0096   24.4770   0.13509   4.98920   0.27114   0.01467  42.34082   4.35367     248.4  0.517035  0.000969  0.000092  0.000213  0.234122  7.391972  0.616723     62.95  1.000192  1.000014     2.677    16.044     142.7      82.1      47.5     288.0     15.26      9.69      5.89     -0.12      0.05      3.04     -4.20     -5.48     -2.67      8.55      1.14     -4.06     -3.01      1.43      3.17     -6.83     -1.64      2.54     -0.85      1.62
