corner points
146.4519958    29.20440483
146.4148254    29.37893677
146.65802    29.23766708
146.6212311    29.41217995
========== RESULTS WAVE VERSION 16.10.2018 ====================
IMAGE SIZE  X: 4492     Y:4779    col:row     POLARIZATION:VV
COVERAGE    X: 20.28845897km       Y: 19.69035553km 
RESOLUTION dX: 4.516575906m       dY:4.120183204m  
resolution of original product 4.516575906m x 4.120183204m;   raster step x:5998.012803m  
===============================================================
FLAGS: H=HIGH PROBABILITY SEA STATE, I=LAND(ISLAND), O=OUTLIER NO SEA STATE, N=NO WIND AVAILABLE, SEA STATE NOT VISIBLE, M=MEAN PROBABILITY SEA STATE, L= LOW PROBABILITY SEA STATE
Filtering wave length
 integration  Lmin=1m
 integration  Lmax=2200m
  peak        Lmin=100m
               FFT=1024pixels, 4624.973727m 
   mean-Hs (SWH_c)=1.743701782m
         mean-wind=13.05452633m/s
--------------0--------------1---------2---------3---------4---------5---------6---------7---------8---------9--------10--------11--------12--------13--------14--------15--------16--------17--------18--------19------------------20--------21--------22--------23--------24--------25--------26--------27--------28--------29--------30--------31--------32--------33--------34--------35--------36--------37--------38--------39--------40--------41--------42--------43--------44--------45--------46--------47--------48--------49--------50--------51--------52--------53--------54--------55--------56--------57--------58--------59--------60--------61--------62--------63--------64--------65--------66--------67--------68--------69--------70--------71--------72--------73
            LAT            LON  P-LENGHT     SWH_o     SWH_c     P-DIR      LINE     POINT     ROW-Y     COL-X  M-INTENC        dB      WIND INC-ANGLE  ENERGY-M  ENERGY-N  ENERGY-R ENERGY-NN  FG-DEPTH      FLAG         HEADING-DEG    E30-75   E75-390  E390-600 meanincut   meanout   cut/out  STD-NORM  SPEC-MAX   GL-MEAN    GL-VAR      CORR   ENTROPY   HOMOGEN    ENERGY  CONTRAST  DISSIMIL     STD-O    E 1-30 E600-2000   E2000 >      GODA  LONG-HIG     Tmean  CONVOLUT  MEAN-DIR  relation     Sy/Sx  SKEWNESS  KURTOSIS  cutoff-A >50/10000     INT*V   INT-LOG  S-1_g1f1  S-2_g1f2  S-3_g1f3  S-4_g2f1  S-5_g2f2  S-6_g2f3  S-7_g3f1  S-8_g3f2  S-9_g3f3 S-10_g1f4 S-11_g2f4 S-12_g3f4 S-13_g1f5 S-14_g2f5 S-15_g3f5 S-16_g4f1 S-17_g4f2 S-18_g4f3 S-19_g4f4 S-20_g4f5
--------------1--------------2---------3---------4---------5---------6---------7---------8---------9--------10--------11--------12--------13--------14--------15--------16--------17--------18--------19--------20------------------21--------22--------23--------24--------25--------26--------27--------28--------29--------30--------31--------32--------33--------34--------35--------36--------37--------38--------39--------40--------41--------42--------43--------44--------45--------46--------47--------48--------49--------50--------51--------52--------53--------54--------55--------56--------57--------58--------59--------60--------61--------62--------63--------64--------65--------66--------67--------68--------69--------70--------71--------72--------73--------74
      29.248451     146.490616     175.3      1.88      3.57      65.5         1         1      1000      1000    574.63   -12.406      13.7      36.9   237.254     0.590     319.8   0.08791      22.3         H               347.4  0.050085  0.027203  0.001324  2.718578  0.698361  3.892798  1.091164     19.82   10.8775  140.3538   0.13892   6.81257   0.12790   0.00226 241.70949  10.87586     627.1  0.506073  0.004683  0.000820  0.000141  0.196079  7.086601  0.595174     88.81  1.000129  1.000010     2.509    13.405     124.8      95.2     328.2     665.2     13.12     -0.91      5.12      1.94      1.67      4.59      1.72     -0.13      0.33      0.31      0.71      0.24      0.46      2.42      1.40     -9.28      3.48      2.81      0.38      2.77
      29.258333     146.551788     170.6      1.75      3.57      73.6         1         2      1000      2328    535.89   -12.709      13.5      37.3   236.614     0.586     263.8   0.08529      20.9         H               347.4  0.049348  0.026277  0.001334  2.603815  0.706665  3.684654  1.086980     22.20   10.1473  124.1503   0.13465   6.69078   0.13507   0.00258 214.86594  10.20852     582.5  0.503954  0.004521  0.000578  0.000136  0.198180  7.102259  0.590466     84.34  1.000141  1.000011     2.513    13.859     121.0      94.6     282.1     649.3     13.16     -1.21      5.41      1.92      2.22      4.29      1.52      0.08      0.27      0.42      1.51      0.46      0.17      3.11      1.29     -9.42      3.94      1.90      0.75      3.98
      29.268105     146.612442     183.6      1.77      3.57      72.3         1         3      1000      3656    529.36   -12.763      13.6      37.6   235.727     0.584     269.6   0.08570      25.1         H               347.4  0.048815  0.026282  0.001702  2.536553  0.701540  3.615691  1.085777     21.42   10.0198  121.5232   0.13548   6.66787   0.13672   0.00264 210.11942  10.08327     574.7  0.502762  0.004637  0.000640  0.000133  0.198661  7.084818  0.589512     83.91  1.000145  1.000012     2.487    13.318     121.0      94.5     274.2     615.1     13.56     -1.54      4.69      0.28      3.00      3.70      2.27     -0.50      0.62      0.87      1.61      0.11     -0.01      2.86      0.75    -12.99      5.91      1.12      0.92      4.52
      29.301636     146.479324     168.6      1.79      3.57      71.4         2         1      2456      1000    554.83   -12.558      13.4      36.9   237.468     0.590     244.5   0.08760      20.3         H               347.4  0.050305  0.026971  0.001490  2.624965  0.701157  3.743765  1.091162     27.05   10.5001  131.8975   0.13660   6.75106   0.13147   0.00242 227.76169  10.53917     605.4  0.507313  0.004306  0.000503  0.000138  0.196090  7.076084  0.595568     83.36  1.000134  1.000010     2.557    14.376     121.0      94.8     304.6     677.2     13.17     -1.31      4.92      1.27      2.80      3.97      2.24     -0.25      0.66      0.62      1.54      0.58      0.51      2.18      1.35    -10.70      5.21      1.93      0.27      2.26
      29.311516     146.540527     249.6      1.59      3.57     103.7         2         2      2456      2328    483.82   -13.153      12.7      37.3   239.677     0.596     460.3   0.08778      71.1         H               347.4  0.050320  0.026684  0.001421  2.627168  0.700140  3.752347  1.098016     18.87    9.1326  105.1256   0.13936   6.49631   0.14768   0.00320 180.94995   9.27400     531.3  0.510542  0.006151  0.001341  0.000137  0.197204  7.080068  0.601957     87.57  1.000148  1.000011     2.583    14.524     137.8      93.5     229.9     586.4     13.29     -1.41      5.14      1.35      2.45      4.24      1.64      0.56      0.01     -0.16      1.50      0.84      1.50      1.79      1.60     -9.96      4.51      3.05      2.05      0.66
      29.321285     146.601212     157.6      1.68      3.57      72.6         2         3      2456      3656    479.43   -13.193      12.9      37.6   240.042     0.598     529.9   0.08883      17.3         H               347.4  0.049393  0.027372  0.001774  2.699892  0.696734  3.875066  1.100690     19.97    9.0442  103.9479   0.14418   6.47702   0.14986   0.00329 177.92163   9.17581     527.7  0.511041  0.007511  0.001551  0.000136  0.198797  7.113812  0.604840     85.29  1.000095  1.000007     2.567    14.027     137.8      93.3     226.3     551.5     13.26     -1.32      5.37      1.00      2.56      3.41      2.47     -0.44      0.85      0.18      1.63     -0.32      0.21      1.56      2.11    -12.12      5.31      0.47      2.24      1.35
      29.354818     146.468018     174.6      1.94      3.57      70.7         3         1      3912      1000    570.30   -12.439      13.6      36.9   239.293     0.596     408.6   0.08955      22.1         H               347.4  0.049952  0.028116  0.001608  2.739608  0.706375  3.878404  1.098004     20.28   10.7884  139.4533   0.14213   6.79552   0.12897   0.00232 239.26633  10.80291     626.2  0.509774  0.006289  0.001091  0.000132  0.198046  7.107331  0.602634     89.83  1.000139  1.000011     2.557    13.960     124.8      95.1     325.2     660.2     13.29     -2.00      4.97      0.94      2.01      3.31      1.92      0.16      1.27     -0.31      0.77      0.33      0.38      1.93      1.81    -11.09      3.94     -0.02      0.22      1.85
      29.364697     146.529251     176.9      2.10      3.57      72.9         3         2      3912      2328    528.49   -12.770      13.3      37.3   240.685     0.601     464.5   0.09049      22.8         H               347.4  0.049108  0.031243  0.001784  2.970107  0.688473  4.314053  1.102636     33.19    9.9950  123.4332   0.14557   6.65807   0.13797   0.00271 210.93024  10.06211     582.7  0.511442  0.006340  0.001354  0.000143  0.208220  7.193705  0.607844     82.25  1.000048  1.000004     2.596    14.620     133.1      94.4     278.9     653.3     13.76     -1.51      5.84      1.06      2.41      4.44      1.23     -0.31     -0.54     -0.49      1.51      0.08      1.66      1.55      1.03    -11.23      4.71      2.87      1.58      0.49
      29.374464     146.589981     162.9      1.20      3.57      72.0         3         3      3912      3656    361.37   -14.420      10.8      37.6   238.334     0.583     289.0   0.07884      18.7         H               347.4  0.046307  0.025780  0.001392  2.502758  0.668803  3.742146  1.084844     25.70    6.7335   60.1984   0.12326   5.93807   0.18539   0.00558 105.55687   7.01708     392.1  0.504744  0.004283  0.000761  0.000136  0.205133  7.144938  0.587389     77.44  1.000083  1.000006     2.503    13.713     128.8      90.1     122.6     422.9     13.59     -0.49      5.56      1.51      2.66      4.31      1.24     -0.20     -0.11      1.54      1.95      0.12      1.02      2.00      1.03    -10.24      4.02      1.85      0.57      1.48
