corner points
146.7233124    19.15283585
146.6845093    19.33339119
146.9161835    19.18990517
146.8776093    19.37045288
========== RESULTS WAVE VERSION 16.10.2018 ====================
IMAGE SIZE  X: 5683     Y:4930    col:row     POLARIZATION:VV
COVERAGE    X: 20.62652895km       Y: 20.43724966km 
RESOLUTION dX: 3.629514156m       dY:4.145486747m  
resolution of original product 3.629514156m x 4.145486747m;   raster step x:5999.5869m  
===============================================================
FLAGS: H=HIGH PROBABILITY SEA STATE, I=LAND(ISLAND), O=OUTLIER NO SEA STATE, N=NO WIND AVAILABLE, SEA STATE NOT VISIBLE, M=MEAN PROBABILITY SEA STATE, L= LOW PROBABILITY SEA STATE
Filtering wave length
 integration  Lmin=1m
 integration  Lmax=2200m
  peak        Lmin=100m
               FFT=1024pixels, 3716.622496m 
   mean-Hs (SWH_c)=3.236729736m
         mean-wind=4.20987606m/s
--------------0--------------1---------2---------3---------4---------5---------6---------7---------8---------9--------10--------11--------12--------13--------14--------15--------16--------17--------18--------19------------------20--------21--------22--------23--------24--------25--------26--------27--------28--------29--------30--------31--------32--------33--------34--------35--------36--------37--------38--------39--------40--------41--------42--------43--------44--------45--------46--------47--------48--------49--------50--------51--------52--------53--------54--------55--------56--------57--------58--------59--------60--------61--------62--------63--------64--------65--------66--------67--------68--------69--------70--------71--------72--------73
            LAT            LON  P-LENGHT     SWH_o     SWH_c     P-DIR      LINE     POINT     ROW-Y     COL-X  M-INTENC        dB      WIND INC-ANGLE  ENERGY-M  ENERGY-N  ENERGY-R ENERGY-NN  FG-DEPTH      FLAG         HEADING-DEG    E30-75   E75-390  E390-600 meanincut   meanout   cut/out  STD-NORM  SPEC-MAX   GL-MEAN    GL-VAR      CORR   ENTROPY   HOMOGEN    ENERGY  CONTRAST  DISSIMIL     STD-O    E 1-30 E600-2000   E2000 >      GODA  LONG-HIG     Tmean  CONVOLUT  MEAN-DIR  relation     Sy/Sx  SKEWNESS  KURTOSIS  cutoff-A >50/10000     INT*V   INT-LOG  S-1_g1f1  S-2_g1f2  S-3_g1f3  S-4_g2f1  S-5_g2f2  S-6_g2f3  S-7_g3f1  S-8_g3f2  S-9_g3f3 S-10_g1f4 S-11_g2f4 S-12_g3f4 S-13_g1f5 S-14_g2f5 S-15_g3f5 S-16_g4f1 S-17_g4f2 S-18_g4f3 S-19_g4f4 S-20_g4f5
--------------1--------------2---------3---------4---------5---------6---------7---------8---------9--------10--------11--------12--------13--------14--------15--------16--------17--------18--------19--------20------------------21--------22--------23--------24--------25--------26--------27--------28--------29--------30--------31--------32--------33--------34--------35--------36--------37--------38--------39--------40--------41--------42--------43--------44--------45--------46--------47--------48--------49--------50--------51--------52--------53--------54--------55--------56--------57--------58--------59--------60--------61--------62--------63--------64--------65--------66--------67--------68--------69--------70--------71--------72--------73--------74
      19.196175     146.750275     256.2      2.96      2.59      43.6         1         1      1000      1000   1708.56    -7.674       4.7      23.7   439.297     0.751     189.8   0.17746      85.8         H               347.8  0.064154  0.095160  0.003111  4.318587  0.909172  4.750021  1.228949    218.35    2.9491   17.4502   0.28009   4.38713   0.37256   0.03439  25.12540   3.12395    2099.7  0.587971  0.001521  0.000055  0.000354  0.268887  7.966634  0.797466     41.56  0.999862  0.999989     3.055    19.159      99.7      72.5      31.2     244.5     15.59     12.30     -3.61     -3.56     -2.91      4.67     -4.07     -5.07      1.87     -1.06      3.34      1.27     -6.73      0.75      3.70    -10.90     -6.69      7.01      3.31      2.62
      19.207087     146.806992     244.4      3.41      2.59      36.3         1         2      1000      2653   1413.30    -8.498       4.3      24.2   445.604     0.761     195.1   0.18039      63.4         H               347.8  0.062819  0.103664  0.002441  4.420540  0.900924  4.906674  1.236166    231.71    2.3577   11.9857   0.28169   4.00625   0.42237   0.04992  17.21876   2.55426    1746.9  0.591740  0.001285  0.000053  0.000399  0.273399  8.085055  0.809202     40.94  0.999888  0.999991     3.148    21.583      99.7      67.3      21.6     213.9     15.79     12.86     -2.60     -3.53     -3.30      3.44     -4.96     -5.76      1.97     -0.03      2.09      1.22     -7.99      1.73      3.80     -9.56     -6.39      4.41      0.96      4.31
      19.217781     146.862701     234.8      3.28      2.59      44.0         1         3      1000      4306   1254.12    -9.017       4.3      24.7   441.345     0.747     241.6   0.17297      53.1         H               347.8  0.060611  0.098863  0.002043  4.149391  0.875481  4.739555  1.226325    169.63    2.0483    9.2718   0.27344   3.77998   0.45159   0.06113  13.47297   2.25621    1538.0  0.584026  0.002143  0.000157  0.000365  0.269516  8.090127  0.792281     40.18  0.999842  0.999988     3.008    18.173      97.3      64.2      16.9     166.6     15.30     11.69     -3.76     -2.55     -1.80      4.26     -4.81     -5.26      2.67     -0.94      3.03      1.94     -5.98      0.09      3.20     -8.31     -4.67      5.55      2.40      1.67
      19.249182     146.738892     294.4      2.93      2.59      33.7         2         1      2447      1000   1620.19    -7.904       4.4      23.7   441.098     0.753     163.3   0.17650     100.0         H               347.8  0.065194  0.096167  0.002291  4.662160  0.910658  5.119550  1.228982    170.11    2.7583   15.5562   0.27864   4.27338   0.38677   0.03827  22.44335   2.94094    1991.2  0.588462  0.001127  0.000030  0.000328  0.260152  7.932037  0.798799     45.87  0.999948  0.999997     3.082    19.322      97.3      71.1      27.9     218.9     15.11     12.12     -2.05     -2.09     -2.05      3.96     -3.75     -4.75      1.84      0.33      3.05      0.77     -7.12      0.85      3.22     -8.64     -5.57      5.22      2.42      3.26
      19.260090     146.795639     241.7      3.03      2.59      31.3         2         2      2447      2653   1417.20    -8.486       4.3      24.2   444.367     0.756     194.8   0.17682      60.1         H               347.8  0.064373  0.097489  0.002249  4.498093  0.928033  4.846910  1.231919    181.38    2.3571   11.9103   0.27722   4.00952   0.42048   0.04912  17.21715   2.55889    1745.8  0.590630  0.001666  0.000084  0.000349  0.262182  7.976980  0.801878     38.16  0.999880  0.999991     3.146    20.719      97.3      67.5      21.5     202.9     15.02     11.45     -3.29     -1.73     -0.93      4.06     -4.79     -5.74      2.62     -0.98      2.86      2.46     -5.90     -0.49      3.24     -7.55     -3.12      5.03      1.43      1.09
      19.270786     146.851364     267.1      3.16      2.59      35.1         2         3      2447      4306   1143.00    -9.420       3.9      24.7   442.036     0.750     187.6   0.17481     100.0         H               347.8  0.060810  0.101831  0.002891  4.258568  0.881275  4.832281  1.226769    215.53    1.8365    7.7490   0.27563   3.60488   0.47553   0.07168  11.22618   2.04706    1402.2  0.583519  0.001496  0.000046  0.000370  0.269055  8.103616  0.796428     37.16  0.999868  0.999990     3.040    18.665      97.3      61.6      14.3     153.6     15.27     12.20     -2.99     -2.35     -2.25      4.14     -4.28     -4.87      2.15     -0.95      3.64      1.33     -6.36      0.35      2.74     -9.30     -6.31      5.32      3.34      2.78
      19.302187     146.727509     281.4      3.39      2.59      37.3         3         1      3894      1000   1503.09    -8.230       4.1      23.7   447.657     0.766     199.7   0.18193     100.0         H               347.8  0.065592  0.106815  0.002538  5.092099  0.938002  5.428667  1.240567    215.03    2.5364   13.6864   0.28570   4.12571   0.40784   0.04491  19.55243   2.72213    1864.5  0.590400  0.001499  0.000067  0.000314  0.261587  7.987952  0.815704     38.12  0.999861  0.999988     3.147    20.472      97.3      68.8      24.5     221.2     15.27     11.25     -3.66     -2.88     -2.37      4.51     -3.93     -4.43      2.45     -0.97      3.24      1.74     -5.61      0.61      2.55     -9.48     -5.34      6.20      2.79      2.47
      19.313095     146.784286     282.0      3.49      2.59      43.1         3         2      3894      2653   1250.51    -9.029       3.8      24.2   451.201     0.774     213.0   0.18465     100.0         H               347.8  0.066143  0.109525  0.002371  5.036263  0.921354  5.466153  1.247705    241.82    2.0394    9.5117   0.28624   3.76462   0.45595   0.06322  13.57828   2.24226    1560.3  0.594120  0.001860  0.000086  0.000346  0.259745  8.010752  0.823857     41.18  0.999907  0.999992     3.194    21.300      94.9      63.7      17.2     180.5     14.99     11.97     -3.09     -2.10     -2.06      3.82     -4.14     -5.06      2.63     -0.88      2.66      2.04     -6.93      0.83      3.34     -7.92     -4.67      5.22      2.05      2.43
      19.323790     146.840027     278.1      3.46      2.59      31.6         3         3      3894      4306   1140.91    -9.428       3.9      24.7   449.004     0.770     212.5   0.18454     100.0         H               347.8  0.064175  0.110402  0.002090  4.907222  0.920830  5.329127  1.246042    279.09    1.8226    7.8534   0.28564   3.58507   0.48091   0.07470  11.22036   2.02975    1421.6  0.592495  0.001733  0.000074  0.000373  0.263627  8.067627  0.820348     34.14  0.999943  0.999995     3.152    20.194      99.7      60.9      14.3     154.1     14.95     11.79     -4.28     -2.13     -2.21      4.48     -4.41     -5.03      3.57     -2.89      4.08      3.05     -5.90      0.83      2.72     -7.50     -4.76      5.53      3.77      2.36
