corner points
-36.86050034    42.82302094
-36.91197205    42.64425659
-37.10902023    42.86074829
-37.15971756    42.68194199
========== RESULTS WAVE VERSION 16.10.2018 ====================
IMAGE SIZE  X: 5643     Y:4922    col:row     POLARIZATION:VV
COVERAGE    X: 20.64289806km       Y: 20.26747213km 
RESOLUTION dX: 3.658142488m       dY:4.117731029m  
resolution of original product 3.658142488m x 4.117731029m;   raster step x:5999.353681m  
===============================================================
FLAGS: H=HIGH PROBABILITY SEA STATE, I=LAND(ISLAND), O=OUTLIER NO SEA STATE, N=NO WIND AVAILABLE, SEA STATE NOT VISIBLE, M=MEAN PROBABILITY SEA STATE, L= LOW PROBABILITY SEA STATE
Filtering wave length
 integration  Lmin=1m
 integration  Lmax=2200m
  peak        Lmin=100m
               FFT=1024pixels, 3745.937908m 
   mean-Hs (SWH_c)=1.402310944m
         mean-wind=5.408436298m/s
--------------0--------------1---------2---------3---------4---------5---------6---------7---------8---------9--------10--------11--------12--------13--------14--------15--------16--------17--------18--------19------------------20--------21--------22--------23--------24--------25--------26--------27--------28--------29--------30--------31--------32--------33--------34--------35--------36--------37--------38--------39--------40--------41--------42--------43--------44--------45--------46--------47--------48--------49--------50--------51--------52--------53--------54--------55--------56--------57--------58--------59--------60--------61--------62--------63--------64--------65--------66--------67--------68--------69--------70--------71--------72--------73
            LAT            LON  P-LENGHT     SWH_o     SWH_c     P-DIR      LINE     POINT     ROW-Y     COL-X  M-INTENC        dB      WIND INC-ANGLE  ENERGY-M  ENERGY-N  ENERGY-R ENERGY-NN  FG-DEPTH      FLAG         HEADING-DEG    E30-75   E75-390  E390-600 meanincut   meanout   cut/out  STD-NORM  SPEC-MAX   GL-MEAN    GL-VAR      CORR   ENTROPY   HOMOGEN    ENERGY  CONTRAST  DISSIMIL     STD-O    E 1-30 E600-2000   E2000 >      GODA  LONG-HIG     Tmean  CONVOLUT  MEAN-DIR  relation     Sy/Sx  SKEWNESS  KURTOSIS  cutoff-A >50/10000     INT*V   INT-LOG  S-1_g1f1  S-2_g1f2  S-3_g1f3  S-4_g2f1  S-5_g2f2  S-6_g2f3  S-7_g3f1  S-8_g3f2  S-9_g3f3 S-10_g1f4 S-11_g2f4 S-12_g3f4 S-13_g1f5 S-14_g2f5 S-15_g3f5 S-16_g4f1 S-17_g4f2 S-18_g4f3 S-19_g4f4 S-20_g4f5
--------------1--------------2---------3---------4---------5---------6---------7---------8---------9--------10--------11--------12--------13--------14--------15--------16--------17--------18--------19--------20------------------21--------22--------23--------24--------25--------26--------27--------28--------29--------30--------31--------32--------33--------34--------35--------36--------37--------38--------39--------40--------41--------42--------43--------44--------45--------46--------47--------48--------49--------50--------51--------52--------53--------54--------55--------56--------57--------58--------59--------60--------61--------62--------63--------64--------65--------66--------67--------68--------69--------70--------71--------72--------73--------74
      42.793594     -36.916130     271.3      1.45      2.65     154.2         1         1      1000      1000   2159.03    -6.657       5.7      23.5   405.667     0.807     107.2   0.20165     100.0         H               193.8  0.096029  0.075421  0.001074  7.042754  0.968804  7.269537  1.272063     43.11    3.8317   29.2685   0.29324   4.83797   0.31676   0.02172  41.37249   3.98720    2746.4  0.634293  0.000977  0.000042  0.000212  0.195163  7.215515  0.849209     94.10  1.000199  1.000025     3.658    29.588      94.9      78.1      52.6     415.6     12.40     -4.28      0.62      2.60      0.82      5.90      0.59      1.94      4.59     -0.03     -1.30     -0.54     -1.13      1.61      3.07     -2.26      2.10      6.48     -1.24      2.98
      42.804707     -36.989090     311.6      1.68      2.65     144.4         1         2      1000      2640   1801.03    -7.445       5.2      24.0   407.663     0.816     128.0   0.20651     100.0         H               193.8  0.096196  0.083065  0.001171  7.367837  0.970534  7.591527  1.279497     54.11    3.1285   20.8035   0.29834   4.47860   0.35987   0.03116  29.19377   3.30821    2304.2  0.634948  0.001174  0.000068  0.000213  0.197656  7.285667  0.860261     93.23  1.000209  1.000026     3.753    32.889      94.9      73.8      36.8     347.3     12.17     -4.13      0.78      3.22      1.38      6.91      1.53      1.78      4.99      0.81     -1.28     -0.49     -0.97      1.56      3.24     -1.84      2.70      7.90     -2.04      2.44
      42.815567     -37.060745     313.3      1.51      2.65     138.0         1         3      1000      4280   1549.10    -8.099       5.0      24.4   405.986     0.807     162.2   0.20136     100.0         H               193.8  0.094589  0.079116  0.001321  7.310869  0.962057  7.599206  1.274301     52.92    2.6228   15.2420   0.29241   4.17928   0.39694   0.04154  21.57000   2.82772    1974.0  0.630341  0.001877  0.000126  0.000209  0.197310  7.264054  0.849196     92.05  1.000209  1.000025     3.629    28.943      94.9      69.9      26.9     271.4     12.42     -4.41      1.30      2.80      1.46      6.03      1.02      2.12      4.44      0.02     -1.11     -0.09     -1.45      1.72      3.07     -2.62      2.77      6.38     -1.17      2.25
      42.740665     -36.931335     277.4      1.20      2.65     148.8         2         1      2457      1000   2230.37    -6.516       6.0      23.5   401.389     0.795     210.7   0.19655     100.0         H               193.8  0.094675  0.067875  0.001091  6.431029  0.976507  6.585750  1.263183     49.86    3.9667   30.8982   0.28873   4.90206   0.30863   0.02020  43.95335   4.11819    2817.1  0.628591  0.002738  0.000172  0.000208  0.190760  7.151105  0.834439     94.51  1.000227  1.000027     3.484    24.978      94.9      78.9      55.4     362.0     12.15     -4.19      0.48      2.71      1.11      6.06      1.24      1.33      4.15      1.02     -2.18     -1.20     -0.79      1.52      2.73     -2.49      2.35      7.33     -3.04      2.00
      42.751770     -37.004230     293.7      1.38      2.65     146.7         2         2      2457      2640   1832.53    -7.369       5.4      24.0   401.578     0.797     123.1   0.19826     100.0         H               193.8  0.095569  0.075095  0.001348  6.883272  0.974656  7.062254  1.265581     68.55    3.1981   21.2294   0.29163   4.52150   0.35387   0.02961  30.07616   3.37656    2319.0  0.624678  0.001308  0.000050  0.000213  0.196682  7.221456  0.839139     96.86  1.000198  1.000023     3.545    27.280      97.3      74.4      37.6     313.5     12.71     -5.59      0.22      1.86      1.73      6.35      0.83      1.87      4.08      0.62     -2.12     -0.36     -1.88      2.15      3.06     -4.05      4.27      7.65     -2.51      3.55
      42.762630     -37.075817     281.0      1.55      2.65     143.1         2         3      2457      4280   1532.03    -8.147       4.9      24.4   401.471     0.800     122.0   0.20063     100.0         H               193.8  0.093842  0.079916  0.001069  7.309502  0.972201  7.518512  1.266406     52.99    2.5925   14.8309   0.29422   4.16140   0.39879   0.04199  20.93477   2.79351    1940.2  0.624460  0.001302  0.000050  0.000209  0.196833  7.268775  0.842787     95.32  1.000219  1.000026     3.516    26.077      92.7      69.8      26.2     249.3     12.33     -4.22      1.21      3.24      1.01      6.39      0.86      1.70      4.63     -0.14     -1.25     -0.81     -0.68      1.97      3.10     -1.76      2.21      6.65     -1.01      2.69
      42.687733     -36.946526     268.5      1.12      2.65     139.8         3         1      3914      1000   2199.18    -6.577       5.9      23.5   395.968     0.780     168.6   0.18976     100.0         H               193.8  0.090561  0.064684  0.001040  6.224041  0.956164  6.509387  1.252354     40.11    3.9024   29.4245   0.28346   4.87876   0.30986   0.02035  42.16745   4.05621    2754.1  0.621795  0.002116  0.000155  0.000204  0.189347  7.152819  0.817987     91.46  1.000212  1.000025     3.502    26.222      94.9      78.8      53.1     366.6     12.25     -4.41      0.88      2.57      1.34      5.54      0.94      1.89      3.94     -0.09     -1.37     -0.20     -1.45      1.99      2.97     -2.73      2.81      6.35     -1.30      2.99
      42.698837     -37.019352     277.4      1.40      2.65     148.8         3         2      3914      2640   1875.39    -7.269       5.5      24.0   398.998     0.792      99.7   0.19671     100.0         H               193.8  0.093032  0.074007  0.001147  6.778044  0.969545  6.990951  1.260758     71.26    3.2720   21.9160   0.29044   4.56396   0.34722   0.02808  31.10119   3.44866    2364.2  0.623208  0.000829  0.000034  0.000206  0.197546  7.237479  0.832416     94.03  1.000200  1.000024     3.551    27.863      92.7      75.1      39.0     333.9     12.30     -4.18      0.47      2.59      1.47      6.28      1.09      1.51      4.76      0.59     -1.43     -0.65     -0.93      2.22      2.84     -2.46      2.98      6.93     -1.38      3.32
      42.709690     -37.090874     306.2      1.33      2.65     150.6         3         3      3914      4280   1560.88    -8.066       5.0      24.4   398.298     0.788     119.2   0.19468     100.0         H               193.8  0.091471  0.073457  0.001136  6.742522  0.944224  7.140806  1.258228     42.66    2.6575   15.2168   0.28805   4.20873   0.39071   0.03946  21.66709   2.85860    1963.9  0.620683  0.001307  0.000064  0.000208  0.195304  7.240045  0.827738     92.34  1.000237  1.000029     3.580    28.362      94.9      70.6      27.1     264.8     12.13     -3.36      0.92      3.17      1.07      6.29      1.26      1.72      4.73      0.96     -1.14     -0.11     -0.71      1.93      3.21     -2.03      2.03      6.81     -1.83      2.89
