corner points
-36.35839844    44.58006668
-36.41178513    44.40169144
-36.61409378    44.61808395
-36.66663361    44.43966293
========== RESULTS WAVE VERSION 16.10.2018 ====================
IMAGE SIZE  X: 5643     Y:4916    col:row     POLARIZATION:VV
COVERAGE    X: 20.63199786km       Y: 20.23136009km 
RESOLUTION dX: 3.656210855m       dY:4.115410922m  
resolution of original product 3.656210855m x 4.115410922m;   raster step x:5999.842013m  
===============================================================
FLAGS: H=HIGH PROBABILITY SEA STATE, I=LAND(ISLAND), O=OUTLIER NO SEA STATE, N=NO WIND AVAILABLE, SEA STATE NOT VISIBLE, M=MEAN PROBABILITY SEA STATE, L= LOW PROBABILITY SEA STATE
Filtering wave length
 integration  Lmin=1m
 integration  Lmax=2200m
  peak        Lmin=100m
               FFT=1024pixels, 3743.959916m 
   mean-Hs (SWH_c)=1.168963776m
         mean-wind=3.785802603m/s
--------------0--------------1---------2---------3---------4---------5---------6---------7---------8---------9--------10--------11--------12--------13--------14--------15--------16--------17--------18--------19------------------20--------21--------22--------23--------24--------25--------26--------27--------28--------29--------30--------31--------32--------33--------34--------35--------36--------37--------38--------39--------40--------41--------42--------43--------44--------45--------46--------47--------48--------49--------50--------51--------52--------53--------54--------55--------56--------57--------58--------59--------60--------61--------62--------63--------64--------65--------66--------67--------68--------69--------70--------71--------72--------73
            LAT            LON  P-LENGHT     SWH_o     SWH_c     P-DIR      LINE     POINT     ROW-Y     COL-X  M-INTENC        dB      WIND INC-ANGLE  ENERGY-M  ENERGY-N  ENERGY-R ENERGY-NN  FG-DEPTH      FLAG         HEADING-DEG    E30-75   E75-390  E390-600 meanincut   meanout   cut/out  STD-NORM  SPEC-MAX   GL-MEAN    GL-VAR      CORR   ENTROPY   HOMOGEN    ENERGY  CONTRAST  DISSIMIL     STD-O    E 1-30 E600-2000   E2000 >      GODA  LONG-HIG     Tmean  CONVOLUT  MEAN-DIR  relation     Sy/Sx  SKEWNESS  KURTOSIS  cutoff-A >50/10000     INT*V   INT-LOG  S-1_g1f1  S-2_g1f2  S-3_g1f3  S-4_g2f1  S-5_g2f2  S-6_g2f3  S-7_g3f1  S-8_g3f2  S-9_g3f3 S-10_g1f4 S-11_g2f4 S-12_g3f4 S-13_g1f5 S-14_g2f5 S-15_g3f5 S-16_g4f1 S-17_g4f2 S-18_g4f3 S-19_g4f4 S-20_g4f5
--------------1--------------2---------3---------4---------5---------6---------7---------8---------9--------10--------11--------12--------13--------14--------15--------16--------17--------18--------19--------20------------------21--------22--------23--------24--------25--------26--------27--------28--------29--------30--------31--------32--------33--------34--------35--------36--------37--------38--------39--------40--------41--------42--------43--------44--------45--------46--------47--------48--------49--------50--------51--------52--------53--------54--------55--------56--------57--------58--------59--------60--------61--------62--------63--------64--------65--------66--------67--------68--------69--------70--------71--------72--------73--------74
      44.550732     -36.415730     133.4      1.43      2.20      93.6         1         1      1000      1000   1420.62    -8.475       3.7      23.5   391.789     0.760      94.4   0.18030      11.8         H               194.1  0.083730  0.077767  0.000941  6.540505  0.916279  7.138118  1.236102     60.91    2.3759   12.1638   0.27994   4.02692   0.41315   0.04645  17.51741   2.58103    1755.9  0.597242  0.000821  0.000036  0.000218  0.193078  7.315132  0.798493     94.79  1.000170  1.000018     3.302    22.556      79.7      68.3      21.9     211.2     11.58     -4.33     -0.92      3.17      0.28      5.98      1.51      1.25      5.74      0.77     -2.91     -1.94     -0.30      1.41      3.15     -0.99      1.43      8.01     -3.34      2.41
      44.561935     -36.490837     306.0      1.43      2.20     150.6         1         2      1000      2641   1286.15    -8.907       3.8      24.0   388.963     0.751     127.3   0.17701     100.0         H               194.1  0.081638  0.076424  0.000872  6.960878  0.911265  7.638697  1.228598     47.32    2.1070    9.8056   0.27793   3.83166   0.43918   0.05559  14.16056   2.31755    1580.1  0.591093  0.001489  0.000065  0.000197  0.192703  7.310019  0.788855     90.15  1.000164  1.000018     3.240    21.627      79.7      65.7      17.9     182.6     11.72     -4.30     -0.79      3.26      0.24      5.70      1.03      1.53      4.89      0.47     -2.30     -1.02     -1.00      1.18      2.78     -1.27      1.61      7.58     -2.49      2.29
      44.572884     -36.564602     141.9      1.38      2.20      99.7         1         3      1000      4282   1229.72    -9.102       4.0      24.4   390.241     0.754     120.8   0.17784      13.6         H               194.1  0.082382  0.074540  0.000855  6.851794  0.918879  7.456688  1.232261     43.33    1.9972    9.0002   0.27645   3.74474   0.45090   0.06038  13.02431   2.21421    1515.2  0.595799  0.001284  0.000071  0.000209  0.193352  7.318045  0.791905     88.60  1.000174  1.000019     3.308    22.937      83.0      64.4      16.4     186.0     11.57     -3.85      0.78      4.13      0.38      6.18      1.73      1.37      5.17      0.00     -1.81     -0.85      0.04      1.76      2.73     -0.38      1.84      7.27     -1.60      2.33
      44.497852     -36.431519     297.5      1.11      2.20     156.6         2         1      2457      1000   1528.89    -8.156       4.0      23.5   394.004     0.766     140.6   0.18295     100.0         H               194.1  0.088354  0.071325  0.000735  6.450743  0.924864  6.974798  1.242026     43.25    2.5846   14.1491   0.28043   4.16633   0.39581   0.04092  20.36246   2.78790    1898.9  0.604479  0.001576  0.000078  0.000211  0.191396  7.224960  0.804082     88.92  1.000158  1.000017     3.349    23.888      84.8      70.1      25.4     241.8     11.71     -4.33     -0.04      3.72     -0.18      6.08      1.21      1.11      5.19      0.17     -2.81     -1.34     -0.30      1.09      2.59     -0.53      1.42      7.19     -2.87      2.11
      44.509052     -36.506550     128.1      1.14      2.20      97.0         2         2      2457      2641   1375.94    -8.614       4.0      24.0   395.813     0.772     102.1   0.18531      10.8         H               194.1  0.090369  0.072688  0.000937  6.733407  0.937757  7.180335  1.245827     48.45    2.2820   11.5008   0.28197   3.95801   0.42289   0.04977  16.51569   2.49149    1714.1  0.607137  0.000978  0.000049  0.000207  0.189526  7.231771  0.810361     89.59  1.000164  1.000017     3.487    27.069      84.8      67.3      20.7     225.4     11.75     -3.82      0.44      3.60      0.21      6.24      1.52      1.09      4.96     -0.18     -2.13     -0.77      0.03      1.49      2.71     -1.06      1.71      7.70     -2.08      2.21
      44.519997     -36.580246     124.3      1.11      2.20      95.1         2         3      2457      4282   1136.57    -9.444       3.7      24.4   398.462     0.777     113.5   0.18676      10.1         H               194.1  0.088814  0.076919  0.000907  7.199140  0.938071  7.674406  1.250272     43.82    1.8239    7.9320   0.28221   3.59449   0.47347   0.07041  11.38711   2.04454    1421.1  0.609332  0.001214  0.000054  0.000207  0.187820  7.260400  0.816321     89.61  1.000183  1.000020     3.605    32.066      83.0      61.8      14.4     210.1     11.34     -3.71      0.29      4.04     -0.10      5.91      1.98      1.09      5.02      0.01     -2.15     -1.14     -0.22      0.94      2.13     -0.45      1.28      7.27     -1.83      1.70
      44.444973     -36.447289     127.0      0.97      2.20     100.4         3         1      3914      1000   1422.46    -8.470       3.7      23.5   393.049     0.767      89.1   0.18394      10.6         H               194.1  0.090660  0.069866  0.000931  6.744986  0.916738  7.357592  1.240053     38.79    2.3841   12.3222   0.28206   4.03163   0.41276   0.04631  17.69322   2.59051    1763.8  0.604865  0.000841  0.000029  0.000199  0.185610  7.180326  0.805145     92.78  1.000198  1.000022     3.372    24.295      83.0      68.4      22.2     221.7     11.55     -4.04     -0.03      3.65     -0.37      5.43      1.50      0.92      4.73     -0.65     -2.46     -1.41     -0.96      0.86      2.26     -1.14      1.04      7.02     -2.44      2.22
      44.456165     -36.522247     297.5      1.08      2.20     156.6         3         2      3914      2641   1229.89    -9.101       3.6      24.0   395.067     0.768     126.9   0.18404     100.0         H               194.1  0.089276  0.072362  0.000880  6.870541  0.931834  7.373135  1.242069     58.80    2.0005    9.1761   0.28065   3.74317   0.45212   0.06122  13.20180   2.21959    1527.5  0.604430  0.001470  0.000072  0.000196  0.191776  7.219024  0.806615     90.39  1.000168  1.000018     3.369    24.214      83.0      64.1      16.7     191.7     11.81     -4.75     -0.09      3.34      0.11      5.90      1.31      1.44      4.52     -0.19     -2.93     -0.71     -0.85      0.89      2.32     -1.60      1.91      7.12     -2.38      1.78
      44.467110     -36.595871     293.6      0.87      2.20     146.7         3         3      3914      4282   1140.72    -9.428       3.7      24.4   391.596     0.758     102.4   0.17987     100.0         H               194.1  0.087102  0.070691  0.000735  6.925786  0.931806  7.432647  1.232442     35.93    1.8318    7.8206   0.27743   3.60587   0.47062   0.06885  11.30200   2.05326    1405.9  0.598869  0.000952  0.000051  0.000191  0.189047  7.239208  0.795182     87.77  1.000167  1.000018     3.297    22.854      79.7      62.2      14.3     176.2     11.69     -4.22     -0.05      3.77      0.21      5.61      1.04      1.39      4.70     -0.07     -2.28     -0.99     -0.75      0.79      2.04     -0.51      1.78      6.90     -2.25      1.66
