corner points
-45.01278687    15.77429199
-45.04824066    15.5993042
-45.19846725    15.80942059
-45.23375702    15.63446331
========== RESULTS WAVE VERSION 16.10.2018 ====================
IMAGE SIZE  X: 4476     Y:4780    col:row     POLARIZATION:VV
COVERAGE    X: 20.20259091km       Y: 19.7767392km 
RESOLUTION dX: 4.513536842m       dY:4.137393139m  
resolution of original product 4.513536842m x 4.137393139m;   raster step x:5998.490463m  
===============================================================
FLAGS: H=HIGH PROBABILITY SEA STATE, I=LAND(ISLAND), O=OUTLIER NO SEA STATE, N=NO WIND AVAILABLE, SEA STATE NOT VISIBLE, M=MEAN PROBABILITY SEA STATE, L= LOW PROBABILITY SEA STATE
Filtering wave length
 integration  Lmin=1m
 integration  Lmax=2200m
  peak        Lmin=100m
               FFT=1024pixels, 4621.861726m 
   mean-Hs (SWH_c)=0.2m
         mean-wind=6.598147392m/s
--------------0--------------1---------2---------3---------4---------5---------6---------7---------8---------9--------10--------11--------12--------13--------14--------15--------16--------17--------18--------19------------------20--------21--------22--------23--------24--------25--------26--------27--------28--------29--------30--------31--------32--------33--------34--------35--------36--------37--------38--------39--------40--------41--------42--------43--------44--------45--------46--------47--------48--------49--------50--------51--------52--------53--------54--------55--------56--------57--------58--------59--------60--------61--------62--------63--------64--------65--------66--------67--------68--------69--------70--------71--------72--------73
            LAT            LON  P-LENGHT     SWH_o     SWH_c     P-DIR      LINE     POINT     ROW-Y     COL-X  M-INTENC        dB      WIND INC-ANGLE  ENERGY-M  ENERGY-N  ENERGY-R ENERGY-NN  FG-DEPTH      FLAG         HEADING-DEG    E30-75   E75-390  E390-600 meanincut   meanout   cut/out  STD-NORM  SPEC-MAX   GL-MEAN    GL-VAR      CORR   ENTROPY   HOMOGEN    ENERGY  CONTRAST  DISSIMIL     STD-O    E 1-30 E600-2000   E2000 >      GODA  LONG-HIG     Tmean  CONVOLUT  MEAN-DIR  relation     Sy/Sx  SKEWNESS  KURTOSIS  cutoff-A >50/10000     INT*V   INT-LOG  S-1_g1f1  S-2_g1f2  S-3_g1f3  S-4_g2f1  S-5_g2f2  S-6_g2f3  S-7_g3f1  S-8_g3f2  S-9_g3f3 S-10_g1f4 S-11_g2f4 S-12_g3f4 S-13_g1f5 S-14_g2f5 S-15_g3f5 S-16_g4f1 S-17_g4f2 S-18_g4f3 S-19_g4f4 S-20_g4f5
--------------1--------------2---------3---------4---------5---------6---------7---------8---------9--------10--------11--------12--------13--------14--------15--------16--------17--------18--------19--------20------------------21--------22--------23--------24--------25--------26--------27--------28--------29--------30--------31--------32--------33--------34--------35--------36--------37--------38--------39--------40--------41--------42--------43--------44--------45--------46--------47--------48--------49--------50--------51--------52--------53--------54--------55--------56--------57--------58--------59--------60--------61--------62--------63--------64--------65--------66--------67--------68--------69--------70--------71--------72--------73--------74
      15.745629     -45.062153     138.5      0.39      1.61      41.2         1         1      1000      1000    197.51   -17.044       6.4      36.9   219.924     0.539      29.0   0.05718      12.9         H               192.1  0.038647  0.017198  0.000358  1.601567  0.615315  2.602840  1.041882      8.45    3.4723   16.8583   0.07495   4.74781   0.28793   0.01720  31.18974   3.84030     205.8  0.482587  0.000368  0.000024  0.000107  0.179078  6.999805  0.540945     60.60  1.000030  1.000002     2.240    11.019      83.0      80.5      34.5     187.9     10.20      0.64     -2.28      4.59      2.04      1.36      2.11      1.91      2.24      1.18      0.47      0.51     -1.50     -2.98     -0.65     -1.71      2.10      3.16      0.43     -2.15
      15.756107     -45.117481     118.8      0.41      1.61      72.0         1         2      1000      2329    200.06   -16.988       6.8      37.3   219.155     0.539      66.3   0.05785       9.2         H               192.1  0.038927  0.016930  0.000440  1.581152  0.619068  2.554084  1.041608      8.49    3.5254   17.2679   0.07822   4.77431   0.28575   0.01674  31.83404   3.88151     208.4  0.481468  0.000936  0.000135  0.000107  0.178621  6.976417  0.540679     68.54  1.000041  1.000002     2.239    11.055      83.0      80.9      35.4     194.2     10.47      0.39     -1.90      3.88      1.91      1.70      2.25      1.70      2.29      1.57      0.42      1.14     -0.53     -2.76      0.00     -3.17      2.50      3.28     -0.17     -3.03
      15.766482     -45.172344     349.0      0.40      1.61     171.3         1         3      1000      3658    182.93   -17.377       6.5      37.7   218.479     0.530      42.3   0.05387     100.0         H               192.1  0.036966  0.014318  0.000377  1.308976  0.603881  2.167605  1.033461      5.51    3.1844   14.2003   0.06596   4.59782   0.30287   0.01970  26.52729   3.55454     189.1  0.478147  0.000624  0.000073  0.000100  0.174648  6.915903  0.530998     64.67  1.000016  1.000001     2.172    10.368      83.0      79.0      29.6     169.7     10.26      0.79     -2.39      3.83      2.07      1.60      2.64      1.32      2.27      1.27      0.09      1.27     -0.55     -2.05     -0.06     -3.16      2.41      3.62     -0.65     -1.72
      15.692538     -45.072899     302.0      0.39      1.61     176.3         2         1      2450      1000    196.67   -17.063       6.4      36.9   220.046     0.538      45.6   0.05626     100.0         H               192.1  0.038544  0.016066  0.000359  1.461218  0.610846  2.392120  1.041097      6.75    3.4563   16.6937   0.07272   4.73989   0.28851   0.01734  30.95954   3.83024     204.7  0.482586  0.000616  0.000077  0.000101  0.179495  6.964185  0.539639     65.77  1.000028  1.000001     2.219    10.745      84.8      80.3      34.3     182.6     10.40     -0.02     -2.66      3.95      1.77      1.62      2.00      1.87      2.23      1.43      0.40      0.54     -1.11     -2.61     -0.28     -2.50      2.19      3.78      0.05     -2.27
      15.703019     -45.128212     127.1      0.41      1.61      74.3         2         2      2450      2329    198.94   -17.013       6.7      37.3   218.170     0.534      42.7   0.05612      10.6         H               192.1  0.038221  0.016092  0.000371  1.480770  0.614303  2.410490  1.036694      7.56    3.5038   16.9174   0.07355   4.76423   0.28556   0.01679  31.34628   3.86275     206.3  0.478504  0.000634  0.000059  0.000103  0.179559  6.975112  0.535278     66.79  1.000006  1.000000     2.200    10.627      83.0      80.9      34.8     185.2     10.38      0.12     -2.17      4.14      2.02      1.67      2.10      1.71      2.19      1.50      0.06      1.04     -1.10     -2.28     -0.11     -2.41      2.80      3.70     -0.74     -1.71
      15.713397     -45.183060     119.5      0.42      1.61      68.5         2         3      2450      3658    196.42   -17.068       6.9      37.7   217.494     0.530      35.5   0.05523       9.3         H               192.1  0.037655  0.015416  0.000310  1.435138  0.597800  2.400698  1.033236      6.35    3.4514   16.3843   0.07060   4.73810   0.28806   0.01719  30.45514   3.81309     202.9  0.476829  0.000494  0.000047  0.000102  0.178108  6.957830  0.531518     69.89  1.000054  1.000003     2.177    10.446      84.8      80.5      33.9     184.1     10.37     -0.25     -1.97      4.34      1.65      1.73      1.81      1.73      2.25      1.06     -0.19      0.80     -1.24     -2.14      0.06     -1.90      2.35      3.31     -0.42     -1.36
      15.639447     -45.083645     125.6      0.39      1.61      78.0         3         1      3900      1000    193.40   -17.135       6.3      36.9   218.538     0.535      37.4   0.05620      10.3         H               192.1  0.038776  0.016041  0.000399  1.461715  0.615099  2.376389  1.038593      6.97    3.3911   16.0540   0.07353   4.70671   0.29173   0.01786  29.74733   3.75796     200.8  0.479748  0.000572  0.000043  0.000100  0.179408  6.957551  0.537250     76.26  1.000015  1.000000     2.213    10.743      84.8      80.0      33.1     181.4     10.59     -0.01     -3.05      3.45      1.64      1.91      1.82      1.57      2.47      1.56      0.02      0.67     -0.43     -1.96      0.03     -3.59      1.93      4.44     -0.77     -1.46
      15.649931     -45.138943     280.4      0.40      1.61     173.0         3         2      3900      2329    192.49   -17.156       6.5      37.3   218.277     0.534      32.6   0.05535     100.0         H               192.1  0.038554  0.015559  0.000325  1.419425  0.608167  2.333940  1.036814      8.53    3.3752   15.8292   0.07210   4.69876   0.29241   0.01794  29.37602   3.73866     199.6  0.478995  0.000422  0.000036  0.000100  0.178862  6.941883  0.535255     69.87  1.000033  1.000001     2.192    10.544      83.0      80.1      32.7     181.0     10.63     -0.19     -2.73      3.59      2.05      1.70      1.46      1.58      2.48      1.65     -0.19      0.58     -1.00     -2.06      0.05     -2.72      2.42      3.37     -0.88     -0.88
      15.660311     -45.193779     136.2      0.42      1.61      50.0         3         3      3900      3658    196.47   -17.067       6.9      37.7   218.127     0.532      42.5   0.05461      12.4         H               192.1  0.037601  0.014620  0.000333  1.377610  0.606182  2.272602  1.034708      6.24    3.4530   16.4373   0.06991   4.73887   0.28767   0.01719  30.57648   3.81919     203.3  0.478693  0.000549  0.000078  0.000099  0.175163  6.924576  0.532826     65.65  1.000049  1.000002     2.182    10.455      83.0      80.5      33.9     184.5     10.26      0.16     -1.92      4.27      1.87      1.32      2.09      1.36      1.98      1.07     -0.20      0.71     -1.41     -2.25      0.56     -2.38      2.38      2.98     -0.75     -1.78
