corner points
-46.4489212    8.6928339
-46.48461151    8.517586708
-46.62951279    8.729298592
-46.66512299    8.554087639
========== RESULTS WAVE VERSION 16.10.2018 ====================
IMAGE SIZE  X: 4476     Y:4785    col:row     POLARIZATION:VV
COVERAGE    X: 20.2144212km       Y: 19.83041238km 
RESOLUTION dX: 4.516179894m       dY:4.14428681m  
resolution of original product 4.516179894m x 4.14428681m;   raster step x:5997.486899m  
===============================================================
FLAGS: H=HIGH PROBABILITY SEA STATE, I=LAND(ISLAND), O=OUTLIER NO SEA STATE, N=NO WIND AVAILABLE, SEA STATE NOT VISIBLE, M=MEAN PROBABILITY SEA STATE, L= LOW PROBABILITY SEA STATE
Filtering wave length
 integration  Lmin=1m
 integration  Lmax=2200m
  peak        Lmin=100m
               FFT=1024pixels, 4624.568211m 
   mean-Hs (SWH_c)=0.2167370987m
         mean-wind=7.661728859m/s
--------------0--------------1---------2---------3---------4---------5---------6---------7---------8---------9--------10--------11--------12--------13--------14--------15--------16--------17--------18--------19------------------20--------21--------22--------23--------24--------25--------26--------27--------28--------29--------30--------31--------32--------33--------34--------35--------36--------37--------38--------39--------40--------41--------42--------43--------44--------45--------46--------47--------48--------49--------50--------51--------52--------53--------54--------55--------56--------57--------58--------59--------60--------61--------62--------63--------64--------65--------66--------67--------68--------69--------70--------71--------72--------73
            LAT            LON  P-LENGHT     SWH_o     SWH_c     P-DIR      LINE     POINT     ROW-Y     COL-X  M-INTENC        dB      WIND INC-ANGLE  ENERGY-M  ENERGY-N  ENERGY-R ENERGY-NN  FG-DEPTH      FLAG         HEADING-DEG    E30-75   E75-390  E390-600 meanincut   meanout   cut/out  STD-NORM  SPEC-MAX   GL-MEAN    GL-VAR      CORR   ENTROPY   HOMOGEN    ENERGY  CONTRAST  DISSIMIL     STD-O    E 1-30 E600-2000   E2000 >      GODA  LONG-HIG     Tmean  CONVOLUT  MEAN-DIR  relation     Sy/Sx  SKEWNESS  KURTOSIS  cutoff-A >50/10000     INT*V   INT-LOG  S-1_g1f1  S-2_g1f2  S-3_g1f3  S-4_g2f1  S-5_g2f2  S-6_g2f3  S-7_g3f1  S-8_g3f2  S-9_g3f3 S-10_g1f4 S-11_g2f4 S-12_g3f4 S-13_g1f5 S-14_g2f5 S-15_g3f5 S-16_g4f1 S-17_g4f2 S-18_g4f3 S-19_g4f4 S-20_g4f5
--------------1--------------2---------3---------4---------5---------6---------7---------8---------9--------10--------11--------12--------13--------14--------15--------16--------17--------18--------19--------20------------------21--------22--------23--------24--------25--------26--------27--------28--------29--------30--------31--------32--------33--------34--------35--------36--------37--------38--------39--------40--------41--------42--------43--------44--------45--------46--------47--------48--------49--------50--------51--------52--------53--------54--------55--------56--------57--------58--------59--------60--------61--------62--------63--------64--------65--------66--------67--------68--------69--------70--------71--------72--------73--------74
       8.664452     -46.497185     202.2      0.46      1.96     135.6         1         1      1000      1000    243.49   -16.135       7.6      36.9   219.194     0.555      34.6   0.06568      32.5         H               192.0  0.044007  0.020289  0.000421  1.961782  0.649819  3.018968  1.056928     19.70    4.3883   26.3834   0.09584   5.16102   0.24851   0.01170  47.70943   4.73430     257.3  0.489840  0.000398  0.000040  0.000120  0.180436  6.986956  0.559274     87.96  1.000031  1.000002     2.320    11.770      88.6      84.3      52.8     250.1     10.82     -1.78     -1.67      4.06      2.05      2.38      1.07      3.81      2.75      2.21      1.11      1.53     -3.04     -1.69      1.45     -1.60      3.48      4.40      0.33     -0.50
       8.675318     -46.550964     120.7      0.46      1.96      70.0         1         2      1000      2328    232.95   -16.327       7.7      37.3   217.822     0.548      33.9   0.06330       9.5         H               192.0  0.042623  0.019043  0.000373  1.821215  0.626631  2.906361  1.050810     11.75    4.1798   23.8526   0.09124   5.07470   0.25662   0.01264  43.35272   4.52239     244.7  0.486201  0.000441  0.000035  0.000118  0.177021  6.980498  0.552416     74.46  1.000038  1.000002     2.266    11.143      88.6      83.7      48.0     231.3     10.55     -0.83     -1.67      4.19      1.54      2.37      1.40      2.82      3.17      1.80      1.22      1.67     -1.96     -1.35      0.98     -1.12      2.67      4.00      0.64     -0.28
       8.686084     -46.604290     133.8      0.47      1.96      67.8         1         3      1000      3656    226.88   -16.442       7.7      37.7   218.160     0.549      33.3   0.06327      11.9         H               192.0  0.042566  0.019792  0.000392  1.889895  0.644276  2.933362  1.050779     12.11    4.0576   22.6250   0.09106   5.02165   0.26129   0.01331  41.12956   4.40340     238.4  0.485954  0.000396  0.000032  0.000115  0.181221  7.004609  0.552940     77.61  1.000011  1.000000     2.291    11.564      86.6      83.0      45.6     234.3     10.78     -1.32     -1.98      4.09      2.15      2.41      1.12      3.35      3.12      2.42      1.35      1.32     -2.68     -1.58      0.90     -1.57      3.29      4.37      0.44     -0.15
       8.611447     -46.507973     190.2      0.46      1.96     132.2         2         1      2447      1000    242.11   -16.160       7.6      36.9   218.120     0.549      33.3   0.06345      27.5         H               192.0  0.042405  0.018861  0.000395  1.812291  0.638733  2.837322  1.051939     12.75    4.3604   25.8446   0.09044   5.15043   0.24906   0.01176  47.01434   4.71049     254.7  0.487754  0.000370  0.000036  0.000114  0.180114  6.992222  0.553409     79.48  1.000032  1.000001     2.273    11.256      88.6      84.2      51.9     242.1     10.72     -1.66     -1.82      4.09      1.77      2.46      1.18      3.23      2.66      2.30      0.92      1.07     -2.41     -1.63      1.21     -1.68      3.09      4.85     -0.17     -0.30
       8.622316     -46.561749     195.4      0.46      1.96     137.5         2         2      2447      2328    235.27   -16.284       7.7      37.3   218.912     0.552      32.0   0.06446      29.6         H               192.0  0.043368  0.019589  0.000357  1.882672  0.639922  2.942033  1.054185     13.68    4.2257   24.5014   0.09301   5.09377   0.25520   0.01244  44.44465   4.56698     248.0  0.488769  0.000375  0.000030  0.000117  0.178338  6.978614  0.556377     78.84  1.000019  1.000001     2.309    11.635      86.6      83.8      49.2     237.5     10.60     -1.37     -1.92      4.20      1.41      2.25      1.04      3.08      2.93      1.84      0.90      0.91     -2.43     -1.73      1.43     -1.08      2.45      4.06      0.55     -0.86
       8.633085     -46.615063     202.2      0.46      1.96     135.6         2         3      2447      3656    226.06   -16.458       7.7      37.7   218.351     0.548      33.5   0.06264      32.5         H               192.0  0.042272  0.018942  0.000408  1.814864  0.640764  2.832344  1.050423     14.05    4.0416   22.4471   0.08882   5.01475   0.26225   0.01341  40.90662   4.39236     237.4  0.486508  0.000380  0.000036  0.000112  0.178353  6.986284  0.552093     85.37  1.000027  1.000001     2.271    11.288      88.6      83.0      45.2     231.8     10.80     -1.64     -1.98      3.84      1.76      2.35      1.15      3.04      2.51      2.29      0.84      1.33     -2.58     -1.66      1.37     -2.08      3.19      4.58     -0.51     -0.64
       8.558443     -46.518764     121.9      0.46      1.96      71.6         3         1      3894      1000    246.60   -16.080       7.7      36.9   219.150     0.552      32.0   0.06468       9.7         H               192.0  0.042561  0.020060  0.000346  1.892796  0.637728  2.968031  1.053963     13.06    4.4502   26.9256   0.09213   5.18678   0.24580   0.01137  48.88930   4.79911     259.9  0.488563  0.000386  0.000028  0.000117  0.181909  7.009334  0.555335     79.88  1.000027  1.000002     2.287    11.296      86.6      84.5      53.9     238.9     10.59     -1.35     -2.04      4.39      1.54      2.39      0.97      3.14      3.39      2.28      1.05      0.95     -2.40     -1.57      1.19     -0.55      2.42      4.38      0.53     -0.45
       8.569316     -46.572529     199.2      0.46      1.96     142.9         3         2      3894      2328    230.84   -16.367       7.6      37.3   218.461     0.550      45.5   0.06343      31.2         H               192.0  0.042209  0.019197  0.000395  1.816110  0.626758  2.897624  1.052091     13.05    4.1383   23.4863   0.09016   5.05680   0.25828   0.01286  42.73745   4.48570     242.9  0.487792  0.000551  0.000071  0.000113  0.178546  6.990835  0.553646     79.57  1.000017  1.000001     2.283    11.395      86.6      83.5      47.3     234.7     10.60     -1.02     -2.29      3.82      1.62      2.21      1.23      2.92      3.06      1.96      0.97      0.61     -1.74     -1.54      1.03     -1.60      2.11      4.41      0.68     -1.18
       8.580088     -46.625835     196.1      0.46      1.96     133.9         3         3      3894      3656    223.63   -16.505       7.6      37.7   217.959     0.547      31.4   0.06286      29.9         H               192.0  0.042055  0.019429  0.000399  1.874135  0.637045  2.941920  1.049698     17.97    3.9928   21.9391   0.08939   4.99313   0.26422   0.01367  39.95599   4.33939     234.7  0.485516  0.000366  0.000027  0.000114  0.182140  7.013472  0.551370     91.21  1.000023  1.000001     2.272    11.186      86.6      82.8      44.2     213.4     10.74     -1.87     -1.95      4.03      1.30      2.24      0.93      3.44      2.75      1.67      0.68      1.15     -3.02     -1.90      1.81     -1.53      2.44      4.54      0.27     -0.96
