corner points
-35.82886887    46.33428955
-35.88454437    46.15599442
-36.0928421    46.37273788
-36.14759445    46.19438934
========== RESULTS WAVE VERSION 16.10.2018 ====================
IMAGE SIZE  X: 5643     Y:4919    col:row     POLARIZATION:VV
COVERAGE    X: 20.65606763km       Y: 20.23235986km 
RESOLUTION dX: 3.660476276m       dY:4.113104261m  
resolution of original product 3.660476276m x 4.113104261m;   raster step x:5999.520617m  
===============================================================
FLAGS: H=HIGH PROBABILITY SEA STATE, I=LAND(ISLAND), O=OUTLIER NO SEA STATE, N=NO WIND AVAILABLE, SEA STATE NOT VISIBLE, M=MEAN PROBABILITY SEA STATE, L= LOW PROBABILITY SEA STATE
Filtering wave length
 integration  Lmin=1m
 integration  Lmax=2200m
  peak        Lmin=100m
               FFT=1024pixels, 3748.327707m 
   mean-Hs (SWH_c)=0.6565326691m
         mean-wind=5.087449074m/s
--------------0--------------1---------2---------3---------4---------5---------6---------7---------8---------9--------10--------11--------12--------13--------14--------15--------16--------17--------18--------19------------------20--------21--------22--------23--------24--------25--------26--------27--------28--------29--------30--------31--------32--------33--------34--------35--------36--------37--------38--------39--------40--------41--------42--------43--------44--------45--------46--------47--------48--------49--------50--------51--------52--------53--------54--------55--------56--------57--------58--------59--------60--------61--------62--------63--------64--------65--------66--------67--------68--------69--------70--------71--------72--------73
            LAT            LON  P-LENGHT     SWH_o     SWH_c     P-DIR      LINE     POINT     ROW-Y     COL-X  M-INTENC        dB      WIND INC-ANGLE  ENERGY-M  ENERGY-N  ENERGY-R ENERGY-NN  FG-DEPTH      FLAG         HEADING-DEG    E30-75   E75-390  E390-600 meanincut   meanout   cut/out  STD-NORM  SPEC-MAX   GL-MEAN    GL-VAR      CORR   ENTROPY   HOMOGEN    ENERGY  CONTRAST  DISSIMIL     STD-O    E 1-30 E600-2000   E2000 >      GODA  LONG-HIG     Tmean  CONVOLUT  MEAN-DIR  relation     Sy/Sx  SKEWNESS  KURTOSIS  cutoff-A >50/10000     INT*V   INT-LOG  S-1_g1f1  S-2_g1f2  S-3_g1f3  S-4_g2f1  S-5_g2f2  S-6_g2f3  S-7_g3f1  S-8_g3f2  S-9_g3f3 S-10_g1f4 S-11_g2f4 S-12_g3f4 S-13_g1f5 S-14_g2f5 S-15_g3f5 S-16_g4f1 S-17_g4f2 S-18_g4f3 S-19_g4f4 S-20_g4f5
--------------1--------------2---------3---------4---------5---------6---------7---------8---------9--------10--------11--------12--------13--------14--------15--------16--------17--------18--------19--------20------------------21--------22--------23--------24--------25--------26--------27--------28--------29--------30--------31--------32--------33--------34--------35--------36--------37--------38--------39--------40--------41--------42--------43--------44--------45--------46--------47--------48--------49--------50--------51--------52--------53--------54--------55--------56--------57--------58--------59--------60--------61--------62--------63--------64--------65--------66--------67--------68--------69--------70--------71--------72--------73--------74
      46.305073     -35.888165     255.7      0.60      2.21     142.1         1         1      1000      1000   2135.65    -6.705       5.6      23.5   373.777     0.731     156.9   0.16904      84.3         H               194.3  0.084078  0.051458  0.000851  4.968723  0.928756  5.349870  1.212302     35.27    3.7993   26.5002   0.26752   4.84608   0.30937   0.02011  38.82149   3.95255    2588.9  0.592734  0.002170  0.000108  0.000184  0.187360  7.091819  0.762562     99.04  1.000161  1.000017     3.269    23.362      79.7      79.1      48.3     333.7     12.11     -5.93     -0.29      2.72     -0.73      3.47     -0.31      1.82      3.01     -1.02     -2.67     -1.37     -2.82     -0.27      2.11     -2.60      0.79      4.11     -2.05      0.70
      46.316391     -35.965607     253.2      0.61      2.21     147.3         1         2      1000      2639   1718.21    -7.649       5.0      23.9   374.467     0.733      90.1   0.17087      77.9         H               194.3  0.084476  0.054596  0.000644  5.124267  0.880487  5.819813  1.214528     41.56    2.9722   17.2742   0.26802   4.41621   0.35976   0.03079  25.28900   3.16439    2086.8  0.592784  0.000934  0.000042  0.000192  0.192791  7.115128  0.764740     99.00  1.000174  1.000018     3.220    21.750      83.0      74.0      31.3     245.1     12.24     -6.25     -0.43      3.00     -0.98      3.91     -0.99      2.28      3.51     -0.64     -2.49     -1.85     -2.46     -0.37      1.96     -1.43      0.61      4.06     -1.46      0.93
      46.327454     -36.041668     277.2      0.66      2.21     148.8         1         3      1000      4278   1521.07    -8.179       4.9      24.4   380.223     0.749     180.2   0.17712     100.0         H               194.3  0.086217  0.056674  0.000853  5.176090  0.909007  5.694223  1.228029     50.78    2.5731   13.7518   0.27305   4.16616   0.39234   0.03975  19.99396   2.78174    1867.9  0.603816  0.002271  0.000187  0.000191  0.197270  7.146817  0.783333    101.87  1.000205  1.000021     3.338    23.811      88.6      70.6      24.9     238.2     12.40     -6.53     -0.40      2.35     -0.41      4.19     -0.53      2.16      3.82      0.05     -3.29     -2.09     -2.56      0.31      2.56     -2.42      1.02      4.59     -2.94      1.10
      46.252213     -35.904633     280.9      0.60      2.21     143.2         2         1      2458      1000   2072.48    -6.835       5.4      23.5   372.491     0.726      85.5   0.16731     100.0         H               194.3  0.081758  0.051313  0.000762  4.734920  0.896110  5.283858  1.207355     44.20    3.6645   24.6799   0.26434   4.78437   0.31494   0.02124  36.31176   3.83293    2502.1  0.591794  0.000911  0.000046  0.000182  0.193949  7.111457  0.756426    102.37  1.000185  1.000017     3.221    22.562      81.3      78.4      45.0     316.8     12.26     -6.08     -0.69      2.43     -0.16      4.31     -0.19      2.16      3.81      0.25     -2.94     -2.03     -2.99      0.33      2.89     -2.51      1.22      4.76     -2.61      1.85
      46.263527     -35.981991     262.3      0.61      2.21     150.7         2         2      2458      2639   1725.49    -7.631       5.0      23.9   369.971     0.716      77.5   0.16304     119.6         H               194.3  0.079129  0.052723  0.000609  4.936431  0.879725  5.611337  1.199358     47.56    2.9809   16.9901   0.26216   4.42614   0.35672   0.03002  25.07232   3.17234    2069.4  0.583792  0.000714  0.000033  0.000191  0.192562  7.141339  0.746612    101.09  1.000161  1.000015     3.112    20.392      83.0      74.3      31.1     248.6     12.04     -5.97     -0.67      2.81     -0.20      4.86      0.07      2.03      4.07      0.24     -3.18     -2.03     -2.46      0.53      2.94     -1.41      1.03      5.95     -3.01      1.42
      46.274582     -36.057972     277.2      0.86      2.21     148.8         2         3      2458      4278   1510.28    -8.209       4.8      24.4   377.632     0.738      89.3   0.17230     100.0         H               194.3  0.082953  0.060113  0.000602  5.425892  0.897888  6.042948  1.218898     47.50    2.5620   13.4376   0.26931   4.16194   0.39229   0.03965  19.63733   2.77020    1840.8  0.594457  0.000860  0.000040  0.000203  0.196357  7.212255  0.770942    104.72  1.000165  1.000017     3.306    24.266      84.8      70.6      24.5     239.4     11.95     -6.28      0.53      3.66     -1.60      5.10      0.37      1.15      4.22     -1.30     -3.99     -2.30     -2.24      0.34      2.35     -0.54     -0.04      5.47     -3.35      1.87
      46.199352     -35.921074     131.5      0.59      2.21     100.8         3         1      3916      1000   2052.87    -6.876       5.4      23.5   374.728     0.732      73.7   0.16994      11.4         H               194.3  0.084027  0.052108  0.000709  5.016410  0.902227  5.560030  1.212852     32.82    3.6268   24.4423   0.26696   4.76388   0.31795   0.02180  35.83418   3.79524    2489.8  0.594934  0.000688  0.000038  0.000194  0.188261  7.118855  0.763135     96.81  1.000195  1.000022     3.223    21.977      83.0      78.1      44.5     305.3     11.78     -5.75      0.16      3.46     -0.99      4.07      0.22      1.60      3.72     -0.69     -2.78     -1.61     -2.73      0.43      2.91     -1.16      0.47      4.75     -2.89      1.84
      46.210659     -35.998356     293.5      0.66      2.21     146.8         3         2      3916      2639   1780.45    -7.495       5.2      23.9   375.132     0.734      79.4   0.17097     100.0         H               194.3  0.083885  0.054712  0.000669  5.058016  0.923362  5.477828  1.214458     51.99    3.0841   18.4515   0.26835   4.48058   0.35111   0.02874  27.00056   3.27446    2162.3  0.594974  0.000749  0.000033  0.000184  0.193238  7.135569  0.766372     98.79  1.000205  1.000021     3.261    22.392      81.3      74.9      33.6     255.9     11.95     -5.86     -0.40      2.89      0.09      4.50      0.16      1.61      4.05     -0.07     -2.84     -1.61     -2.53      1.29      2.65     -1.53      1.98      5.48     -2.75      2.79
      46.221710     -36.074261     279.2      0.72      2.21     158.1         3         3      3916      4278   1433.36    -8.436       4.6      24.4   372.150     0.719     101.2   0.16267     100.0         H               194.3  0.079365  0.056595  0.000799  5.221760  0.895843  5.828876  1.202203     46.45    2.4007   11.7327   0.26110   4.05893   0.40387   0.04303  17.33863   2.61217    1723.1  0.581953  0.001148  0.000046  0.000186  0.195989  7.188738  0.750139    101.73  1.000174  1.000016     3.205    22.105      81.3      69.4      21.7     207.0     12.03     -5.68     -0.57      2.58     -0.38      5.05      0.50      1.17      3.80     -0.08     -3.48     -1.68     -2.05      0.41      2.28     -2.25      1.36      6.60     -3.55      1.67
