corner points
-43.57420349    22.85123253
-43.61019135    22.6763134
-43.7684021    22.88521957
-43.80412674    22.71032524
========== RESULTS WAVE VERSION 16.10.2018 ====================
IMAGE SIZE  X: 4476     Y:4783    col:row     POLARIZATION:VV
COVERAGE    X: 20.20661301km       Y: 19.74883596km 
RESOLUTION dX: 4.514435436m       dY:4.12896424m  
resolution of original product 4.514435436m x 4.12896424m;   raster step x:5999.684695m  
===============================================================
FLAGS: H=HIGH PROBABILITY SEA STATE, I=LAND(ISLAND), O=OUTLIER NO SEA STATE, N=NO WIND AVAILABLE, SEA STATE NOT VISIBLE, M=MEAN PROBABILITY SEA STATE, L= LOW PROBABILITY SEA STATE
Filtering wave length
 integration  Lmin=1m
 integration  Lmax=2200m
  peak        Lmin=100m
               FFT=1024pixels, 4622.781887m 
   mean-Hs (SWH_c)=1.154771042m
         mean-wind=13.45658398m/s
--------------0--------------1---------2---------3---------4---------5---------6---------7---------8---------9--------10--------11--------12--------13--------14--------15--------16--------17--------18--------19------------------20--------21--------22--------23--------24--------25--------26--------27--------28--------29--------30--------31--------32--------33--------34--------35--------36--------37--------38--------39--------40--------41--------42--------43--------44--------45--------46--------47--------48--------49--------50--------51--------52--------53--------54--------55--------56--------57--------58--------59--------60--------61--------62--------63--------64--------65--------66--------67--------68--------69--------70--------71--------72--------73
            LAT            LON  P-LENGHT     SWH_o     SWH_c     P-DIR      LINE     POINT     ROW-Y     COL-X  M-INTENC        dB      WIND INC-ANGLE  ENERGY-M  ENERGY-N  ENERGY-R ENERGY-NN  FG-DEPTH      FLAG         HEADING-DEG    E30-75   E75-390  E390-600 meanincut   meanout   cut/out  STD-NORM  SPEC-MAX   GL-MEAN    GL-VAR      CORR   ENTROPY   HOMOGEN    ENERGY  CONTRAST  DISSIMIL     STD-O    E 1-30 E600-2000   E2000 >      GODA  LONG-HIG     Tmean  CONVOLUT  MEAN-DIR  relation     Sy/Sx  SKEWNESS  KURTOSIS  cutoff-A >50/10000     INT*V   INT-LOG  S-1_g1f1  S-2_g1f2  S-3_g1f3  S-4_g2f1  S-5_g2f2  S-6_g2f3  S-7_g3f1  S-8_g3f2  S-9_g3f3 S-10_g1f4 S-11_g2f4 S-12_g3f4 S-13_g1f5 S-14_g2f5 S-15_g3f5 S-16_g4f1 S-17_g4f2 S-18_g4f3 S-19_g4f4 S-20_g4f5
--------------1--------------2---------3---------4---------5---------6---------7---------8---------9--------10--------11--------12--------13--------14--------15--------16--------17--------18--------19--------20------------------21--------22--------23--------24--------25--------26--------27--------28--------29--------30--------31--------32--------33--------34--------35--------36--------37--------38--------39--------40--------41--------42--------43--------44--------45--------46--------47--------48--------49--------50--------51--------52--------53--------54--------55--------56--------57--------58--------59--------60--------61--------62--------63--------64--------65--------66--------67--------68--------69--------70--------71--------72--------73--------74
      22.822357     -43.625595     397.1      1.09      2.53     159.9         1         1      1000      1000    531.45   -12.745      13.1      36.9   224.781     0.557     132.3   0.07318     100.0         H               192.3  0.044237  0.017218  0.001491  1.476938  0.688875  2.143986  1.058986     21.64   10.0759  118.3241   0.10902   6.68755   0.13254   0.00250 210.85028  10.19113     562.8  0.491528  0.002428  0.000239  0.000103  0.182934  6.907167  0.558919     85.77  1.000067  1.000004     2.358    12.258      83.0      94.8     268.5     594.8     12.69     -1.57     -3.54     -2.61      3.25      4.71      4.52     -0.64     -0.29      2.29     -1.26      1.57      0.24     -1.33      0.66    -17.97      7.78     11.53     -5.01     -2.46
      22.832497     -43.683456     397.1      1.29      2.53     159.9         1         2      1000      2329    567.30   -12.462      13.9      37.3   224.886     0.562     263.9   0.07703     100.0         H               192.3  0.043843  0.017699  0.001515  1.504685  0.683496  2.201454  1.065076     17.69   10.7629  133.6417   0.11828   6.80326   0.12682   0.00223 235.67006  10.79961     604.2  0.494625  0.004397  0.000654  0.000103  0.183361  6.920158  0.565506     76.59  1.000093  1.000008     2.356    11.902      88.6      95.4     309.7     582.3     12.77     -0.47     -3.80     -2.85      1.93      4.46      4.25     -0.74      0.25      1.33     -0.41      1.63     -0.16     -0.80      0.30    -18.13      5.02     10.21     -3.62     -0.76
      22.842529     -43.740833     351.3      1.23      2.53     175.6         1         3      1000      3658    533.45   -12.729      13.7      37.7   224.346     0.559     190.4   0.07498     100.0         H               192.3  0.044016  0.017887  0.001447  1.563129  0.680217  2.297986  1.061709     18.48   10.1149  119.5825   0.11418   6.69327   0.13283   0.00249 211.85664  10.20694     566.3  0.492471  0.003159  0.000432  0.000103  0.183574  6.940701  0.561886     77.01  1.000068  1.000005     2.356    12.062      84.8      94.8     271.1     576.4     12.45     -0.87     -3.47     -1.80      2.78      5.02      4.57     -0.59      0.32      1.65     -0.49      1.23      0.69     -2.47      1.02    -16.33      6.45     10.93     -3.03     -4.65
      22.769209     -43.636513     364.7      1.03      2.53     161.6         2         1      2453      1000    522.67   -12.818      13.0      36.9   224.319     0.556     185.4   0.07261     100.0         H               192.3  0.043637  0.016635  0.001672  1.398044  0.684311  2.042994  1.058348     22.55    9.9065  115.0565   0.10942   6.65661   0.13462   0.00259 204.93414  10.03280     553.2  0.490898  0.002978  0.000411  0.000102  0.184350  6.907467  0.558240     98.90  1.000006  1.000001     2.329    11.862      84.8      94.6     258.9     562.8     13.07     -1.22     -4.60     -3.66      2.44      6.06      4.84     -0.77     -1.38      2.23     -1.80      1.21      0.01     -1.29      1.20    -20.38      6.13     16.05     -5.99     -3.11
      22.779352     -43.694351     351.3      1.23      2.53     175.6         2         2      2453      2329    549.72   -12.599      13.7      37.3   223.919     0.557     238.2   0.07487     100.0         H               192.3  0.043414  0.017580  0.001407  1.434788  0.676506  2.120878  1.060077     18.69   10.4314  125.7783   0.11422   6.74958   0.12924   0.00235 222.82318  10.49666     582.7  0.490889  0.003506  0.000618  0.000102  0.187432  6.939609  0.559661     85.24  1.000027  1.000004     2.342    11.912      84.8      95.1     288.6     565.9     12.81     -0.91     -5.16     -2.84      2.00      5.43      3.85     -0.23      0.36      1.20     -0.44      0.80      1.10     -2.60      0.43    -17.02      4.82     12.37     -2.00     -4.56
      22.789387     -43.751701     351.3      1.23      2.53     175.6         2         3      2453      3658    544.24   -12.642      13.8      37.7   223.158     0.553     146.7   0.07325     100.0         H               192.3  0.043302  0.017379  0.001446  1.427840  0.672446  2.123353  1.055710     19.66   10.3273  123.0186   0.11044   6.73265   0.13011   0.00238 218.86386  10.39602     574.6  0.488375  0.002789  0.000260  0.000103  0.186121  6.942124  0.555400     96.34  1.000012  1.000001     2.318    11.670      81.3      95.1     280.9     570.8     12.85     -1.49     -5.05     -3.14      2.26      5.62      4.01     -0.31     -0.19      1.83     -1.19      0.49      0.97     -1.91      1.02    -17.93      5.28     13.69     -3.02     -4.14
      22.716063     -43.647427     397.1      1.00      2.53     159.9         3         1      3906      1000    514.00   -12.890      12.9      36.9   225.443     0.558     266.1   0.07271     100.0         H               192.3  0.042523  0.016412  0.001428  1.348667  0.665800  2.025634  1.061314     19.91    9.7369  111.9053   0.10906   6.62446   0.13662   0.00268 199.39972   9.87401     545.4  0.493147  0.003953  0.000666  0.000101  0.186189  6.919303  0.559911    101.05  1.000029  1.000003     2.357    12.060      90.6      94.4     250.8     552.6     12.78     -1.43     -4.73     -2.89      2.88      5.64      4.27     -1.01     -0.55      1.74     -1.11      1.30     -0.29     -1.24      0.74    -18.01      6.97     13.85     -4.25     -2.29
      22.726208     -43.705242     372.9      1.12      2.53     166.0         3         2      3906      2329    517.54   -12.861      13.2      37.3   224.275     0.556     233.1   0.07316     100.0         H               192.3  0.042834  0.017388  0.001676  1.395497  0.676117  2.063988  1.059583     24.55    9.8081  113.2002   0.11104   6.63808   0.13592   0.00264 201.25854   9.92895     548.4  0.490744  0.003527  0.000569  0.000102  0.189426  6.952427  0.558951     98.37  0.999995  1.000000     2.333    11.772      86.6      94.6     253.7     546.9     13.12     -0.94     -5.49     -3.82      2.10      6.34      4.56     -0.07     -0.97      1.82     -1.09      1.01      1.54     -3.35      1.78    -20.38      4.45     15.68     -3.73     -8.32
      22.736244     -43.762569     364.7      1.17      2.53     161.6         3         3      3906      3658    537.34   -12.698      13.8      37.7   225.092     0.558     257.8   0.07423     100.0         H               192.3  0.042946  0.016807  0.001312  1.426392  0.668415  2.133991  1.061424     16.88   10.1903  120.9371   0.11231   6.70686   0.13174   0.00245 214.71011  10.28293     570.3  0.492890  0.003924  0.000658  0.000102  0.185702  6.927235  0.560359     86.79  1.000052  1.000004     2.364    12.235      86.6      94.9     275.1     590.1     12.73     -1.01     -4.05     -2.54      1.81      4.72      3.81     -0.04      0.55      2.11     -1.07      0.62      0.62     -2.15      1.15    -16.65      3.91      9.89     -3.03     -4.30
