/data/s1/ples_ad/SAINT_ESA/

/data/s1/ples_ad/SAINT_ESA/dist/Debug/GNU-Linux 

export LD_LIBRARY_PATH=/data/hbfs01/team/install/CentOS-7/lib


valgrind --leak-check=full ./saint_esa
valgrind  ./saint_esa

valgrind  --leak-check=full 

./saint_esa   ../../../S1-WV_INPUT ../../../S1-WV_OUTPUT  S1A_WV_SLC__1SSV_20180101T011236_20180101T012802_019954_021FAD_1148  | tee  -a log_file.txt