corner points
76.71721649    -0.8073042035
76.6794281    -0.987942636
76.53611755    -0.7683130503
76.49827576    -0.9489167333
========== RESULTS WAVE VERSION 16.10.2018 ====================
IMAGE SIZE  X: 5635     Y:4925    col:row     POLARIZATION:VV
COVERAGE    X: 20.55363639km       Y: 20.47360151km 
RESOLUTION dX: 3.647495366m       dY:4.157076449m  
resolution of original product 3.647495366m x 4.157076449m;   raster step x:5996.482382m  
===============================================================
FLAGS: H=HIGH PROBABILITY SEA STATE, I=LAND(ISLAND), O=OUTLIER NO SEA STATE, N=NO WIND AVAILABLE, SEA STATE NOT VISIBLE, M=MEAN PROBABILITY SEA STATE, L= LOW PROBABILITY SEA STATE
Filtering wave length
 integration  Lmin=1m
 integration  Lmax=2200m
  peak        Lmin=100m
               FFT=1024pixels, 3735.035255m 
   mean-Hs (SWH_c)=0.2774706841m
         mean-wind=8.545679092m/s
--------------0--------------1---------2---------3---------4---------5---------6---------7---------8---------9--------10--------11--------12--------13--------14--------15--------16--------17--------18--------19------------------20--------21--------22--------23--------24--------25--------26--------27--------28--------29--------30--------31--------32--------33--------34--------35--------36--------37--------38--------39--------40--------41--------42--------43--------44--------45--------46--------47--------48--------49--------50--------51--------52--------53--------54--------55--------56--------57--------58--------59--------60--------61--------62--------63--------64--------65--------66--------67--------68--------69--------70--------71--------72--------73
            LAT            LON  P-LENGHT     SWH_o     SWH_c     P-DIR      LINE     POINT     ROW-Y     COL-X  M-INTENC        dB      WIND INC-ANGLE  ENERGY-M  ENERGY-N  ENERGY-R ENERGY-NN  FG-DEPTH      FLAG         HEADING-DEG    E30-75   E75-390  E390-600 meanincut   meanout   cut/out  STD-NORM  SPEC-MAX   GL-MEAN    GL-VAR      CORR   ENTROPY   HOMOGEN    ENERGY  CONTRAST  DISSIMIL     STD-O    E 1-30 E600-2000   E2000 >      GODA  LONG-HIG     Tmean  CONVOLUT  MEAN-DIR  relation     Sy/Sx  SKEWNESS  KURTOSIS  cutoff-A >50/10000     INT*V   INT-LOG  S-1_g1f1  S-2_g1f2  S-3_g1f3  S-4_g2f1  S-5_g2f2  S-6_g2f3  S-7_g3f1  S-8_g3f2  S-9_g3f3 S-10_g1f4 S-11_g2f4 S-12_g3f4 S-13_g1f5 S-14_g2f5 S-15_g3f5 S-16_g4f1 S-17_g4f2 S-18_g4f3 S-19_g4f4 S-20_g4f5
--------------1--------------2---------3---------4---------5---------6---------7---------8---------9--------10--------11--------12--------13--------14--------15--------16--------17--------18--------19--------20------------------21--------22--------23--------24--------25--------26--------27--------28--------29--------30--------31--------32--------33--------34--------35--------36--------37--------38--------39--------40--------41--------42--------43--------44--------45--------46--------47--------48--------49--------50--------51--------52--------53--------54--------55--------56--------57--------58--------59--------60--------61--------62--------63--------64--------65--------66--------67--------68--------69--------70--------71--------72--------73--------74
      -0.836888      76.676559     322.5      0.69      1.70     170.1         1         1      1000      1000   3763.38    -4.244      12.1      23.7   393.993     0.650      84.2   0.13531     100.0         H               192.0  0.061504  0.026022  0.000726  2.244415  0.845789  2.653635  1.143271     29.77    6.9814   69.9368   0.22490   5.97810   0.19298   0.00587 108.41541   6.95814    4302.3  0.561168  0.001085  0.000076  0.000137  0.185738  6.961370  0.676647     73.41  1.000121  1.000010     2.915    18.683      69.9      90.1     141.7     524.5     12.10      1.12     -4.45      0.62      3.13      5.06      1.47      0.99      1.94      2.67      0.75      1.15      0.93     -3.37     -0.19     -7.11      2.57      8.69     -0.45     -3.92
      -0.825388      76.623154     326.2      0.51      1.70     175.0         1         2      1000      2644   2557.56    -5.922       8.5      24.1   413.058     0.702     247.8   0.15743     100.0         H               192.0  0.069629  0.029839  0.000903  2.631224  0.893410  2.945147  1.186031     37.37    4.5876   35.5262   0.24472   5.19630   0.26662   0.01348  53.66335   4.73156    3033.1  0.598126  0.003665  0.000329  0.000144  0.183928  6.945778  0.733060     75.18  1.000145  1.000015     3.225    23.642      76.6      83.3      66.8     409.1     12.03      1.14     -3.38      0.65      2.91      4.64      2.25      1.47      2.22      2.59      1.13      1.39      1.24     -3.56     -0.25     -7.82      2.31      6.77      0.18     -5.17
      -0.814095      76.570702     326.2      0.44      1.70     175.0         1         3      1000      4288   2040.41    -6.903       7.3      24.6   405.023     0.680      70.8   0.14798     100.0         H               192.0  0.066981  0.029871  0.000884  2.692536  0.895260  3.007546  1.168824     24.41    3.5944   22.3996   0.23684   4.76691   0.31000   0.02028  34.18897   3.78297    2384.9  0.581938  0.001047  0.000037  0.000144  0.184707  6.977293  0.709819     66.27  1.000114  1.000011     3.102    21.163      71.1      79.0      41.8     294.9     11.53      2.03     -3.14      1.95      3.28      4.47      2.28      1.53      2.24      1.92      1.69      1.65     -0.05     -2.87     -0.20     -5.96      2.02      7.63      1.40     -2.86
      -0.889824      76.665482     300.1      0.61      1.70     170.8         2         1      2443      1000   3334.32    -4.770      10.5      23.6   404.477     0.678      93.1   0.14592     100.0         H               192.0  0.068918  0.026668  0.000867  2.371430  0.873836  2.713816  1.167980     28.77    6.1471   57.6535   0.23378   5.73740   0.21405   0.00764  88.35043   6.19880    3894.1  0.580170  0.001369  0.000066  0.000138  0.181276  6.927574  0.706374     78.56  1.000135  1.000013     3.123    22.095      76.6      88.1     113.5     511.1     11.82      1.15     -3.96      0.79      2.76      4.53      2.05      1.14      1.91      2.21      0.98      1.06      0.90     -3.05      0.10     -7.42      2.25      7.93      0.66     -3.80
      -0.878320      76.612068     326.2      0.50      1.70     175.0         2         2      2443      2644   2501.74    -6.018       8.3      24.1   413.088     0.706     124.3   0.15977     100.0         H               192.0  0.075078  0.028615  0.000698  2.679298  0.927338  2.889236  1.191125     19.11    4.5017   34.3790   0.24633   5.16232   0.26982   0.01388  51.82101   4.64649    2980.0  0.599874  0.001773  0.000136  0.000143  0.176220  6.893303  0.737255     73.73  1.000163  1.000018     3.296    24.213      76.6      83.0      64.6     388.3     11.23      1.53     -2.36      2.56      3.20      3.63      2.13      1.36      2.17      2.32      1.49      1.63      0.02     -2.60     -0.16     -4.45      2.75      5.65      0.59     -2.66
      -0.867024      76.559616     280.6      0.38      1.70     171.4         2         3      2443      4288   1766.14    -7.530       6.1      24.6   412.471     0.700      84.9   0.15554     100.0         H               192.0  0.072452  0.031245  0.000755  2.848987  0.898294  3.171553  1.186777     26.08    3.0539   17.2734   0.24273   4.47810   0.34481   0.02731  26.16128   3.26704    2096.0  0.594925  0.001192  0.000055  0.000144  0.185935  6.987770  0.731560     64.79  1.000142  1.000014     3.284    24.869      75.2      75.5      32.1     278.9     11.72      2.07     -2.91      2.14      3.54      4.25      1.51      1.26      2.20      2.11      1.09      1.40      0.22     -3.50     -0.46     -5.07      2.44      6.51      0.05     -3.63
      -0.942759      76.654411     326.2      0.59      1.70     175.0         3         1      3886      1000   3217.57    -4.925      10.1      23.6   394.673     0.652      69.5   0.13645     100.0         H               192.0  0.064040  0.025856  0.000911  2.287103  0.861412  2.655063  1.144104     27.18    5.9195   52.3527   0.22710   5.67361   0.21846   0.00802  80.92655   5.96612    3681.2  0.560673  0.000917  0.000044  0.000141  0.182818  6.935562  0.678941     69.61  1.000120  1.000010     2.921    18.887      69.9      87.8     102.8     446.9     11.96      1.26     -4.17      0.62      3.23      4.76      2.03      1.63      1.48      2.57      0.77      1.35      0.25     -3.45      0.21     -7.96      2.07      9.25      0.04     -4.47
      -0.931252      76.600990     326.2      0.46      1.70     175.0         3         2      3886      2644   2344.51    -6.299       7.6      24.1   406.070     0.685     119.0   0.14995     100.0         H               192.0  0.069139  0.028510  0.000845  2.519732  0.888456  2.836080  1.173506     31.31    4.1934   29.5303   0.23767   5.04017   0.28042   0.01547  45.02374   4.35392    2751.0  0.584748  0.001728  0.000118  0.000137  0.182585  6.947493  0.714086     82.92  1.000135  1.000013     3.217    24.764      75.2      81.9      55.6     382.9     12.15      1.59     -4.05      0.53      2.37      4.63      1.43      0.95      1.99      2.32      0.71      0.62      1.17     -3.20      0.20     -7.75      0.98      7.95      0.29     -4.58
      -0.919953      76.548531     295.4      0.39      1.70     166.3         3         3      3886      4288   1833.60    -7.367       6.4      24.6   402.114     0.668     102.0   0.14189     100.0         H               192.0  0.066430  0.029271  0.000743  2.579701  0.867848  2.972526  1.159228     32.64    3.1737   17.7089   0.23206   4.55203   0.33405   0.02483  27.19888   3.37565    2125.6  0.570898  0.001433  0.000096  0.000149  0.187109  6.981512  0.696926     63.71  1.000140  1.000012     3.020    20.179      71.1      76.7      33.3     258.6     11.74      1.76     -3.37      1.71      4.19      4.55      1.81      1.50      2.14      3.23      0.99      1.58     -0.07     -3.59     -0.04     -5.68      3.29      7.10     -0.64     -4.28
