corner points
69.5085907    -30.8154335
69.45786285    -30.99393463
69.2942276    -30.76825905
69.24298859    -30.94666481
========== RESULTS WAVE VERSION 16.10.2018 ====================
IMAGE SIZE  X: 5635     Y:4916    col:row     POLARIZATION:VV
COVERAGE    X: 21.09638903km       Y: 20.38522477km 
RESOLUTION dX: 3.743813492m       dY:4.146709676m  
resolution of original product 3.743813492m x 4.146709676m;   raster step x:5997.589215m  
===============================================================
FLAGS: H=HIGH PROBABILITY SEA STATE, I=LAND(ISLAND), O=OUTLIER NO SEA STATE, N=NO WIND AVAILABLE, SEA STATE NOT VISIBLE, M=MEAN PROBABILITY SEA STATE, L= LOW PROBABILITY SEA STATE
Filtering wave length
 integration  Lmin=1m
 integration  Lmax=2200m
  peak        Lmin=100m
               FFT=1024pixels, 3833.665016m 
   mean-Hs (SWH_c)=1.080615082m
         mean-wind=2.652057409m/s
--------------0--------------1---------2---------3---------4---------5---------6---------7---------8---------9--------10--------11--------12--------13--------14--------15--------16--------17--------18--------19------------------20--------21--------22--------23--------24--------25--------26--------27--------28--------29--------30--------31--------32--------33--------34--------35--------36--------37--------38--------39--------40--------41--------42--------43--------44--------45--------46--------47--------48--------49--------50--------51--------52--------53--------54--------55--------56--------57--------58--------59--------60--------61--------62--------63--------64--------65--------66--------67--------68--------69--------70--------71--------72--------73
            LAT            LON  P-LENGHT     SWH_o     SWH_c     P-DIR      LINE     POINT     ROW-Y     COL-X  M-INTENC        dB      WIND INC-ANGLE  ENERGY-M  ENERGY-N  ENERGY-R ENERGY-NN  FG-DEPTH      FLAG         HEADING-DEG    E30-75   E75-390  E390-600 meanincut   meanout   cut/out  STD-NORM  SPEC-MAX   GL-MEAN    GL-VAR      CORR   ENTROPY   HOMOGEN    ENERGY  CONTRAST  DISSIMIL     STD-O    E 1-30 E600-2000   E2000 >      GODA  LONG-HIG     Tmean  CONVOLUT  MEAN-DIR  relation     Sy/Sx  SKEWNESS  KURTOSIS  cutoff-A >50/10000     INT*V   INT-LOG  S-1_g1f1  S-2_g1f2  S-3_g1f3  S-4_g2f1  S-5_g2f2  S-6_g2f3  S-7_g3f1  S-8_g3f2  S-9_g3f3 S-10_g1f4 S-11_g2f4 S-12_g3f4 S-13_g1f5 S-14_g2f5 S-15_g3f5 S-16_g4f1 S-17_g4f2 S-18_g4f3 S-19_g4f4 S-20_g4f5
--------------1--------------2---------3---------4---------5---------6---------7---------8---------9--------10--------11--------12--------13--------14--------15--------16--------17--------18--------19--------20------------------21--------22--------23--------24--------25--------26--------27--------28--------29--------30--------31--------32--------33--------34--------35--------36--------37--------38--------39--------40--------41--------42--------43--------44--------45--------46--------47--------48--------49--------50--------51--------52--------53--------54--------55--------56--------57--------58--------59--------60--------61--------62--------63--------64--------65--------66--------67--------68--------69--------70--------71--------72--------73--------74
     -30.843172      69.459152     176.7      1.45      1.94       2.6         1         1      1000      1000    918.37   -10.370       2.3      23.0   330.039     0.736     193.2   0.16770      22.8         H               192.8  0.074299  0.083362  0.001638  5.943067  1.013042  5.866553  1.217160     81.82    1.3976    4.8703   0.26848   3.18997   0.53333   0.10259   7.12543   1.61393    1117.7  0.573110  0.003512  0.000094  0.000178  0.203258  7.459330  0.779807     98.91  0.999843  0.999986     3.038    18.875      73.8      55.3       9.2     120.1     11.63     -3.77     -5.89      2.74     -1.84     -0.46     -2.54      1.66      5.54      1.47     -0.61     -1.91      0.63     -0.88     -1.87     -3.42     -1.15      0.70     -1.07     -0.76
     -30.829615      69.397461     176.7      1.13      1.94       2.6         1         2      1000      2602    978.20   -10.096       2.6      23.5   322.190     0.710     134.4   0.15790      22.8         H               192.8  0.072339  0.073731  0.001215  5.828432  0.975139  5.977027  1.194886     49.99    1.5062    5.3151   0.25987   3.31136   0.51225   0.08956   7.86781   1.72348    1168.8  0.561060  0.002225  0.000055  0.000167  0.196792  7.384256  0.750297    109.97  0.999937  0.999995     2.957    17.952      71.1      57.7      10.2     121.0     11.53     -4.40     -4.81      2.98     -1.74      0.01     -1.89      1.40      4.86      1.07     -1.00     -1.95     -1.21     -0.91     -0.87     -2.73     -0.70      1.11     -1.50     -0.20
     -30.816284      69.336929     162.7      1.19      1.94       4.9         1         3      1000      4204    974.67   -10.111       2.9      23.9   321.511     0.706     166.9   0.15595      18.6         H               192.8  0.071080  0.072874  0.000982  5.904870  0.952409  6.199933  1.191524     45.57    1.5062    5.2866   0.25847   3.31243   0.51193   0.08913   7.84037   1.72280    1161.3  0.558758  0.002542  0.000114  0.000167  0.195267  7.399138  0.745174    110.97  0.999949  0.999996     2.937    17.684      71.1      57.8      10.2     119.7     11.09     -4.03     -4.40      4.04     -2.11     -0.09     -1.43      1.18      4.79      1.13     -1.02     -1.95     -0.96     -1.28     -1.10     -1.46     -0.87      1.37     -1.91     -0.56
     -30.895683      69.444206     176.7      1.01      1.94       2.6         2         1      2446      1000    950.29   -10.221       2.4      23.0   326.636     0.723     172.6   0.16202      22.8         H               192.8  0.076042  0.074393  0.001684  5.943674  1.037088  5.731117  1.206717     48.15    1.4567    5.1158   0.26372   3.25693   0.52167   0.09536   7.53341   1.67407    1146.7  0.568304  0.002906  0.000113  0.000156  0.194286  7.339400  0.765253    120.46  0.999897  0.999992     3.028    18.997      68.7      56.6       9.7     124.7     11.43     -3.72     -4.81      2.75     -1.51     -0.58     -1.31      1.34      4.56      1.31     -0.78     -2.03     -0.53     -0.90     -1.43     -3.85     -1.16      0.65     -1.40     -0.53
     -30.882118      69.382469     172.3      1.02      1.94     158.9         2         2      2446      2602    978.78   -10.093       2.6      23.5   319.552     0.701     125.3   0.15436      21.4         H               192.8  0.071105  0.070699  0.001091  5.583379  0.959866  5.816833  1.186565     46.71    1.5117    5.2753   0.25673   3.31982   0.50991   0.08811   7.84192   1.72957    1161.3  0.556238  0.002052  0.000046  0.000161  0.195331  7.351277  0.739340    117.63  0.999956  0.999996     2.900    17.134      69.9      58.0      10.2     115.6     11.34     -3.86     -5.05      3.13     -1.32     -0.41     -1.71      1.17      4.91      1.41     -0.80     -2.09     -0.70     -1.04     -1.30     -2.49     -0.54      0.85     -1.49     -0.68
     -30.868778      69.321899     163.3      1.07      1.94     140.3         2         3      2446      4204    956.49   -10.193       2.9      23.9   319.024     0.697     121.3   0.15139      18.8         H               192.8  0.069787  0.069881  0.001104  5.364264  0.932566  5.752155  1.184339     46.83    1.4701    5.0159   0.25282   3.27880   0.51576   0.09117   7.49557   1.68939    1132.8  0.554508  0.001787  0.000043  0.000168  0.197805  7.385493  0.734981    140.75  0.999914  0.999995     2.883    17.087      73.8      57.4       9.7     117.7     11.28     -4.91     -5.02      3.53     -2.16      0.05     -1.68      1.67      4.54      2.02     -0.84     -2.66     -1.21     -1.30     -0.91     -2.30     -0.88      2.08     -1.87     -0.65
     -30.948193      69.429245     169.4      0.91      1.94     156.6         3         1      3892      1000   1000.70    -9.997       2.4      23.0   322.189     0.708     191.6   0.15628      20.5         H               192.8  0.073104  0.070688  0.001293  5.564380  0.980310  5.676142  1.192308     56.39    1.5604    5.6107   0.25907   3.36599   0.50396   0.08506   8.31426   1.77804    1193.1  0.559658  0.003280  0.000138  0.000161  0.195516  7.340271  0.747642    139.60  0.999922  0.999992     2.939    17.794      71.1      58.6      10.8     126.9     11.32     -4.44     -5.22      3.06     -1.64     -0.46     -1.59      1.39      4.56      2.05     -0.64     -2.37     -0.82     -0.96     -1.17     -3.00     -0.48      1.27     -1.77     -0.57
     -30.934620      69.367470     163.2      0.97      1.94     177.6         3         2      3892      2602   1013.17    -9.943       2.8      23.5   318.517     0.695     140.0   0.15082      18.8         H               192.8  0.069125  0.068465  0.001111  5.433288  0.932738  5.825096  1.181835     48.15    1.5799    5.6268   0.25395   3.38958   0.49875   0.08192   8.39570   1.79806    1197.4  0.554388  0.002246  0.000063  0.000167  0.196792  7.368490  0.732863    127.15  0.999902  0.999990     2.910    17.641      71.1      59.3      10.9     127.2     11.49     -3.99     -5.56      2.87     -1.63     -0.02     -1.96      1.44      4.95      1.87     -0.83     -2.35      0.11     -0.98     -1.74     -2.80     -0.99      1.72     -1.61     -0.86
     -30.921272      69.306854     178.1      0.97      1.94     142.8         3         3      3892      4204    983.40   -10.073       2.9      23.9   318.540     0.695     114.7   0.15095      23.2         H               192.8  0.070490  0.068084  0.000996  5.385190  0.946880  5.687297  1.182386     40.75    1.5184    5.2703   0.25283   3.32829   0.50809   0.08704   7.87570   1.73722    1162.7  0.553754  0.001720  0.000045  0.000167  0.195342  7.331027  0.732299    115.27  0.999915  0.999993     2.890    17.291      73.8      58.2      10.2     123.0     11.47     -4.04     -5.15      3.09     -1.60     -0.19     -2.19      1.58      4.69      1.43     -0.81     -2.10     -1.36     -0.91     -0.86     -2.36     -0.77      1.23     -1.52     -0.19
