corner points
73.59929657    -14.96825123
73.5582428    -15.14847565
73.41042328    -14.92634869
73.36914062    -15.10651588
========== RESULTS WAVE VERSION 16.10.2018 ====================
IMAGE SIZE  X: 5635     Y:4926    col:row     POLARIZATION:VV
COVERAGE    X: 20.77696979km       Y: 20.47290027km 
RESOLUTION dX: 3.687128623m       dY:4.156090188m  
resolution of original product 3.687128623m x 4.156090188m;   raster step x:5998.958269m  
===============================================================
FLAGS: H=HIGH PROBABILITY SEA STATE, I=LAND(ISLAND), O=OUTLIER NO SEA STATE, N=NO WIND AVAILABLE, SEA STATE NOT VISIBLE, M=MEAN PROBABILITY SEA STATE, L= LOW PROBABILITY SEA STATE
Filtering wave length
 integration  Lmin=1m
 integration  Lmax=2200m
  peak        Lmin=100m
               FFT=1024pixels, 3775.61971m 
   mean-Hs (SWH_c)=2.429715729m
         mean-wind=17.49897003m/s
--------------0--------------1---------2---------3---------4---------5---------6---------7---------8---------9--------10--------11--------12--------13--------14--------15--------16--------17--------18--------19------------------20--------21--------22--------23--------24--------25--------26--------27--------28--------29--------30--------31--------32--------33--------34--------35--------36--------37--------38--------39--------40--------41--------42--------43--------44--------45--------46--------47--------48--------49--------50--------51--------52--------53--------54--------55--------56--------57--------58--------59--------60--------61--------62--------63--------64--------65--------66--------67--------68--------69--------70--------71--------72--------73
            LAT            LON  P-LENGHT     SWH_o     SWH_c     P-DIR      LINE     POINT     ROW-Y     COL-X  M-INTENC        dB      WIND INC-ANGLE  ENERGY-M  ENERGY-N  ENERGY-R ENERGY-NN  FG-DEPTH      FLAG         HEADING-DEG    E30-75   E75-390  E390-600 meanincut   meanout   cut/out  STD-NORM  SPEC-MAX   GL-MEAN    GL-VAR      CORR   ENTROPY   HOMOGEN    ENERGY  CONTRAST  DISSIMIL     STD-O    E 1-30 E600-2000   E2000 >      GODA  LONG-HIG     Tmean  CONVOLUT  MEAN-DIR  relation     Sy/Sx  SKEWNESS  KURTOSIS  cutoff-A >50/10000     INT*V   INT-LOG  S-1_g1f1  S-2_g1f2  S-3_g1f3  S-4_g2f1  S-5_g2f2  S-6_g2f3  S-7_g3f1  S-8_g3f2  S-9_g3f3 S-10_g1f4 S-11_g2f4 S-12_g3f4 S-13_g1f5 S-14_g2f5 S-15_g3f5 S-16_g4f1 S-17_g4f2 S-18_g4f3 S-19_g4f4 S-20_g4f5
--------------1--------------2---------3---------4---------5---------6---------7---------8---------9--------10--------11--------12--------13--------14--------15--------16--------17--------18--------19--------20------------------21--------22--------23--------24--------25--------26--------27--------28--------29--------30--------31--------32--------33--------34--------35--------36--------37--------38--------39--------40--------41--------42--------43--------44--------45--------46--------47--------48--------49--------50--------51--------52--------53--------54--------55--------56--------57--------58--------59--------60--------61--------62--------63--------64--------65--------66--------67--------68--------69--------70--------71--------72--------73--------74
     -14.997219      73.556534     145.3      2.40      3.29      74.2         1         1      1000      1000   5759.75    -2.396      17.6      23.4   400.685     0.796      74.3   0.20030      14.3         H               192.1  0.103614  0.056536  0.001208  5.980795  0.991360  6.032920  1.264256     38.20   10.7005  157.5245   0.27748   6.70717   0.14694   0.00294 227.62796  10.20312    7281.7  0.633964  0.000903  0.000024  0.000276  0.168035  6.970251  0.841620     89.13  1.000276  1.000039     3.995    39.652     117.4      94.0     397.0    1073.8     11.46      1.61      3.14      4.21      0.82      6.40      3.22      0.67      3.25      1.81      1.63      0.88      0.85      2.55      3.24     -2.68      0.05      7.57      1.07      2.36
     -14.984990      73.501373     125.5      2.38      3.29      74.6         1         2      1000      2627   5358.51    -2.710      17.7      23.9   402.484     0.795     134.4   0.19929      10.3         H               192.1  0.102538  0.056394  0.001344  5.955523  0.995680  5.981360  1.263438     33.92    9.9876  142.0928   0.27703   6.58601   0.15538   0.00338 205.45502   9.60596    6769.8  0.633152  0.002174  0.000091  0.000272  0.170081  6.968463  0.840762     89.54  1.000270  1.000038     4.215    56.680     121.0      93.3     341.4    1031.4     11.28      1.63      3.02      4.49      1.02      6.97      3.76      0.57      3.46      1.29      2.01      1.08      1.18      2.62      3.64     -2.87      0.21      8.93      1.60      2.25
     -14.972972      73.447235     143.9      2.48      3.29      72.3         1         3      1000      4254   4943.24    -3.060      17.6      24.3   404.965     0.803     110.3   0.20230      14.0         H               192.1  0.102740  0.060324  0.001532  6.240607  1.002587  6.224506  1.271551     40.18    9.2126  125.8697   0.28101   6.43989   0.16627   0.00401 180.99606   8.92355    6285.3  0.637234  0.001681  0.000059  0.000289  0.170833  7.008543  0.849826     87.88  1.000280  1.000040     4.047    40.833     124.8      92.3     291.4     969.2     11.46      1.42      3.73      4.13      0.75      6.88      3.97      0.08      3.51      1.42      1.15      0.78      1.07      3.40      3.82     -3.50      0.36      8.36      0.09      3.76
     -15.050021      73.544502     142.3      2.45      3.29      78.4         2         1      2443      1000   5706.40    -2.436      17.5      23.4   404.660     0.801      75.6   0.20044      13.7         H               192.1  0.101536  0.057850  0.001456  6.080930  1.002039  6.068559  1.269199     34.07   10.6002  155.7738   0.27600   6.68988   0.14847   0.00301 225.55896  10.13829    7242.0  0.639799  0.001111  0.000015  0.000280  0.169633  6.994532  0.846854     89.02  1.000284  1.000042     4.178    48.639     124.8      93.9     390.5    1081.8     11.36      1.39      3.35      4.21      0.83      7.12      4.28      0.32      3.77      1.42      1.29      1.05      1.02      3.41      3.91     -3.54      0.05      8.86      0.02      3.68
     -15.037787      73.489319     135.2      2.49      3.29      75.3         2         2      2443      2627   5847.10    -2.331      19.1      23.9   393.144     0.766      78.2   0.18604      12.2         H               192.1  0.096358  0.052247  0.000893  5.475517  0.966230  5.666889  1.239662     37.21   10.8688  159.5995   0.27014   6.74081   0.14360   0.00280 232.97244  10.37000    7248.3  0.615587  0.001038  0.000038  0.000275  0.169333  6.976656  0.808262     88.13  1.000274  1.000037     3.608    29.849     121.0      94.3     398.4     999.2     10.93      1.20      3.63      5.41      1.03      7.05      4.00      0.53      4.53      1.53      1.28      0.96      1.00      3.71      3.82     -0.29      0.85      7.78      0.48      4.10
     -15.025764      73.435158     156.9      2.34      3.29      72.9         2         3      2443      4254   4665.54    -3.311      16.7      24.3   406.667     0.808     140.5   0.20462      17.1         H               192.1  0.102831  0.060183  0.001499  6.172392  0.990299  6.232859  1.271778     42.16    8.6662  114.7449   0.28358   6.32838   0.17472   0.00455 164.40994   8.44166    5933.2  0.642137  0.002154  0.000079  0.000282  0.172554  7.013420  0.855608     88.89  1.000251  1.000036     3.972    37.742     121.0      91.5     258.5     894.9     11.71      1.81      3.40      4.10      1.29      6.89      3.34      0.29      2.93      2.09      1.91      0.82      0.87      2.70      3.54     -3.88      0.64      8.25      0.58      2.31
     -15.102822      73.532455     146.6      2.49      3.29      76.0         3         1      3886      1000   5872.35    -2.312      17.9      23.4   403.357     0.794      72.8   0.19758      14.6         H               192.1  0.101161  0.057006  0.001312  5.982268  0.972002  6.154584  1.264618     41.84   10.9203  163.2573   0.27550   6.73993   0.14477   0.00283 236.55963  10.41423    7425.8  0.634188  0.000976  0.000017  0.000278  0.169085  7.001069  0.838795     88.72  1.000261  1.000038     3.877    37.102     121.0      94.2     413.8    1050.2     11.25      0.97      3.06      4.29      0.58      7.05      4.00      0.63      4.14      0.83      1.31      1.01      1.18      3.31      4.24     -2.50      0.30      8.83      1.25      3.30
     -15.090584      73.477257     152.3      2.59      3.29      75.5         3         2      3886      2627   5589.60    -2.526      18.4      23.9   399.978     0.787     214.6   0.19459      16.0         H               192.1  0.098779  0.058038  0.001273  5.980401  0.972716  6.148146  1.257029     36.91   10.3737  150.6015   0.27727   6.65336   0.15104   0.00316 217.68658   9.93296    7025.3  0.625713  0.003249  0.000232  0.000279  0.171987  7.019741  0.832176     88.53  1.000300  1.000042     3.982    43.807     124.8      93.6     367.7    1046.1     11.28      1.50      4.24      4.76      0.69      6.77      3.90      0.32      4.39      1.32      1.63      1.01      1.42      3.76      4.44     -1.90      0.34      6.89      1.39      3.55
     -15.078556      73.423073     138.8      2.25      3.29      72.9         3         3      3886      4254   4149.82    -3.820      15.0      24.3   419.478     0.851     178.5   0.22407      12.9         H               192.1  0.110927  0.066742  0.002163  6.639108  1.046544  6.343840  1.308177     47.34    7.6677   96.9279   0.29637   6.09356   0.19433   0.00594 136.40276   7.54647    5428.5  0.668495  0.002890  0.000115  0.000289  0.174749  7.029183  0.902892     87.38  1.000274  1.000043     4.264    43.020     128.8      89.8     209.5     847.9     11.72      1.79      3.35      3.47      0.83      7.34      4.34      0.37      3.64      1.65      1.60      1.54      1.62      3.07      3.61     -5.38      0.42      9.24      0.58      2.52
