corner points
67.34786987    -31.26244164
67.29376984    -31.43483162
67.13911438    -31.21305275
67.08461761    -31.38534546
========== RESULTS WAVE VERSION 16.10.2018 ====================
IMAGE SIZE  X: 4476     Y:4774    col:row     POLARIZATION:VV
COVERAGE    X: 20.5490792km       Y: 19.80104701km 
RESOLUTION dX: 4.590947096m       dY:4.147684754m  
resolution of original product 4.590947096m x 4.147684754m;   raster step x:5995.776908m  
===============================================================
FLAGS: H=HIGH PROBABILITY SEA STATE, I=LAND(ISLAND), O=OUTLIER NO SEA STATE, N=NO WIND AVAILABLE, SEA STATE NOT VISIBLE, M=MEAN PROBABILITY SEA STATE, L= LOW PROBABILITY SEA STATE
Filtering wave length
 integration  Lmin=1m
 integration  Lmax=2200m
  peak        Lmin=100m
               FFT=1024pixels, 4701.129827m 
   mean-Hs (SWH_c)=0.2m
         mean-wind=3.790328979m/s
--------------0--------------1---------2---------3---------4---------5---------6---------7---------8---------9--------10--------11--------12--------13--------14--------15--------16--------17--------18--------19------------------20--------21--------22--------23--------24--------25--------26--------27--------28--------29--------30--------31--------32--------33--------34--------35--------36--------37--------38--------39--------40--------41--------42--------43--------44--------45--------46--------47--------48--------49--------50--------51--------52--------53--------54--------55--------56--------57--------58--------59--------60--------61--------62--------63--------64--------65--------66--------67--------68--------69--------70--------71--------72--------73
            LAT            LON  P-LENGHT     SWH_o     SWH_c     P-DIR      LINE     POINT     ROW-Y     COL-X  M-INTENC        dB      WIND INC-ANGLE  ENERGY-M  ENERGY-N  ENERGY-R ENERGY-NN  FG-DEPTH      FLAG         HEADING-DEG    E30-75   E75-390  E390-600 meanincut   meanout   cut/out  STD-NORM  SPEC-MAX   GL-MEAN    GL-VAR      CORR   ENTROPY   HOMOGEN    ENERGY  CONTRAST  DISSIMIL     STD-O    E 1-30 E600-2000   E2000 >      GODA  LONG-HIG     Tmean  CONVOLUT  MEAN-DIR  relation     Sy/Sx  SKEWNESS  KURTOSIS  cutoff-A >50/10000     INT*V   INT-LOG  S-1_g1f1  S-2_g1f2  S-3_g1f3  S-4_g2f1  S-5_g2f2  S-6_g2f3  S-7_g3f1  S-8_g3f2  S-9_g3f3 S-10_g1f4 S-11_g2f4 S-12_g3f4 S-13_g1f5 S-14_g2f5 S-15_g3f5 S-16_g4f1 S-17_g4f2 S-18_g4f3 S-19_g4f4 S-20_g4f5
--------------1--------------2---------3---------4---------5---------6---------7---------8---------9--------10--------11--------12--------13--------14--------15--------16--------17--------18--------19--------20------------------21--------22--------23--------24--------25--------26--------27--------28--------29--------30--------31--------32--------33--------34--------35--------36--------37--------38--------39--------40--------41--------42--------43--------44--------45--------46--------47--------48--------49--------50--------51--------52--------53--------54--------55--------56--------57--------58--------59--------60--------61--------62--------63--------64--------65--------66--------67--------68--------69--------70--------71--------72--------73--------74
     -31.287418      67.289314     390.1      0.22      1.65      84.7         1         1      1000      1000     94.05   -20.267       3.4      36.2   259.613     0.542     250.3   0.05198     100.0         H               192.9  0.035045  0.014438  0.001247  1.221775  0.588908  2.074644  1.047009      8.07    1.4260    3.7896   0.05104   3.28436   0.47321   0.07211   7.19240   1.79050      98.4  0.486951  0.004108  0.000649  0.000090  0.184296  6.972941  0.546231    135.86  0.999893  0.999998     2.282    11.581     153.8      60.3       8.3      86.7     12.43     -2.88     -0.89     -1.47      0.47     -1.69      3.07     -0.17      1.52      1.35     -0.40     -0.86      1.28     -1.01     -0.25    -17.48      3.86     -2.31     -1.85     -2.92
     -31.272957      67.228119     220.6      0.25      1.65     152.0         1         2      1000      2306    105.21   -19.779       3.8      36.6   263.131     0.558     373.3   0.05790      42.4         H               192.9  0.036819  0.018448  0.001262  1.548076  0.603449  2.565381  1.061630     10.92    1.6493    4.8920   0.06982   3.50636   0.44438   0.05900   9.10087   2.01263     111.7  0.494893  0.005427  0.001117  0.000097  0.187960  7.048289  0.563474    115.32  0.999930  0.999998     2.364    12.309     137.8      63.8      10.6     103.8     12.00     -3.51     -2.53     -0.12     -0.40     -0.71      2.12      0.66      2.71      1.15     -0.58     -1.20      0.03     -1.34      0.55    -13.95      1.67     -0.83     -1.58     -3.42
     -31.258591      67.167488     222.9      0.26      1.65     141.9         1         3      1000      3612    109.97   -19.587       4.0      37.0   261.629     0.558     254.5   0.05890      43.9         H               192.9  0.038072  0.020099  0.001275  1.693312  0.612141  2.766211  1.060785      8.33    1.7386    5.3538   0.07330   3.58864   0.43284   0.05483   9.92263   2.10696     116.7  0.492999  0.004944  0.000522  0.000098  0.188454  7.078030  0.563675    100.26  1.000174  1.000004     2.347    12.004     114.0      64.9      11.5     108.1     11.99     -3.34     -2.28      0.01     -0.25     -1.49      1.70      0.72      2.74      1.15     -0.42     -0.80     -0.04     -1.35      0.20    -13.28      1.63     -2.92     -1.46     -3.67
     -31.339640      67.272903     399.4      0.24      1.65     160.1         2         1      2446      1000    106.48   -19.727       3.6      36.2   260.732     0.552     279.8   0.05636     100.0         H               192.9  0.037416  0.017549  0.001432  1.479765  0.607780  2.434707  1.056047     10.94    1.6704    4.9692   0.06604   3.52663   0.44048   0.05771   9.28219   2.03934     112.4  0.490420  0.004779  0.000667  0.000095  0.183987  7.008907  0.557595    108.57  0.999858  0.999997     2.340    12.076     124.8      64.1      10.7     103.2     12.09     -3.52     -3.15     -1.03      0.86      0.20      3.06     -0.20      0.71      2.12     -1.27     -0.13      0.18     -0.92     -0.11    -16.67      5.36      4.33     -5.01     -2.00
     -31.325169      67.211678     215.0      0.26      1.65     155.7         2         2      2446      2306    115.17   -19.387       4.0      36.6   258.106     0.545     104.7   0.05566      39.0         H               192.9  0.037663  0.019063  0.000772  1.594191  0.610403  2.611702  1.048015      8.74    1.8442    5.7262   0.06445   3.68431   0.41815   0.04900  10.71423   2.20961     120.7  0.485750  0.002201  0.000162  0.000098  0.186258  7.052386  0.549872    115.31  1.000002  1.000000     2.269    11.288     102.3      66.8      12.5     106.7     11.51     -3.43     -3.08      1.50     -0.92     -0.72      0.67      1.12      2.60      1.51     -0.49     -1.45     -0.26     -0.76     -0.18     -8.18      0.05      0.30     -1.42     -1.60
     -31.310795      67.151009     391.8      0.24      1.65      90.0         2         3      2446      3612     99.18   -20.036       3.7      37.0   263.192     0.558     433.8   0.05792     100.0         H               192.9  0.036966  0.017495  0.001340  1.466459  0.609571  2.405724  1.062376      7.61    1.5270    4.3503   0.06810   3.38659   0.46092   0.06640   8.10808   1.89242     105.4  0.494421  0.006496  0.001183  0.000092  0.189138  7.027174  0.563397    134.28  1.000152  1.000003     2.378    12.336     166.7      61.7       9.4      94.1     12.42     -3.27     -1.89     -0.94     -0.12     -0.78      2.14      1.03      1.78      1.31     -0.39     -0.83      0.38     -0.91      0.15    -15.49      1.19     -0.17     -1.14     -2.57
     -31.391857      67.256477     399.4      0.24      1.65     160.1         3         1      3892      1000    109.68   -19.599       3.7      36.2   260.251     0.549     217.5   0.05535     100.0         H               192.9  0.037103  0.017238  0.001295  1.498040  0.609890  2.456247  1.053071      6.41    1.7330    5.2482   0.06232   3.58497   0.43168   0.05440   9.84221   2.10668     115.5  0.489476  0.003659  0.000576  0.000095  0.182948  7.010222  0.553870     91.84  0.999767  0.999995     2.308    11.732     114.0      65.1      11.4     104.7     11.95     -3.51     -2.17     -0.41     -0.06      0.04      2.90      0.46      0.72      0.66     -1.08     -0.49     -0.12     -0.85      0.42    -15.34      2.52      3.28     -2.85     -2.48
     -31.377377      67.195213     167.6      0.26      1.65     161.3         3         2      3892      2306    113.16   -19.463       3.9      36.6   259.154     0.548     180.2   0.05557      20.0         H               192.9  0.037413  0.018641  0.001077  1.589535  0.594264  2.674798  1.051090      8.73    1.8055    5.5619   0.06457   3.65024   0.42251   0.05073  10.40552   2.17270     118.9  0.487673  0.002951  0.000405  0.000097  0.186238  7.049636  0.552610    126.37  0.999976  0.999999     2.304    11.697     107.8      66.2      12.1     103.6     11.78     -3.42     -2.29      0.55     -0.15     -0.76      1.67      0.20      1.78      0.86     -0.85     -0.90     -0.13     -0.69     -0.17    -11.58      2.74      1.34     -2.52     -1.42
     -31.362997      67.134506     222.6      0.26      1.65     160.6         3         3      3892      3612    109.03   -19.625       4.0      37.0   260.557     0.551     186.9   0.05620      43.7         H               192.9  0.037884  0.018596  0.001209  1.576964  0.609680  2.586543  1.054901     10.16    1.7200    5.2016   0.06555   3.57271   0.43373   0.05518   9.72124   2.09157     115.0  0.490267  0.003388  0.000432  0.000095  0.186941  7.039501  0.556444    113.23  0.999879  0.999997     2.308    11.583     110.8      64.8      11.2     100.4     12.10     -3.52     -2.16     -0.18      0.12     -0.65      1.92      0.76      2.13      1.39     -1.03     -0.67     -0.27     -0.82      0.13    -13.47      2.12     -0.08     -2.93     -1.97
