corner points
74.13127899    -4.879761696
74.09324646    -5.054878235
73.95213318    -4.840174675
73.91404724    -5.01524353
========== RESULTS WAVE VERSION 16.10.2018 ====================
IMAGE SIZE  X: 4476     Y:4787    col:row     POLARIZATION:VV
COVERAGE    X: 20.28616978km       Y: 19.87616492km 
RESOLUTION dX: 4.532209512m       dY:4.152112998m  
resolution of original product 4.532209512m x 4.152112998m;   raster step x:5996.113184m  
===============================================================
FLAGS: H=HIGH PROBABILITY SEA STATE, I=LAND(ISLAND), O=OUTLIER NO SEA STATE, N=NO WIND AVAILABLE, SEA STATE NOT VISIBLE, M=MEAN PROBABILITY SEA STATE, L= LOW PROBABILITY SEA STATE
Filtering wave length
 integration  Lmin=1m
 integration  Lmax=2200m
  peak        Lmin=100m
               FFT=1024pixels, 4640.98254m 
   mean-Hs (SWH_c)=1.495914917m
         mean-wind=15.89629459m/s
--------------0--------------1---------2---------3---------4---------5---------6---------7---------8---------9--------10--------11--------12--------13--------14--------15--------16--------17--------18--------19------------------20--------21--------22--------23--------24--------25--------26--------27--------28--------29--------30--------31--------32--------33--------34--------35--------36--------37--------38--------39--------40--------41--------42--------43--------44--------45--------46--------47--------48--------49--------50--------51--------52--------53--------54--------55--------56--------57--------58--------59--------60--------61--------62--------63--------64--------65--------66--------67--------68--------69--------70--------71--------72--------73
            LAT            LON  P-LENGHT     SWH_o     SWH_c     P-DIR      LINE     POINT     ROW-Y     COL-X  M-INTENC        dB      WIND INC-ANGLE  ENERGY-M  ENERGY-N  ENERGY-R ENERGY-NN  FG-DEPTH      FLAG         HEADING-DEG    E30-75   E75-390  E390-600 meanincut   meanout   cut/out  STD-NORM  SPEC-MAX   GL-MEAN    GL-VAR      CORR   ENTROPY   HOMOGEN    ENERGY  CONTRAST  DISSIMIL     STD-O    E 1-30 E600-2000   E2000 >      GODA  LONG-HIG     Tmean  CONVOLUT  MEAN-DIR  relation     Sy/Sx  SKEWNESS  KURTOSIS  cutoff-A >50/10000     INT*V   INT-LOG  S-1_g1f1  S-2_g1f2  S-3_g1f3  S-4_g2f1  S-5_g2f2  S-6_g2f3  S-7_g3f1  S-8_g3f2  S-9_g3f3 S-10_g1f4 S-11_g2f4 S-12_g3f4 S-13_g1f5 S-14_g2f5 S-15_g3f5 S-16_g4f1 S-17_g4f2 S-18_g4f3 S-19_g4f4 S-20_g4f5
--------------1--------------2---------3---------4---------5---------6---------7---------8---------9--------10--------11--------12--------13--------14--------15--------16--------17--------18--------19--------20------------------21--------22--------23--------24--------25--------26--------27--------28--------29--------30--------31--------32--------33--------34--------35--------36--------37--------38--------39--------40--------41--------42--------43--------44--------45--------46--------47--------48--------49--------50--------51--------52--------53--------54--------55--------56--------57--------58--------59--------60--------61--------62--------63--------64--------65--------66--------67--------68--------69--------70--------71--------72--------73--------74
      -4.907406      74.082848     298.0      1.51      2.04     168.9         1         1      1000      1000    740.98   -11.302      15.7      36.8   224.934     0.588      95.0   0.09042     100.0         H               192.0  0.060672  0.017503  0.000831  1.867253  0.719140  2.596510  1.087356      8.28   13.9486  206.7686   0.13503   7.23217   0.10363   0.00137 357.69806  13.59980     805.6  0.506795  0.001986  0.000141  0.000215  0.148932  6.689584  0.595510     84.92  1.000125  1.000011     2.514    13.755     110.8      97.3     556.3     850.8     11.72      0.89     -1.36      0.54      0.97      3.15      3.31      0.22     -0.95      1.19      0.70     -0.37     -0.04     -1.34      1.74    -11.80     -0.03      8.55      1.41     -3.76
      -4.895658      74.029686     385.2      1.48      2.04       4.8         1         2      1000      2323    716.44   -11.448      15.7      37.2   226.176     0.591     104.6   0.09094     100.0         H               192.0  0.061976  0.017680  0.000816  1.953096  0.742638  2.629945  1.091261      8.85   13.4985  197.0179   0.13631   7.17936   0.10645   0.00146 340.32544  13.20797     781.8  0.509395  0.001783  0.000215  0.000245  0.145160  6.691966  0.599609     84.15  1.000154  1.000015     2.548    14.079     114.0      97.0     520.5     847.5     11.43      1.25     -1.81      0.75      0.86      3.22      3.58      0.58     -0.33      1.10      0.88      0.21      0.74     -1.48      1.71    -10.76     -0.58      8.19      1.43     -3.91
      -4.884008      73.976982     151.0      1.31      2.04      57.8         1         3      1000      3646    660.23   -11.803      15.3      37.6   225.468     0.587     125.1   0.08896      15.7         H               192.0  0.061002  0.016892  0.000730  1.843096  0.734404  2.509648  1.087333      6.65   12.4842  174.2792   0.13423   7.05271   0.11334   0.00171 301.77133  12.33434     717.9  0.506145  0.002122  0.000271  0.000227  0.144134  6.667672  0.594670     84.83  1.000165  1.000015     2.505    13.577     114.0      96.5     437.1     769.3     11.56      0.72     -1.37      1.02      0.63      2.92      2.92      0.54     -0.91      0.66      0.84     -0.03     -0.15     -1.30      1.80    -10.23     -0.71      7.64      1.33     -3.48
      -4.960275      74.071358     301.1      1.54      2.04     172.5         2         1      2445      1000    780.04   -11.079      16.1      36.8   225.090     0.588     106.1   0.09032     100.0         H               192.0  0.062317  0.016633  0.000772  1.805990  0.729271  2.476430  1.088377      6.98   14.6353  222.4794   0.13565   7.30513   0.09935   0.00124 384.60229  14.18563     848.9  0.506959  0.001775  0.000244  0.000246  0.143821  6.645417  0.596614     85.23  1.000153  1.000015     2.501    13.431     110.8      97.6     620.1     888.1     11.59      0.09     -1.63      0.61      0.74      2.61      3.02      0.92     -0.72      0.78      0.63     -0.29      0.24     -1.33      1.76    -10.84     -0.22      7.12      1.65     -3.96
      -4.948523      74.018196     385.2      1.52      2.04     175.2         2         2      2445      2323    736.68   -11.327      16.0      37.2   227.754     0.597     114.8   0.09273     100.0         H               192.0  0.063085  0.017639  0.000906  1.914731  0.746513  2.564899  1.096082      7.06   13.8524  205.6191   0.13763   7.21803   0.10442   0.00139 354.63879  13.51438     807.4  0.513010  0.002064  0.000254  0.000237  0.143098  6.667840  0.605009     84.46  1.000128  1.000012     2.592    14.774     110.8      97.2     554.5     910.0     11.56      0.56     -2.16      0.24      0.70      3.50      3.86      0.47     -1.47      0.81      1.07     -0.24      0.25     -1.70      2.19    -12.89     -0.46     10.66      2.41     -5.50
      -4.936868      73.965485     320.0      1.51      2.04     168.1         2         3      2445      3646    709.94   -11.488      15.9      37.6   227.053     0.596     158.4   0.09284     100.0         H               192.0  0.062810  0.017989  0.000692  1.963686  0.746314  2.631181  1.095852      6.71   13.3761  195.5040   0.13995   7.16193   0.10766   0.00150 336.28516  13.10373     778.0  0.512075  0.002126  0.000490  0.000263  0.143632  6.673696  0.604550     85.16  1.000147  1.000013     2.571    14.414     117.4      97.0     513.4     847.4     11.51      0.91     -1.44      1.18      0.64      2.93      2.68      0.48     -0.63      0.61      0.80      0.24      0.08     -1.03      1.71     -9.34     -0.34      7.52      1.47     -3.06
      -5.013143      74.059868     314.8      1.57      2.04     164.3         3         1      3890      1000    779.71   -11.081      16.1      36.8   226.309     0.590     116.4   0.09057     100.0         H               192.0  0.061435  0.017035  0.000708  1.794277  0.718248  2.498132  1.090437      8.43   14.6253  222.1551   0.13410   7.30400   0.09901   0.00124 384.72937  14.18929     850.2  0.509300  0.002073  0.000250  0.000231  0.146998  6.663073  0.598372     84.17  1.000124  1.000012     2.549    14.184     110.8      97.7     620.3     903.8     11.58      0.54     -1.56      0.94      1.11      3.20      2.99      0.78     -0.25      1.20      0.62      0.17      0.18     -1.38      1.55    -10.01      0.11      7.41      0.65     -3.57
      -5.001387      74.006699     350.3      1.57      2.04     171.3         3         2      3890      2323    767.33   -11.150      16.3      37.2   225.343     0.587     108.9   0.08961     100.0         H               192.0  0.060532  0.016715  0.000731  1.784859  0.721861  2.472580  1.087429      6.57   14.4149  217.1000   0.13285   7.28303   0.10053   0.00128 376.51672  14.00948     834.4  0.507440  0.002052  0.000190  0.000234  0.146495  6.670917  0.595085     83.86  1.000122  1.000012     2.516    13.748     110.8      97.6     598.0     883.9     11.67      0.14     -1.20      0.62      0.80      2.67      2.94      0.33     -0.34      0.83      0.23     -0.20      0.04     -1.00      1.75    -10.51      0.33      6.42      0.60     -3.23
      -4.989727      73.953987     301.1      1.45      2.04     172.5         3         3      3890      3646    713.58   -11.466      15.9      37.6   225.311     0.588     161.4   0.08941     100.0         H               192.0  0.060542  0.016683  0.000596  1.823878  0.730765  2.495849  1.088791      5.95   13.4553  196.3488   0.13513   7.17400   0.10667   0.00147 339.63562  13.18539     776.9  0.507614  0.002572  0.000419  0.000231  0.143026  6.665524  0.596101     84.22  1.000127  1.000011     2.504    13.557     114.0      97.0     514.6     834.7     11.27      0.68     -1.14      1.63      1.05      2.31      2.76      0.46     -0.09      1.33      0.34     -0.19     -0.34     -0.81      1.50     -8.57      0.15      5.48      0.53     -2.16
