corner points
52.06383896    -60.17616272
51.9093895    -60.33610153
51.72407532    -60.09369659
51.56827927    -60.25325012
========== RESULTS WAVE VERSION 16.10.2018 ====================
IMAGE SIZE  X: 4476     Y:4769    col:row     POLARIZATION:VV
COVERAGE    X: 20.88352991km       Y: 19.67752933km 
RESOLUTION dX: 4.665667987m       dY:4.12613322m  
resolution of original product 4.665667987m x 4.12613322m;   raster step x:5995.383363m  
===============================================================
FLAGS: H=HIGH PROBABILITY SEA STATE, I=LAND(ISLAND), O=OUTLIER NO SEA STATE, N=NO WIND AVAILABLE, SEA STATE NOT VISIBLE, M=MEAN PROBABILITY SEA STATE, L= LOW PROBABILITY SEA STATE
Filtering wave length
 integration  Lmin=1m
 integration  Lmax=2200m
  peak        Lmin=100m
               FFT=1024pixels, 4777.644018m 
   mean-Hs (SWH_c)=0.2119644928m
         mean-wind=8.39547348m/s
--------------0--------------1---------2---------3---------4---------5---------6---------7---------8---------9--------10--------11--------12--------13--------14--------15--------16--------17--------18--------19------------------20--------21--------22--------23--------24--------25--------26--------27--------28--------29--------30--------31--------32--------33--------34--------35--------36--------37--------38--------39--------40--------41--------42--------43--------44--------45--------46--------47--------48--------49--------50--------51--------52--------53--------54--------55--------56--------57--------58--------59--------60--------61--------62--------63--------64--------65--------66--------67--------68--------69--------70--------71--------72--------73
            LAT            LON  P-LENGHT     SWH_o     SWH_c     P-DIR      LINE     POINT     ROW-Y     COL-X  M-INTENC        dB      WIND INC-ANGLE  ENERGY-M  ENERGY-N  ENERGY-R ENERGY-NN  FG-DEPTH      FLAG         HEADING-DEG    E30-75   E75-390  E390-600 meanincut   meanout   cut/out  STD-NORM  SPEC-MAX   GL-MEAN    GL-VAR      CORR   ENTROPY   HOMOGEN    ENERGY  CONTRAST  DISSIMIL     STD-O    E 1-30 E600-2000   E2000 >      GODA  LONG-HIG     Tmean  CONVOLUT  MEAN-DIR  relation     Sy/Sx  SKEWNESS  KURTOSIS  cutoff-A >50/10000     INT*V   INT-LOG  S-1_g1f1  S-2_g1f2  S-3_g1f3  S-4_g2f1  S-5_g2f2  S-6_g2f3  S-7_g3f1  S-8_g3f2  S-9_g3f3 S-10_g1f4 S-11_g2f4 S-12_g3f4 S-13_g1f5 S-14_g2f5 S-15_g3f5 S-16_g4f1 S-17_g4f2 S-18_g4f3 S-19_g4f4 S-20_g4f5
--------------1--------------2---------3---------4---------5---------6---------7---------8---------9--------10--------11--------12--------13--------14--------15--------16--------17--------18--------19--------20------------------21--------22--------23--------24--------25--------26--------27--------28--------29--------30--------31--------32--------33--------34--------35--------36--------37--------38--------39--------40--------41--------42--------43--------44--------45--------46--------47--------48--------49--------50--------51--------52--------53--------54--------55--------56--------57--------58--------59--------60--------61--------62--------63--------64--------65--------66--------67--------68--------69--------70--------71--------72--------73--------74
     -60.191120      51.954487     337.0      0.50      2.50      66.5         1         1      1000      1000    327.94   -14.842       8.4      35.5   297.163     0.543      78.3   0.06417     100.0         H               199.2  0.042061  0.016553  0.000833  1.548491  0.659071  2.349507  1.045764     20.73    6.0723   46.7242   0.09370   5.75472   0.19598   0.00639  84.69205   6.36829     343.0  0.482629  0.000909  0.000171  0.000098  0.190258  6.936147  0.543570     87.73  1.000075  1.000005     2.252    11.131      86.6      89.2      95.4     330.7     13.13      2.39      3.75      0.18     -2.30      0.63      1.76     -0.41      1.09      2.24     -2.62     -0.21     -1.56      1.55      1.39    -10.62     -3.97     -2.77     -5.28      2.62
     -60.167355      51.856373     372.6      0.50      2.50      69.3         1         2      1000      2285    309.60   -15.092       8.4      35.9   296.916     0.541      41.5   0.06356     100.0         H               199.2  0.041870  0.016479  0.000695  1.531777  0.659361  2.323122  1.043231     20.15    5.7068   41.4958   0.09108   5.64067   0.20502   0.00713  75.43310   6.00852     323.0  0.481324  0.000477  0.000041  0.000097  0.189793  6.936474  0.540938     88.40  1.000090  1.000006     2.238    10.978      83.0      88.5      84.4     298.9     12.93      2.55      4.08      0.69     -2.85     -0.01      1.38     -0.22      1.18      1.98     -2.95      0.09     -0.97      1.06      1.54     -8.79     -5.00     -3.72     -5.63      1.50
     -60.143726      51.759289     325.8      0.51      2.50      62.4         1         3      1000      3570    305.94   -15.144       8.6      36.3   296.139     0.541      34.8   0.06394     100.0         H               199.2  0.041455  0.017510  0.000653  1.590381  0.650517  2.444796  1.043147     29.01    5.6317   40.5487   0.09370   5.61614   0.20705   0.00733  73.49855   5.93098     319.1  0.480871  0.000329  0.000022  0.000098  0.195293  6.986560  0.541439     68.85  1.000064  1.000003     2.237    10.925      81.3      88.2      82.4     296.1     13.16      3.41      3.83      0.45     -3.34      0.27      0.72     -0.64      0.95      2.67     -3.01     -0.28     -2.02      2.17      1.24     -8.33     -5.50     -2.80     -5.29      3.85
     -60.239876      51.907356     386.3      0.49      2.50      62.8         2         1      2454      1000    320.80   -14.938       8.3      35.5   295.081     0.538      53.0   0.06348     100.0         H               199.2  0.041524  0.016087  0.000717  1.499349  0.664780  2.255404  1.041207     18.53    5.9299   44.3136   0.09211   5.71140   0.19906   0.00662  80.46370   6.21310     334.0  0.479574  0.000634  0.000078  0.000094  0.188600  6.935458  0.538753     95.21  1.000084  1.000005     2.241    11.079      76.6      89.1      90.7     318.6     12.60      1.93      3.43      1.39     -2.59      0.55      1.63     -0.16      1.30      1.50     -2.90      0.24     -1.21      1.21      1.07     -8.53     -4.22     -2.90     -5.44      2.42
     -60.216072      51.809120     372.6      0.49      2.50      69.3         2         2      2454      2285    301.28   -15.210       8.2      35.9   296.994     0.539      47.1   0.06274     100.0         H               199.2  0.041492  0.016607  0.000743  1.550074  0.655132  2.366048  1.042169     21.07    5.5415   39.2534   0.09043   5.58690   0.20939   0.00751  71.40747   5.84578     314.0  0.480284  0.000545  0.000057  0.000096  0.192857  6.962990  0.539652     83.84  1.000069  1.000004     2.233    10.957      79.7      88.1      79.8     302.7     13.11      2.62      4.34      0.59     -2.76      0.24      1.36     -0.36      0.95      2.31     -2.84      0.10     -0.96      1.05      1.24     -9.38     -4.55     -3.44     -5.59      1.68
     -60.192413      51.711922     360.2      0.51      2.50      64.8         2         3      2454      3570    301.54   -15.207       8.5      36.3   297.036     0.541      51.7   0.06313     100.0         H               199.2  0.041448  0.016985  0.000865  1.575667  0.667267  2.361374  1.043317     24.41    5.5440   39.3934   0.09060   5.58756   0.20922   0.00752  71.64803   5.85260     314.6  0.480951  0.000656  0.000059  0.000096  0.193445  6.969015  0.541218     83.50  1.000068  1.000004     2.247    11.132      81.3      88.0      80.0     301.9     13.05      2.75      4.18      0.36     -2.91      0.14      1.86     -0.20      1.20      2.31     -2.91     -0.15     -0.89      1.40      0.76    -10.27     -5.48     -3.44     -5.79      2.80
     -60.288612      51.860088     360.2      0.50      2.50      64.8         3         1      3908      1000    330.53   -14.808       8.5      35.5   296.633     0.539      59.1   0.06302     100.0         H               199.2  0.040983  0.016553  0.000679  1.540583  0.667768  2.307063  1.042002     20.86    6.1239   47.0966   0.09015   5.77099   0.19425   0.00624  85.70119   6.41285     344.4  0.480528  0.000687  0.000095  0.000094  0.190879  6.965289  0.539341     88.23  1.000073  1.000005     2.253    11.237      79.7      89.5      96.6     335.6     12.60      1.74      3.94      1.43     -2.46      0.83      1.93     -0.09      1.44      1.96     -2.65     -0.27     -0.71      1.63      1.02     -8.05     -4.23     -2.42     -4.86      2.75
     -60.264778      51.761738     369.7      0.50      2.50      58.3         3         2      3908      2285    307.01   -15.129       8.3      35.9   296.442     0.539      68.2   0.06284     100.0         H               199.2  0.040913  0.016314  0.000703  1.524821  0.665206  2.292255  1.041540     13.45    5.6553   40.6815   0.09044   5.62433   0.20596   0.00722  74.00444   5.95179     319.7  0.479981  0.000872  0.000129  0.000092  0.188753  6.943514  0.538861     92.61  1.000062  1.000004     2.245    11.122      76.6      88.4      82.8     311.3     12.57      1.41      3.23      1.39     -1.77      0.54      1.33     -0.17      0.98      1.32     -2.02      0.19     -1.44      1.18      0.97     -8.55     -2.89     -2.45     -4.15      2.70
     -60.241085      51.664421     369.7      0.51      2.50      58.3         3         3      3908      3570    300.14   -15.227       8.5      36.3   295.019     0.539      46.4   0.06385     100.0         H               199.2  0.041528  0.017227  0.000824  1.567798  0.670185  2.339350  1.041171     28.82    5.5165   38.8831   0.09389   5.57831   0.21003   0.00760  70.46443   5.80922     312.5  0.478660  0.000577  0.000043  0.000097  0.197230  6.988274  0.539411     68.18  1.000077  1.000004     2.228    10.876      79.7      87.9      79.0     291.9     13.42      3.55      4.28     -0.12     -3.01      0.01      1.23     -0.52      0.92      2.57     -2.99     -0.13     -2.07      1.89      1.11    -10.60     -5.79     -3.91     -6.23      3.66
