corner points
68.97866058    -32.56545639
68.92615509    -32.74376297
68.76062775    -32.5175972
68.70758057    -32.69580078
========== RESULTS WAVE VERSION 16.10.2018 ====================
IMAGE SIZE  X: 5635     Y:4917    col:row     POLARIZATION:VV
COVERAGE    X: 21.07837566km       Y: 20.38225343km 
RESOLUTION dX: 3.740616799m       dY:4.145262036m  
resolution of original product 3.740616799m x 4.145262036m;   raster step x:5999.949346m  
===============================================================
FLAGS: H=HIGH PROBABILITY SEA STATE, I=LAND(ISLAND), O=OUTLIER NO SEA STATE, N=NO WIND AVAILABLE, SEA STATE NOT VISIBLE, M=MEAN PROBABILITY SEA STATE, L= LOW PROBABILITY SEA STATE
Filtering wave length
 integration  Lmin=1m
 integration  Lmax=2200m
  peak        Lmin=100m
               FFT=1024pixels, 3830.391602m 
   mean-Hs (SWH_c)=0.8631342316m
         mean-wind=2.834979534m/s
--------------0--------------1---------2---------3---------4---------5---------6---------7---------8---------9--------10--------11--------12--------13--------14--------15--------16--------17--------18--------19------------------20--------21--------22--------23--------24--------25--------26--------27--------28--------29--------30--------31--------32--------33--------34--------35--------36--------37--------38--------39--------40--------41--------42--------43--------44--------45--------46--------47--------48--------49--------50--------51--------52--------53--------54--------55--------56--------57--------58--------59--------60--------61--------62--------63--------64--------65--------66--------67--------68--------69--------70--------71--------72--------73
            LAT            LON  P-LENGHT     SWH_o     SWH_c     P-DIR      LINE     POINT     ROW-Y     COL-X  M-INTENC        dB      WIND INC-ANGLE  ENERGY-M  ENERGY-N  ENERGY-R ENERGY-NN  FG-DEPTH      FLAG         HEADING-DEG    E30-75   E75-390  E390-600 meanincut   meanout   cut/out  STD-NORM  SPEC-MAX   GL-MEAN    GL-VAR      CORR   ENTROPY   HOMOGEN    ENERGY  CONTRAST  DISSIMIL     STD-O    E 1-30 E600-2000   E2000 >      GODA  LONG-HIG     Tmean  CONVOLUT  MEAN-DIR  relation     Sy/Sx  SKEWNESS  KURTOSIS  cutoff-A >50/10000     INT*V   INT-LOG  S-1_g1f1  S-2_g1f2  S-3_g1f3  S-4_g2f1  S-5_g2f2  S-6_g2f3  S-7_g3f1  S-8_g3f2  S-9_g3f3 S-10_g1f4 S-11_g2f4 S-12_g3f4 S-13_g1f5 S-14_g2f5 S-15_g3f5 S-16_g4f1 S-17_g4f2 S-18_g4f3 S-19_g4f4 S-20_g4f5
--------------1--------------2---------3---------4---------5---------6---------7---------8---------9--------10--------11--------12--------13--------14--------15--------16--------17--------18--------19--------20------------------21--------22--------23--------24--------25--------26--------27--------28--------29--------30--------31--------32--------33--------34--------35--------36--------37--------38--------39--------40--------41--------42--------43--------44--------45--------46--------47--------48--------49--------50--------51--------52--------53--------54--------55--------56--------57--------58--------59--------60--------61--------62--------63--------64--------65--------66--------67--------68--------69--------70--------71--------72--------73--------74
     -32.593025      68.928192     243.6      0.69      2.01     149.4         1         1      1000      1000   1056.69    -9.761       2.6      23.0   330.152     0.732     183.0   0.16628      62.4         H               192.9  0.079339  0.068310  0.001357  6.283567  0.946776  6.636806  1.213504     31.23    1.6638    6.4514   0.26597   3.46015   0.49073   0.07849   9.47099   1.88644    1282.1  0.580272  0.003131  0.000110  0.000173  0.186452  7.224157  0.773146     84.87  1.000042  1.000004     3.098    19.707      68.7      60.0      12.1     141.9     11.56     -4.72     -2.97      3.00     -1.46     -0.04     -0.75      1.03      4.22      1.24     -1.08     -2.02     -1.63     -1.52     -0.36     -3.31     -0.16      0.05     -1.91     -1.25
     -32.579254      68.865364     158.5      0.77      2.01     141.6         1         2      1000      2604   1035.63    -9.848       2.8      23.5   329.889     0.728     132.7   0.16365      17.5         H               192.9  0.080231  0.069033  0.001009  6.320323  0.946453  6.677905  1.210044     33.22    1.6273    6.1828   0.26353   3.42660   0.49543   0.08091   9.10679   1.85024    1253.1  0.576474  0.002051  0.000062  0.000179  0.186041  7.225388  0.768864     85.38  1.000028  1.000003     3.094    20.134      68.7      59.5      11.6     144.4     11.42     -4.99     -3.31      3.36     -1.41      0.34     -1.07      1.08      4.03      1.09     -1.13     -2.26     -1.89     -1.34     -0.61     -1.96      0.15      1.31     -1.62     -0.50
     -32.565712      68.803726     204.0      1.08      2.01     140.3         1         3      1000      4208    909.20   -10.413       2.8      24.0   332.118     0.740     181.7   0.17091      33.4         H               192.9  0.080455  0.075471  0.001123  6.649366  0.942275  7.056712  1.218711     45.18    1.3764    4.7963   0.27046   3.16765   0.53557   0.10376   6.99819   1.59387    1107.9  0.581130  0.002633  0.000135  0.000189  0.189364  7.290872  0.783406     85.65  1.000036  1.000003     3.157    20.853      72.4      55.1       9.1     127.3     11.72     -5.01     -3.59      3.02     -1.09      0.68     -1.62      1.72      4.16      1.71     -1.20     -2.20     -2.28     -1.30      0.32     -2.46      0.38      1.82     -2.07     -0.22
     -32.645504      68.912720     166.7      0.64      2.01     145.5         2         1      2447      1000   1082.73    -9.655       2.5      23.0   332.648     0.744     217.8   0.17189      19.7         H               192.9  0.084805  0.069575  0.001240  6.675337  0.975448  6.843355  1.222227     30.35    1.7214    6.9280   0.27272   3.50884   0.48515   0.07601  10.07694   1.94073    1323.4  0.585125  0.003583  0.000187  0.000187  0.179419  7.168609  0.786986     83.28  1.000074  1.000008     3.139    20.396      67.5      60.6      12.8     151.9     11.41     -4.48     -2.44      3.35     -1.54     -0.30     -0.74      0.68      3.71      0.51     -0.63     -1.82     -1.80     -1.27     -0.15     -3.05      0.26     -0.04     -0.86     -0.65
     -32.631729      68.849846     173.0      0.87      2.01     140.8         2         2      2447      2604   1094.99    -9.606       2.9      23.5   333.004     0.740     224.0   0.16947      21.6         H               192.9  0.081591  0.071584  0.001103  6.458667  0.946639  6.822733  1.220852     39.16    1.7380    7.0023   0.26992   3.52522   0.48239   0.07476  10.22452   1.95880    1336.8  0.582555  0.003279  0.000222  0.000185  0.185505  7.231274  0.782044     83.63  1.000040  1.000002     3.146    20.434      68.7      60.8      13.0     152.3     11.63     -4.63     -3.18      3.27     -1.25     -0.01     -1.63      1.51      3.95      1.09     -0.87     -2.09     -1.83     -1.21      0.20     -2.58      0.22      0.43     -0.92     -0.83
     -32.618176      68.788162     248.5      0.86      2.01     139.6         2         3      2447      4208    967.41   -10.144       2.9      24.0   333.049     0.742     233.4   0.17150      69.2         H               192.9  0.084185  0.071928  0.001056  6.752942  0.956859  7.057404  1.222308     31.20    1.4884    5.4497   0.27151   3.28445   0.51836   0.09356   7.94006   1.70697    1182.4  0.581744  0.003815  0.000175  0.000210  0.180448  7.198043  0.785467     79.18  1.000047  1.000004     3.148    20.552      71.1      57.0      10.2     133.1     11.63     -4.54     -3.21      3.04     -1.23      0.41     -1.31      1.28      3.87      1.15     -1.01     -2.09     -2.21     -0.87      0.13     -2.70     -0.29      1.50     -1.76     -0.05
     -32.697979      68.897232     135.4      1.06      2.01     132.1         3         1      3894      1000   1202.60    -9.199       2.9      23.0   335.562     0.755     226.9   0.17802      12.2         H               192.9  0.086264  0.074121  0.001797  6.890565  0.971885  7.089900  1.232610     38.82    1.9561    8.6866   0.27899   3.70949   0.45726   0.06322  12.52600   2.17033    1482.4  0.588914  0.004337  0.000143  0.000194  0.183156  7.205757  0.799580     85.90  1.000087  1.000009     3.301    23.597      71.1      63.6      15.9     187.1     11.83     -4.93     -2.11      2.59     -2.25     -0.64     -0.67      0.95      4.16      0.78     -0.91     -2.05     -1.91     -2.40     -0.21     -4.78     -0.82     -2.05     -1.35     -2.31
     -32.684193      68.834312     227.6      0.85      2.01     143.5         3         2      3894      2604   1148.68    -9.398       3.1      23.5   336.061     0.755     225.0   0.17798      47.2         H               192.9  0.087740  0.073537  0.001609  6.935404  0.961234  7.215103  1.233128     42.18    1.8432    7.8673   0.27911   3.61355   0.47107   0.06932  11.34280   2.05865    1416.5  0.588512  0.003772  0.000179  0.000201  0.180061  7.175972  0.799131     81.94  1.000070  1.000007     3.220    21.388      69.9      62.1      14.4     163.4     11.72     -4.64     -2.77      2.81     -1.19      0.10     -0.75      1.19      4.35      0.74     -1.18     -2.29     -1.59     -1.46     -0.12     -4.22      0.41     -0.45     -0.91     -1.09
     -32.670635      68.772575     184.1      0.94      2.01     141.3         3         3      3894      4208    989.67   -10.045       3.0      24.0   336.181     0.754     270.8   0.17638      25.3         H               192.9  0.085825  0.074326  0.001555  6.874136  0.954669  7.200542  1.232410     44.23    1.5288    5.7902   0.27614   3.32336   0.51227   0.09021   8.38250   1.74976    1219.5  0.588618  0.004353  0.000220  0.000191  0.183772  7.197030  0.798967     84.64  1.000108  1.000010     3.280    22.784      71.1      57.6      10.8     148.0     11.91     -4.87     -2.67      2.47     -0.84     -0.03     -1.14      1.27      4.15      1.09     -0.79     -2.13     -2.27     -1.67      0.18     -4.13      1.18     -0.63     -0.85     -0.95
