corner points
71.88874054    -22.0266037
71.84441376    -22.2063179
71.69116211    -21.98272133
71.64649963    -22.16236496
========== RESULTS WAVE VERSION 16.10.2018 ====================
IMAGE SIZE  X: 5635     Y:4925    col:row     POLARIZATION:VV
COVERAGE    X: 20.90385755km       Y: 20.45273075km 
RESOLUTION dX: 3.709646415m       dY:4.152838731m  
resolution of original product 3.709646415m x 4.152838731m;   raster step x:5998.498253m  
===============================================================
FLAGS: H=HIGH PROBABILITY SEA STATE, I=LAND(ISLAND), O=OUTLIER NO SEA STATE, N=NO WIND AVAILABLE, SEA STATE NOT VISIBLE, M=MEAN PROBABILITY SEA STATE, L= LOW PROBABILITY SEA STATE
Filtering wave length
 integration  Lmin=1m
 integration  Lmax=2200m
  peak        Lmin=100m
               FFT=1024pixels, 3798.677929m 
   mean-Hs (SWH_c)=2.158140411m
         mean-wind=13.12592602m/s
--------------0--------------1---------2---------3---------4---------5---------6---------7---------8---------9--------10--------11--------12--------13--------14--------15--------16--------17--------18--------19------------------20--------21--------22--------23--------24--------25--------26--------27--------28--------29--------30--------31--------32--------33--------34--------35--------36--------37--------38--------39--------40--------41--------42--------43--------44--------45--------46--------47--------48--------49--------50--------51--------52--------53--------54--------55--------56--------57--------58--------59--------60--------61--------62--------63--------64--------65--------66--------67--------68--------69--------70--------71--------72--------73
            LAT            LON  P-LENGHT     SWH_o     SWH_c     P-DIR      LINE     POINT     ROW-Y     COL-X  M-INTENC        dB      WIND INC-ANGLE  ENERGY-M  ENERGY-N  ENERGY-R ENERGY-NN  FG-DEPTH      FLAG         HEADING-DEG    E30-75   E75-390  E390-600 meanincut   meanout   cut/out  STD-NORM  SPEC-MAX   GL-MEAN    GL-VAR      CORR   ENTROPY   HOMOGEN    ENERGY  CONTRAST  DISSIMIL     STD-O    E 1-30 E600-2000   E2000 >      GODA  LONG-HIG     Tmean  CONVOLUT  MEAN-DIR  relation     Sy/Sx  SKEWNESS  KURTOSIS  cutoff-A >50/10000     INT*V   INT-LOG  S-1_g1f1  S-2_g1f2  S-3_g1f3  S-4_g2f1  S-5_g2f2  S-6_g2f3  S-7_g3f1  S-8_g3f2  S-9_g3f3 S-10_g1f4 S-11_g2f4 S-12_g3f4 S-13_g1f5 S-14_g2f5 S-15_g3f5 S-16_g4f1 S-17_g4f2 S-18_g4f3 S-19_g4f4 S-20_g4f5
--------------1--------------2---------3---------4---------5---------6---------7---------8---------9--------10--------11--------12--------13--------14--------15--------16--------17--------18--------19--------20------------------21--------22--------23--------24--------25--------26--------27--------28--------29--------30--------31--------32--------33--------34--------35--------36--------37--------38--------39--------40--------41--------42--------43--------44--------45--------46--------47--------48--------49--------50--------51--------52--------53--------54--------55--------56--------57--------58--------59--------60--------61--------62--------63--------64--------65--------66--------67--------68--------69--------70--------71--------72--------73--------74
     -22.055119      71.843712     125.7      2.17      2.94      96.8         1         1      1000      1000   4407.61    -3.558      13.2      23.2   385.531     0.824      85.5   0.21073      10.4         H               192.4  0.105281  0.068365  0.001292  6.248156  1.017455  6.140967  1.285247     66.95    8.1971  107.1866   0.29193   6.21805   0.18515   0.00525 151.78949   8.02149    5664.6  0.648320  0.001029  0.000025  0.000283  0.174391  7.078481  0.872684     95.90  1.000254  1.000038     3.908    37.014     121.0      90.6     233.7     847.9     10.70     -0.42      2.98      5.07     -1.85      7.64      4.78     -1.45      5.52     -1.59     -2.09     -2.23      1.26      3.38      4.28     -0.18     -2.08      9.90     -1.95      4.49
     -22.042391      71.786339     128.0      2.20      2.94     102.2         1         2      1000      2617   4031.82    -3.945      13.2      23.7   385.694     0.825      98.6   0.21206      10.8         H               192.4  0.103681  0.069498  0.001390  6.124011  1.011049  6.057089  1.287706     99.00    7.4701   92.3200   0.29369   6.04830   0.19832   0.00628 130.41255   7.36589    5191.4  0.649585  0.001276  0.000039  0.000298  0.177254  7.108164  0.874028     99.93  1.000242  1.000036     3.861    32.245     121.0      89.4     193.9     730.1     10.50     -0.96      3.67      5.56     -2.01      7.77      5.31     -1.48      5.88     -2.12     -2.93     -2.31      1.12      3.79      4.24      0.34     -2.08      9.80     -3.15      5.02
     -22.029879      71.730042     137.1      2.01      2.94     103.0         1         3      1000      4234   3642.45    -4.386      12.9      24.2   388.806     0.829     125.6   0.21341      12.6         H               192.4  0.104327  0.066581  0.001488  6.264091  1.033678  6.059999  1.292227     67.52    6.7330   76.9380   0.28970   5.86267   0.21308   0.00755 109.29784   6.70482    4706.3  0.655713  0.001867  0.000067  0.000271  0.177108  7.099619  0.877421     97.03  1.000260  1.000038     4.563    68.489     117.4      88.0     157.6     827.8     10.90     -0.39      3.79      4.99     -1.66      7.45      4.90     -0.96      5.11     -1.72     -1.86     -1.58      1.44      3.52      4.12     -1.06     -1.89      8.95     -1.38      4.20
     -22.107819      71.830696     123.2      2.19      2.94     103.4         2         1      2444      1000   4406.96    -3.559      13.2      23.2   394.353     0.849     106.3   0.22233       9.9         H               192.4  0.109746  0.070358  0.001330  6.760149  1.054494  6.410797  1.306297     64.00    8.1635  107.2622   0.29543   6.20692   0.18605   0.00532 151.14658   7.98704    5756.6  0.667154  0.001418  0.000052  0.000278  0.172632  7.061004  0.900293     94.61  1.000253  1.000039     4.517    65.264     121.0      90.5     236.7     916.3     10.73     -0.62      2.88      4.73     -1.08      7.13      4.55     -0.41      5.19     -1.04     -1.55     -1.55      1.13      2.92      3.94     -0.66     -1.60      9.01     -1.33      3.78
     -22.095085      71.773300     138.0      2.18      2.94     101.2         2         2      2444      2617   3966.60    -4.016      12.9      23.7   392.254     0.845     108.0   0.22024      12.7         H               192.4  0.109022  0.071693  0.001504  6.414113  1.039536  6.170166  1.304097     77.55    7.3481   90.1750   0.29760   6.01634   0.20093   0.00649 126.68015   7.24812    5172.0  0.661920  0.001519  0.000041  0.000283  0.176692  7.085617  0.896606     96.12  1.000235  1.000037     4.362    52.986     121.0      89.1     190.7     839.5     10.83     -0.46      3.43      4.98     -1.23      7.49      4.88     -0.59      5.39     -1.04     -1.96     -1.20      0.99      3.56      3.94     -0.85     -1.38      8.87     -1.93      4.64
     -22.082565      71.716980     138.8      2.15      2.94      99.4         2         3      2444      4234   3763.42    -4.244      13.3      24.2   388.808     0.827     103.8   0.21171      12.9         H               192.4  0.104603  0.068610  0.001375  6.224642  1.027420  6.058517  1.290429     63.52    6.9645   81.8704   0.29226   5.92255   0.20855   0.00712 115.88637   6.90837    4856.0  0.651929  0.001459  0.000039  0.000277  0.176647  7.098579  0.876017     96.74  1.000227  1.000033     4.083    39.434     117.4      88.5     168.6     743.6     10.80     -0.64      3.81      5.56     -1.80      7.71      4.77     -1.22      5.31     -1.94     -2.08     -2.01      1.20      3.69      4.30     -0.28     -1.73      8.93     -1.35      4.21
     -22.160517      71.817673     128.8      2.21      2.94     100.5         3         1      3888      1000   4336.11    -3.629      12.9      23.2   386.686     0.831      97.7   0.21534      10.9         H               192.4  0.106628  0.070787  0.001408  6.332612  1.031039  6.141974  1.291809     57.74    8.0575  104.9669   0.29535   6.18427   0.18806   0.00546 147.93130   7.89485    5601.5  0.651447  0.001248  0.000038  0.000283  0.176050  7.090490  0.881167     93.00  1.000240  1.000038     3.891    33.707     121.0      90.3     227.3     802.5     10.79     -0.56      3.27      5.04     -1.50      7.58      4.73     -1.05      5.29     -1.16     -2.03     -1.92      1.14      3.29      4.59     -0.51     -1.76      9.84     -2.03      3.51
     -22.147776      71.760246     130.4      2.09      2.94     106.0         3         2      3888      2617   3982.11    -3.999      13.0      23.7   385.303     0.826      94.3   0.21370      11.2         H               192.4  0.104320  0.067739  0.001303  6.149559  1.017219  6.045460  1.288318     68.14    7.3794   90.5926   0.29433   6.02545   0.20055   0.00644 127.85780   7.28113    5129.5  0.652144  0.001231  0.000034  0.000281  0.176224  7.096819  0.875063     98.54  1.000237  1.000036     3.930    36.025     117.4      89.2     189.3     787.4     10.76     -0.44      3.49      5.11     -1.81      7.41      4.80     -1.47      5.43     -1.53     -2.39     -2.15      0.85      3.60      3.99     -0.16     -1.99      9.08     -2.45      5.08
     -22.135252      71.703896     136.0      2.22      2.94     104.8         3         3      3888      4234   3822.10    -4.177      13.5      24.2   384.362     0.814     108.6   0.20580      12.3         H               192.4  0.100971  0.068391  0.001396  6.177325  1.021407  6.047857  1.279119     54.16    7.0886   83.8049   0.28970   5.95717   0.20527   0.00683 119.05214   7.02430    4888.9  0.642361  0.001450  0.000050  0.000276  0.177269  7.112833  0.861551     94.43  1.000249  1.000037     3.910    35.567     117.4      88.8     172.3     727.0     10.86     -0.51      3.77      5.13     -1.82      7.70      4.83     -0.85      5.43     -1.75     -2.15     -1.60      1.37      3.31      4.62     -0.49     -2.23      9.41     -1.55      3.73
