corner points
74.40587616    -11.43279648
74.36597443    -11.61330032
74.22025299    -11.39176846
74.18016815    -11.57222176
========== RESULTS WAVE VERSION 16.10.2018 ====================
IMAGE SIZE  X: 5635     Y:4929    col:row     POLARIZATION:VV
COVERAGE    X: 20.69787124km       Y: 20.49005995km 
RESOLUTION dX: 3.673091613m       dY:4.157041987m  
resolution of original product 3.673091613m x 4.157041987m;   raster step x:5998.158604m  
===============================================================
FLAGS: H=HIGH PROBABILITY SEA STATE, I=LAND(ISLAND), O=OUTLIER NO SEA STATE, N=NO WIND AVAILABLE, SEA STATE NOT VISIBLE, M=MEAN PROBABILITY SEA STATE, L= LOW PROBABILITY SEA STATE
Filtering wave length
 integration  Lmin=1m
 integration  Lmax=2200m
  peak        Lmin=100m
               FFT=1024pixels, 3761.245811m 
   mean-Hs (SWH_c)=1.572443085m
         mean-wind=8.448970795m/s
--------------0--------------1---------2---------3---------4---------5---------6---------7---------8---------9--------10--------11--------12--------13--------14--------15--------16--------17--------18--------19------------------20--------21--------22--------23--------24--------25--------26--------27--------28--------29--------30--------31--------32--------33--------34--------35--------36--------37--------38--------39--------40--------41--------42--------43--------44--------45--------46--------47--------48--------49--------50--------51--------52--------53--------54--------55--------56--------57--------58--------59--------60--------61--------62--------63--------64--------65--------66--------67--------68--------69--------70--------71--------72--------73
            LAT            LON  P-LENGHT     SWH_o     SWH_c     P-DIR      LINE     POINT     ROW-Y     COL-X  M-INTENC        dB      WIND INC-ANGLE  ENERGY-M  ENERGY-N  ENERGY-R ENERGY-NN  FG-DEPTH      FLAG         HEADING-DEG    E30-75   E75-390  E390-600 meanincut   meanout   cut/out  STD-NORM  SPEC-MAX   GL-MEAN    GL-VAR      CORR   ENTROPY   HOMOGEN    ENERGY  CONTRAST  DISSIMIL     STD-O    E 1-30 E600-2000   E2000 >      GODA  LONG-HIG     Tmean  CONVOLUT  MEAN-DIR  relation     Sy/Sx  SKEWNESS  KURTOSIS  cutoff-A >50/10000     INT*V   INT-LOG  S-1_g1f1  S-2_g1f2  S-3_g1f3  S-4_g2f1  S-5_g2f2  S-6_g2f3  S-7_g3f1  S-8_g3f2  S-9_g3f3 S-10_g1f4 S-11_g2f4 S-12_g3f4 S-13_g1f5 S-14_g2f5 S-15_g3f5 S-16_g4f1 S-17_g4f2 S-18_g4f3 S-19_g4f4 S-20_g4f5
--------------1--------------2---------3---------4---------5---------6---------7---------8---------9--------10--------11--------12--------13--------14--------15--------16--------17--------18--------19--------20------------------21--------22--------23--------24--------25--------26--------27--------28--------29--------30--------31--------32--------33--------34--------35--------36--------37--------38--------39--------40--------41--------42--------43--------44--------45--------46--------47--------48--------49--------50--------51--------52--------53--------54--------55--------56--------57--------58--------59--------60--------61--------62--------63--------64--------65--------66--------67--------68--------69--------70--------71--------72--------73--------74
     -11.461957      74.363960     137.5      1.59      2.29      99.3         1         1      1000      1000   2883.31    -5.401       8.4      23.5   428.763     0.825     182.9   0.21216      12.6         H               192.1  0.104142  0.071900  0.001223  6.826742  0.985554  6.926808  1.287843     49.09    5.2705   52.1754   0.30114   5.40281   0.25957   0.01266  72.92652   5.34040    3713.2  0.645308  0.002884  0.000142  0.000253  0.180775  7.135014  0.875885     88.00  1.000258  1.000037     3.671    28.777     107.8      83.6      97.0     517.9     10.88      0.89      3.57      5.79      1.10      7.92      4.18      0.87      6.02      1.27      1.09      0.16      1.74      3.22      4.13      0.44     -0.09      8.37      0.74      3.71
     -11.449939      74.309555     135.8      1.63      2.29      77.1         1         2      1000      2633   2815.51    -5.504       9.2      24.0   420.359     0.800      94.9   0.20066      12.3         H               192.1  0.098128  0.068170  0.001092  6.408680  0.977947  6.553201  1.268937     52.76    5.1365   48.3135   0.28999   5.36790   0.25979   0.01265  68.60568   5.21949    3572.3  0.632504  0.001237  0.000036  0.000246  0.183423  7.137494  0.848346     82.37  1.000236  1.000030     3.691    30.309     105.0      83.7      90.3     511.0     10.88      1.54      3.06      5.72      1.87      7.84      3.87      1.26      5.76      2.47      2.42      1.10      1.65      2.99      3.67      0.74      0.95      8.62      2.22      3.51
     -11.438130      74.256149     129.6      1.54      2.29      88.3         1         3      1000      4266   2745.92    -5.613      10.0      24.4   415.797     0.784     138.6   0.19302      11.1         H               192.1  0.093042  0.062309  0.001160  5.687990  0.956733  5.945221  1.255886     48.37    4.9782   44.9310   0.28223   5.31734   0.26333   0.01307  64.50031   5.07062    3448.4  0.626240  0.001988  0.000095  0.000246  0.185142  7.123755  0.828808     85.83  1.000287  1.000037     3.724    33.745     107.8      83.4      83.8     525.1     10.88      1.53      4.04      6.01      1.79      8.29      4.50      0.72      5.95      1.97      1.98      0.89      2.56      3.83      4.09      0.31      0.86      8.20      1.01      3.57
     -11.514810      74.352272     134.3      1.47      2.29      88.2         2         1      2443      1000   2205.08    -6.566       5.9      23.5   451.132     0.888     410.0   0.23948      12.0         H               192.1  0.115974  0.082590  0.001695  7.309822  1.063518  6.873245  1.338053     56.13    3.9439   33.6648   0.31561   4.86169   0.32027   0.02265  46.07912   4.10034    2950.4  0.681824  0.006138  0.000441  0.000250  0.185576  7.136106  0.946636     84.13  1.000260  1.000040     3.988    33.779     110.8      77.6      59.4     426.2     11.08      1.18      3.57      5.53      1.73      7.66      4.18      1.13      5.99      1.82      1.92      0.79      1.67      2.64      3.67     -0.52      0.84      7.44      1.61      2.49
     -11.502787      74.297852     138.1      1.74      2.29      82.5         2         2      2443      2633   2922.95    -5.342       9.6      24.0   419.738     0.792     196.4   0.19585      12.8         H               192.1  0.096084  0.068693  0.001045  5.956691  0.957382  6.221852  1.262034     50.88    5.3367   51.5804   0.28963   5.43660   0.25379   0.01193  73.28139   5.40278    3688.8  0.623972  0.002932  0.000156  0.000257  0.184873  7.154479  0.839751     83.26  1.000236  1.000032     3.507    26.014     107.8      84.1      96.4     493.8     10.75      1.67      3.29      6.10      2.25      8.29      4.32      1.18      6.33      2.56      2.27      1.08      1.85      3.03      4.11      1.52      1.14      9.37      1.47      3.53
     -11.490973      74.244431     139.3      1.52      2.29      90.0         2         3      2443      4266   2527.35    -5.973       9.0      24.4   419.915     0.797     101.3   0.19810      13.0         H               192.1  0.096596  0.066049  0.001062  6.010226  0.980945  6.126974  1.264659     54.71    4.5583   39.1384   0.28690   5.15371   0.28070   0.01553  55.81860   4.67907    3196.2  0.632868  0.001226  0.000064  0.000253  0.184683  7.137884  0.843925     84.36  1.000261  1.000036     3.665    29.418     107.8      81.7      71.9     443.1     10.86      1.81      3.79      6.07      1.77      8.10      4.32      1.26      6.33      2.01      2.29      1.25      1.87      3.61      4.23      1.20      0.27      8.31      1.82      4.26
     -11.567661      74.340569     129.7      1.48      2.29      68.6         3         1      3886      1000   2372.26    -6.248       6.5      23.5   446.439     0.871     307.6   0.23028      11.1         H               192.1  0.114236  0.080052  0.001490  7.061750  1.038424  6.800448  1.323733     54.35    4.2443   37.4749   0.31127   4.99812   0.30397   0.01956  51.61956   4.38207    3139.9  0.671482  0.004445  0.000354  0.000258  0.184218  7.113467  0.928627     86.16  1.000254  1.000040     3.944    33.524     110.8      79.2      67.1     448.7     10.90      1.04      3.32      5.56      1.58      7.74      4.29      1.12      6.40      1.68      1.65      0.54      1.61      3.04      3.65      0.32      0.47      8.16      1.22      3.91
     -11.555634      74.286133     144.3      1.67      2.29      86.1         3         2      3886      2633   2742.85    -5.618       8.9      24.0   429.512     0.824     632.0   0.21063      14.1         H               192.1  0.100296  0.071075  0.001349  6.599144  0.986006  6.692805  1.290577     67.34    5.0018   47.8658   0.30221   5.30516   0.27065   0.01417  66.79986   5.08587    3539.7  0.642025  0.008701  0.000974  0.000257  0.183750  7.155249  0.875431     84.15  1.000261  1.000036     3.609    27.073     117.4      82.5      88.0     477.2     11.14      1.39      4.04      6.03      1.50      8.45      4.29      0.95      5.90      1.90      1.83      0.56      2.28      3.75      4.09     -0.17      0.03      8.11      1.32      3.37
     -11.543817      74.232697     150.6      1.51      2.29      67.1         3         3      3886      4266   2420.94    -6.160       8.6      24.4   424.408     0.808     143.5   0.20337      15.6         H               192.1  0.101104  0.069026  0.001051  6.333157  0.985034  6.429377  1.274330     49.51    4.3566   36.6535   0.29121   5.06796   0.29123   0.01712  51.95922   4.48548    3084.9  0.635990  0.001871  0.000113  0.000253  0.183865  7.105729  0.856932     82.87  1.000267  1.000035     3.735    31.487     107.8      80.7      66.7     458.2     10.90      1.53      4.18      6.47      2.06      8.24      4.15      1.24      5.45      1.95      2.45      1.27      1.87      2.99      3.74      1.09      1.00      8.23      1.89      2.72
