corner points
70.82213593    -18.99394226
70.7782135    -19.16802216
70.63318634    -18.94999313
70.58905029    -19.12400818
========== RESULTS WAVE VERSION 16.10.2018 ====================
IMAGE SIZE  X: 4476     Y:4781    col:row     POLARIZATION:VV
COVERAGE    X: 20.41695147km       Y: 19.8542344km 
RESOLUTION dX: 4.561427943m       dY:4.152736749m  
resolution of original product 4.561427943m x 4.152736749m;   raster step x:5998.277745m  
===============================================================
FLAGS: H=HIGH PROBABILITY SEA STATE, I=LAND(ISLAND), O=OUTLIER NO SEA STATE, N=NO WIND AVAILABLE, SEA STATE NOT VISIBLE, M=MEAN PROBABILITY SEA STATE, L= LOW PROBABILITY SEA STATE
Filtering wave length
 integration  Lmin=1m
 integration  Lmax=2200m
  peak        Lmin=100m
               FFT=1024pixels, 4670.902214m 
   mean-Hs (SWH_c)=2.178817444m
         mean-wind=14.01226902m/s
--------------0--------------1---------2---------3---------4---------5---------6---------7---------8---------9--------10--------11--------12--------13--------14--------15--------16--------17--------18--------19------------------20--------21--------22--------23--------24--------25--------26--------27--------28--------29--------30--------31--------32--------33--------34--------35--------36--------37--------38--------39--------40--------41--------42--------43--------44--------45--------46--------47--------48--------49--------50--------51--------52--------53--------54--------55--------56--------57--------58--------59--------60--------61--------62--------63--------64--------65--------66--------67--------68--------69--------70--------71--------72--------73
            LAT            LON  P-LENGHT     SWH_o     SWH_c     P-DIR      LINE     POINT     ROW-Y     COL-X  M-INTENC        dB      WIND INC-ANGLE  ENERGY-M  ENERGY-N  ENERGY-R ENERGY-NN  FG-DEPTH      FLAG         HEADING-DEG    E30-75   E75-390  E390-600 meanincut   meanout   cut/out  STD-NORM  SPEC-MAX   GL-MEAN    GL-VAR      CORR   ENTROPY   HOMOGEN    ENERGY  CONTRAST  DISSIMIL     STD-O    E 1-30 E600-2000   E2000 >      GODA  LONG-HIG     Tmean  CONVOLUT  MEAN-DIR  relation     Sy/Sx  SKEWNESS  KURTOSIS  cutoff-A >50/10000     INT*V   INT-LOG  S-1_g1f1  S-2_g1f2  S-3_g1f3  S-4_g2f1  S-5_g2f2  S-6_g2f3  S-7_g3f1  S-8_g3f2  S-9_g3f3 S-10_g1f4 S-11_g2f4 S-12_g3f4 S-13_g1f5 S-14_g2f5 S-15_g3f5 S-16_g4f1 S-17_g4f2 S-18_g4f3 S-19_g4f4 S-20_g4f5
--------------1--------------2---------3---------4---------5---------6---------7---------8---------9--------10--------11--------12--------13--------14--------15--------16--------17--------18--------19--------20------------------21--------22--------23--------24--------25--------26--------27--------28--------29--------30--------31--------32--------33--------34--------35--------36--------37--------38--------39--------40--------41--------42--------43--------44--------45--------46--------47--------48--------49--------50--------51--------52--------53--------54--------55--------56--------57--------58--------59--------60--------61--------62--------63--------64--------65--------66--------67--------68--------69--------70--------71--------72--------73--------74
     -19.020441      70.770226     130.3      1.94      2.81     102.4         1         1      1000      1000    564.66   -12.482      13.3      36.5   240.104     0.582     142.0   0.08491      11.2         H               192.3  0.050650  0.029203  0.000554  2.911283  0.711777  4.090163  1.082773     38.32   10.7003  135.3524   0.13498   6.78661   0.12927   0.00231 234.16273  10.70537     611.4  0.499692  0.001708  0.000364  0.000186  0.181010  7.099562  0.591057    101.33  1.000067  1.000005     2.452    12.854     114.0      95.2     313.3     632.7     10.33     -1.63      3.84      6.54     -1.58      7.55      5.28     -1.35      4.94     -2.54     -3.13     -1.60      1.77      3.08      3.78      0.77     -0.23      8.35     -2.27      2.76
     -19.007481      70.714470     140.8      2.28      2.81     105.4         1         2      1000      2315    627.83   -12.022      14.4      36.9   239.905     0.583     139.7   0.08740      13.3         H               192.3  0.050825  0.030684  0.000653  2.920047  0.716641  4.074633  1.083523     45.45   11.8920  161.3849   0.13765   6.97063   0.11857   0.00189 278.34006  11.78603     680.3  0.498494  0.001920  0.000323  0.000193  0.183196  7.118513  0.591863    102.65  1.000050  1.000003     2.448    12.850     114.0      96.0     391.8     706.7     10.48     -1.75      3.56      6.20     -1.98      8.00      5.51     -1.58      5.20     -2.54     -3.75     -1.95      1.69      2.85      3.66      0.00     -0.81      9.29     -3.70      2.35
     -18.994617      70.659218     145.0      2.32      2.81     105.8         1         3      1000      3630    598.59   -12.229      14.4      37.3   239.749     0.583      96.7   0.08703      14.2         H               192.3  0.050589  0.031604  0.000818  2.924787  0.714514  4.093394  1.083318     40.64   11.3445  149.3514   0.13848   6.88833   0.12354   0.00207 257.34082  11.27258     648.5  0.498320  0.001582  0.000160  0.000202  0.185568  7.150196  0.592437    101.50  1.000053  1.000005     2.435    12.497     117.4      95.6     354.4     648.8     10.62     -1.95      3.92      5.94     -1.50      8.26      5.77     -1.95      5.02     -2.47     -3.63     -1.66      1.60      3.50      3.56     -1.16      1.02      9.71     -3.89      3.96
     -19.073025      70.756943     141.9      2.00      2.81     103.5         2         1      2444      1000    572.10   -12.425      13.4      36.5   242.295     0.587      93.1   0.08613      13.6         H               192.3  0.051211  0.029822  0.000643  2.994757  0.721163  4.152677  1.086795     33.47   10.8364  138.5697   0.13347   6.80822   0.12799   0.00226 240.15025  10.85279     621.7  0.503732  0.001411  0.000169  0.000193  0.179139  7.092306  0.595573    101.09  1.000068  1.000006     2.499    13.503     117.4      95.3     323.7     667.0     10.32     -1.56      3.53      5.96     -1.56      7.49      5.62     -1.23      5.10     -2.06     -2.93     -1.85      1.83      2.88      3.90     -0.14     -0.79      9.02     -2.78      2.89
     -19.060059      70.701180     124.3      1.97      2.81     100.1         2         2      2444      2315    563.38   -12.492      13.6      36.9   240.288     0.581      67.9   0.08489      10.1         H               192.3  0.050852  0.029102  0.000555  2.932370  0.706122  4.152784  1.081612     30.60   10.6748  134.6940   0.13226   6.78307   0.12934   0.00232 233.75977  10.69895     609.3  0.499833  0.000998  0.000100  0.000184  0.179942  7.086641  0.589762     99.62  1.000084  1.000007     2.444    12.758     114.0      95.1     311.4     628.1     10.43     -1.44      3.77      6.23     -1.43      7.20      5.16     -0.98      5.09     -2.10     -2.79     -1.39      1.46      3.08      3.43      0.23     -0.51      7.47     -2.29      3.45
     -19.047190      70.645897     146.2      2.39      2.81     103.9         2         3      2444      3630    629.26   -12.012      14.7      37.3   243.705     0.598     371.6   0.09336      14.5         H               192.3  0.053243  0.032207  0.000779  3.101943  0.735549  4.217180  1.099548     49.17   11.8975  163.5867   0.14882   6.96475   0.11964   0.00192 278.48486  11.75235     691.9  0.506759  0.004667  0.001032  0.000214  0.181226  7.108771  0.609633    102.58  1.000056  1.000006     2.565    14.043     124.8      96.0     400.9     739.2     10.59     -2.41      4.03      6.27     -2.18      8.19      5.83     -1.95      5.04     -2.97     -4.39     -2.12      1.75      3.16      3.73     -1.10      0.16      9.13     -4.25      2.87
     -19.125608      70.743652     133.0      2.22      2.81     104.5         3         1      3888      1000    622.38   -12.059      14.0      36.5   241.666     0.590     171.5   0.08921      11.7         H               192.3  0.052017  0.031032  0.000645  3.005959  0.710273  4.232116  1.090264     36.01   11.7796  159.5375   0.14098   6.95223   0.11961   0.00193 274.09314  11.67767     678.6  0.503624  0.002236  0.000457  0.000193  0.180013  7.098137  0.599805    101.33  1.000051  1.000006     2.512    13.642     117.4      96.0     387.5     728.4     10.37     -1.70      3.46      6.02     -1.56      8.00      5.80     -1.51      5.33     -2.13     -3.33     -2.15      1.69      3.15      3.94      0.09     -0.40      9.99     -3.31      3.00
     -19.112637      70.687866     127.6      2.31      2.81     100.4         3         2      3888      2315    620.75   -12.071      14.3      36.9   240.802     0.587     183.5   0.08893      10.7         H               192.3  0.051307  0.031481  0.000655  3.020376  0.709591  4.256504  1.088533     38.40   11.7500  158.7815   0.14086   6.94830   0.11993   0.00195 272.83008  11.64890     675.7  0.501669  0.002153  0.000541  0.000209  0.182216  7.128691  0.597337    101.06  1.000040  1.000003     2.482    13.092     117.4      95.9     384.8     692.2     10.54     -2.24      3.35      5.86     -1.89      7.78      5.30     -1.65      4.78     -2.59     -3.98     -2.19      1.59      2.80      4.06     -0.39     -0.62      9.85     -3.90      2.33
     -19.099760      70.632576     134.9      0.80      2.81     101.0         3         3      3888      3630    594.80   -12.256      14.3      37.3   257.233     0.643    1485.0   0.10792      12.1         M               192.3  0.054449  0.033032  0.001207  3.212587  0.764028  4.204804  1.147754     50.61   11.2026  156.7110   0.17811   6.83988   0.13003   0.00232 257.59839  11.10806     682.7  0.533585  0.016486  0.004709  0.000202  0.183582  7.126877  0.659242    101.03  1.000045  1.000004     2.824    17.241     222.8      95.1     375.8     822.8     11.06     -1.70      4.79      4.75     -1.84      6.17      5.86     -1.40      5.47     -2.30     -3.21     -2.26      2.64      2.20      4.39     -4.35     -1.08      3.80     -2.96     -0.37
