corner points
50.41863251    -61.78735733
50.24812317    -61.94537354
50.0651474    -61.70084
49.89321518    -61.85842896
========== RESULTS WAVE VERSION 16.10.2018 ====================
IMAGE SIZE  X: 4476     Y:4769    col:row     POLARIZATION:VV
COVERAGE    X: 20.90228098km       Y: 19.67181831km 
RESOLUTION dX: 4.669857234m       dY:4.124935691m  
resolution of original product 4.669857234m x 4.124935691m;   raster step x:5996.096689m  
===============================================================
FLAGS: H=HIGH PROBABILITY SEA STATE, I=LAND(ISLAND), O=OUTLIER NO SEA STATE, N=NO WIND AVAILABLE, SEA STATE NOT VISIBLE, M=MEAN PROBABILITY SEA STATE, L= LOW PROBABILITY SEA STATE
Filtering wave length
 integration  Lmin=1m
 integration  Lmax=2200m
  peak        Lmin=100m
               FFT=1024pixels, 4781.933808m 
   mean-Hs (SWH_c)=0.2m
         mean-wind=5.963374615m/s
--------------0--------------1---------2---------3---------4---------5---------6---------7---------8---------9--------10--------11--------12--------13--------14--------15--------16--------17--------18--------19------------------20--------21--------22--------23--------24--------25--------26--------27--------28--------29--------30--------31--------32--------33--------34--------35--------36--------37--------38--------39--------40--------41--------42--------43--------44--------45--------46--------47--------48--------49--------50--------51--------52--------53--------54--------55--------56--------57--------58--------59--------60--------61--------62--------63--------64--------65--------66--------67--------68--------69--------70--------71--------72--------73
            LAT            LON  P-LENGHT     SWH_o     SWH_c     P-DIR      LINE     POINT     ROW-Y     COL-X  M-INTENC        dB      WIND INC-ANGLE  ENERGY-M  ENERGY-N  ENERGY-R ENERGY-NN  FG-DEPTH      FLAG         HEADING-DEG    E30-75   E75-390  E390-600 meanincut   meanout   cut/out  STD-NORM  SPEC-MAX   GL-MEAN    GL-VAR      CORR   ENTROPY   HOMOGEN    ENERGY  CONTRAST  DISSIMIL     STD-O    E 1-30 E600-2000   E2000 >      GODA  LONG-HIG     Tmean  CONVOLUT  MEAN-DIR  relation     Sy/Sx  SKEWNESS  KURTOSIS  cutoff-A >50/10000     INT*V   INT-LOG  S-1_g1f1  S-2_g1f2  S-3_g1f3  S-4_g2f1  S-5_g2f2  S-6_g2f3  S-7_g3f1  S-8_g3f2  S-9_g3f3 S-10_g1f4 S-11_g2f4 S-12_g3f4 S-13_g1f5 S-14_g2f5 S-15_g3f5 S-16_g4f1 S-17_g4f2 S-18_g4f3 S-19_g4f4 S-20_g4f5
--------------1--------------2---------3---------4---------5---------6---------7---------8---------9--------10--------11--------12--------13--------14--------15--------16--------17--------18--------19--------20------------------21--------22--------23--------24--------25--------26--------27--------28--------29--------30--------31--------32--------33--------34--------35--------36--------37--------38--------39--------40--------41--------42--------43--------44--------45--------46--------47--------48--------49--------50--------51--------52--------53--------54--------55--------56--------57--------58--------59--------60--------61--------62--------63--------64--------65--------66--------67--------68--------69--------70--------71--------72--------73--------74
     -61.800999      50.302799     150.9      0.38      1.72     108.8         1         1      1000      1000    223.82   -16.501       6.1      35.5   298.122     0.531      49.5   0.05813      15.6         H               200.1  0.038075  0.016313  0.000369  1.604149  0.643686  2.492129  1.034626     12.80    3.9976   21.3657   0.07908   4.99717   0.26183   0.01335  39.35214   4.34033     231.6  0.476253  0.000660  0.000081  0.000099  0.182937  7.001517  0.530859    106.14  1.000067  1.000004     2.184    10.460      78.1      83.2      43.6     213.1     10.71     -0.76      2.81      5.47     -0.78      2.90      2.82     -0.25      2.36     -1.56     -1.85     -0.54     -0.43      0.70      0.75     -1.42     -0.53      0.94     -1.28      2.03
     -61.776081      50.200790     153.6      0.37      1.72     111.3         1         2      1000      2284    206.57   -16.849       5.9      35.9   298.762     0.531      35.9   0.05668      16.3         H               200.1  0.036882  0.016012  0.000382  1.556552  0.629595  2.472307  1.034026     13.40    3.6539   18.1583   0.07433   4.83806   0.27807   0.01562  33.61703   4.00771     213.6  0.477450  0.000460  0.000046  0.000098  0.183401  7.014831  0.529967    108.85  1.000074  1.000004     2.173    10.347      79.7      81.5      37.3     191.2     10.65     -0.31      2.57      5.28     -0.88      2.26      2.87     -0.09      2.25     -1.31     -1.87     -0.69     -0.80      0.10      0.76     -1.63     -1.53      0.41     -1.58      1.21
     -61.751312      50.099876     143.8      0.39      1.72     105.8         1         3      1000      3568    210.98   -16.758       6.3      36.2   299.584     0.533      57.3   0.05753      14.0         H               200.1  0.037603  0.016634  0.000435  1.615717  0.645923  2.501410  1.036069      9.83    3.7383   19.0488   0.07750   4.87787   0.27388   0.01510  35.14492   4.09424     218.6  0.477973  0.000750  0.000103  0.000100  0.184775  7.024972  0.532727    104.39  1.000080  1.000004     2.195    10.562      79.7      81.8      39.0     198.4     10.69     -0.18      2.62      5.29     -0.80      2.60      3.05     -0.28      2.72     -1.22     -1.73     -0.88     -0.88      0.45      1.23     -1.89     -1.75      0.46     -1.69      1.71
     -61.849167      50.250774     160.5      0.37      1.72     103.2         2         1      2454      1000    218.52   -16.605       5.9      35.5   299.398     0.533      33.9   0.05777      18.0         H               200.1  0.037867  0.016354  0.000306  1.590921  0.642843  2.474821  1.036190      9.69    3.8914   20.4178   0.07705   4.94928   0.26662   0.01401  37.68926   4.24005     226.4  0.478171  0.000385  0.000048  0.000098  0.183740  7.004998  0.532098    102.42  1.000066  1.000004     2.208    10.776      79.7      82.6      41.7     206.5     10.70     -0.24      2.64      5.88     -0.52      3.11      2.34     -0.33      2.31     -1.30     -1.32     -0.51     -0.40      0.71      1.30     -0.62     -1.06      1.43     -0.97      1.46
     -61.824211      50.148640     143.1      0.36      1.72     111.9         2         2      2454      2284    203.96   -16.904       5.8      35.9   299.173     0.530      37.7   0.05597      13.8         H               200.1  0.036994  0.015809  0.000381  1.530496  0.627652  2.438447  1.033588      8.54    3.6016   17.6828   0.07262   4.81275   0.28052   0.01601  32.79740   3.95997     210.8  0.477149  0.000397  0.000059  0.000097  0.183718  7.012615  0.529488    105.61  1.000060  1.000003     2.169    10.377      79.7      81.3      36.4     194.6     10.71     -0.23      2.37      5.21     -0.61      2.43      2.65     -0.37      2.43     -1.15     -1.51     -0.67     -0.94      0.34      0.79     -1.62     -1.05      0.41     -1.42      1.76
     -61.799404      50.047604     131.2      0.39      1.72     106.2         2         3      2454      3568    209.89   -16.780       6.3      36.2   299.336     0.532      30.9   0.05684      11.4         H               200.1  0.037536  0.015680  0.000372  1.504592  0.640033  2.350806  1.034702      9.95    3.7165   18.7835   0.07447   4.86780   0.27447   0.01520  34.76942   4.07696     217.1  0.478010  0.000358  0.000034  0.000098  0.182803  6.980955  0.530771    105.97  1.000071  1.000004     2.182    10.456      79.7      81.7      38.5     195.8     10.77     -0.58      2.29      4.99     -0.61      2.19      2.36     -0.32      2.30     -1.66     -1.66     -0.65     -0.57      0.35      1.20     -1.72     -0.49      0.28     -0.73      1.11
     -61.897316      50.198589     135.9      0.35      1.72     104.9         3         1      3908      1000    203.75   -16.909       5.6      35.5   299.526     0.532      34.3   0.05640      12.3         H               200.1  0.037471  0.016222  0.000346  1.576704  0.643026  2.452005  1.034713      9.04    3.5980   17.6939   0.07331   4.81091   0.28054   0.01603  32.79362   3.95533     210.9  0.477404  0.000441  0.000043  0.000100  0.183052  7.009106  0.530912    101.61  1.000064  1.000003     2.194    10.641      81.3      81.3      36.4     193.1     10.44     -0.13      2.30      5.78     -0.09      2.90      3.05     -0.48      2.94     -0.96     -1.28     -0.80     -0.72      0.41      1.16     -0.68     -0.49      1.34     -1.04      1.50
     -61.872318      50.096329     168.1      0.36      1.72     118.5         3         2      3908      2284    199.44   -17.002       5.7      35.9   298.853     0.531      44.9   0.05593      20.1         H               200.1  0.037112  0.015611  0.000335  1.514542  0.635925  2.381638  1.034166      8.27    3.5113   16.9318   0.07325   4.76808   0.28496   0.01671  31.38313   3.86808     206.3  0.477721  0.000543  0.000081  0.000095  0.180856  6.983151  0.530674    103.72  1.000064  1.000003     2.188    10.476      78.1      80.9      34.9     182.2     10.61     -0.24      2.03      5.24     -0.09      2.14      2.49     -0.08      2.00     -1.34     -1.18     -0.31     -1.16      0.15      1.08     -1.36     -0.30      1.04     -0.83      1.44
     -61.847481      49.995171     142.8      0.38      1.72      99.7         3         3      3908      3568    202.65   -16.932       6.1      36.2   298.340     0.530      40.2   0.05621      13.8         H               200.1  0.037297  0.016299  0.000349  1.586552  0.632529  2.508268  1.033351      8.22    3.5729   17.4609   0.07445   4.79846   0.28173   0.01625  32.32220   3.93130     209.4  0.475972  0.000546  0.000053  0.000096  0.185089  7.021195  0.529688    101.62  1.000093  1.000005     2.175    10.383      79.7      81.0      36.0     185.4     10.70      0.03      2.56      5.55     -0.38      2.71      2.44     -0.32      2.23     -1.46     -1.26     -0.50     -0.54      0.42      1.23     -1.18     -1.10      0.81     -0.59      1.03
