 ====== NUMBER OF COLLOCATIONS / NUMBER OF PARAMETERS: ALL+C / PRIMARY /SECONDARY =====
    236967
       131        53        77
 ====  NUMBERS / NAME =================================================================
                             0                             1                             2                             3                             4                             5                             6                             7                             8                             9                            10                            11                            12                            13                            14                            15                            16                            17                            18                            19                            20                            21                            22                            23                            24                            25                            26                            27                            28                            29                            30                            31                            32                            33                            34                            35                            36                            37                            38                            39                            40                            41                            42                            43                            44                            45                            46                            47                            48                            49                            50                            51                            52                            53                            54                            55                            56                            57                            58                            59                            60                            61                            62                            63                            64                            65                            66                            67                            68                            69                            70                            71                            72                            73                            74                            75                            76                            77                            78                            79                            80                            81                            82                            83                            84                            85                            86                            87                            88                            89                            90                            91                            92                            93                            94                            95                            96                            97                            98                            99                           100                           101                           102                           103                           104                           105                           106                           107                           108                           109                           110                           111                           112                           113                           114                           115                           116                           117                           118                           119                           120                           121                           122                           123                           124                           125                           126                           127                           128                           129                           130
                          -999                             7                             9                            12                            13                            14                            16                            17                            18                            21                            22                            23                            24                            25                            26                            27                            28                            29                            30                            31                            32                            33                            34                            35                            36                            37                            39                            40                            41                            42                            43                            44                            45                            46                            47                            48                            49                            50                            51                            52                            53                            54                            55                            56                            57                            58                            59                            60                            61                            62                            63                            64                            65                            66                             1                             2                             3                             4                             5                             6                             7                             8                             9                            10                            11                            12                            13                            14                            15                            16                            17                            18                            19                            20                            21                            22                            23                            24                            25                            26                            27                            28                            29                            30                            31                            32                            33                            34                            35                            36                            37                            38                            39                            40                            41                            42                            43                            44                            45                            46                            47                            48                            49                            50                            51                            52                            53                            54                            55                            56                            57                            58                            59                            60                            61                            62                            63                            64                            65                            66                            67                            68                            69                            70                            71                            72                            73                            74                            75                            76                            77
                             C                      MEAN-INT                          WIND                      ENERGY-N                      ENERGY-R                     ENERGY-NN                       E_30-75                      E_75-390                     E_390-600                      STD_NORM                      SPEC_MAX                     GLCM-MEAN                      GLCM-VAR                     GLCM-CORR                    GLCM-ENTRO                     GLCM-HOMO                   GLCM-ENERGY                   GLCM-CONTRA                     GLCM-DISS                         STD-O                        E_1-30                     E_60-2000                       E_2000>                          GODA                      LONG_HIG                   CONVOLUTION                      RELATION                        SytoSx                          SKEW                          KURT                        CUTOFF                    >50to10000                         INT*V                       INT-LOG                           S-1                           S-2                           S-3                           S-4                           S-5                           S-6                           S-7                           S-8                           S-9                          S-10                          S-11                          S-12                          S-13                          S-14                          S-15                          S-16                          S-17                          S-18                          S-19                          S-20                E75-16/E390-17                      1/WIND-9                       1/En-12                      1/E75-16                     1/E390-17                     1/E600-18                     1/STDn-21                   1/G_mean-23                    1/G_var-24                    1/G_cor-25                   1/G_entr-26                   1/G_homo-27                  1/G_energ-28                  1/G_contr-29                   1/G_diss-30                     1/STDo_31                      1/E30-32                    1/E2000-33                     1/GODA-35                 1/LONGHIGG-36                 1/CONVOLUT-37                     1/SKEW-41                     1/KURT-42                   1/CUTOFF-43                 1/>30to100-44                    1/int*V-45                  1/int_log-46                       1/S1-47                       1/S2-48                       1/S3-49                       1/S4-50                       1/S5-51                       1/S6-52                       1/S7-53                       1/S8-54                       1/S9-55                      1/S10-56                      1/S11-57                      1/S12-58                      1/S13-59                      1/S14-60                      1/S15-61                      1/S16-62                      1/S17-63                      1/S18-64                      1/S19-65                      1/S20-60                STDn**2=var-21                STDo**2=var-31                E390-17/E75-16                E10e-34/E2e-33                E30-32/E390-17                      INCUT-19                  MEAN-INT*S16                 MEAN-INT*E-NN                 MEAN-INT*E600                  E_N*LONGHIGG                        E_N*S6                 E_75*G_entrop                    E_n*G_mean                      E_390*S3                   E_600*E_600                    STDn*int*V                      STDn*S13                Spe-Max*G_mean                    G_mean*S17                  G_var*E_2000                      G_var*S6                 G_entr*E_3000                G_contr*E_3000                 G_contr*RELAT                   G_contr *S4                       E_30*S6                         S2*S2                         S3*S3                         S4*S4                         S5*S5
 =================  SWH =========: min-nv / max-nv   wv1/wv2 ===========================
 1.0       1.4        2 
 ======== COEFFITIENTS /  MEAN  /STD / (mean+std)/std / BEITRAG = A*(mean+std)/std ================
        2.54644584655761718750        4.45278739929199218750        0.14102534949779510498        0.35548436641693115234       -0.41013735532760620117        0.64917916059494018555        0.48457577824592590332       -0.87764096260070800781        0.15994124114513397217       79.17687988281250000000        0.12433211505413055420       -1.99256837368011474609        5.32931709289550781250       -0.13474430143833160400        4.98386907577514648438       -0.81328141689300537109       -0.79699575901031494141        1.48296952247619628906       -1.49775040149688720703       -6.03971242904663085938       -2.76141309738159179688       -0.18370467424392700195        0.66079962253570556641       -0.08442769944667816162       -2.36020135879516601562        1.02470362186431884766       -1.54751086235046386719        1.80690217018127441406        0.00224834075197577477       -0.01167338714003562927        0.08097068220376968384       -3.03083181381225585938       -2.92497992515563964844        3.57120037078857421875        1.20449936389923095703        0.36080452799797058105        4.30904722213745117188        9.30744743347167968750       -2.68041253089904785156       -1.36857378482818603516       -2.65675067901611328125       -0.80065333843231201172        0.23367853462696075439       -0.35826092958450317383        0.63217651844024658203        0.85686200857162475586       -0.68828052282333374023        0.33011960983276367188        0.94337421655654907227       -0.39194834232330322266        0.09467424452304840088        0.20094466209411621094       -0.20552560687065124512        0.03398444503545761108       -0.71529012918472290039        0.03852472826838493347        2.09158849716186523438       -1.10317695140838623047        0.34729084372520446777       -0.00202039815485477448       28.56046676635742187500        1.64070856571197509766       -2.03511071205139160156       -0.17878703773021697998        7.50492286682128906250        0.91019374132156372070       -0.09460871666669845581        1.04683947563171386719       -4.55470323562622070312       -0.28924921154975891113       -2.59756112098693847656        0.02298097684979438782       -0.04908864572644233704       -0.17931760847568511963        1.20008635520935058594       -0.02275741100311279297        0.04255718365311622620       -0.27181896567344665527       -2.14112758636474609375        1.03919851779937744141       -0.09910134226083755493        0.98829603195190429688        0.27198249101638793945        3.84418535232543945312        9.17536735534667968750       -2.69361948966979980469       -1.00550615787506103516       -2.35731124877929687500       -0.85739761590957641602       -0.02257725037634372711       -0.22582863271236419678        0.60906171798706054688        0.91972845792770385742       -0.14984229207038879395        0.37814003229141235352        0.93112152814865112305        0.23173701763153076172        0.05097625404596328735       -0.00808114744722843170       -0.09109216183423995972       -0.00196790136396884918      -52.15783691406250000000        0.63265013694763183594        0.93570417165756225586        0.03783786669373512268        0.15520566701889038086       -0.05466364324092864990       -0.01017297245562076569       -1.20415782928466796875        0.07366710156202316284        3.29171442985534667969        0.98672986030578613281       -0.92173987627029418945        0.43780735135078430176        0.03898309543728828430       -0.06194325909018516541        3.67766809463500976562        0.50813585519790649414       -0.12199676781892776489       -0.01078500878065824509        0.11267482489347457886        0.08019421994686126709       -0.39275819063186645508       -0.25685626268386840820       -6.81570529937744140625       -0.04671699926257133484       -0.56882226467132568359       -0.20634789764881134033       -0.47238144278526306152       -0.65260386466979980469        0.09977997839450836182
        1.00000000000000000000      344.12152099609375000000        9.25776576995849609375        0.57775318622589111328      146.17539978027343750000        0.07963345199823379517        0.04808738455176353455        0.02508253417909145355        0.00107510446105152369        1.07832002639770507812       33.52273559570312500000        6.12671804428100585938       60.22885131835937500000        0.11232887208461761475        5.44456672668457031250        0.23705846071243286133        0.01422344986349344254      105.36505126953125000000        6.31878376007080078125      374.56262207031250000000        0.50145179033279418945        0.00208246428519487381        0.00032459222711622715        0.00014692677359562367        0.18790017068386077881        0.58300375938415527344        0.99998480081558227539        0.99988561868667602539        2.47832775115966796875       14.50823497772216796875      109.98291015625000000000       85.14318084716796875000      171.94462585449218750000      390.95568847656250000000       12.41053295135498046875       -0.14386582374572753906        1.05736613273620605469        1.17388176918029785156        0.41145727038383483887        2.95701193809509277344        1.53966879844665527344        0.16112108528614044189        0.94501680135726928711        0.05867449939250946045        0.15590313076972961426        0.22839570045471191406       -0.50828987360000610352        0.70600557327270507812        1.32301962375640869141       -8.33767223358154296875        0.57186669111251831055        3.58398246765136718750        0.10042844712734222412        1.00695252418518066406        2.17769956588745117188        0.12319742143154144287        1.73673009872436523438       21.22886848449707031250       46.95600509643554687500     1391.41662597656250000000        0.92812961339950561523        0.22101023793220520020        0.04112572968006134033        8.51322269439697265625        0.18667264282703399658        4.95224857330322265625      184.48049926757812500000        0.02480410225689411163        0.20242446660995483398        0.00370056787505745888        1.99650132656097412109      550.51666259765625000000     7442.34570312500000000000        5.40398120880126953125        1.72229874134063720703        0.40745419263839721680        0.07607958465814590454        0.00973496027290821075        0.01174415647983551025        0.02055430039763450623        0.00371221126988530159        0.08182974159717559814        0.01003217510879039764        0.00991387013345956802        0.00989377032965421677        0.00996581930667161942        0.00971873290836811066        0.00985349155962467194        0.00998719595372676849        0.00991023238748311996        0.01000335160642862320        0.00998878199607133865        0.00997943803668022156        0.01005747262388467789        0.00993454549461603165        0.00987118389457464218        0.01097387261688709259        0.00998160708695650101        0.00967669393867254257        0.01000286545604467392        0.00991437956690788269        1.16375160217285156250        0.20637862384319305420        0.51117432117462158203        0.10146214067935943604       23.30979919433593750000        2.22283172607421875000    -2951.12402343750000000000       29.99198913574218750000        0.41507881879806518555        0.10898453742265701294        1.74216020107269287109        0.26654100418090820312      891.50787353515625000000        0.06113305687904357910        0.00000224653854274948      189.87600708007812500000       -0.52468937635421752930      243.02915954589843750000        3.85538959503173828125        0.12583155930042266846      232.69628906250000000000        0.00173061317764222622        0.03250316902995109558      105.36903381347656250000      129.64242553710937500000        1.49822902679443359375       17.40931701660156250000       20.51132965087890625000       11.13659095764160156250        7.00429105758666992188
        1.00000000000000000000      226.47187805175781250000        3.60723495483398437500        0.04546551033854484558      177.31918334960937500000        0.02112173102796077728        0.00802804995328187943        0.01134787779301404953        0.00104436057154089212        0.03126581385731697083       37.38082122802734375000        3.83209395408630371094       68.87833404541015625000        0.02499832212924957275        1.00214946269989013672        0.09075248986482620239        0.01418444048613309860      118.44193267822265625000        3.52895736694335937500      257.06317138671875000000        0.02812405116856098175        0.00270082917995750904        0.00052424910245463252        0.00005084477015770972        0.02399414405226707458        0.04809437692165374756        0.00407754397019743919        0.00407368689775466919        0.47109979391098022461       31.88158226013183593750       32.60586929321289062500        8.89003276824951171875      317.34713745117187500000      272.49359130859375000000        1.59759378433227539062        4.16996622085571289062        4.40378332138061523438        3.12387466430664062500        2.61438202857971191406        2.55622506141662597656        2.30866932868957519531        1.81641340255737304688        1.97766876220703125000        3.01105761528015136719        2.08683609962463378906        1.49705576896667480469        2.50210571289062500000        2.18963575363159179688        1.35204505920410156250        6.37545871734619140625        5.96457433700561523438        5.03517723083496093750        3.53187513351440429688        3.82003164291381835938        0.68156176805496215820        0.04670805484056472778        0.09730422496795654297        2.97921538352966308594       17.83326530456542968750      736.85809326171875000000        0.02626806125044822693        0.12406778335571289062        0.03905761614441871643        1.72772490978240966797        0.03575193881988525391        2.12308788299560546875      201.08694458007812500000        0.02500002272427082062        0.10186040401458740234        0.00196334789507091045        0.06414916366338729858      253.04158020019531250000     1977.37097167968750000000        0.64969903230667114258        0.10621590167284011841        0.03349585831165313721        0.01245497632771730423        0.00232454109936952591        0.00132609228603541851        0.02025691978633403778        0.00216611218638718128        0.00984904728829860687        0.00042682953062467277        0.00042547512566670775        0.00031777625554241240        0.00026168278418481350        0.00023953880008775741        0.00022546913533005863        0.00018110817472916096        0.00019664176215883344        0.00030685821548104286        0.00020885934645775706        0.00014908402226865292        0.00025416791322641075        0.00021406024461612105        0.00013181635586079210        0.00094955053646117449        0.00069006806006655097        0.00048616284038871527        0.00037178388447500765        0.00037726780283264816        0.06833541393280029297        0.37318241596221923828        0.18028447031974792480        0.04400997608900070190        8.33534622192382812500        0.84904408454895019531     3366.06909179687500000000       27.38863563537597656250        0.65193456411361694336        0.01959351822733879089        1.55636441707611083984        0.08352246135473251343     1133.93469238281250000000        0.17850440740585327148        0.00000900144550541881      360.80395507812500000000        2.75059008598327636719      424.55975341796875000000       44.83481216430664062500        0.20868487656116485596      428.24563598632812500000        0.00264454260468482971        0.06408983469009399414      118.45854187011718750000      536.20489501953125000000        1.31745982170104980469       33.57513046264648437500       34.79444122314453125000       17.12666702270507812500       17.92993354797363281250
        1.00000000000000000000        2.51948881149291992188        3.56644368171691894531       13.70750522613525390625        1.82436311244964599609        4.77021455764770507812        6.98992061614990234375        3.21032810211181640625        2.02943801879882812500       35.48878860473632812500        1.89678966999053955078        2.59879112243652343750        1.87442362308502197266        5.49345636367797851562        6.43288898468017578125        3.61214280128479003906        2.00275015830993652344        1.88959240913391113281        2.79055261611938476562        2.45708394050598144531       18.82999801635742187500        1.77104616165161132812        1.61915647983551025391        3.88971257209777832031        8.83108425140380859375       13.12207794189453125000      246.24192810058593750000      246.44979858398437500000        6.26072788238525390625        1.45506632328033447266        4.37310171127319335938       10.57737541198730468750        1.54181873798370361328        2.43473362922668457031        8.76826572418212890625        0.96549946069717407227        1.24010396003723144531        1.37577736377716064453        1.15738224983215332031        2.15678858757019042969        1.66690742969512939453        1.08870291709899902344        1.47784388065338134766        1.01948630809783935547        1.07470786571502685547        1.15256321430206298828        0.79685515165328979492        1.32243061065673828125        1.97853207588195800781       -0.30777606368064880371        1.09587717056274414062        1.71178877353668212891        1.02843487262725830078        1.26359796524047851562        4.19516086578369140625        3.63760566711425781250       18.84845542907714843750        8.12565803527832031250        3.63305687904357910156        2.88831019401550292969       36.33300781250000000000        2.78136682510375976562        2.05295014381408691406        5.92741823196411132812        6.22132921218872070312        3.33256888389587402344        1.91741657257080078125        1.99216318130493164062        2.98727345466613769531        2.88482522964477539062       32.12279891967773437500        3.17559766769409179688        4.76375818252563476562        9.31766891479492187500       17.21507453918457031250       13.16431522369384765625        7.10836887359619140625        5.18790626525878906250        9.85621356964111328125        2.01468038558959960938        2.71376705169677734375        9.30839157104492187500       24.50393867492675781250       24.30070304870605468750       32.13439178466796875000       39.08358764648437500000       41.57268905639648437500       44.70217514038085937500       56.14492034912109375000       51.39739227294921875000       33.59926605224609375000       48.82540130615234375000       67.93834686279296875000       40.57019042968750000000       47.41004180908203125000       75.88587951660156250000       12.55691242218017578125       15.46467018127441406250       20.90422248840332031250       27.90505409240722656250       27.27942085266113281250       18.02999305725097656250        1.55302345752716064453        3.83537650108337402344        3.30543494224548339844        3.79650044441223144531        3.61804032325744628906        0.12327288836240768433        2.09505224227905273438        1.63668787479400634766        6.56227493286132812500        2.11937808990478515625        4.19124937057495117188        1.78620743751525878906        1.34247362613677978516        1.24957525730133056641        1.52625799179077148438        0.80924475193023681641        1.57242631912231445312        1.08599090576171875000        1.60297405719757080078        1.54337096214294433594        1.65440940856933593750        1.50715017318725585938        1.88950133323669433594        1.24177765846252441406        2.13721036911010742188        1.51851820945739746094        1.58950018882751464844        1.65024852752685546875        1.39064788818359375000
        1.00000000000000000000       11.21874844378982594151        0.50295898277209560856        4.87280376837615758490       -0.74823944044399115505        3.09672376118880432472        3.38714632492764922134       -2.81751545063828690019        0.32459083300740027012     2809.89161001823867991334        0.23583187568242613974       -5.17826900646511134596        9.98939795294239907264       -0.74021195331276834484       32.06067682173414823410       -2.93768852729215446118       -1.59618337806249899202        2.80220794521620808482       -4.17955126491036477177      -14.84008049332719991753      -51.99740285360001479376       -0.32534946363052480445        1.06993798853794119808       -0.32839948736753454828      -20.84313811170779473514       13.44624055213607327630     -381.06206071198607787665      445.31066822332189758527        0.01407624958512892176       -0.01698555236129360366        0.35409301110553409453      -32.05824479378711089339       -4.50978871930623625985        8.69492123682631579129       10.56137078297237508195        0.34835657904468925183        5.34366660215359612351       12.80497592445965260310       -3.10226185945644106212       -2.95172429883582143617       -4.42855752675333125268       -0.87167360861780707193        0.34534038593764698755       -0.36524213355785500879        0.67940508593596016240        0.98758766535582709345       -0.54845990008939926597        0.43656027422271664884        1.86649617916767951442        0.12063231354323021571        0.10375134323300920502        0.34397481036836397017       -0.21136969685816850428        0.04294267732588623321       -3.00075717587640555806        0.14013776882955006342       39.42321205577822951227       -8.96403817314682171968        1.26172741420153733394       -0.00583553635602194597     1037.68766622088332951535        4.56341243514250471947       -4.17798100710406217217       -1.05974550499781861035       46.69059592417597315261        3.03328327190156876725       -0.18140432302585193791        2.08547506754715250565      -13.60614360598088978804       -0.83443342240098827833      -83.44092959699605671631        0.07297833427188957223       -0.23384642907568636838       -1.67082209053388108799       20.65957640438186260212       -0.29958573113234299168        0.30251215187314128841       -1.41017131959470254365      -21.10341111736825681078        2.09365283747225205957       -0.26893794859509206896        9.19944665289216878534        6.66464244509614722745       93.41640823105697677420      294.84485542479944797378     -105.27631642083947838273      -41.80159407131297655269     -105.37694295238532049552      -48.13851938901387228498       -1.16041178388922805453       -7.58767591921598860694       29.73768256949821520152       62.48483269198369782771       -6.07913041706071677339       17.92763506719135691014       70.65897891636676320104        2.90990146225977985850        0.78833097463659462800       -0.16893010833301283502       -2.54193170849241312226       -0.05368320949579818979     -940.40542014082848254475        0.98252051797303341374        3.58877779361267901237        0.12507060373973469258        0.58923837972345016745       -0.19777527038722600428       -0.00125405172499362563       -2.52277357625632614457        0.12057005039127514923       21.60113482287699682161        2.09125362927260916024       -3.86324178003629015166        0.78201476485028231789        0.05233377862389728546       -0.07740276554851779900        5.61307044018404344143        0.41120628484393090263       -0.19183092796524897627       -0.01171242206383448989        0.18061481721051461657        0.12376943326008908730       -0.64978282338932380480       -0.38712096877414392537      -12.87828441621494057756       -0.05801212865952474346       -1.21569286670393039707       -0.31334304305484494968       -0.75085039223001781572       -1.07695860272646015687        0.13875882101563077886
