corner points
-105.3482513    -61.0955658
-105.5099335    -60.93648148
-105.0084152    -61.0127182
-105.1714554    -60.85403061
========== RESULTS WAVE VERSION 16.10.2018 ====================
IMAGE SIZE  X: 4376     Y:4769    col:row     POLARIZATION:VV
COVERAGE    X: 20.430298km       Y: 19.67562295km 
RESOLUTION dX: 4.668715266m       dY:4.125733476m  
resolution of original product 4.668715266m x 4.125733476m;   raster step x:5999.299117m  
===============================================================
FLAGS: H=HIGH PROBABILITY SEA STATE, I=LAND(ISLAND), O=OUTLIER NO SEA STATE, N=NO WIND AVAILABLE, SEA STATE NOT VISIBLE, M=MEAN PROBABILITY SEA STATE, L= LOW PROBABILITY SEA STATE
Filtering wave length
 integration  Lmin=1m
 integration  Lmax=2200m
  peak        Lmin=100m
               FFT=1024pixels, 4780.764432m 
   mean-Hs (SWH_c)=1.162877579m
         mean-wind=9.75m/s
--------------0--------------1---------2---------3---------4---------5---------6---------7---------8---------9--------10--------11--------12--------13--------14--------15--------16--------17--------18--------19------------------20--------21--------22--------23--------24--------25--------26--------27--------28--------29--------30--------31--------32--------33--------34--------35--------36--------37--------38--------39--------40--------41--------42--------43--------44--------45--------46--------47--------48--------49--------50--------51--------52--------53--------54--------55--------56--------57--------58--------59--------60--------61--------62--------63--------64--------65--------66--------67--------68--------69--------70--------71--------72--------73
            LAT            LON  P-LENGHT     SWH_o     SWH_c     P-DIR      LINE     POINT     ROW-Y     COL-X  M-INTENC        dB      WIND INC-ANGLE  ENERGY-M  ENERGY-N  ENERGY-R ENERGY-NN  FG-DEPTH      FLAG         HEADING-DEG    E30-75   E75-390  E390-600 meanincut   meanout   cut/out  STD-NORM  SPEC-MAX   GL-MEAN    GL-VAR      CORR   ENTROPY   HOMOGEN    ENERGY  CONTRAST  DISSIMIL     STD-O    E 1-30 E600-2000   E2000 >      GODA  LONG-HIG     Tmean  CONVOLUT  MEAN-DIR  relation     Sy/Sx  SKEWNESS  KURTOSIS  cutoff-A >50/10000     INT*V   INT-LOG  S-1_g1f1  S-2_g1f2  S-3_g1f3  S-4_g2f1  S-5_g2f2  S-6_g2f3  S-7_g3f1  S-8_g3f2  S-9_g3f3 S-10_g1f4 S-11_g2f4 S-12_g3f4 S-13_g1f5 S-14_g2f5 S-15_g3f5 S-16_g4f1 S-17_g4f2 S-18_g4f3 S-19_g4f4 S-20_g4f5
--------------1--------------2---------3---------4---------5---------6---------7---------8---------9--------10--------11--------12--------13--------14--------15--------16--------17--------18--------19--------20------------------21--------22--------23--------24--------25--------26--------27--------28--------29--------30--------31--------32--------33--------34--------35--------36--------37--------38--------39--------40--------41--------42--------43--------44--------45--------46--------47--------48--------49--------50--------51--------52--------53--------54--------55--------56--------57--------58--------59--------60--------61--------62--------63--------64--------65--------66--------67--------68--------69--------70--------71--------72--------73--------74
     -61.043144    -105.303581     230.0      1.32      3.57      74.2         1         1      1000      1000    399.06   -13.990       9.8      35.5   314.334     0.606      56.2   0.09231      49.0         H               340.4  0.054915  0.031366  0.000901  2.848270  0.768485  3.706346  1.104271     49.27    7.4685   74.0033   0.13806   6.12501   0.17227   0.00464 127.57379   7.70349     440.6  0.518540  0.000600  0.000031  0.000143  0.205898  7.132920  0.611907     76.70  1.000316  1.000025     2.734    16.588     133.1      91.4     154.4     511.3     14.17      5.39      8.42      1.72     -0.09      2.89     -1.80     -2.54     -3.11      6.67      0.74     -3.22      2.77      2.19      0.23     -5.90     -1.50      1.53     -0.50      1.27
     -61.018776    -105.203415     221.8      1.28      3.57      61.8         1         2      1000      2285    391.88   -14.069      10.0      35.9   314.180     0.604      80.0   0.09122      43.1         H               340.4  0.053942  0.030151  0.001028  2.659953  0.745847  3.566350  1.102203     41.31    7.3291   71.4650   0.13572   6.09084   0.17440   0.00481 123.53098   7.57793     431.9  0.517880  0.000995  0.000095  0.000142  0.209374  7.122871  0.609118     71.66  1.000346  1.000027     2.772    19.400     133.1      91.1     148.4     575.6     14.69      6.56      8.78      0.78     -0.52      2.17     -2.30     -3.07     -3.34      7.27      0.20     -3.46      2.28      1.96      0.59     -7.58     -2.91     -0.06     -2.03      0.81
     -60.994556    -105.104309     281.8      1.35      3.57      62.2         1         3      1000      3570    393.79   -14.047      10.4      36.3   314.181     0.603      80.7   0.09138     100.0         H               340.4  0.053738  0.030310  0.001021  2.735360  0.777412  3.518546  1.101678     46.56    7.3651   72.1260   0.13826   6.09934   0.17412   0.00478 124.30797   7.60383     433.8  0.517282  0.001008  0.000094  0.000139  0.208729  7.136835  0.608709     73.25  1.000319  1.000025     2.698    16.152     133.1      91.1     149.8     497.9     14.45      5.86      8.24      0.70     -0.72      2.27     -1.57     -2.70     -2.93      6.61     -0.06     -2.96      2.07      2.06      1.00     -7.46     -2.40      1.16     -1.75      0.98
     -60.994667    -105.353058     263.5      1.14      3.57      82.8         2         1      2454      1000    385.79   -14.137       9.5      35.5   310.998     0.593      58.8   0.08733     147.3         H               340.4  0.052254  0.028812  0.000757  2.756049  0.735865  3.745321  1.092874     36.96    7.2119   68.5035   0.13167   6.06314   0.17647   0.00490 118.96564   7.45185     421.6  0.511402  0.000611  0.000054  0.000129  0.204409  7.106670  0.598373     76.74  1.000310  1.000025     2.653    15.956     124.8      91.0     141.9     499.1     14.19      5.12      7.98      1.33     -0.14      1.93     -2.20     -2.36     -3.17      5.91      0.36     -2.52      2.06      1.66      0.02     -5.67     -1.52      0.52     -1.53      1.54
     -60.970337    -105.253006     281.8      1.16      3.57      62.2         2         2      2454      2285    385.92   -14.135       9.9      35.9   312.168     0.595      71.6   0.08714     100.0         H               340.4  0.051685  0.028187  0.000712  2.787311  0.741862  3.757181  1.094441     31.58    7.2127   68.6915   0.12945   6.06302   0.17640   0.00491 119.59853   7.46531     422.3  0.513900  0.000807  0.000101  0.000131  0.201835  7.096803  0.599311     74.24  1.000329  1.000025     2.653    15.781     124.8      91.0     142.2     486.9     13.91      5.03      7.52      1.72     -0.30      2.49     -1.62     -2.64     -2.24      5.23      0.27     -2.64      1.84      1.97      1.17     -5.54     -1.48      0.46     -0.95      0.97
     -60.946148    -105.154022     287.5      1.10      3.57      74.2         2         3      2454      3570    370.55   -14.312       9.9      36.3   311.183     0.592     112.4   0.08641     100.0         H               340.4  0.051629  0.027570  0.000964  2.678652  0.749587  3.573502  1.092115     33.15    6.9104   63.6930   0.13077   5.98380   0.18222   0.00534 110.72883   7.17365     404.7  0.510856  0.001492  0.000207  0.000127  0.203767  7.083265  0.596914     74.59  1.000306  1.000024     2.599    14.915     124.8      90.4     130.2     455.8     14.13      5.60      7.59      0.90     -0.56      2.15     -0.94     -2.16     -1.91      5.99      0.39     -2.79      1.60      2.06      0.91     -7.71     -2.89     -0.01     -1.03      1.75
     -60.946175    -105.402374     260.1      1.09      3.57      60.5         3         1      3908      1000    370.59   -14.311       9.2      35.5   311.486     0.592      48.4   0.08621     101.3         H               340.4  0.051131  0.028609  0.000939  2.767387  0.741151  3.733906  1.091525     37.49    6.9128   63.5529   0.12867   5.98505   0.18182   0.00530 110.75098   7.17769     404.5  0.511299  0.000476  0.000022  0.000131  0.205600  7.143357  0.596345     71.13  1.000283  1.000022     2.608    15.066     124.8      90.5     130.3     458.6     13.97      5.58      7.14      1.44      0.07      2.54     -1.30     -2.71     -2.13      5.84      0.74     -2.86      1.24      1.64      1.21     -6.74     -1.73      0.85     -0.87      0.81
     -60.921875    -105.302452     254.9      1.08      3.57      65.0         3         2      3908      2285    366.14   -14.364       9.5      35.9   310.626     0.591      73.8   0.08559      82.1         H               340.4  0.051549  0.028056  0.000881  2.661694  0.742727  3.583679  1.090349     35.81    6.8236   61.8681   0.12853   5.96130   0.18347   0.00541 107.83289   7.08686     399.2  0.509691  0.000813  0.000099  0.000129  0.208296  7.119539  0.595053     70.36  1.000296  1.000023     2.660    16.950     121.0      90.4     126.7     499.9     14.29      6.43      7.30      0.93     -0.57      1.90     -1.74     -2.63     -2.17      6.50      0.47     -2.82      0.76      1.58      1.04     -7.09     -3.21     -0.21     -1.73      1.19
     -60.897724    -105.203583     275.1      0.96      3.57      67.0         3         3      3908      3570    353.84   -14.512       9.6      36.3   312.549     0.595     108.5   0.08639     100.0         H               340.4  0.051899  0.026481  0.001009  2.520190  0.749445  3.362741  1.094393     35.31    6.5781   58.2436   0.12863   5.89288   0.18876   0.00583 101.50365   6.85982     387.3  0.514051  0.001598  0.000170  0.000122  0.201414  7.069213  0.599247     73.50  1.000315  1.000023     2.682    16.606     121.0      89.8     118.7     467.5     14.00      5.34      7.19      0.90     -0.69      2.10     -0.82     -2.20     -2.11      5.70     -0.14     -2.36      1.22      1.87      1.12     -7.86     -2.93      0.49     -1.97      1.47
