corner points
-108.3632278    -57.84034348
-108.4973221    -57.67804718
-108.0488434    -57.76470184
-108.1841278    -57.60272598
========== RESULTS WAVE VERSION 16.10.2018 ====================
IMAGE SIZE  X: 4376     Y:4767    col:row     POLARIZATION:VV
COVERAGE    X: 20.39070041km       Y: 19.67914919km 
RESOLUTION dX: 4.659666455m       dY:4.128204152m  
resolution of original product 4.659666455m x 4.128204152m;   raster step x:5996.990728m  
===============================================================
FLAGS: H=HIGH PROBABILITY SEA STATE, I=LAND(ISLAND), O=OUTLIER NO SEA STATE, N=NO WIND AVAILABLE, SEA STATE NOT VISIBLE, M=MEAN PROBABILITY SEA STATE, L= LOW PROBABILITY SEA STATE
Filtering wave length
 integration  Lmin=1m
 integration  Lmax=2200m
  peak        Lmin=100m
               FFT=1024pixels, 4771.49845m 
   mean-Hs (SWH_c)=1.55298996m
         mean-wind=9.380247116m/s
--------------0--------------1---------2---------3---------4---------5---------6---------7---------8---------9--------10--------11--------12--------13--------14--------15--------16--------17--------18--------19------------------20--------21--------22--------23--------24--------25--------26--------27--------28--------29--------30--------31--------32--------33--------34--------35--------36--------37--------38--------39--------40--------41--------42--------43--------44--------45--------46--------47--------48--------49--------50--------51--------52--------53--------54--------55--------56--------57--------58--------59--------60--------61--------62--------63--------64--------65--------66--------67--------68--------69--------70--------71--------72--------73
            LAT            LON  P-LENGHT     SWH_o     SWH_c     P-DIR      LINE     POINT     ROW-Y     COL-X  M-INTENC        dB      WIND INC-ANGLE  ENERGY-M  ENERGY-N  ENERGY-R ENERGY-NN  FG-DEPTH      FLAG         HEADING-DEG    E30-75   E75-390  E390-600 meanincut   meanout   cut/out  STD-NORM  SPEC-MAX   GL-MEAN    GL-VAR      CORR   ENTROPY   HOMOGEN    ENERGY  CONTRAST  DISSIMIL     STD-O    E 1-30 E600-2000   E2000 >      GODA  LONG-HIG     Tmean  CONVOLUT  MEAN-DIR  relation     Sy/Sx  SKEWNESS  KURTOSIS  cutoff-A >50/10000     INT*V   INT-LOG  S-1_g1f1  S-2_g1f2  S-3_g1f3  S-4_g2f1  S-5_g2f2  S-6_g2f3  S-7_g3f1  S-8_g3f2  S-9_g3f3 S-10_g1f4 S-11_g2f4 S-12_g3f4 S-13_g1f5 S-14_g2f5 S-15_g3f5 S-16_g4f1 S-17_g4f2 S-18_g4f3 S-19_g4f4 S-20_g4f5
--------------1--------------2---------3---------4---------5---------6---------7---------8---------9--------10--------11--------12--------13--------14--------15--------16--------17--------18--------19--------20------------------21--------22--------23--------24--------25--------26--------27--------28--------29--------30--------31--------32--------33--------34--------35--------36--------37--------38--------39--------40--------41--------42--------43--------44--------45--------46--------47--------48--------49--------50--------51--------52--------53--------54--------55--------56--------57--------58--------59--------60--------61--------62--------63--------64--------65--------66--------67--------68--------69--------70--------71--------72--------73--------74
     -57.788887    -108.318680     182.0      1.50      3.75      72.5         1         1      1000      1000    351.95   -14.535       9.0      35.6   310.796     0.608      51.7   0.09122      24.5         H               342.0  0.052115  0.035503  0.000985  3.436265  0.739896  4.644255  1.106342     39.14    6.5427   58.7160   0.13697   5.88029   0.19081   0.00597 101.34770   6.82133     389.4  0.519248  0.000512  0.000014  0.000152  0.211579  7.259052  0.614733     76.08  1.000292  1.000026     2.758    17.801     137.8      89.7     119.1     485.0     13.69      3.41      8.81      3.54      1.21      5.18     -0.52     -1.24     -1.50      4.10      1.83     -1.10      3.46      2.94      0.96     -4.52      0.03      2.85      0.27      1.65
     -57.766602    -108.225883     191.3      1.55      3.75      74.2         1         2      1000      2287    352.20   -14.532       9.3      36.0   309.375     0.605      58.3   0.09087      28.0         H               342.0  0.052394  0.035492  0.000980  3.350841  0.743144  4.509004  1.103434     39.87    6.5490   58.7328   0.13847   5.88217   0.19091   0.00597 101.20103   6.82021     388.6  0.515836  0.000545  0.000030  0.000156  0.215988  7.269716  0.611809     76.04  1.000298  1.000023     2.691    16.223     137.8      89.6     118.8     465.9     14.13      2.85      9.82      3.04      1.25      4.88     -1.07     -0.77     -2.49      3.75      1.95     -0.77      4.87      2.46     -0.04     -4.92     -0.08      2.76      0.20      0.84
     -57.744450    -108.134026     199.0      1.55      3.75      73.6         1         3      1000      3574    357.68   -14.465       9.8      36.3   308.235     0.603      51.9   0.09077      31.1         H               342.0  0.052110  0.034437  0.001009  3.284544  0.750539  4.376247  1.101831     42.00    6.6538   60.2073   0.13750   5.91169   0.18822   0.00578 103.85753   6.92084     394.0  0.515584  0.000474  0.000018  0.000153  0.211729  7.248060  0.609553     76.53  1.000278  1.000026     2.707    16.484     137.8      89.9     122.4     464.0     13.76      3.26      8.95      3.05      0.69      4.79     -0.31     -0.21     -1.70      3.41      2.42     -0.81      3.82      2.83      0.28     -5.25     -1.80      2.62      1.66      2.16
     -57.739437    -108.359695     182.0      1.54      3.75      72.5         2         1      2453      1000    354.16   -14.508       9.0      35.6   311.033     0.613      55.5   0.09422      24.5         H               342.0  0.054403  0.036626  0.000888  3.598681  0.776970  4.631684  1.110862     36.64    6.5855   59.7565   0.14253   5.89120   0.19075   0.00593 102.47899   6.85165     393.4  0.521175  0.000539  0.000030  0.000159  0.208298  7.249462  0.620997     77.53  1.000295  1.000026     2.796    17.890     142.7      89.8     121.3     486.7     13.35      3.28      8.94      4.03      1.12      5.23     -0.10     -0.73     -0.74      3.91      2.17     -0.63      4.19      3.09      0.97     -3.50     -0.55      2.35      0.47      1.72
     -57.717182    -108.266998     271.3      1.55      3.75      75.1         2         2      2453      2287    363.56   -14.394       9.5      36.0   309.635     0.607      55.1   0.09267     100.0         H               342.0  0.052863  0.035092  0.000861  3.428619  0.741190  4.625830  1.105104     40.42    6.7723   62.3927   0.13964   5.94359   0.18600   0.00560 107.35970   7.02993     401.8  0.517687  0.000557  0.000019  0.000148  0.214341  7.257460  0.613321     78.91  1.000313  1.000027     2.723    16.484     133.1      90.1     127.3     468.6     14.03      3.11      9.67      2.90      0.52      4.24     -1.12     -0.94     -2.07      3.60      1.39     -1.12      4.67      2.54      0.14     -4.42     -0.80      1.67      0.36      1.15
     -57.695057    -108.175255     177.6      1.59      3.75      75.4         2         3      2453      3574    361.51   -14.419       9.8      36.3   310.449     0.607      53.4   0.09202      23.1         H               342.0  0.052821  0.035062  0.000967  3.377217  0.756224  4.465892  1.105425     44.24    6.7296   61.6553   0.13801   5.93246   0.18682   0.00567 106.29103   6.99612     399.6  0.518139  0.000563  0.000019  0.000154  0.209735  7.244416  0.613606     77.19  1.000289  1.000025     2.800    19.492     137.8      90.0     125.7     524.8     13.59      3.37      8.68      3.37      1.28      4.99     -0.32     -1.24     -1.27      4.41      1.84     -0.77      3.46      3.10      1.13     -4.57      0.31      2.71     -0.43      1.76
     -57.689976    -108.400597     266.4      1.59      3.75      71.6         3         1      3906      1000    360.10   -14.436       9.1      35.6   312.475     0.618      59.6   0.09563     100.0         H               342.0  0.054558  0.037163  0.001071  3.450698  0.763692  4.518443  1.114878     45.59    6.7021   62.0696   0.14478   5.92229   0.18821   0.00576 106.16689   6.96414     401.5  0.524573  0.000569  0.000027  0.000153  0.212616  7.255604  0.625454     78.48  1.000325  1.000028     2.814    17.787     142.7      90.0     126.1     485.2     13.93      3.39      9.34      2.76      0.81      4.32     -0.63     -0.95     -1.70      4.18      1.41     -0.94      4.72      2.31      0.50     -4.96     -0.57      2.34      0.06      0.73
     -57.667744    -108.308014     165.6      1.59      3.75      76.4         3         2      3906      2287    358.28   -14.458       9.4      36.0   311.962     0.613      57.7   0.09375      19.4         H               342.0  0.053504  0.036033  0.000940  3.398056  0.755705  4.496536  1.110734     41.12    6.6669   61.0989   0.14103   5.91361   0.18835   0.00581 104.96416   6.93522     397.9  0.522244  0.000572  0.000033  0.000163  0.212566  7.268281  0.620083     76.02  1.000279  1.000025     2.801    18.487     142.7      89.8     124.0     512.5     13.56      3.70      9.34      3.77      1.24      5.10     -0.13     -0.79     -1.07      4.46      2.46     -0.90      3.73      2.98      0.95     -3.99     -0.52      2.38      1.19      1.90
     -57.645653    -108.216377     231.9      1.52      3.75      67.4         3         3      3906      3574    344.18   -14.632       9.5      36.4   309.802     0.604      58.5   0.09013      50.5         H               342.0  0.051908  0.034601  0.001048  3.121469  0.747795  4.174234  1.102944     43.74    6.3872   56.1339   0.13691   5.83630   0.19420   0.00624  96.89810   6.67027     379.5  0.516551  0.000568  0.000030  0.000156  0.216910  7.265003  0.610758     74.29  1.000290  1.000024     2.690    16.013     142.7      89.4     113.2     435.1     14.28      4.32      9.84      2.56      0.50      4.12     -1.38     -1.66     -2.57      4.93      1.48     -1.88      3.80      2.65      0.45     -5.80     -1.28      1.18     -0.19      0.93
