corner points
-114.126091    -54.2869606
-114.2279358    -54.11458206
-113.822258    -54.22314453
-113.9254074    -54.05102158
========== RESULTS WAVE VERSION 16.10.2018 ====================
IMAGE SIZE  X: 5471     Y:4906    col:row     POLARIZATION:VV
COVERAGE    X: 20.92017081km       Y: 20.23688916km 
RESOLUTION dX: 3.82382943m       dY:4.12492645m  
resolution of original product 3.82382943m x 4.12492645m;   raster step x:5999.588376m  
===============================================================
FLAGS: H=HIGH PROBABILITY SEA STATE, I=LAND(ISLAND), O=OUTLIER NO SEA STATE, N=NO WIND AVAILABLE, SEA STATE NOT VISIBLE, M=MEAN PROBABILITY SEA STATE, L= LOW PROBABILITY SEA STATE
Filtering wave length
 integration  Lmin=1m
 integration  Lmax=2200m
  peak        Lmin=100m
               FFT=1024pixels, 3915.601337m 
   mean-Hs (SWH_c)=1.892365723m
         mean-wind=8.74691391m/s
--------------0--------------1---------2---------3---------4---------5---------6---------7---------8---------9--------10--------11--------12--------13--------14--------15--------16--------17--------18--------19------------------20--------21--------22--------23--------24--------25--------26--------27--------28--------29--------30--------31--------32--------33--------34--------35--------36--------37--------38--------39--------40--------41--------42--------43--------44--------45--------46--------47--------48--------49--------50--------51--------52--------53--------54--------55--------56--------57--------58--------59--------60--------61--------62--------63--------64--------65--------66--------67--------68--------69--------70--------71--------72--------73
            LAT            LON  P-LENGHT     SWH_o     SWH_c     P-DIR      LINE     POINT     ROW-Y     COL-X  M-INTENC        dB      WIND INC-ANGLE  ENERGY-M  ENERGY-N  ENERGY-R ENERGY-NN  FG-DEPTH      FLAG         HEADING-DEG    E30-75   E75-390  E390-600 meanincut   meanout   cut/out  STD-NORM  SPEC-MAX   GL-MEAN    GL-VAR      CORR   ENTROPY   HOMOGEN    ENERGY  CONTRAST  DISSIMIL     STD-O    E 1-30 E600-2000   E2000 >      GODA  LONG-HIG     Tmean  CONVOLUT  MEAN-DIR  relation     Sy/Sx  SKEWNESS  KURTOSIS  cutoff-A >50/10000     INT*V   INT-LOG  S-1_g1f1  S-2_g1f2  S-3_g1f3  S-4_g2f1  S-5_g2f2  S-6_g2f3  S-7_g3f1  S-8_g3f2  S-9_g3f3 S-10_g1f4 S-11_g2f4 S-12_g3f4 S-13_g1f5 S-14_g2f5 S-15_g3f5 S-16_g4f1 S-17_g4f2 S-18_g4f3 S-19_g4f4 S-20_g4f5
--------------1--------------2---------3---------4---------5---------6---------7---------8---------9--------10--------11--------12--------13--------14--------15--------16--------17--------18--------19--------20------------------21--------22--------23--------24--------25--------26--------27--------28--------29--------30--------31--------32--------33--------34--------35--------36--------37--------38--------39--------40--------41--------42--------43--------44--------45--------46--------47--------48--------49--------50--------51--------52--------53--------54--------55--------56--------57--------58--------59--------60--------61--------62--------63--------64--------65--------66--------67--------68--------69--------70--------71--------72--------73--------74
     -54.239902    -114.089806     184.8      1.90      3.52      82.5         1         1      1000      1000   3618.15    -4.415       8.6      22.5   248.791     0.811     101.0   0.20726      25.5         H               343.6  0.095934  0.074524  0.001649  6.766043  1.066624  6.343416  1.276686     60.08    6.6927   76.4740   0.29278   5.84956   0.21519   0.00771 108.16679   6.65567    4618.7  0.638945  0.000949  0.000023  0.000204  0.206269  7.279077  0.853576     85.84  1.000321  1.000038     3.762    31.184     110.8      87.9     153.3     672.8     13.14     -0.34      7.86      4.32      1.01      6.16      0.25      1.24      0.43     -0.81      1.57      1.56      3.81      2.88      1.13     -2.60      0.47      4.47      1.83      1.70
     -54.221443    -114.001709     259.1      2.03      3.52      97.0         1         2      1000      2569   3342.90    -4.759       8.9      22.9   251.433     0.819     105.8   0.21000      96.2         H               343.6  0.094899  0.077218  0.001858  6.899513  1.070317  6.446232  1.283315     58.69    6.1543   66.6526   0.29293   5.69500   0.22864   0.00904  94.25554   6.16817    4289.7  0.644906  0.001051  0.000021  0.000206  0.207684  7.322423  0.861108     85.54  1.000348  1.000044     3.891    35.116     107.8      86.6     130.9     658.9     13.14     -0.54      8.00      4.10      1.37      6.08      0.56      1.47      0.23     -0.96      1.93      1.77      3.93      2.39      1.38     -2.72      0.88      5.34      2.08      1.23
     -54.203274    -113.915375     177.4      2.10      3.52      85.2         1         3      1000      4138   3033.10    -5.181       8.8      23.4   250.979     0.818     110.0   0.20883      23.0         H               343.6  0.095122  0.079411  0.002213  6.679673  1.067861  6.255191  1.281351     60.40    5.5563   56.1153   0.29408   5.50780   0.24621   0.01095  79.22480   5.61313    3886.3  0.641152  0.000967  0.000023  0.000209  0.212532  7.354924  0.860999     84.44  1.000351  1.000041     3.823    32.589     110.8      85.0     107.1     577.8     13.44     -0.18      8.36      3.61      0.91      5.84      0.38      1.46     -0.16     -0.86      1.81      1.79      3.87      2.39      1.07     -3.94      0.56      4.63      2.59      0.84
     -54.188820    -114.120102     253.8      1.91      3.52     114.9         2         1      2454      1000   3624.13    -4.408       8.6      22.5   247.950     0.809     106.7   0.20748      79.3         H               343.6  0.095614  0.074516  0.001781  6.785042  1.053107  6.442882  1.275605     58.64    6.7118   76.7675   0.29294   5.85482   0.21492   0.00768 108.55772   6.66951    4622.5  0.636989  0.001047  0.000028  0.000206  0.206088  7.266603  0.851372     85.71  1.000322  1.000039     3.736    30.320     107.8      87.9     153.9     639.8     13.17     -0.53      7.23      3.91      1.26      6.15      0.37      1.64      0.40     -1.10      1.93      1.62      2.84      2.88      1.87     -3.14      0.43      5.23      2.32      1.92
     -54.170383    -114.032127     133.3      1.83      3.52      80.9         2         2      2454      2569   3326.80    -4.780       8.8      23.0   245.713     0.798      92.1   0.20287      11.8         H               343.6  0.094036  0.072155  0.001719  6.600239  1.055110  6.255500  1.266317     53.18    6.1296   65.3343   0.29003   5.69215   0.22817   0.00900  92.77007   6.14357    4212.4  0.630416  0.000754  0.000018  0.000207  0.203627  7.260507  0.838803     83.78  1.000297  1.000036     3.669    29.564     107.8      86.7     127.2     599.5     12.93     -0.42      7.48      4.26      0.89      5.94      0.74      1.48      0.60     -0.96      1.65      1.96      3.18      2.66      1.51     -2.54      0.38      4.86      1.65      1.84
     -54.152237    -113.945892     195.6      1.97      3.52      87.3         2         3      2454      4138   3013.00    -5.210       8.8      23.4   247.930     0.806      94.8   0.20453      29.7         H               343.6  0.092565  0.075525  0.001924  7.036508  1.016758  6.920532  1.272161     45.27    5.5225   55.1194   0.29031   5.49976   0.24580   0.01091  78.23418   5.58113    3832.8  0.635750  0.000806  0.000011  0.000210  0.206162  7.300202  0.846707     81.20  1.000309  1.000037     3.687    28.846     107.8      85.1     104.5     533.7     13.17      0.62      7.21      3.81      1.78      5.70      0.52      0.93      0.55      0.40      2.29      1.39      2.60      2.04      1.34     -3.55      1.23      4.48      2.16      1.23
     -54.137730    -114.150330     239.6      1.76      3.52     113.4         3         1      3908      1000   3627.96    -4.403       8.7      22.5   245.405     0.797     103.2   0.20157      57.7         H               343.6  0.094390  0.070284  0.001768  6.833822  1.027475  6.651087  1.265668     45.84    6.7124   75.8643   0.28854   5.85952   0.21375   0.00755 107.94872   6.67404    4591.3  0.629882  0.001022  0.000037  0.000205  0.199132  7.234877  0.836865     82.96  1.000305  1.000038     3.676    29.340     107.8      88.1     152.1     639.5     12.71     -0.31      6.65      4.05      1.52      5.57      1.19      1.77      1.16     -0.60      2.22      2.29      2.58      2.23      1.21     -3.06      1.73      4.32      2.77      1.90
     -54.119316    -114.062462     265.5      1.77      3.52     108.3         3         2      3908      2569   3298.67    -4.817       8.7      23.0   247.619     0.803      98.4   0.20302     100.0         H               343.6  0.095446  0.071362  0.002228  6.533988  1.054905  6.193914  1.270131     67.29    6.0705   64.4865   0.28964   5.67341   0.22977   0.00917  91.61656   6.09047    4189.5  0.634215  0.000876  0.000017  0.000206  0.203360  7.251885  0.844098     83.32  1.000283  1.000034     3.704    30.435     107.8      86.5     125.4     609.8     13.15     -1.00      7.02      3.13      1.14      5.33      1.00      1.98      0.57     -1.57      1.98      2.43      2.39      2.48      1.59     -4.55      0.73      4.80      2.82      2.09
     -54.101192    -113.976349     244.3      1.77      3.52      86.7         3         3      3908      4138   3040.22    -5.171       8.9      23.4   247.945     0.804     102.2   0.20452      63.2         H               343.6  0.094886  0.071293  0.002143  6.667526  1.060662  6.286191  1.271185     45.84    5.5691   55.6045   0.28924   5.51648   0.24427   0.01072  79.04201   5.62572    3864.6  0.635659  0.001027  0.000025  0.000201  0.204779  7.260647  0.844256     83.00  1.000316  1.000037     3.763    31.373     105.0      85.2     106.2     562.6     13.05      0.03      7.07      3.56      1.27      5.71      1.07      1.60      0.50     -0.55      2.52      1.72      3.21      2.02      1.36     -4.00      0.70      5.39      3.27      0.82
