corner points
-116.0460358    -50.88501358
-116.1341629    -50.71115112
-115.7630615    -50.82529449
-115.8523178    -50.65164566
========== RESULTS WAVE VERSION 16.10.2018 ====================
IMAGE SIZE  X: 5471     Y:4907    col:row     POLARIZATION:VV
COVERAGE    X: 20.89080988km       Y: 20.25725424km 
RESOLUTION dX: 3.818462783m       dY:4.128236039m  
resolution of original product 3.818462783m x 4.128236039m;   raster step x:5998.805032m  
===============================================================
FLAGS: H=HIGH PROBABILITY SEA STATE, I=LAND(ISLAND), O=OUTLIER NO SEA STATE, N=NO WIND AVAILABLE, SEA STATE NOT VISIBLE, M=MEAN PROBABILITY SEA STATE, L= LOW PROBABILITY SEA STATE
Filtering wave length
 integration  Lmin=1m
 integration  Lmax=2200m
  peak        Lmin=100m
               FFT=1024pixels, 3910.105889m 
   mean-Hs (SWH_c)=2.322209778m
         mean-wind=8.960289001m/s
--------------0--------------1---------2---------3---------4---------5---------6---------7---------8---------9--------10--------11--------12--------13--------14--------15--------16--------17--------18--------19------------------20--------21--------22--------23--------24--------25--------26--------27--------28--------29--------30--------31--------32--------33--------34--------35--------36--------37--------38--------39--------40--------41--------42--------43--------44--------45--------46--------47--------48--------49--------50--------51--------52--------53--------54--------55--------56--------57--------58--------59--------60--------61--------62--------63--------64--------65--------66--------67--------68--------69--------70--------71--------72--------73
            LAT            LON  P-LENGHT     SWH_o     SWH_c     P-DIR      LINE     POINT     ROW-Y     COL-X  M-INTENC        dB      WIND INC-ANGLE  ENERGY-M  ENERGY-N  ENERGY-R ENERGY-NN  FG-DEPTH      FLAG         HEADING-DEG    E30-75   E75-390  E390-600 meanincut   meanout   cut/out  STD-NORM  SPEC-MAX   GL-MEAN    GL-VAR      CORR   ENTROPY   HOMOGEN    ENERGY  CONTRAST  DISSIMIL     STD-O    E 1-30 E600-2000   E2000 >      GODA  LONG-HIG     Tmean  CONVOLUT  MEAN-DIR  relation     Sy/Sx  SKEWNESS  KURTOSIS  cutoff-A >50/10000     INT*V   INT-LOG  S-1_g1f1  S-2_g1f2  S-3_g1f3  S-4_g2f1  S-5_g2f2  S-6_g2f3  S-7_g3f1  S-8_g3f2  S-9_g3f3 S-10_g1f4 S-11_g2f4 S-12_g3f4 S-13_g1f5 S-14_g2f5 S-15_g3f5 S-16_g4f1 S-17_g4f2 S-18_g4f3 S-19_g4f4 S-20_g4f5
--------------1--------------2---------3---------4---------5---------6---------7---------8---------9--------10--------11--------12--------13--------14--------15--------16--------17--------18--------19--------20------------------21--------22--------23--------24--------25--------26--------27--------28--------29--------30--------31--------32--------33--------34--------35--------36--------37--------38--------39--------40--------41--------42--------43--------44--------45--------46--------47--------48--------49--------50--------51--------52--------53--------54--------55--------56--------57--------58--------59--------60--------61--------62--------63--------64--------65--------66--------67--------68--------69--------70--------71--------72--------73--------74
     -50.838421    -116.010864     148.9      2.34      3.47      81.9         1         1      1000      1000   3719.10    -4.296       9.0      22.5   253.803     0.800     111.5   0.20231      15.1         H               344.5  0.091051  0.081839  0.001511  6.664585  1.049347  6.351171  1.267931     61.75    6.8933   80.0786   0.29279   5.90400   0.21125   0.00734 113.26603   6.83101    4715.0  0.624928  0.001067  0.000039  0.000245  0.202045  7.346821  0.842815     84.52  1.000330  1.000042     3.575    26.777     114.0      88.3     160.7     617.3     12.48     -0.10      7.47      5.03      1.07      7.09      1.72      1.33      2.37     -0.70      1.67      2.19      4.00      3.42      2.00     -1.06      1.33      5.63      2.17      2.37
     -50.821125    -115.928719     134.8      2.37      3.47      88.2         1         2      1000      2571   3345.20    -4.756       9.0      23.0   261.241     0.834     107.3   0.21722      12.1         H               344.5  0.096874  0.086140  0.002023  7.067603  1.080310  6.542201  1.294349     66.78    6.1751   67.7315   0.29950   5.69711   0.22953   0.00911  94.89163   6.17460    4329.4  0.648396  0.001001  0.000014  0.000239  0.204659  7.364013  0.880036     84.39  1.000350  1.000045     4.030    38.341     114.0      86.6     133.5     683.5     12.76      0.14      7.60      4.30      1.24      6.89      1.92      1.04      2.07     -0.28      2.02      1.37      3.69      3.54      2.19     -2.54      0.99      5.70      2.60      2.72
     -50.804100    -115.848198     133.7      2.23      3.47      82.7         1         3      1000      4142   3063.79    -5.137       9.0      23.4   257.111     0.813     100.7   0.20885      11.9         H               344.5  0.093635  0.081464  0.001520  6.917958  1.072268  6.451708  1.278041     59.30    5.6172   56.9687   0.29542   5.52809   0.24397   0.01073  80.27779   5.66226    3915.7  0.636079  0.001005  0.000016  0.000224  0.202937  7.327779  0.855980     83.57  1.000342  1.000042     3.779    31.496     110.8      85.1     108.7     563.7     12.37      0.34      7.61      5.28      1.02      6.81      1.72      1.03      2.32     -0.33      1.81      1.85      3.39      3.65      2.09     -0.74      1.19      5.03      2.43      2.98
     -50.786942    -116.037056     140.8      2.32      3.47      76.5         2         1      2453      1000   3695.81    -4.323       9.0      22.5   256.497     0.808      94.0   0.20465      13.3         H               344.5  0.091624  0.081768  0.001682  6.328671  1.045294  6.054440  1.275097     88.40    6.8488   79.4967   0.29343   5.89149   0.21132   0.00738 112.34001   6.79418    4711.8  0.633192  0.000818  0.000013  0.000256  0.202556  7.354229  0.851954     82.52  1.000335  1.000041     3.674    28.318     110.8      88.2     160.0     628.1     12.21      0.04      7.01      5.25      1.42      7.72      2.63      1.80      3.44     -0.38      2.62      2.66      3.86      4.05      3.14     -0.92      1.47      6.62      3.60      3.07
     -50.769665    -115.955009     150.0      2.45      3.47      85.9         2         2      2453      2571   3339.67    -4.763       8.9      23.0   257.837     0.819     115.7   0.21051      15.4         H               344.5  0.092092  0.085983  0.001945  6.576931  1.063500  6.184235  1.283247     64.33    6.1575   67.1250   0.29744   5.69327   0.22909   0.00912  94.31702   6.16121    4285.3  0.638484  0.001108  0.000031  0.000243  0.206971  7.388669  0.863683     82.67  1.000348  1.000044     3.726    29.391     114.0      86.6     130.9     598.4     12.69      0.30      7.95      4.81      1.02      7.28      1.84      1.06      2.15     -0.77      2.38      1.94      4.49      3.86      2.08     -1.97      0.91      5.84      3.36      2.56
     -50.752655    -115.874580     162.4      2.21      3.47      85.6         2         3      2453      4142   3027.47    -5.189       8.9      23.5   258.897     0.824     109.0   0.21318      18.6         H               344.5  0.096032  0.082410  0.001914  6.862256  1.078347  6.363679  1.286353     60.23    5.5418   56.4604   0.29826   5.49960   0.24736   0.01113  79.24084   5.59661    3894.2  0.643524  0.000967  0.000034  0.000233  0.204655  7.329165  0.868621     81.70  1.000324  1.000042     3.742    29.324     110.8      84.9     106.8     527.2     12.48      0.55      7.31      4.87      1.43      7.22      2.07      1.11      2.25      0.38      2.38      1.48      3.56      3.89      2.26     -1.90      1.03      5.87      2.79      2.84
     -50.735458    -116.063194     144.7      2.28      3.47      92.0         3         1      3906      1000   3623.06    -4.409       8.8      22.5   254.994     0.806      99.3   0.20522      14.2         H               344.5  0.091553  0.081718  0.001694  6.580685  1.040009  6.327526  1.272862     68.87    6.7028   76.3025   0.29297   5.85371   0.21420   0.00766 107.89651   6.66137    4611.2  0.630430  0.000891  0.000019  0.000245  0.202664  7.349699  0.849075     84.88  1.000337  1.000042     3.740    31.040     114.0      87.9     152.8     671.6     12.12      0.11      7.08      5.56      1.20      7.82      2.69      1.11      3.22     -0.19      2.06      1.45      3.61      3.93      3.18     -0.88      1.13      6.88      2.79      3.04
     -50.718197    -115.981239     148.4      2.38      3.47      71.6         3         2      3906      2571   3385.72    -4.703       9.1      23.0   257.236     0.814     101.9   0.20879      15.0         H               344.5  0.092440  0.083775  0.001728  6.678282  1.060228  6.298909  1.278490     58.77    6.2471   68.3644   0.29514   5.72153   0.22661   0.00883  96.37481   6.24273    4328.3  0.635661  0.000902  0.000016  0.000239  0.202554  7.339838  0.857311     83.75  1.000334  1.000043     3.745    30.560     114.0      86.9     134.0     617.5     12.35     -0.11      7.13      4.86      1.12      6.97      2.11      1.50      2.60     -0.56      2.16      2.03      3.31      3.46      2.55     -1.30      0.66      6.04      2.59      2.87
     -50.701210    -115.900909     138.4      2.31      3.47      82.5         3         3      3906      4142   3033.37    -5.181       8.9      23.5   260.156     0.825     100.2   0.21289      12.8         H               344.5  0.094161  0.083973  0.001796  6.794110  1.087978  6.244714  1.288183     72.09    5.5544   56.5947   0.29726   5.50402   0.24694   0.01106  79.54180   5.61056    3907.4  0.645371  0.000913  0.000010  0.000239  0.205525  7.360654  0.869736     83.33  1.000345  1.000043     3.829    32.018     114.0      84.9     107.5     566.7     12.55      0.58      7.40      4.91      1.14      7.47      2.03      1.18      2.56     -0.12      2.64      2.06      3.71      3.96      2.79     -1.59      0.85      6.20      3.06      2.81
