corner points
-116.59832    -44.36430359
-116.6745148    -44.19469452
-116.3562012    -44.30686951
-116.4330826    -44.13742065
========== RESULTS WAVE VERSION 16.10.2018 ====================
IMAGE SIZE  X: 4376     Y:4776    col:row     POLARIZATION:VV
COVERAGE    X: 20.2400816km       Y: 19.76767855km 
RESOLUTION dX: 4.625247166m       dY:4.13896117m  
resolution of original product 4.625247166m x 4.13896117m;   raster step x:5998.945574m  
===============================================================
FLAGS: H=HIGH PROBABILITY SEA STATE, I=LAND(ISLAND), O=OUTLIER NO SEA STATE, N=NO WIND AVAILABLE, SEA STATE NOT VISIBLE, M=MEAN PROBABILITY SEA STATE, L= LOW PROBABILITY SEA STATE
Filtering wave length
 integration  Lmin=1m
 integration  Lmax=2200m
  peak        Lmin=100m
               FFT=1024pixels, 4736.253098m 
   mean-Hs (SWH_c)=1.184165421m
         mean-wind=7.279424191m/s
--------------0--------------1---------2---------3---------4---------5---------6---------7---------8---------9--------10--------11--------12--------13--------14--------15--------16--------17--------18--------19------------------20--------21--------22--------23--------24--------25--------26--------27--------28--------29--------30--------31--------32--------33--------34--------35--------36--------37--------38--------39--------40--------41--------42--------43--------44--------45--------46--------47--------48--------49--------50--------51--------52--------53--------54--------55--------56--------57--------58--------59--------60--------61--------62--------63--------64--------65--------66--------67--------68--------69--------70--------71--------72--------73
            LAT            LON  P-LENGHT     SWH_o     SWH_c     P-DIR      LINE     POINT     ROW-Y     COL-X  M-INTENC        dB      WIND INC-ANGLE  ENERGY-M  ENERGY-N  ENERGY-R ENERGY-NN  FG-DEPTH      FLAG         HEADING-DEG    E30-75   E75-390  E390-600 meanincut   meanout   cut/out  STD-NORM  SPEC-MAX   GL-MEAN    GL-VAR      CORR   ENTROPY   HOMOGEN    ENERGY  CONTRAST  DISSIMIL     STD-O    E 1-30 E600-2000   E2000 >      GODA  LONG-HIG     Tmean  CONVOLUT  MEAN-DIR  relation     Sy/Sx  SKEWNESS  KURTOSIS  cutoff-A >50/10000     INT*V   INT-LOG  S-1_g1f1  S-2_g1f2  S-3_g1f3  S-4_g2f1  S-5_g2f2  S-6_g2f3  S-7_g3f1  S-8_g3f2  S-9_g3f3 S-10_g1f4 S-11_g2f4 S-12_g3f4 S-13_g1f5 S-14_g2f5 S-15_g3f5 S-16_g4f1 S-17_g4f2 S-18_g4f3 S-19_g4f4 S-20_g4f5
--------------1--------------2---------3---------4---------5---------6---------7---------8---------9--------10--------11--------12--------13--------14--------15--------16--------17--------18--------19--------20------------------21--------22--------23--------24--------25--------26--------27--------28--------29--------30--------31--------32--------33--------34--------35--------36--------37--------38--------39--------40--------41--------42--------43--------44--------45--------46--------47--------48--------49--------50--------51--------52--------53--------54--------55--------56--------57--------58--------59--------60--------61--------62--------63--------64--------65--------66--------67--------68--------69--------70--------71--------72--------73--------74
     -44.315559    -116.558311     305.1      1.26      3.39     115.6         1         1      1000      1000    261.91   -15.818       7.3      35.9   286.022     0.599      68.3   0.08564     100.0         H               345.7  0.050383  0.035988  0.001187  2.839028  0.739019  3.841618  1.098328     63.51    4.7557   32.8016   0.13380   5.29729   0.24074   0.01069  56.82575   5.07403     287.6  0.511530  0.000534  0.000040  0.000154  0.228083  7.316555  0.608478    116.11  1.000252  1.000018     2.627    15.085     133.1      85.1      64.1     307.9     15.32     -8.07      8.05     -0.84      2.55      1.47     -2.35      2.97     -2.35     -8.09      1.56      3.11     -1.05      1.63      2.01     -9.20      6.35     -0.72      4.62      1.76
     -44.298500    -116.486305     300.2      1.13      3.39     124.5         1         2      1000      2297    247.65   -16.062       7.3      36.3   283.700     0.592      58.3   0.08329     100.0         H               345.7  0.049809  0.034239  0.000939  2.889938  0.719615  4.015952  1.091154     80.76    4.4697   29.0240   0.12928   5.18662   0.25025   0.01187  50.54291   4.79478     270.2  0.506500  0.000406  0.000026  0.000145  0.222249  7.268763  0.600013    118.23  1.000225  1.000016     2.570    14.348     128.8      84.1      56.8     280.0     15.02     -7.81      6.93     -0.60      3.07      1.66     -2.38      2.90     -1.84     -7.22      1.80      2.74     -2.40      2.78      2.07     -8.38      6.33     -0.32      4.70      3.99
     -44.281548    -116.414978     280.0      1.26      3.39     117.5         1         3      1000      3594    236.65   -16.259       7.3      36.7   285.932     0.597      62.4   0.08542     100.0         H               345.7  0.049778  0.035974  0.001088  2.791379  0.708235  3.941319  1.096010     88.36    4.2524   26.6677   0.13223   5.09617   0.25935   0.01302  46.28269   4.58172     259.4  0.510347  0.000501  0.000025  0.000166  0.226711  7.327043  0.605864    115.27  1.000235  1.000016     2.618    15.474     133.1      83.3      52.1     292.5     15.37     -8.48      8.44     -0.56      2.56      1.17     -3.15      3.62     -2.99     -9.11      1.84      3.97     -1.43      2.08      1.92     -8.43      5.77     -1.00      4.84      2.72
     -44.264103    -116.581497     300.2      1.28      3.39     124.5         2         1      2449      1000    259.71   -15.855       7.3      35.9   284.252     0.595      63.9   0.08569     100.0         H               345.7  0.049638  0.036073  0.001098  2.851133  0.719019  3.965312  1.093759     72.24    4.7127   32.0474   0.13370   5.28142   0.24172   0.01084  55.52560   5.02708     284.0  0.507664  0.000412  0.000032  0.000153  0.227337  7.315134  0.603310    117.43  1.000217  1.000015     2.569    14.289     128.8      84.9      62.7     297.0     15.29     -8.58      7.66     -0.88      3.07      1.38     -2.14      2.46     -1.73     -8.33      1.37      2.62     -2.61      3.11      1.55     -9.40      7.65     -1.66      5.49      4.89
     -44.247059    -116.509552     295.3      1.05      3.39     119.2         2         2      2449      2297    244.99   -16.109       7.2      36.3   282.509     0.586      54.1   0.08129     100.0         H               345.7  0.048310  0.032742  0.000823  2.732386  0.712472  3.835077  1.086403     58.45    4.4167   28.1774   0.12560   5.16612   0.25224   0.01207  49.27608   4.74318     266.1  0.504540  0.000362  0.000024  0.000143  0.223715  7.280610  0.593910    116.14  1.000204  1.000014     2.524    13.827     124.8      84.0      55.3     278.1     14.93     -7.85      6.82     -0.18      2.66      1.60     -2.58      3.01     -1.92     -7.07      1.21      2.58     -2.55      2.17      2.21     -7.78      5.59     -0.51      3.79      3.27
     -44.230122    -116.438286     273.0      1.14      3.39     112.7         2         3      2449      3594    233.83   -16.311       7.2      36.7   285.630     0.593      55.4   0.08293     100.0         H               345.7  0.048713  0.034148  0.000870  2.819067  0.701907  4.016299  1.092259     67.38    4.1965   25.8958   0.12788   5.07337   0.26169   0.01329  45.16830   4.52686     255.4  0.509290  0.000393  0.000023  0.000151  0.223851  7.293707  0.601101    114.47  1.000201  1.000015     2.576    14.648     124.8      83.0      50.6     271.3     15.04     -7.60      7.71      0.13      2.12      1.77     -3.07      3.15     -2.53     -7.87      0.82      3.64     -1.49      1.82      1.93     -7.00      5.18      0.03      3.43      2.57
     -44.212643    -116.604652     216.2      1.22      3.39     114.1         3         1      3898      1000    263.23   -15.797       7.4      35.9   284.899     0.595      56.7   0.08515      39.7         H               345.7  0.050123  0.035303  0.001035  2.745175  0.725217  3.785315  1.094276     60.09    4.7824   32.9050   0.13269   5.30811   0.23946   0.01054  57.07732   5.09529     288.0  0.508584  0.000393  0.000018  0.000159  0.227746  7.320682  0.603683    112.83  1.000200  1.000015     2.593    14.684     128.8      85.2      64.5     306.2     15.03     -8.11      7.74      0.32      1.71      2.14     -3.02      3.28     -2.75     -7.92      0.06      3.63     -1.50      2.00      1.69     -7.60      5.29      0.05      2.74      3.05
     -44.195614    -116.532761     295.3      1.23      3.39     119.2         3         2      3898      2297    251.07   -16.002       7.4      36.3   283.955     0.591      67.5   0.08369     100.0         H               345.7  0.048772  0.034950  0.001272  2.641162  0.712819  3.705233  1.090574     70.22    4.5376   29.7702   0.13079   5.21377   0.24754   0.01155  51.75278   4.85979     273.8  0.505818  0.000519  0.000036  0.000160  0.231825  7.334156  0.599310    116.23  1.000202  1.000015     2.565    14.396     128.8      84.4      58.3     280.6     15.51     -9.38      7.86     -1.53      3.50      0.67     -2.62      3.21     -2.34     -8.52      1.72      3.19     -2.41      2.53      1.86    -10.13      7.91     -1.91      5.29      3.93
     -44.178688    -116.461555     312.2      1.10      3.39     121.0         3         3      3898      3594    233.86   -16.310       7.2      36.7   283.930     0.588      57.5   0.08096     100.0         H               345.7  0.047619  0.033323  0.001078  2.748492  0.715538  3.841155  1.087267     49.10    4.1967   25.6943   0.12434   5.07449   0.26098   0.01319  44.99879   4.52697     254.3  0.505603  0.000403  0.000021  0.000145  0.227156  7.306668  0.595039    115.81  1.000202  1.000016     2.539    14.113     124.8      83.2      50.5     266.4     15.28     -8.30      7.93     -0.91      2.58      0.86     -2.54      3.22     -2.30     -7.50      1.09      2.69     -1.71      2.03      1.78     -9.12      5.69     -1.54      4.22      2.86
