corner points
-131.4481812    1.73099649
-131.4857941    1.911891818
-131.272583    1.768442154
-131.3101959    1.949307203
========== RESULTS WAVE VERSION 16.10.2018 ====================
IMAGE SIZE  X: 5471     Y:4931    col:row     POLARIZATION:VV
COVERAGE    X: 19.90979359km       Y: 20.49682612km 
RESOLUTION dX: 3.63915072m       dY:4.156728071m  
resolution of original product 3.63915072m x 4.156728071m;   raster step x:5997.320386m  
===============================================================
FLAGS: H=HIGH PROBABILITY SEA STATE, I=LAND(ISLAND), O=OUTLIER NO SEA STATE, N=NO WIND AVAILABLE, SEA STATE NOT VISIBLE, M=MEAN PROBABILITY SEA STATE, L= LOW PROBABILITY SEA STATE
Filtering wave length
 integration  Lmin=1m
 integration  Lmax=2200m
  peak        Lmin=100m
               FFT=1024pixels, 3726.490337m 
   mean-Hs (SWH_c)=0.6425402069m
         mean-wind=7.24403286m/s
--------------0--------------1---------2---------3---------4---------5---------6---------7---------8---------9--------10--------11--------12--------13--------14--------15--------16--------17--------18--------19------------------20--------21--------22--------23--------24--------25--------26--------27--------28--------29--------30--------31--------32--------33--------34--------35--------36--------37--------38--------39--------40--------41--------42--------43--------44--------45--------46--------47--------48--------49--------50--------51--------52--------53--------54--------55--------56--------57--------58--------59--------60--------61--------62--------63--------64--------65--------66--------67--------68--------69--------70--------71--------72--------73
            LAT            LON  P-LENGHT     SWH_o     SWH_c     P-DIR      LINE     POINT     ROW-Y     COL-X  M-INTENC        dB      WIND INC-ANGLE  ENERGY-M  ENERGY-N  ENERGY-R ENERGY-NN  FG-DEPTH      FLAG         HEADING-DEG    E30-75   E75-390  E390-600 meanincut   meanout   cut/out  STD-NORM  SPEC-MAX   GL-MEAN    GL-VAR      CORR   ENTROPY   HOMOGEN    ENERGY  CONTRAST  DISSIMIL     STD-O    E 1-30 E600-2000   E2000 >      GODA  LONG-HIG     Tmean  CONVOLUT  MEAN-DIR  relation     Sy/Sx  SKEWNESS  KURTOSIS  cutoff-A >50/10000     INT*V   INT-LOG  S-1_g1f1  S-2_g1f2  S-3_g1f3  S-4_g2f1  S-5_g2f2  S-6_g2f3  S-7_g3f1  S-8_g3f2  S-9_g3f3 S-10_g1f4 S-11_g2f4 S-12_g3f4 S-13_g1f5 S-14_g2f5 S-15_g3f5 S-16_g4f1 S-17_g4f2 S-18_g4f3 S-19_g4f4 S-20_g4f5
--------------1--------------2---------3---------4---------5---------6---------7---------8---------9--------10--------11--------12--------13--------14--------15--------16--------17--------18--------19--------20------------------21--------22--------23--------24--------25--------26--------27--------28--------29--------30--------31--------32--------33--------34--------35--------36--------37--------38--------39--------40--------41--------42--------43--------44--------45--------46--------47--------48--------49--------50--------51--------52--------53--------54--------55--------56--------57--------58--------59--------60--------61--------62--------63--------64--------65--------66--------67--------68--------69--------70--------71--------72--------73--------74
       1.774706    -131.422913     236.0      0.67      2.82     176.4         1         1      1000      1000   2328.08    -6.330       6.8      23.7   426.369     0.715     110.1   0.16100      54.2         H               348.0  0.076589  0.046842  0.003645  3.022904  0.880642  3.432615  1.199085     77.43    4.1814   30.7407   0.25800   5.02135   0.28924   0.01681  45.61930   4.32651    2791.4  0.586760  0.001585  0.000023  0.000186  0.228051  7.243770  0.752562     93.07  0.999907  0.999992     3.127    21.353      76.6      80.9      56.6     353.1     14.02      2.88     -8.35     -2.97      1.05      5.62     -0.94      0.36      2.55      0.29      1.61     -0.42      1.30     -2.11     -1.78    -15.46     -2.83     13.50      4.02     -1.48
       1.786097    -131.369492     249.8      0.63      2.82       3.8         1         2      1000      2648   2138.61    -6.699       6.9      24.2   426.053     0.713     115.8   0.16023      71.4         H               348.0  0.076329  0.045863  0.004173  3.037458  0.911701  3.331639  1.197188     60.56    3.8015   25.8673   0.25680   4.85281   0.30721   0.01976  38.44897   3.96343    2560.1  0.585020  0.001651  0.000029  0.000178  0.225365  7.207282  0.749842     47.40  0.999942  0.999994     3.130    21.150      76.6      79.2      47.6     316.3     14.11      3.87     -8.30     -3.58      0.40      6.42      0.00      0.05      0.92     -0.80      2.44     -0.59      0.77     -2.82      0.30    -18.09     -4.49     17.20      6.49     -4.94
       1.797280    -131.317032     249.8      0.57      2.82       3.8         1         3      1000      4296   2034.42    -6.916       7.4      24.7   421.466     0.701     101.4   0.15559      71.4         H               348.0  0.074942  0.043189  0.003037  2.933970  0.897774  3.268050  1.187475     68.63    3.5894   23.0559   0.25242   4.75513   0.31659   0.02140  34.47224   3.75950    2415.8  0.579090  0.001554  0.000024  0.000185  0.222094  7.164680  0.736802     45.18  0.999942  0.999995     3.090    20.237      76.6      78.4      42.5     284.9     13.96      3.53     -7.95     -2.73      0.87      5.79     -1.02      0.02      2.37      0.24      1.58      0.02      0.99     -2.61     -1.22    -14.48     -2.88     13.06      3.28     -2.12
       1.827652    -131.433914     248.2      0.85      2.82     172.3         2         1      2443      1000   2391.44    -6.213       7.1      23.7   426.426     0.712     107.3   0.15937      68.7         H               348.0  0.074527  0.049458  0.002715  3.105396  0.880297  3.527668  1.196434     84.75    4.2953   32.1786   0.25682   5.06987   0.28452   0.01601  47.82899   4.43085    2861.2  0.584383  0.001372  0.000029  0.000196  0.233830  7.294157  0.749485     98.20  0.999919  0.999994     3.067    19.698      78.1      81.5      59.3     340.7     14.07      3.21     -8.48     -2.39      1.63      5.73     -2.21     -0.49      3.66      0.49      1.09      0.43      1.07     -2.59     -1.28    -12.16     -0.92     11.15      1.93     -1.69
       1.839040    -131.380508     241.8      0.74      2.82      15.0         2         2      2443      2648   2249.94    -6.478       7.4      24.2   425.086     0.711     129.3   0.15978      60.2         H               348.0  0.075305  0.046536  0.004186  2.981517  0.921160  3.236697  1.193416     58.78    4.0276   28.6256   0.25728   4.95534   0.29608   0.01789  42.52101   4.17691    2685.0  0.583207  0.001902  0.000040  0.000180  0.227998  7.204391  0.747810     62.90  0.999938  0.999995     3.069    19.787      78.1      80.3      52.7     319.5     14.46      3.21     -8.53     -4.28      0.84      6.70     -0.24     -0.07      1.39      0.38      1.19     -0.29      0.08     -1.82     -0.68    -18.39     -3.40     16.29      3.55     -0.98
       1.850221    -131.328049     249.8      0.55      2.82     176.2         2         3      2443      4296   2047.58    -6.888       7.5      24.7   423.721     0.704     119.2   0.15589      71.4         H               348.0  0.074709  0.042490  0.003745  2.713828  0.875929  3.098229  1.189413     76.72    3.6116   23.4006   0.25089   4.76513   0.31576   0.02132  35.05906   3.78952    2435.4  0.581485  0.001816  0.000040  0.000187  0.224460  7.150576  0.739177     83.66  0.999889  0.999988     3.055    19.632      76.6      78.4      43.0     282.5     14.34      3.01     -9.27     -4.11      0.70      7.35     -0.21      0.09      1.23     -0.00      1.70     -0.84      2.45     -3.56     -0.55    -18.23     -3.43     18.19      5.14     -5.58
       1.880598    -131.444931     387.2      0.66      2.82      24.6         3         1      3886      1000   2329.29    -6.328       6.8      23.7   430.985     0.724     134.0   0.16439     100.0         H               348.0  0.078143  0.047018  0.004898  3.198309  0.912281  3.505839  1.206149     59.06    4.1788   31.0209   0.26073   5.01825   0.29011   0.01693  45.86534   4.32429    2809.4  0.592475  0.002157  0.000037  0.000170  0.224718  7.213701  0.763027     76.93  0.999927  0.999993     3.197    22.021      78.1      80.9      57.1     359.9     14.22      3.46     -7.90     -4.14      0.45      6.88      0.89      0.79      0.10      0.34      2.39     -1.81      0.18     -2.07      0.17    -20.15     -5.25     19.16      7.89     -3.45
       1.891983    -131.391510     249.8      0.61      2.82       3.8         3         2      3886      2648   2336.83    -6.314       7.8      24.2   424.524     0.705     115.6   0.15666      71.4         H               348.0  0.075440  0.042699  0.003283  2.902863  0.867935  3.344562  1.190382     61.65    4.1852   30.4279   0.25292   5.02650   0.28748   0.01646  45.46383   4.33105    2781.6  0.582290  0.001894  0.000037  0.000171  0.220234  7.155174  0.740497     58.85  0.999941  0.999995     3.084    20.061      76.6      81.2      56.3     328.2     14.03      2.56     -8.04     -3.32      1.22      6.20     -0.30     -0.45      1.75      0.51      0.97      0.38      1.02     -2.21     -0.73    -16.33     -1.22     15.14      2.21     -2.52
       1.903161    -131.339066     260.1      0.50      2.82     167.9         3         3      3886      4296   2031.19    -6.922       7.4      24.7   423.866     0.706     114.2   0.15741     101.7         H               348.0  0.075822  0.041996  0.004283  2.837268  0.884132  3.209099  1.191309     52.68    3.5898   23.2097   0.25360   4.75301   0.31767   0.02170  34.64732   3.76282    2419.7  0.582649  0.001722  0.000027  0.000179  0.220189  7.110977  0.741719     93.84  0.999951  0.999996     3.055    19.483      79.7      78.2      42.6     275.4     14.40      2.38     -8.12     -4.54      1.45      7.30      0.69     -0.40     -0.30      0.46      1.24     -0.89      0.30     -2.74      1.46    -20.37     -1.10     19.97      4.64     -5.86
