corner points
-131.4547882    10.04857635
-131.4903717    10.22386456
-131.2775269    10.08395767
-131.3130188    10.25921154
========== RESULTS WAVE VERSION 16.10.2018 ====================
IMAGE SIZE  X: 4376     Y:4786    col:row     POLARIZATION:VV
COVERAGE    X: 19.75694085km       Y: 19.82917698km 
RESOLUTION dX: 4.514840232m       dY:4.143162761m  
resolution of original product 4.514840232m x 4.143162761m;   raster step x:5995.707828m  
===============================================================
FLAGS: H=HIGH PROBABILITY SEA STATE, I=LAND(ISLAND), O=OUTLIER NO SEA STATE, N=NO WIND AVAILABLE, SEA STATE NOT VISIBLE, M=MEAN PROBABILITY SEA STATE, L= LOW PROBABILITY SEA STATE
Filtering wave length
 integration  Lmin=1m
 integration  Lmax=2200m
  peak        Lmin=100m
               FFT=1024pixels, 4623.196397m 
   mean-Hs (SWH_c)=1.100331116m
         mean-wind=13.65514469m/s
--------------0--------------1---------2---------3---------4---------5---------6---------7---------8---------9--------10--------11--------12--------13--------14--------15--------16--------17--------18--------19------------------20--------21--------22--------23--------24--------25--------26--------27--------28--------29--------30--------31--------32--------33--------34--------35--------36--------37--------38--------39--------40--------41--------42--------43--------44--------45--------46--------47--------48--------49--------50--------51--------52--------53--------54--------55--------56--------57--------58--------59--------60--------61--------62--------63--------64--------65--------66--------67--------68--------69--------70--------71--------72--------73
            LAT            LON  P-LENGHT     SWH_o     SWH_c     P-DIR      LINE     POINT     ROW-Y     COL-X  M-INTENC        dB      WIND INC-ANGLE  ENERGY-M  ENERGY-N  ENERGY-R ENERGY-NN  FG-DEPTH      FLAG         HEADING-DEG    E30-75   E75-390  E390-600 meanincut   meanout   cut/out  STD-NORM  SPEC-MAX   GL-MEAN    GL-VAR      CORR   ENTROPY   HOMOGEN    ENERGY  CONTRAST  DISSIMIL     STD-O    E 1-30 E600-2000   E2000 >      GODA  LONG-HIG     Tmean  CONVOLUT  MEAN-DIR  relation     Sy/Sx  SKEWNESS  KURTOSIS  cutoff-A >50/10000     INT*V   INT-LOG  S-1_g1f1  S-2_g1f2  S-3_g1f3  S-4_g2f1  S-5_g2f2  S-6_g2f3  S-7_g3f1  S-8_g3f2  S-9_g3f3 S-10_g1f4 S-11_g2f4 S-12_g3f4 S-13_g1f5 S-14_g2f5 S-15_g3f5 S-16_g4f1 S-17_g4f2 S-18_g4f3 S-19_g4f4 S-20_g4f5
--------------1--------------2---------3---------4---------5---------6---------7---------8---------9--------10--------11--------12--------13--------14--------15--------16--------17--------18--------19--------20------------------21--------22--------23--------24--------25--------26--------27--------28--------29--------30--------31--------32--------33--------34--------35--------36--------37--------38--------39--------40--------41--------42--------43--------44--------45--------46--------47--------48--------49--------50--------51--------52--------53--------54--------55--------56--------57--------58--------59--------60--------61--------62--------63--------64--------65--------66--------67--------68--------69--------70--------71--------72--------73--------74
      10.093390    -131.421265     398.3      1.17      2.83      20.2         1         1      1000      1000    582.41   -12.348      13.9      37.0   222.643     0.589     116.7   0.08916     100.0         H               348.0  0.056989  0.018366  0.002269  1.687184  0.725702  2.324899  1.088973     38.65   11.0291  143.1923   0.13484   6.83853   0.12600   0.00220 247.76878  11.03838     634.1  0.509866  0.001657  0.000219  0.000147  0.166900  6.770692  0.595348     83.51  1.000137  1.000012     2.519    13.993     110.8      95.3     336.7     701.7     13.54      5.18     -4.51     -5.08     -4.65      6.92      6.46      4.03     -3.02     -2.53      5.15     -2.42     -0.69      0.02      0.47    -26.42    -17.23     19.57     14.23      0.95
      10.104167    -131.367279     385.6      1.07      2.83      24.6         1         2      1000      2328    527.52   -12.778      13.4      37.3   221.748     0.589      92.8   0.08914     100.0         H               348.0  0.056713  0.018772  0.002141  1.698285  0.725181  2.341879  1.088703     44.27    9.9803  120.8192   0.13461   6.65975   0.13691   0.00266 209.11162  10.05786     574.3  0.510337  0.001486  0.000127  0.000151  0.168908  6.777864  0.595620     83.77  1.000157  1.000013     2.536    14.119     107.8      94.5     273.3     631.6     13.45      5.04     -4.75     -4.86     -4.94      6.79      5.96      3.46     -2.59     -3.11      5.26     -1.86     -0.85      0.31      0.12    -24.83    -15.90     18.84     13.93      1.76
      10.114842    -131.313736     385.6      1.04      2.83      24.6         1         3      1000      3656    512.77   -12.901      13.4      37.7   221.400     0.586      83.9   0.08707     100.0         H               348.0  0.056221  0.018475  0.002457  1.674695  0.720752  2.323539  1.085660     54.64    9.7003  114.9007   0.13257   6.60968   0.13973   0.00280 199.33461   9.79888     556.8  0.507575  0.001275  0.000102  0.000164  0.166504  6.746659  0.592044     82.73  1.000157  1.000013     2.501    13.616     114.0      94.1     256.7     599.3     13.71      5.87     -4.35     -5.63     -6.19      6.74      6.70      4.93     -3.07     -3.48      6.01     -2.81     -1.56      1.98     -1.03    -27.85    -21.19     19.28     17.05      6.98
      10.146433    -131.432022     398.3      1.23      2.83      20.2         2         1      2448      1000    601.92   -12.205      14.1      37.0   223.622     0.595      96.8   0.09182     100.0         H               348.0  0.058844  0.018678  0.002684  1.706391  0.729849  2.338006  1.094554     45.18   11.3889  151.8221   0.13872   6.89202   0.12347   0.00208 261.52118  11.35902     658.8  0.513908  0.001553  0.000147  0.000170  0.164135  6.735394  0.602501     83.98  1.000148  1.000013     2.540    13.883     110.8      95.5     363.0     708.2     13.69      4.96     -5.31     -6.12     -5.44      7.53      7.33      4.89     -4.36     -3.26      6.00     -3.32     -0.67     -0.26      1.03    -30.02    -19.60     23.85     18.03     -0.74
      10.157207    -131.378021     385.6      1.01      2.83      24.6         2         2      2448      2328    528.22   -12.772      13.4      37.3   222.582     0.591      79.9   0.08927     100.0         H               348.0  0.058890  0.018214  0.002025  1.690663  0.728974  2.319236  1.090932     32.54    9.9928  121.5181   0.13579   6.66135   0.13698   0.00266 210.03430  10.07019     576.2  0.511394  0.001273  0.000102  0.000174  0.163265  6.735089  0.598422     84.62  1.000164  1.000013     2.541    13.968     114.0      94.5     274.8     619.6     13.18      4.00     -4.32     -4.17     -3.31      6.37      5.92      2.91     -2.69     -2.36      4.47     -1.59     -0.54     -0.11      0.59    -23.85    -11.96     18.24     11.95      0.36
      10.167879    -131.324493     398.3      1.00      2.83      20.2         2         3      2448      3656    505.62   -12.962      13.3      37.7   221.401     0.587      99.9   0.08769     100.0         H               348.0  0.056548  0.018355  0.002734  1.690793  0.716576  2.359544  1.086923     49.54    9.5596  112.1477   0.13326   6.58251   0.14153   0.00289 194.40543   9.67517     549.5  0.507832  0.001654  0.000146  0.000159  0.165909  6.756896  0.593519     82.67  1.000127  1.000011     2.510    13.678     114.0      94.0     249.1     586.8     13.67      5.44     -5.12     -5.99     -5.58      8.23      7.60      4.66     -5.23     -3.50      6.55     -3.90     -0.25     -0.71      1.61    -30.61    -19.94     26.50     20.13     -3.13
      10.199474    -131.442795     398.3      1.34      2.83      20.2         3         1      3896      1000    635.64   -11.968      14.6      37.0   222.750     0.595     128.6   0.09298     100.0         H               348.0  0.059468  0.018878  0.002127  1.742069  0.739172  2.356785  1.094024     41.00   12.0169  164.9923   0.14000   6.98525   0.11782   0.00186 283.78748  11.90088     695.5  0.512302  0.001946  0.000243  0.000189  0.162763  6.734840  0.601735     84.19  1.000139  1.000011     2.564    14.337     114.0      96.0     406.9     766.7     13.22      4.03     -4.58     -4.34     -3.97      7.26      6.10      2.85     -3.51     -2.85      4.87     -2.90      0.17     -0.76      1.65    -24.45    -13.69     21.27     14.50     -2.95
      10.210245    -131.388779     371.6      1.11      2.83      28.8         3         2      3896      2328    534.65   -12.719      13.5      37.3   223.479     0.591      98.7   0.08862     100.0         H               348.0  0.057297  0.019199  0.002450  1.720925  0.725225  2.372954  1.090991     50.74   10.1170  124.1283   0.13550   6.68387   0.13562   0.00260 214.61633  10.18921     583.2  0.511227  0.001365  0.000163  0.000166  0.168100  6.758894  0.598033     81.95  1.000130  1.000010     2.538    13.991     114.0      94.6     282.0     635.8     13.94      6.11     -4.94     -6.33     -6.31      7.32      6.79      4.52     -3.55     -3.77      6.03     -2.89     -1.11      0.69      0.24    -28.72    -20.67     21.01     16.87      1.98
      10.220914    -131.335236     385.6      0.94      2.83      24.6         3         3      3896      3656    502.19   -12.991      13.3      37.7   221.850     0.588      75.9   0.08723     100.0         H               348.0  0.057228  0.017710  0.002269  1.637403  0.723577  2.262929  1.087496     40.90    9.4950  110.8386   0.13284   6.57033   0.14219   0.00292 192.23064   9.61661     546.1  0.509418  0.001211  0.000095  0.000172  0.163019  6.728426  0.594161     84.12  1.000160  1.000013     2.522    13.940     114.0      93.9     246.1     598.1     13.39      5.39     -4.28     -4.99     -4.85      6.55      6.73      4.14     -3.24     -2.51      5.65     -2.30     -0.95      0.62      0.45    -26.95    -17.44     19.49     15.12      1.65
