corner points
-130.3671112    4.73560667
-130.403183    4.910931587
-130.1920471    4.772063732
-130.2280731    4.947350502
========== RESULTS WAVE VERSION 16.10.2018 ====================
IMAGE SIZE  X: 4376     Y:4787    col:row     POLARIZATION:VV
COVERAGE    X: 19.77357899km       Y: 19.85361613km 
RESOLUTION dX: 4.518642365m       dY:4.147402576m  
resolution of original product 4.518642365m x 4.147402576m;   raster step x:5996.238418m  
===============================================================
FLAGS: H=HIGH PROBABILITY SEA STATE, I=LAND(ISLAND), O=OUTLIER NO SEA STATE, N=NO WIND AVAILABLE, SEA STATE NOT VISIBLE, M=MEAN PROBABILITY SEA STATE, L= LOW PROBABILITY SEA STATE
Filtering wave length
 integration  Lmin=1m
 integration  Lmax=2200m
  peak        Lmin=100m
               FFT=1024pixels, 4627.089782m 
   mean-Hs (SWH_c)=0.2m
         mean-wind=7.590945721m/s
--------------0--------------1---------2---------3---------4---------5---------6---------7---------8---------9--------10--------11--------12--------13--------14--------15--------16--------17--------18--------19------------------20--------21--------22--------23--------24--------25--------26--------27--------28--------29--------30--------31--------32--------33--------34--------35--------36--------37--------38--------39--------40--------41--------42--------43--------44--------45--------46--------47--------48--------49--------50--------51--------52--------53--------54--------55--------56--------57--------58--------59--------60--------61--------62--------63--------64--------65--------66--------67--------68--------69--------70--------71--------72--------73
            LAT            LON  P-LENGHT     SWH_o     SWH_c     P-DIR      LINE     POINT     ROW-Y     COL-X  M-INTENC        dB      WIND INC-ANGLE  ENERGY-M  ENERGY-N  ENERGY-R ENERGY-NN  FG-DEPTH      FLAG         HEADING-DEG    E30-75   E75-390  E390-600 meanincut   meanout   cut/out  STD-NORM  SPEC-MAX   GL-MEAN    GL-VAR      CORR   ENTROPY   HOMOGEN    ENERGY  CONTRAST  DISSIMIL     STD-O    E 1-30 E600-2000   E2000 >      GODA  LONG-HIG     Tmean  CONVOLUT  MEAN-DIR  relation     Sy/Sx  SKEWNESS  KURTOSIS  cutoff-A >50/10000     INT*V   INT-LOG  S-1_g1f1  S-2_g1f2  S-3_g1f3  S-4_g2f1  S-5_g2f2  S-6_g2f3  S-7_g3f1  S-8_g3f2  S-9_g3f3 S-10_g1f4 S-11_g2f4 S-12_g3f4 S-13_g1f5 S-14_g2f5 S-15_g3f5 S-16_g4f1 S-17_g4f2 S-18_g4f3 S-19_g4f4 S-20_g4f5
--------------1--------------2---------3---------4---------5---------6---------7---------8---------9--------10--------11--------12--------13--------14--------15--------16--------17--------18--------19--------20------------------21--------22--------23--------24--------25--------26--------27--------28--------29--------30--------31--------32--------33--------34--------35--------36--------37--------38--------39--------40--------41--------42--------43--------44--------45--------46--------47--------48--------49--------50--------51--------52--------53--------54--------55--------56--------57--------58--------59--------60--------61--------62--------63--------64--------65--------66--------67--------68--------69--------70--------71--------72--------73--------74
       4.780665    -130.334198     398.7      0.46      2.26      20.2         1         1      1000      1000    243.28   -16.139       7.6      36.9   216.666     0.548      73.5   0.06523     100.0         H               348.0  0.041319  0.015987  0.002420  1.273332  0.653239  1.949258  1.050872     30.68    4.3837   26.0325   0.09436   5.15961   0.24841   0.01163  47.15208   4.71776     255.6  0.487432  0.001210  0.000091  0.000099  0.185484  6.913477  0.552026     51.76  0.999950  0.999995     2.294    11.550      81.3      84.3      52.3     250.3     13.48      1.17     -7.23     -5.54     -0.79      7.32      5.69      0.85     -3.89     -2.73      2.57     -1.76      1.33     -2.41      2.23    -28.24     -4.44     25.24      9.67     -7.88
       4.791759    -130.280914     398.7      0.46      2.26      20.2         1         2      1000      2327    232.12   -16.343       7.6      37.3   215.287     0.545      71.7   0.06456     100.0         H               348.0  0.040842  0.015137  0.003250  1.246496  0.640945  1.944779  1.047403     44.44    4.1632   23.5382   0.09411   5.06739   0.25730   0.01271  42.64590   4.48990     243.1  0.484609  0.001461  0.000058  0.000100  0.182461  6.890621  0.549013     40.78  0.999912  0.999996     2.248    10.962      86.6      83.6      47.5     218.7     13.74      3.31     -7.67     -7.30     -4.22      9.23      8.37      3.99     -6.73     -5.01      6.44     -5.58      1.46     -2.93      2.82    -36.37    -17.35     33.90     24.55     -9.99
       4.802753    -130.228088     398.7      0.46      2.26      20.2         1         3      1000      3654    223.42   -16.509       7.6      37.7   215.950     0.547      97.1   0.06451     100.0         H               348.0  0.041018  0.015507  0.003104  1.239408  0.655176  1.891717  1.049692     55.44    3.9899   21.8965   0.09397   4.99125   0.26483   0.01372  39.67745   4.32601     234.5  0.486271  0.001428  0.000159  0.000103  0.186656  6.901361  0.551301     21.71  0.999930  0.999996     2.277    11.372      88.6      82.8      44.1     222.7     14.12      3.33     -8.16     -7.68     -3.97      9.63      7.50      3.21     -6.00     -4.96      6.12     -4.96      1.29     -3.18      2.98    -35.05    -15.26     32.78     22.36     -9.99
       4.833634    -130.345093     398.7      0.44      2.26      20.2         2         1      2446      1000    226.12   -16.457       7.2      36.9   216.617     0.550     100.4   0.06598     100.0         H               348.0  0.040862  0.016097  0.003986  1.244562  0.647999  1.920623  1.052508     81.70    4.0417   22.5704   0.09591   5.01373   0.26275   0.01348  40.81144   4.38215     238.0  0.487629  0.001395  0.000147  0.000109  0.189347  6.911092  0.554067     19.48  0.999933  0.999995     2.307    11.731      94.9      82.9      45.4     232.0     14.63      5.15     -9.28     -9.70     -6.64     11.58      9.35      5.78     -8.04     -6.81      9.22     -7.83      1.67     -2.67      2.55    -41.73    -24.89     40.09     32.82     -8.80
       4.844724    -130.291809     374.5      0.46      2.26      14.1         2         2      2446      2327    230.87   -16.366       7.6      37.3   215.874     0.548      70.6   0.06584     100.0         H               348.0  0.040969  0.015996  0.003911  1.234312  0.647655  1.905817  1.050156     64.76    4.1382   23.4093   0.09617   5.05615   0.25892   0.01288  42.31572   4.46517     242.5  0.486108  0.001212  0.000041  0.000106  0.189889  6.916351  0.552155     18.83  0.999893  0.999994     2.273    11.242      90.6      83.5      47.1     227.1     14.55      4.14     -9.15     -9.37     -4.97     11.23      8.91      4.20     -7.90     -5.97      7.68     -5.95      1.99     -3.57      3.32    -40.81    -18.65     39.48     27.05    -12.48
       4.855715    -130.238983     398.7      0.48      2.26      20.2         2         3      2446      3654    240.39   -16.191       8.1      37.7   217.158     0.551     224.2   0.06688     100.0         H               348.0  0.040863  0.016031  0.002792  1.276670  0.656776  1.943843  1.054370     44.48    4.3269   25.5662   0.09935   5.13547   0.25113   0.01196  46.05263   4.65443     253.4  0.488399  0.002576  0.000598  0.000101  0.186570  6.916398  0.555336     28.93  0.999934  0.999997     2.323    11.928      88.6      84.1      51.3     246.9     13.87      3.16     -7.50     -6.72     -2.78      8.22      6.53      1.62     -4.91     -4.46      5.11     -3.34      0.59     -1.92      2.09    -31.51    -10.51     28.31     17.41     -6.26
       4.886602    -130.355988     398.7      0.46      2.26      20.2         3         1      3892      1000    241.19   -16.176       7.6      36.9   215.958     0.547      99.1   0.06509     100.0         H               348.0  0.040832  0.015743  0.002239  1.275932  0.646806  1.972667  1.050060     28.41    4.3427   25.5654   0.09474   5.14272   0.24974   0.01183  46.28661   4.67680     253.2  0.487054  0.001317  0.000183  0.000099  0.185050  6.901453  0.550873     66.12  0.999986  0.999999     2.266    11.104      83.0      84.2      51.4     227.0     13.46      1.12     -5.92     -5.17     -0.31      5.78      5.20      0.24     -2.46     -2.73      2.91     -1.78     -0.34     -0.34      0.44    -26.31     -2.94     19.03      9.83     -0.18
       4.897689    -130.302704     398.7      0.44      2.26      20.2         3         2      3892      2327    216.11   -16.653       7.2      37.3   217.755     0.549      68.5   0.06396     100.0         H               348.0  0.041048  0.015513  0.002559  1.222459  0.659293  1.854195  1.051714     42.47    3.8443   20.5428   0.09060   4.92525   0.27154   0.01463  37.36306   4.19065     227.3  0.489457  0.001067  0.000080  0.000104  0.184308  6.899974  0.553060     36.57  0.999967  0.999998     2.315    12.010      84.8      82.2      41.5     230.2     13.73      3.75     -7.19     -6.31     -4.14      7.23      6.07      3.07     -3.61     -4.76      5.15     -3.70      0.12     -0.33      0.28    -29.88    -15.31     24.30     17.80     -0.36
       4.908677    -130.249878     380.8      0.47      2.26       9.5         3         3      3892      3654    230.80   -16.368       7.8      37.7   216.495     0.547     152.4   0.06498     100.0         H               348.0  0.040916  0.015729  0.002534  1.273319  0.655529  1.942430  1.050379     34.38    4.1354   23.3913   0.09546   5.05508   0.25878   0.01289  42.31659   4.46784     242.4  0.485890  0.002062  0.000355  0.000100  0.182376  6.891815  0.551290     45.83  0.999917  0.999994     2.279    11.379      84.8      83.5      47.1     227.9     13.50      2.51     -7.19     -5.88     -1.98      7.72      6.32      1.61     -4.63     -3.62      4.26     -2.77      1.54     -2.91      2.54    -29.87     -8.72     27.19     14.74     -9.63
