corner points
-126.5010223    -12.94518948
-126.5418243    -12.7704258
-126.3219452    -12.9042387
-126.3628845    -12.72953033
========== RESULTS WAVE VERSION 16.10.2018 ====================
IMAGE SIZE  X: 4376     Y:4787    col:row     POLARIZATION:VV
COVERAGE    X: 19.88904065km       Y: 19.88404332km 
RESOLUTION dX: 4.54502757m       dY:4.153758788m  
resolution of original product 4.54502757m x 4.153758788m;   raster step x:5999.436392m  
===============================================================
FLAGS: H=HIGH PROBABILITY SEA STATE, I=LAND(ISLAND), O=OUTLIER NO SEA STATE, N=NO WIND AVAILABLE, SEA STATE NOT VISIBLE, M=MEAN PROBABILITY SEA STATE, L= LOW PROBABILITY SEA STATE
Filtering wave length
 integration  Lmin=1m
 integration  Lmax=2200m
  peak        Lmin=100m
               FFT=1024pixels, 4654.108232m 
   mean-Hs (SWH_c)=1.08580574m
         mean-wind=10.8792181m/s
--------------0--------------1---------2---------3---------4---------5---------6---------7---------8---------9--------10--------11--------12--------13--------14--------15--------16--------17--------18--------19------------------20--------21--------22--------23--------24--------25--------26--------27--------28--------29--------30--------31--------32--------33--------34--------35--------36--------37--------38--------39--------40--------41--------42--------43--------44--------45--------46--------47--------48--------49--------50--------51--------52--------53--------54--------55--------56--------57--------58--------59--------60--------61--------62--------63--------64--------65--------66--------67--------68--------69--------70--------71--------72--------73
            LAT            LON  P-LENGHT     SWH_o     SWH_c     P-DIR      LINE     POINT     ROW-Y     COL-X  M-INTENC        dB      WIND INC-ANGLE  ENERGY-M  ENERGY-N  ENERGY-R ENERGY-NN  FG-DEPTH      FLAG         HEADING-DEG    E30-75   E75-390  E390-600 meanincut   meanout   cut/out  STD-NORM  SPEC-MAX   GL-MEAN    GL-VAR      CORR   ENTROPY   HOMOGEN    ENERGY  CONTRAST  DISSIMIL     STD-O    E 1-30 E600-2000   E2000 >      GODA  LONG-HIG     Tmean  CONVOLUT  MEAN-DIR  relation     Sy/Sx  SKEWNESS  KURTOSIS  cutoff-A >50/10000     INT*V   INT-LOG  S-1_g1f1  S-2_g1f2  S-3_g1f3  S-4_g2f1  S-5_g2f2  S-6_g2f3  S-7_g3f1  S-8_g3f2  S-9_g3f3 S-10_g1f4 S-11_g2f4 S-12_g3f4 S-13_g1f5 S-14_g2f5 S-15_g3f5 S-16_g4f1 S-17_g4f2 S-18_g4f3 S-19_g4f4 S-20_g4f5
--------------1--------------2---------3---------4---------5---------6---------7---------8---------9--------10--------11--------12--------13--------14--------15--------16--------17--------18--------19--------20------------------21--------22--------23--------24--------25--------26--------27--------28--------29--------30--------31--------32--------33--------34--------35--------36--------37--------38--------39--------40--------41--------42--------43--------44--------45--------46--------47--------48--------49--------50--------51--------52--------53--------54--------55--------56--------57--------58--------59--------60--------61--------62--------63--------64--------65--------66--------67--------68--------69--------70--------71--------72--------73--------74
     -12.899224    -126.468170     353.4      1.02      2.74       4.4         1         1      1000      1000    396.50   -14.018      10.7      36.7   232.769     0.582      86.2   0.08121     100.0         H               347.9  0.050673  0.024128  0.001153  2.259941  0.700495  3.226206  1.082248     22.96    7.4259   71.4711   0.12388   6.11948   0.17173   0.00463 125.23446   7.67599     429.1  0.505188  0.001197  0.000145  0.000145  0.178846  6.962484  0.589907     81.75  1.000110  1.000008     2.493    13.651     110.8      91.4     148.3     462.9     12.84     -1.97     -3.51     -2.15      2.56      6.37      3.22      2.89     -0.27      0.51      1.86      1.24     -0.44     -1.30      3.31    -13.38      2.69     15.21      2.83     -4.76
     -12.886835    -126.413963     381.4      1.03      2.74       9.4         1         2      1000      2320    374.80   -14.262      10.6      37.1   232.380     0.579      78.5   0.07967     100.0         H               347.9  0.049978  0.024592  0.001245  2.228276  0.700402  3.181424  1.079314     27.30    6.9987   64.0357   0.12087   6.01037   0.17965   0.00516 112.59177   7.26606     404.5  0.501926  0.001080  0.000110  0.000149  0.183037  6.981714  0.586163     80.56  1.000074  1.000005     2.455    13.105     110.8      90.6     131.4     425.5     13.10     -1.53     -3.83     -2.79      1.57      6.65      3.15      3.10     -0.23     -0.26      2.76      0.36      0.13     -0.99      3.03    -14.31      0.21     15.97      5.88     -3.96
     -12.874541    -126.360229     353.4      1.17      2.74     175.6         1         3      1000      3640    380.51   -14.196      11.0      37.4   231.781     0.580      86.9   0.08003     100.0         H               347.9  0.049569  0.025607  0.001287  2.340740  0.702703  3.331052  1.080377     27.24    7.1112   65.9566   0.12365   6.03956   0.17764   0.00501 115.60152   7.36590     411.1  0.502461  0.001243  0.000130  0.000150  0.183581  7.027715  0.588317     80.08  1.000067  1.000005     2.477    13.426     110.8      90.9     135.8     435.7     12.85     -2.00     -3.56     -2.27      2.68      6.47      3.31      2.58     -0.01      0.61      1.66      1.57      0.25     -1.15      3.06    -13.55      3.36     15.52      2.25     -4.56
     -12.846499    -126.480492     381.4      1.02      2.74       9.4         2         1      2444      1000    403.03   -13.947      10.8      36.7   233.006     0.583      88.1   0.08138     100.0         H               347.9  0.051293  0.023969  0.001338  2.245466  0.702077  3.198321  1.083897     34.49    7.5541   73.7827   0.12331   6.15112   0.16950   0.00448 129.36902   7.79920     436.8  0.505983  0.001133  0.000161  0.000152  0.175978  6.944257  0.591405     80.08  1.000106  1.000009     2.523    14.166     114.0      91.5     153.8     491.8     13.12     -1.04     -4.06     -2.99      1.44      7.08      3.85      2.39     -1.01     -0.43      2.45      0.61      0.69     -1.93      3.80    -16.07      0.64     17.15      4.86     -6.65
     -12.834115    -126.426300     381.4      1.07      2.74       9.4         2         2      2444      2320    380.99   -14.191      10.7      37.1   231.613     0.580     101.2   0.08024     100.0         H               347.9  0.050067  0.024845  0.001540  2.258893  0.698267  3.235001  1.080418     38.35    7.1218   66.3352   0.12358   6.04221   0.17757   0.00501 116.27548   7.37814     411.6  0.502147  0.001275  0.000206  0.000149  0.181393  6.984851  0.587986     78.37  1.000082  1.000006     2.457    12.953     114.0      90.8     136.1     417.9     13.20     -0.62     -4.21     -3.14      0.46      7.60      4.15      3.36     -0.82     -0.55      3.31     -0.26      0.37     -1.31      2.93    -16.84     -2.39     18.35      8.07     -4.54
     -12.821827    -126.372581     111.6      1.11      2.74      79.4         2         3      2444      3640    382.95   -14.169      11.1      37.4   231.621     0.579      77.2   0.07965       8.0         H               347.9  0.050012  0.024780  0.000996  2.324934  0.702195  3.310952  1.079275     21.64    7.1605   66.7204   0.12217   6.05273   0.17656   0.00494 117.13899   7.42156     413.3  0.501951  0.001080  0.000115  0.000155  0.180047  6.988544  0.586603     80.22  1.000094  1.000007     2.455    13.108     110.8      91.0     137.5     436.6     12.67     -1.68     -2.81     -1.49      2.61      6.08      2.96      2.80      0.12      0.53      1.86      1.76     -0.34     -0.62      3.14    -11.61      2.64     13.77      2.53     -3.10
     -12.793775    -126.492805     353.4      1.16      2.74       4.4         3         1      3888      1000    412.93   -13.841      11.0      36.7   231.875     0.581      79.5   0.08068     100.0         H               347.9  0.049750  0.024992  0.001004  2.356640  0.692244  3.404350  1.081087     20.40    7.7506   77.0748   0.12355   6.19876   0.16644   0.00426 135.10504   7.98199     446.4  0.504112  0.000997  0.000131  0.000153  0.177735  6.991401  0.588453     79.90  1.000120  1.000010     2.478    13.344     110.8      91.9     161.4     474.7     12.57     -1.28     -3.25     -1.53      2.27      5.75      3.08      2.15      0.69      0.72      1.59      1.48     -0.07     -0.63      2.63    -11.57      2.76     12.93      1.97     -2.53
     -12.781395    -126.438629     381.4      1.12      2.74       9.4         3         2      3888      2320    383.32   -14.164      10.8      37.1   231.784     0.579     100.3   0.08065     100.0         H               347.9  0.049900  0.025393  0.001062  2.387834  0.689696  3.462157  1.080031     25.34    7.1673   66.9000   0.12450   6.05405   0.17669   0.00494 117.14114   7.41327     414.0  0.501505  0.001386  0.000182  0.000156  0.180230  6.992164  0.587264     79.27  1.000078  1.000005     2.471    13.295     110.8      90.9     137.8     440.7     12.60     -1.69     -2.58     -1.34      2.48      6.23      3.24      2.91      0.75      0.11      2.51      1.41     -0.17     -0.38      3.11    -11.39      2.47     13.65      4.50     -2.61
     -12.769112    -126.384918     350.4      1.09      2.74       8.7         3         3      3888      3640    377.48   -14.231      11.0      37.5   231.603     0.577      90.4   0.07890     100.0         H               347.9  0.049488  0.024568  0.001054  2.316100  0.696047  3.327503  1.077664     25.95    7.0535   64.8283   0.12057   6.02521   0.17875   0.00508 114.02219   7.31470     406.8  0.500649  0.001278  0.000150  0.000151  0.177910  6.981390  0.584547     79.73  1.000083  1.000008     2.433    12.737     110.8      90.9     133.3     403.1     12.66     -2.25     -3.11     -1.46      2.99      6.52      3.33      2.56      0.21      0.70      1.74      1.18     -0.50     -0.65      3.49    -12.13      3.92     14.74      2.87     -3.73
