corner points
-106.0405655    -64.25589752
-106.2187424    -64.09159088
-105.6469727    -64.1725235
-105.8271637    -64.00868988
========== RESULTS WAVE VERSION 16.10.2018 ====================
IMAGE SIZE  X: 5471     Y:4899    col:row     POLARIZATION:VV
COVERAGE    X: 21.12335766km       Y: 20.16388561km 
RESOLUTION dX: 3.860968317m       dY:4.115918679m  
resolution of original product 3.860968317m x 4.115918679m;   raster step x:5999.944764m  
===============================================================
FLAGS: H=HIGH PROBABILITY SEA STATE, I=LAND(ISLAND), O=OUTLIER NO SEA STATE, N=NO WIND AVAILABLE, SEA STATE NOT VISIBLE, M=MEAN PROBABILITY SEA STATE, L= LOW PROBABILITY SEA STATE
Filtering wave length
 integration  Lmin=1m
 integration  Lmax=2200m
  peak        Lmin=100m
               FFT=1024pixels, 3953.631556m 
   mean-Hs (SWH_c)=1.30258316m
         mean-wind=7.861523151m/s
--------------0--------------1---------2---------3---------4---------5---------6---------7---------8---------9--------10--------11--------12--------13--------14--------15--------16--------17--------18--------19------------------20--------21--------22--------23--------24--------25--------26--------27--------28--------29--------30--------31--------32--------33--------34--------35--------36--------37--------38--------39--------40--------41--------42--------43--------44--------45--------46--------47--------48--------49--------50--------51--------52--------53--------54--------55--------56--------57--------58--------59--------60--------61--------62--------63--------64--------65--------66--------67--------68--------69--------70--------71--------72--------73
            LAT            LON  P-LENGHT     SWH_o     SWH_c     P-DIR      LINE     POINT     ROW-Y     COL-X  M-INTENC        dB      WIND INC-ANGLE  ENERGY-M  ENERGY-N  ENERGY-R ENERGY-NN  FG-DEPTH      FLAG         HEADING-DEG    E30-75   E75-390  E390-600 meanincut   meanout   cut/out  STD-NORM  SPEC-MAX   GL-MEAN    GL-VAR      CORR   ENTROPY   HOMOGEN    ENERGY  CONTRAST  DISSIMIL     STD-O    E 1-30 E600-2000   E2000 >      GODA  LONG-HIG     Tmean  CONVOLUT  MEAN-DIR  relation     Sy/Sx  SKEWNESS  KURTOSIS  cutoff-A >50/10000     INT*V   INT-LOG  S-1_g1f1  S-2_g1f2  S-3_g1f3  S-4_g2f1  S-5_g2f2  S-6_g2f3  S-7_g3f1  S-8_g3f2  S-9_g3f3 S-10_g1f4 S-11_g2f4 S-12_g3f4 S-13_g1f5 S-14_g2f5 S-15_g3f5 S-16_g4f1 S-17_g4f2 S-18_g4f3 S-19_g4f4 S-20_g4f5
--------------1--------------2---------3---------4---------5---------6---------7---------8---------9--------10--------11--------12--------13--------14--------15--------16--------17--------18--------19--------20------------------21--------22--------23--------24--------25--------26--------27--------28--------29--------30--------31--------32--------33--------34--------35--------36--------37--------38--------39--------40--------41--------42--------43--------44--------45--------46--------47--------48--------49--------50--------51--------52--------53--------54--------55--------56--------57--------58--------59--------60--------61--------62--------63--------64--------65--------66--------67--------68--------69--------70--------71--------72--------73--------74
     -64.206795    -106.002998     217.2      1.37      3.35      55.5         1         1      1000      1000   3541.18    -4.509       7.8      22.2   197.728     0.749      90.1   0.18028      40.3         H               338.8  0.084135  0.060125  0.001578  4.572765  1.028787  4.444814  1.226471     83.05    6.5679   70.3269   0.27343   5.83273   0.21390   0.00760 102.19578   6.54791    4343.3  0.603307  0.000751  0.000016  0.000175  0.221327  7.282706  0.782560     60.25  1.000180  1.000018     3.350    24.158      92.7      88.0     138.8     565.9     14.06      8.19      2.78      1.25     -0.34      3.57     -2.62     -3.83     -0.22      4.07      2.02     -1.77     -4.01      0.88      3.49     -5.77     -3.38      3.81      0.96      1.75
     -64.182915    -105.889900     227.3      1.31      3.35      53.6         1         2      1000      2554   3219.61    -4.922       7.9      22.7   197.346     0.745      92.3   0.17834      47.0         H               338.8  0.083375  0.058742  0.001670  4.605694  1.004750  4.583918  1.224642     90.82    5.9227   58.5365   0.27053   5.64521   0.22983   0.00909  85.39972   5.95089    3942.9  0.601362  0.000786  0.000018  0.000177  0.220767  7.279107  0.777479     58.46  1.000203  1.000019     3.392    25.616      90.6      86.7     113.0     537.8     14.25      8.22      3.33      0.56     -1.22      2.23     -2.63     -3.75      0.02      4.52      0.34     -1.20     -4.78      1.11      3.33     -6.59     -4.35      1.24     -1.86      2.58
     -64.159409    -105.779167     213.2      1.23      3.35      59.6         1         3      1000      4108   2914.34    -5.355       7.9      23.2   196.645     0.742      99.5   0.17750      38.0         H               338.8  0.083042  0.057415  0.001706  4.343568  1.018787  4.263470  1.221274     92.41    5.3336   48.5926   0.27119   5.45450   0.24697   0.01100  70.83041   5.39994    3559.2  0.598914  0.000989  0.000024  0.000175  0.220211  7.266178  0.773288     59.58  1.000194  1.000018     3.344    24.075      90.6      85.1      91.8     475.1     14.16      8.42      2.80      0.83     -0.95      3.01     -2.66     -3.73     -0.51      3.94      1.56     -1.71     -5.18      1.12      3.49     -6.83     -4.68      2.83     -0.06      2.76
     -64.157951    -106.056206     241.8      1.34      3.35      58.9         2         1      2457      1000   3501.89    -4.557       7.6      22.2   198.464     0.751      94.2   0.18021      60.2         H               338.8  0.084149  0.059756  0.001632  4.362867  1.008512  4.326046  1.227195     98.20    6.4840   69.0095   0.27296   5.80844   0.21604   0.00780 100.34703   6.47458    4297.3  0.604869  0.000819  0.000016  0.000187  0.223903  7.298069  0.783584     61.39  1.000181  1.000016     3.323    23.331      90.6      87.8     135.5     546.3     14.31      8.79      3.85      1.01     -0.14      3.04     -3.00     -4.32     -1.27      5.58      1.44     -2.51     -4.55      0.76      3.06     -6.09     -2.74      3.10     -0.29      2.11
     -64.134109    -105.943275     241.8      1.33      3.35      58.9         2         2      2457      2554   3225.51    -4.914       7.9      22.7   197.458     0.748      98.3   0.18067      60.2         H               338.8  0.083890  0.059233  0.001889  4.336061  1.014602  4.273657  1.228097     98.92    5.9434   59.3678   0.27287   5.64907   0.22991   0.00915  86.33582   5.97662    3961.3  0.603236  0.000816  0.000023  0.000188  0.223075  7.285109  0.780965     58.40  1.000185  1.000018     3.294    22.583      94.9      86.6     114.1     500.4     14.42      8.81      3.39      0.47     -1.03      2.71     -2.92     -4.40     -0.74      5.04      1.11     -2.58     -5.24      1.30      3.35     -7.02     -4.15      2.31     -0.22      2.88
     -64.110649    -105.832718     207.7      1.12      3.35      57.2         2         3      2457      4108   2876.64    -5.411       7.7      23.2   196.198     0.736      92.0   0.17364      35.1         H               338.8  0.081717  0.055051  0.002050  4.202322  0.999227  4.205574  1.215654     66.96    5.2624   47.0524   0.26624   5.43277   0.24797   0.01113  69.04990   5.33697    3497.0  0.597237  0.000869  0.000020  0.000175  0.218603  7.241070  0.767162     60.44  1.000186  1.000018     3.369    25.063      90.6      84.9      89.0     467.9     14.13      8.50      3.21      0.61     -0.62      2.60     -2.00     -3.71     -0.58      4.80      1.15     -1.61     -4.47      0.51      2.80     -7.97     -4.39      2.29     -1.11      2.31
     -64.109093    -106.109230     217.2      1.32      3.35      55.5         3         1      3914      1000   3601.34    -4.435       8.0      22.2   197.502     0.748      88.8   0.18011      40.3         H               338.8  0.084221  0.058197  0.001674  4.458804  1.022045  4.362630  1.225001     77.34    6.6816   72.2482   0.27217   5.86506   0.21094   0.00731 105.16927   6.64893    4411.5  0.603610  0.000711  0.000013  0.000175  0.220276  7.259871  0.780625     60.01  1.000181  1.000017     3.312    22.752      90.6      88.3     143.6     595.5     14.08      8.32      3.46      1.21     -0.36      2.74     -2.54     -3.69     -0.39      4.73      1.16     -1.97     -4.64      0.72      2.94     -6.20     -3.91      1.83     -0.74      2.41
     -64.085297    -105.996475     246.6      1.35      3.35      54.2         3         2      3914      2554   3268.68    -4.856       8.1      22.7   197.807     0.745      93.4   0.17715      66.4         H               338.8  0.082453  0.058757  0.001872  4.278442  1.010658  4.233325  1.224728     78.36    6.0241   60.2626   0.26966   5.67632   0.22702   0.00885  88.02374   6.04993    4003.2  0.601851  0.000705  0.000017  0.000180  0.224038  7.291987  0.777332     58.92  1.000188  1.000019     3.385    26.019      92.7      86.8     116.8     557.9     14.49      8.89      3.44      0.28     -1.51      2.43     -2.89     -3.88     -0.59      4.79      0.87     -2.17     -5.40      1.56      3.00     -7.37     -5.41      1.71     -1.05      3.94
     -64.061867    -105.886086     269.5      1.35      3.35      54.9         3         3      3914      4108   2944.40    -5.310       8.0      23.2   197.149     0.744     100.2   0.17727     100.0         H               338.8  0.081352  0.059165  0.001895  4.170194  0.989864  4.212897  1.220735    115.69    5.3957   49.7213   0.27007   5.47496   0.24537   0.01083  72.58665   5.46543    3594.1  0.600922  0.000797  0.000016  0.000189  0.230458  7.330695  0.775864     56.12  1.000180  1.000015     3.335    23.977      92.7      85.1      94.1     475.5     14.81      9.16      2.92     -0.64     -1.96      2.04     -3.35     -4.74     -0.78      4.38     -0.03     -2.04     -6.57      1.64      3.97     -8.08     -4.83      1.95     -1.77      3.75
