corner points
-116.9043579    -49.17256165
-116.9869232    -48.9980278
-116.6311111    -49.1146965
-116.7147217    -48.94035721
========== RESULTS WAVE VERSION 16.10.2018 ====================
IMAGE SIZE  X: 5471     Y:4909    col:row     POLARIZATION:VV
COVERAGE    X: 20.83834798km       Y: 20.27402797km 
RESOLUTION dX: 3.808873693m       dY:4.129971067m  
resolution of original product 3.808873693m x 4.129971067m;   raster step x:5998.976067m  
===============================================================
FLAGS: H=HIGH PROBABILITY SEA STATE, I=LAND(ISLAND), O=OUTLIER NO SEA STATE, N=NO WIND AVAILABLE, SEA STATE NOT VISIBLE, M=MEAN PROBABILITY SEA STATE, L= LOW PROBABILITY SEA STATE
Filtering wave length
 integration  Lmin=1m
 integration  Lmax=2200m
  peak        Lmin=100m
               FFT=1024pixels, 3900.286662m 
   mean-Hs (SWH_c)=2.483791809m
         mean-wind=8.420782089m/s
--------------0--------------1---------2---------3---------4---------5---------6---------7---------8---------9--------10--------11--------12--------13--------14--------15--------16--------17--------18--------19------------------20--------21--------22--------23--------24--------25--------26--------27--------28--------29--------30--------31--------32--------33--------34--------35--------36--------37--------38--------39--------40--------41--------42--------43--------44--------45--------46--------47--------48--------49--------50--------51--------52--------53--------54--------55--------56--------57--------58--------59--------60--------61--------62--------63--------64--------65--------66--------67--------68--------69--------70--------71--------72--------73
            LAT            LON  P-LENGHT     SWH_o     SWH_c     P-DIR      LINE     POINT     ROW-Y     COL-X  M-INTENC        dB      WIND INC-ANGLE  ENERGY-M  ENERGY-N  ENERGY-R ENERGY-NN  FG-DEPTH      FLAG         HEADING-DEG    E30-75   E75-390  E390-600 meanincut   meanout   cut/out  STD-NORM  SPEC-MAX   GL-MEAN    GL-VAR      CORR   ENTROPY   HOMOGEN    ENERGY  CONTRAST  DISSIMIL     STD-O    E 1-30 E600-2000   E2000 >      GODA  LONG-HIG     Tmean  CONVOLUT  MEAN-DIR  relation     Sy/Sx  SKEWNESS  KURTOSIS  cutoff-A >50/10000     INT*V   INT-LOG  S-1_g1f1  S-2_g1f2  S-3_g1f3  S-4_g2f1  S-5_g2f2  S-6_g2f3  S-7_g3f1  S-8_g3f2  S-9_g3f3 S-10_g1f4 S-11_g2f4 S-12_g3f4 S-13_g1f5 S-14_g2f5 S-15_g3f5 S-16_g4f1 S-17_g4f2 S-18_g4f3 S-19_g4f4 S-20_g4f5
--------------1--------------2---------3---------4---------5---------6---------7---------8---------9--------10--------11--------12--------13--------14--------15--------16--------17--------18--------19--------20------------------21--------22--------23--------24--------25--------26--------27--------28--------29--------30--------31--------32--------33--------34--------35--------36--------37--------38--------39--------40--------41--------42--------43--------44--------45--------46--------47--------48--------49--------50--------51--------52--------53--------54--------55--------56--------57--------58--------59--------60--------61--------62--------63--------64--------65--------66--------67--------68--------69--------70--------71--------72--------73--------74
     -49.126190    -116.869881     276.1      2.73      3.55     113.1         1         1      1000      1000   3542.12    -4.507       8.6      22.6   271.475     0.828     115.6   0.21361     100.0         H               344.9  0.092355  0.093623  0.001699  6.744973  1.064527  6.336125  1.290804     80.94    6.5448   74.8818   0.30082   5.80177   0.22118   0.00826 104.71078   6.50459    4572.1  0.640261  0.000844  0.000018  0.000241  0.213891  7.460250  0.875543     86.40  1.000347  1.000043     3.803    31.200     117.4      87.4     148.9     642.8     13.68     -3.54      7.83      3.22      0.65      5.66     -0.51      1.97      0.46     -4.46      0.69      2.58      2.34      3.20      2.14     -2.94      1.83      4.03      2.36      2.34
     -49.109386    -116.790367     155.6      2.56      3.55      94.2         1         2      1000      2575   3183.04    -4.972       8.5      23.0   268.741     0.816     121.7   0.20823      16.8         H               344.9  0.090822  0.089557  0.002182  6.581552  1.043419  6.307682  1.280945     76.97    5.8473   61.3064   0.29735   5.59951   0.23776   0.01004  86.15312   5.87044    4077.1  0.632933  0.001030  0.000027  0.000248  0.214769  7.471700  0.861915     86.27  1.000354  1.000043     3.728    29.675     117.4      85.8     117.9     570.9     13.33     -1.54      8.18      3.88      0.55      6.80      0.70      1.62      1.10     -2.51      1.21      2.40      3.82      3.87      2.39     -2.84      0.89      5.79      2.51      2.62
     -49.092850    -116.712410     276.2      2.48      3.55      97.5         1         3      1000      4150   2880.00    -5.406       8.5      23.5   267.678     0.813     125.2   0.20711     100.0         H               344.9  0.089784  0.087447  0.002115  6.571420  1.049983  6.258595  1.278657     81.69    5.2603   51.1995   0.29702   5.40665   0.25633   0.01219  71.98512   5.32475    3682.5  0.633379  0.001095  0.000026  0.000223  0.217865  7.444118  0.858185     86.56  1.000351  1.000040     3.675    28.067     114.0      84.1      95.8     483.0     13.91     -1.76      8.21      2.89      0.60      5.41     -0.74      1.57     -0.12     -3.50      1.44      2.70      3.06      3.08      1.74     -3.90      1.15      4.09      2.76      2.05
     -49.074570    -116.894386     252.5      2.42      3.55     103.8         2         1      2452      1000   3482.88    -4.581       8.4      22.6   268.793     0.815     109.9   0.20693      76.5         H               344.9  0.091135  0.086354  0.001896  6.540322  1.027712  6.363964  1.279986     77.07    6.4315   71.7834   0.29522   5.77483   0.22234   0.00839 101.18215   6.41150    4457.6  0.635287  0.001026  0.000013  0.000242  0.211230  7.414818  0.859996     89.09  1.000349  1.000043     3.774    31.363     114.0      87.2     142.0     640.3     13.28     -2.32      8.32      3.91      0.35      6.37      0.36      1.77      0.77     -4.17      0.83      2.76      4.20      3.62      1.82     -2.43      0.94      5.34      2.33      2.29
     -49.057781    -116.814964     276.1      2.41      3.55     113.1         2         2      2452      2575   3064.58    -5.136       8.1      23.1   268.959     0.818     129.7   0.20969     100.0         H               344.9  0.092923  0.088453  0.002085  6.878635  1.063834  6.465891  1.282432     75.85    5.6120   56.9958   0.29742   5.52531   0.24477   0.01079  80.08661   5.64649    3930.1  0.634196  0.001220  0.000040  0.000233  0.211823  7.414162  0.863811     88.34  1.000335  1.000041     3.861    34.126     114.0      85.1     109.1     592.9     13.45     -2.56      7.80      3.12      0.34      5.34      0.14      1.51      0.75     -4.25      0.49      2.72      2.84      2.40      2.49     -3.47      1.41      4.20      1.88      1.34
     -49.041260    -116.737099     288.6      2.47      3.55     105.8         2         3      2452      4150   2859.93    -5.436       8.4      23.5   266.939     0.807     125.2   0.20432     100.0         H               344.9  0.089373  0.087261  0.002109  6.423974  1.036613  6.197078  1.272554     71.51    5.2209   50.2765   0.29537   5.39375   0.25822   0.01241  70.85266   5.28499    3639.2  0.627910  0.001060  0.000038  0.000229  0.217754  7.455040  0.851576     88.03  1.000333  1.000039     3.632    28.310     114.0      83.9      93.8     514.6     13.72     -2.41      7.74      3.08      0.46      5.81     -0.43      1.38      0.35     -4.33      0.87      2.80      2.80      3.05      2.15     -3.80      1.70      4.31      2.59      1.53
     -49.022942    -116.918854     269.4      2.49      3.55     104.8         3         1      3904      1000   3507.78    -4.550       8.5      22.6   269.217     0.821     112.7   0.20945     100.0         H               344.9  0.093426  0.088718  0.001755  7.006594  1.046782  6.693458  1.284672     83.81    6.4858   73.2998   0.29661   5.78837   0.22161   0.00832 103.11678   6.46406    4506.2  0.636789  0.000910  0.000021  0.000245  0.208634  7.385468  0.866932     90.11  1.000369  1.000046     3.798    32.079     121.0      87.3     145.3     649.7     13.44     -2.71      8.49      3.46      0.31      5.40     -0.19      1.41      0.60     -4.73      0.24      2.43      3.73      3.35      1.57     -2.51      1.21      3.82      2.07      2.74
     -49.006172    -116.839516     273.3      2.51      3.55     101.2         3         2      3904      2575   3097.17    -5.090       8.3      23.1   270.157     0.824     113.2   0.21259     100.0         H               344.9  0.094691  0.091185  0.001805  6.717075  1.070513  6.274630  1.286857     64.76    5.6787   58.5936   0.30122   5.54445   0.24332   0.01065  81.88746   5.70899    3985.6  0.636263  0.000888  0.000022  0.000250  0.209251  7.395482  0.871356     85.96  1.000354  1.000045     3.836    32.319     117.4      85.2     112.3     580.0     13.34     -1.98      7.59      3.72      0.24      6.03      0.21      0.95      1.67     -3.42      0.25      2.11      2.87      3.50      2.74     -2.60      1.37      4.12      1.63      2.86
     -48.989666    -116.761742     276.2      2.29      3.55      97.5         3         3      3904      4150   2834.81    -5.475       8.4      23.5   265.455     0.803     105.7   0.20214     100.0         H               344.9  0.089706  0.083452  0.002002  6.831894  1.047374  6.522880  1.269998     63.21    5.1713   49.0233   0.29329   5.38032   0.25785   0.01233  69.29085   5.23948    3599.9  0.627189  0.000826  0.000013  0.000226  0.210817  7.394636  0.846443     87.47  1.000354  1.000041     3.707    29.620     114.0      84.0      91.8     499.3     13.56     -2.02      7.34      2.78      0.81      5.73      0.11      1.15      0.87     -3.31      1.27      2.26      2.81      3.62      2.26     -4.02      1.75      4.62      2.79      2.99
