corner points
-64.85373688    38.69348145
-64.89429474    38.51964569
-65.08519745    38.7259903
-65.12516022    38.55215836
========== RESULTS WAVE VERSION 16.10.2018 ====================
IMAGE SIZE  X: 4500     Y:4773    col:row     POLARIZATION:VV
COVERAGE    X: 20.35902848km       Y: 19.59941334km 
RESOLUTION dX: 4.524228552m       dY:4.1063091m  
resolution of original product 4.524228552m x 4.1063091m;   raster step x:5999.12706m  
===============================================================
FLAGS: H=HIGH PROBABILITY SEA STATE, I=LAND(ISLAND), O=OUTLIER NO SEA STATE, N=NO WIND AVAILABLE, SEA STATE NOT VISIBLE, M=MEAN PROBABILITY SEA STATE, L= LOW PROBABILITY SEA STATE
Filtering wave length
 integration  Lmin=1m
 integration  Lmax=2200m
  peak        Lmin=100m
               FFT=1024pixels, 4632.810037m 
   mean-Hs (SWH_c)=1.110450058m
         mean-wind=11.87901115m/s
--------------0--------------1---------2---------3---------4---------5---------6---------7---------8---------9--------10--------11--------12--------13--------14--------15--------16--------17--------18--------19------------------20--------21--------22--------23--------24--------25--------26--------27--------28--------29--------30--------31--------32--------33--------34--------35--------36--------37--------38--------39--------40--------41--------42--------43--------44--------45--------46--------47--------48--------49--------50--------51--------52--------53--------54--------55--------56--------57--------58--------59--------60--------61--------62--------63--------64--------65--------66--------67--------68--------69--------70--------71--------72--------73
            LAT            LON  P-LENGHT     SWH_o     SWH_c     P-DIR      LINE     POINT     ROW-Y     COL-X  M-INTENC        dB      WIND INC-ANGLE  ENERGY-M  ENERGY-N  ENERGY-R ENERGY-NN  FG-DEPTH      FLAG         HEADING-DEG    E30-75   E75-390  E390-600 meanincut   meanout   cut/out  STD-NORM  SPEC-MAX   GL-MEAN    GL-VAR      CORR   ENTROPY   HOMOGEN    ENERGY  CONTRAST  DISSIMIL     STD-O    E 1-30 E600-2000   E2000 >      GODA  LONG-HIG     Tmean  CONVOLUT  MEAN-DIR  relation     Sy/Sx  SKEWNESS  KURTOSIS  cutoff-A >50/10000     INT*V   INT-LOG  S-1_g1f1  S-2_g1f2  S-3_g1f3  S-4_g2f1  S-5_g2f2  S-6_g2f3  S-7_g3f1  S-8_g3f2  S-9_g3f3 S-10_g1f4 S-11_g2f4 S-12_g3f4 S-13_g1f5 S-14_g2f5 S-15_g3f5 S-16_g4f1 S-17_g4f2 S-18_g4f3 S-19_g4f4 S-20_g4f5
--------------1--------------2---------3---------4---------5---------6---------7---------8---------9--------10--------11--------12--------13--------14--------15--------16--------17--------18--------19--------20------------------21--------22--------23--------24--------25--------26--------27--------28--------29--------30--------31--------32--------33--------34--------35--------36--------37--------38--------39--------40--------41--------42--------43--------44--------45--------46--------47--------48--------49--------50--------51--------52--------53--------54--------55--------56--------57--------58--------59--------60--------61--------62--------63--------64--------65--------66--------67--------68--------69--------70--------71--------72--------73--------74
      38.664402     -64.914238     181.7      1.33      3.24     115.6         1         1      1000      1000    506.60   -12.953      12.6      36.8   248.806     0.585     276.2   0.08367      24.4         H               193.3  0.049114  0.022720  0.001455  2.255468  0.702589  3.210225  1.085991     30.79    9.5791  112.2653   0.12908   6.58778   0.14062   0.00285 195.54752   9.70684     550.1  0.506493  0.004568  0.000660  0.000138  0.184833  6.988554  0.586511    108.31  1.000215  1.000016     2.536    14.284     121.0      94.1     250.4     616.8     12.57     -2.72      4.65      1.69     -0.29      2.76      3.61     -0.13      1.85     -2.65     -0.91      0.30     -0.35      1.05      1.01    -12.00      3.59     -1.97      1.99      2.46
      38.674034     -64.982658     158.8      1.26      3.24     117.0         1         2      1000      2326    472.38   -13.257      12.4      37.1   246.695     0.579     197.6   0.08157      17.6         H               193.3  0.048322  0.022539  0.001368  2.272565  0.685830  3.313596  1.080204     20.67    8.9196   98.2059   0.12508   6.45868   0.14814   0.00324 171.84346   9.08294     510.3  0.502665  0.003893  0.000368  0.000137  0.183518  6.976990  0.580331     94.86  1.000246  1.000019     2.515    14.005     121.0      93.4     214.3     557.0     12.44     -1.41      5.45      1.98      0.60      2.17      3.61      0.30      1.90     -1.23      0.22      0.52     -0.02      1.09      0.79    -10.82      1.75     -2.92      1.38      2.77
      38.683552     -65.050514     174.6      1.08      3.24     119.9         1         3      1000      3652    445.83   -13.508      12.2      37.5   248.038     0.580     329.5   0.08115      22.1         H               193.3  0.047881  0.020712  0.001510  2.065841  0.690401  2.992234  1.082055     12.66    8.3960   88.7875   0.12424   6.34710   0.15584   0.00365 155.51370   8.60297     482.4  0.503648  0.005840  0.000805  0.000126  0.179760  6.933839  0.581555     89.07  1.000235  1.000016     2.509    13.951     124.8      92.8     190.0     530.4     12.53     -1.52      4.05      0.78      1.00      1.88      4.13     -0.11      1.76     -0.42     -0.01      0.96     -0.03      0.61      1.53    -13.61      3.55     -1.94      0.10      0.84
      38.611179     -64.926613     172.3      1.19      3.24     111.6         2         1      2461      1000    462.54   -13.348      11.9      36.8   247.429     0.581     184.1   0.08142      21.4         H               193.3  0.049177  0.022760  0.001194  2.251554  0.707423  3.182756  1.082430     30.37    8.7233   94.8553   0.12482   6.41760   0.15107   0.00339 166.03198   8.90895     500.7  0.504754  0.003581  0.000345  0.000136  0.183353  6.984997  0.583343    103.21  1.000252  1.000018     2.528    14.244     121.0      93.2     205.6     565.4     12.18     -1.77      4.82      2.88     -0.33      3.51      3.40     -0.31      1.98     -2.19     -1.15     -0.06      0.91      1.53      1.63     -9.11      1.75     -0.73      1.00      1.09
      38.620815     -64.994987     164.1      1.10      3.24     113.0         2         2      2461      2326    446.18   -13.505      12.0      37.2   247.074     0.579     215.1   0.08132      19.0         H               193.3  0.048916  0.021702  0.001293  2.182562  0.689131  3.167121  1.080886     17.95    8.4054   88.5954   0.12530   6.34892   0.15537   0.00363 154.99002   8.59459     482.3  0.503299  0.004176  0.000429  0.000132  0.181760  6.967117  0.580950     95.08  1.000260  1.000019     2.521    14.112     124.8      92.7     190.0     537.6     12.24     -2.10      5.09      2.28      0.08      2.63      3.65      0.17      2.14     -2.26     -0.17      0.10      0.77      1.54      1.22    -10.46      2.57     -2.31      2.58      2.08
      38.630329     -65.062790     164.1      0.95      3.24     113.0         2         3      2461      3652    410.62   -13.866      11.6      37.5   249.822     0.588     336.2   0.08260      19.0         H               193.3  0.049780  0.021098  0.001302  2.110568  0.710333  2.971236  1.089490     25.29    7.7010   76.9274   0.12741   6.18536   0.16770   0.00434 134.25101   7.94042     447.3  0.509656  0.005409  0.000899  0.000135  0.182081  6.953366  0.589777    101.64  1.000226  1.000014     2.582    15.014     133.1      91.8     161.1     519.4     12.30     -2.34      4.81      2.17     -0.36      2.63      3.64     -0.27      1.84     -2.70     -1.13     -0.11      0.68      0.51      1.38    -10.75      2.30     -1.99      1.79     -0.12
      38.557957     -64.938988     165.0      1.16      3.24     105.9         3         1      3922      1000    426.27   -13.703      11.3      36.8   250.627     0.592     293.1   0.08439      19.3         H               193.3  0.049817  0.024191  0.001485  2.437284  0.698931  3.487162  1.092833     28.54    8.0085   82.7950   0.12985   6.25719   0.16241   0.00404 144.08829   8.23797     465.9  0.511012  0.005161  0.000689  0.000141  0.185369  7.016284  0.594645     99.38  1.000241  1.000018     2.597    14.881     133.1      92.2     175.1     521.8     12.38     -1.61      5.77      2.36     -0.21      3.69      4.14     -0.07      2.51     -2.32     -0.93     -0.12      2.39      1.68      2.05    -10.84      1.12     -1.49      1.10     -0.52
      38.567593     -65.007301     157.8      1.08      3.24     107.5         3         2      3922      2326    423.82   -13.728      11.6      37.2   249.855     0.587     226.2   0.08295      17.3         H               193.3  0.049648  0.022712  0.001292  2.279786  0.695743  3.276767  1.088311     25.71    7.9660   81.4555   0.12620   6.24863   0.16277   0.00406 142.35193   8.19752     461.3  0.509465  0.004056  0.000492  0.000144  0.185300  6.985880  0.589084    103.29  1.000259  1.000020     2.562    14.522     128.8      92.1     172.0     512.7     12.20     -1.62      5.64      2.81     -1.02      3.57      4.01     -0.46      2.67     -2.61     -1.80     -0.77      2.02      1.77      1.69     -9.26     -0.17     -1.77     -0.37      0.48
      38.577106     -65.075058     168.8      0.85      3.24     108.7         3         3      3922      3652    386.02   -14.134      11.2      37.5   246.511     0.573     151.6   0.07672      20.3         H               193.3  0.047326  0.020527  0.001165  2.044811  0.676070  3.024554  1.074337     27.40    7.2203   67.0305   0.11551   6.06985   0.17412   0.00478 118.57591   7.48364     414.7  0.501174  0.002739  0.000312  0.000135  0.185366  6.972106  0.573469    104.84  1.000199  1.000013     2.494    14.199     121.0      91.2     138.8     477.3     12.28     -2.20      5.56      2.76     -0.97      3.26      3.44     -0.22      1.81     -3.31     -1.85     -0.59      1.63      1.85      1.14     -9.43      0.72     -1.84      1.23      1.07
