corner points
-62.52666855    39.25978851
-62.57471466    39.08077621
-62.76314926    39.29716492
-62.81053543    39.1181221
========== RESULTS WAVE VERSION 16.10.2018 ====================
IMAGE SIZE  X: 5681     Y:4920    col:row     POLARIZATION:VV
COVERAGE    X: 20.72543636km       Y: 20.28184131km 
RESOLUTION dX: 3.64820214m       dY:4.12232547m  
resolution of original product 3.64820214m x 4.12232547m;   raster step x:5997.644318m  
===============================================================
FLAGS: H=HIGH PROBABILITY SEA STATE, I=LAND(ISLAND), O=OUTLIER NO SEA STATE, N=NO WIND AVAILABLE, SEA STATE NOT VISIBLE, M=MEAN PROBABILITY SEA STATE, L= LOW PROBABILITY SEA STATE
Filtering wave length
 integration  Lmin=1m
 integration  Lmax=2200m
  peak        Lmin=100m
               FFT=1024pixels, 3735.758991m 
   mean-Hs (SWH_c)=2.844634399m
         mean-wind=8.994855881m/s
--------------0--------------1---------2---------3---------4---------5---------6---------7---------8---------9--------10--------11--------12--------13--------14--------15--------16--------17--------18--------19------------------20--------21--------22--------23--------24--------25--------26--------27--------28--------29--------30--------31--------32--------33--------34--------35--------36--------37--------38--------39--------40--------41--------42--------43--------44--------45--------46--------47--------48--------49--------50--------51--------52--------53--------54--------55--------56--------57--------58--------59--------60--------61--------62--------63--------64--------65--------66--------67--------68--------69--------70--------71--------72--------73
            LAT            LON  P-LENGHT     SWH_o     SWH_c     P-DIR      LINE     POINT     ROW-Y     COL-X  M-INTENC        dB      WIND INC-ANGLE  ENERGY-M  ENERGY-N  ENERGY-R ENERGY-NN  FG-DEPTH      FLAG         HEADING-DEG    E30-75   E75-390  E390-600 meanincut   meanout   cut/out  STD-NORM  SPEC-MAX   GL-MEAN    GL-VAR      CORR   ENTROPY   HOMOGEN    ENERGY  CONTRAST  DISSIMIL     STD-O    E 1-30 E600-2000   E2000 >      GODA  LONG-HIG     Tmean  CONVOLUT  MEAN-DIR  relation     Sy/Sx  SKEWNESS  KURTOSIS  cutoff-A >50/10000     INT*V   INT-LOG  S-1_g1f1  S-2_g1f2  S-3_g1f3  S-4_g2f1  S-5_g2f2  S-6_g2f3  S-7_g3f1  S-8_g3f2  S-9_g3f3 S-10_g1f4 S-11_g2f4 S-12_g3f4 S-13_g1f5 S-14_g2f5 S-15_g3f5 S-16_g4f1 S-17_g4f2 S-18_g4f3 S-19_g4f4 S-20_g4f5
--------------1--------------2---------3---------4---------5---------6---------7---------8---------9--------10--------11--------12--------13--------14--------15--------16--------17--------18--------19--------20------------------21--------22--------23--------24--------25--------26--------27--------28--------29--------30--------31--------32--------33--------34--------35--------36--------37--------38--------39--------40--------41--------42--------43--------44--------45--------46--------47--------48--------49--------50--------51--------52--------53--------54--------55--------56--------57--------58--------59--------60--------61--------62--------63--------64--------65--------66--------67--------68--------69--------70--------71--------72--------73--------74
      39.230186     -62.579136     172.5      3.17      3.71     104.2         1         1      1000      1000   2770.64    -5.574       8.2      23.6   461.214     0.950     221.0   0.26933      21.4         H               193.4  0.113736  0.118069  0.003041  7.245088  1.109180  6.531933  1.381138    150.06    5.0210   52.6692   0.33122   5.28224   0.27673   0.01513  70.44852   5.09616    3826.2  0.712453  0.003245  0.000106  0.000352  0.210556  7.461834  1.010272     97.70  1.000371  1.000063     4.754    67.384     137.8      81.9      98.5     663.1     12.43     -1.56      9.00      6.89     -1.99     10.58      3.28     -0.26      3.23     -2.76     -2.49     -0.75      4.97      6.47      3.18     -2.27     -1.38      6.92     -0.55      4.45
      39.241142     -62.648277     159.5      2.88      3.71     100.9         1         2      1000      2644   2503.69    -6.014       8.1      24.0   460.857     0.950     164.7   0.26973      17.8         H               193.4  0.118068  0.112640  0.003096  7.606628  1.115314  6.820170  1.383895    143.84    4.4885   43.7830   0.33293   5.08020   0.29660   0.01834  58.41219   4.60218    3464.7  0.714719  0.002381  0.000041  0.000339  0.206662  7.401629  1.010239     94.59  1.000359  1.000061     4.515    44.669     137.8      80.0      79.7     540.6     12.50     -0.93      8.82      6.64     -1.34     10.44      3.25     -0.57      3.06     -1.66     -1.73     -1.02      5.12      6.60      3.14     -2.88     -0.91      6.86     -0.33      3.68
      39.251862     -62.716187     186.6      3.06      3.71      92.5         1         3      1000      4288   2669.36    -5.736       9.8      24.5   454.801     0.925     483.6   0.25642      26.2         H               193.4  0.110799  0.107483  0.002859  7.103969  1.058354  6.712279  1.364300    135.97    4.8722   49.4977   0.32544   5.23310   0.28118   0.01579  66.77808   4.96530    3641.6  0.696823  0.007156  0.000605  0.000349  0.208080  7.404618  0.982077     94.02  1.000406  1.000067     4.352    43.114     148.0      81.5      91.3     593.4     12.61     -0.88      9.57      6.66     -1.21     10.12      3.03     -0.27      3.05     -1.67     -1.51     -0.48      5.77      6.67      3.00     -2.73     -0.49      5.58      0.07      3.66
      39.177235     -62.593315     161.6      2.59      3.71     107.8         2         1      2455      1000   2824.20    -5.491       8.4      23.6   448.654     0.908     175.6   0.24900      18.3         H               193.4  0.110911  0.100723  0.002616  6.833984  1.057535  6.462184  1.349648    120.08    5.1307   53.3169   0.32133   5.33178   0.26972   0.01408  72.36925   5.21012    3811.2  0.692414  0.002374  0.000085  0.000325  0.208241  7.378678  0.963304     96.17  1.000358  1.000057     4.167    38.397     133.1      82.6      99.3     587.6     12.69     -0.88      8.53      6.38     -1.62     10.38      2.73     -0.16      2.47     -1.87     -1.90     -0.54      4.72      6.46      2.81     -3.23     -1.73      6.91     -1.09      4.19
      39.188190     -62.662403     162.3      2.71      3.71      92.2         2         2      2455      2644   2480.01    -6.055       8.0      24.0   456.181     0.936     175.3   0.26337      18.5         H               193.4  0.114974  0.106942  0.002897  6.893664  1.093281  6.305482  1.367583    176.33    4.4744   42.9816   0.32842   5.07874   0.29673   0.01828  57.73183   4.58741    3391.4  0.709355  0.002643  0.000046  0.000351  0.208763  7.380915  0.994065     93.59  1.000404  1.000069     4.456    44.855     142.7      80.0      78.4     556.5     12.62     -0.64      9.54      6.90     -1.39     10.63      3.10     -0.38      3.06     -1.26     -1.77     -0.81      5.88      7.09      2.93     -2.92     -1.13      5.74     -0.54      3.84
      39.198906     -62.730255     165.1      2.76      3.71     103.6         2         3      2455      4288   2646.07    -5.774       9.8      24.5   451.550     0.923     253.8   0.25600      19.3         H               193.4  0.112710  0.100548  0.003302  6.693182  1.085881  6.163829  1.362353    123.41    4.8091   48.1297   0.32380   5.21274   0.28186   0.01589  65.09143   4.91286    3604.5  0.702474  0.004098  0.000138  0.000340  0.208873  7.367882  0.979231     94.02  1.000417  1.000069     4.357    43.435     148.0      81.4      88.7     582.5     12.78     -0.54      8.98      5.93     -1.26     10.19      3.35     -0.38      2.81     -1.46     -1.51     -0.28      5.16      6.63      2.82     -4.53     -0.74      6.27     -0.46      4.46
      39.124283     -62.607487     170.6      2.70      3.71     106.4         3         1      3910      1000   2772.49    -5.571       8.2      23.6   449.327     0.910     166.4   0.24862      20.9         H               193.4  0.108138  0.103046  0.002696  6.618253  1.077211  6.143879  1.350095    136.08    5.0372   51.6043   0.32056   5.29910   0.27291   0.01455  70.12415   5.12313    3742.8  0.694240  0.002370  0.000049  0.000331  0.211398  7.421409  0.964839     98.01  1.000339  1.000055     4.192    38.410     137.8      82.3      95.9     587.4     12.57     -1.29      8.82      6.73     -1.48     10.40      2.91     -0.59      2.67     -2.21     -2.24     -0.48      4.60      6.01      2.54     -2.72     -0.30      6.52     -1.16      3.87
      39.135235     -62.676517     186.9      2.70      3.71     108.1         3         2      3910      2644   2577.54    -5.888       8.5      24.0   454.165     0.928     160.7   0.25929      26.3         H               193.4  0.111798  0.103674  0.002563  7.095926  1.085946  6.534328  1.364999    135.50    4.6703   46.0360   0.32400   5.15799   0.28775   0.01684  62.24092   4.78269    3517.9  0.708711  0.002196  0.000053  0.000328  0.207639  7.380323  0.983629     98.68  1.000350  1.000059     4.381    43.341     137.8      80.8      84.4     557.8     12.61     -1.18      8.92      6.48     -1.75      9.52      2.60     -0.58      2.69     -2.28     -2.42     -0.50      4.15      5.81      2.89     -2.55     -0.56      5.59     -0.86      4.03
      39.145947     -62.744312     162.3      3.04      3.71      92.2         3         3      3910      4288   3134.98    -5.038      11.9      24.5   441.330     0.881     503.4   0.23450      18.5         H               193.4  0.099742  0.094312  0.003087  6.162593  0.996411  6.184793  1.336813    141.55    5.7908   63.5524   0.31360   5.56231   0.24598   0.01094  87.24539   5.81432    4190.6  0.675322  0.008362  0.000451  0.000364  0.211034  7.410831  0.932545     95.55  1.000381  1.000058     4.219    40.263     148.0      85.0     122.9     648.7     12.60     -0.75      9.22      6.60     -0.84     10.76      3.65     -0.49      3.00     -1.18     -1.49     -0.39      5.25      7.06      3.16     -4.07      0.49      6.74     -0.35      4.35
