corner points
-65.11611176    28.67716789
-65.15776825    28.49716187
-65.32406616    28.71391106
-65.36532593    28.53389931
========== RESULTS WAVE VERSION 16.10.2018 ====================
IMAGE SIZE  X: 5681     Y:4927    col:row     POLARIZATION:VV
COVERAGE    X: 20.64263709km       Y: 20.37549021km 
RESOLUTION dX: 3.63362737m       dY:4.135475991m  
resolution of original product 3.63362737m x 4.135475991m;   raster step x:5999.118788m  
===============================================================
FLAGS: H=HIGH PROBABILITY SEA STATE, I=LAND(ISLAND), O=OUTLIER NO SEA STATE, N=NO WIND AVAILABLE, SEA STATE NOT VISIBLE, M=MEAN PROBABILITY SEA STATE, L= LOW PROBABILITY SEA STATE
Filtering wave length
 integration  Lmin=1m
 integration  Lmax=2200m
  peak        Lmin=100m
               FFT=1024pixels, 3720.834427m 
   mean-Hs (SWH_c)=0.175m
         mean-wind=3.388889074m/s
--------------0--------------1---------2---------3---------4---------5---------6---------7---------8---------9--------10--------11--------12--------13--------14--------15--------16--------17--------18--------19------------------20--------21--------22--------23--------24--------25--------26--------27--------28--------29--------30--------31--------32--------33--------34--------35--------36--------37--------38--------39--------40--------41--------42--------43--------44--------45--------46--------47--------48--------49--------50--------51--------52--------53--------54--------55--------56--------57--------58--------59--------60--------61--------62--------63--------64--------65--------66--------67--------68--------69--------70--------71--------72--------73
            LAT            LON  P-LENGHT     SWH_o     SWH_c     P-DIR      LINE     POINT     ROW-Y     COL-X  M-INTENC        dB      WIND INC-ANGLE  ENERGY-M  ENERGY-N  ENERGY-R ENERGY-NN  FG-DEPTH      FLAG         HEADING-DEG    E30-75   E75-390  E390-600 meanincut   meanout   cut/out  STD-NORM  SPEC-MAX   GL-MEAN    GL-VAR      CORR   ENTROPY   HOMOGEN    ENERGY  CONTRAST  DISSIMIL     STD-O    E 1-30 E600-2000   E2000 >      GODA  LONG-HIG     Tmean  CONVOLUT  MEAN-DIR  relation     Sy/Sx  SKEWNESS  KURTOSIS  cutoff-A >50/10000     INT*V   INT-LOG  S-1_g1f1  S-2_g1f2  S-3_g1f3  S-4_g2f1  S-5_g2f2  S-6_g2f3  S-7_g3f1  S-8_g3f2  S-9_g3f3 S-10_g1f4 S-11_g2f4 S-12_g3f4 S-13_g1f5 S-14_g2f5 S-15_g3f5 S-16_g4f1 S-17_g4f2 S-18_g4f3 S-19_g4f4 S-20_g4f5
--------------1--------------2---------3---------4---------5---------6---------7---------8---------9--------10--------11--------12--------13--------14--------15--------16--------17--------18--------19--------20------------------21--------22--------23--------24--------25--------26--------27--------28--------29--------30--------31--------32--------33--------34--------35--------36--------37--------38--------39--------40--------41--------42--------43--------44--------45--------46--------47--------48--------49--------50--------51--------52--------53--------54--------55--------56--------57--------58--------59--------60--------61--------62--------63--------64--------65--------66--------67--------68--------69--------70--------71--------72--------73--------74
      28.647287     -65.162109     208.7      0.25      1.89     170.3         1         1      1000      1000   1413.17    -8.498       3.8      23.7   418.381     0.721     279.5   0.16285      35.7         H               192.6  0.085398  0.041791  0.001124  4.016396  0.895495  4.485115  1.203240     19.28    2.3625   11.4624   0.26012   4.03253   0.40682   0.04402  16.96175   2.58070    1700.3  0.587773  0.004874  0.000273  0.000171  0.177469  6.940723  0.754862     95.23  1.000148  1.000014     3.191    21.468      75.2      69.1      21.1     201.8     11.56     -3.06     -1.15      3.33     -0.93      2.10      0.42      1.15      2.88     -0.02     -1.52     -1.12     -0.38     -1.08      0.02     -4.59      0.44      2.64     -1.30     -1.02
      28.658098     -65.223175     370.7      0.17      1.89      85.0         1         2      1000      2651    762.15   -11.180       2.4      24.2   463.266     0.835    2185.0   0.21004     100.0         M               192.6  0.093099  0.052465  0.004100  4.918870  0.994914  4.944017  1.310329     23.23    1.1105    3.8984   0.30003   2.82511   0.60235   0.14848   5.45748   1.30373     998.7  0.643721  0.039491  0.002807  0.000165  0.186953  7.028430  0.886546     94.66  1.000209  1.000019     3.853    33.026     128.8      48.7       7.0     137.9     12.90     -2.39      0.45     -0.78     -0.52      0.44      2.94      0.74      3.33     -0.17     -1.18     -0.78      0.04     -1.84      0.40    -16.88      1.03     -2.83     -0.90     -3.38
      28.668688     -65.283157     186.0      0.20      1.89     121.8         1         3      1000      4302    746.75   -11.268       2.7      24.6   438.428     0.772     818.4   0.18376      26.0         H               192.6  0.090075  0.048865  0.003032  4.774661  0.931831  5.123954  1.248002     18.28    1.0685    3.3779   0.27537   2.79511   0.59358   0.14589   4.89547   1.28350     931.9  0.613441  0.016723  0.000819  0.000173  0.181910  6.999429  0.814720     92.58  1.000211  1.000022     3.499    26.604      94.9      48.4       6.3     118.3     12.46     -2.57      0.79      0.86     -0.39      0.91      2.41      0.80      3.36     -0.91     -0.75     -0.71      0.23     -1.27      0.29    -13.42      1.25     -2.31      0.63     -2.52
      28.594301     -65.174355     206.5      0.25      1.89     167.2         2         1      2450      1000   1383.86    -8.589       3.8      23.7   427.350     0.744     584.1   0.17163      34.5         H               192.6  0.087901  0.044458  0.001109  4.279235  0.914848  4.677536  1.224361     22.80    2.2865   11.1969   0.26883   3.97063   0.41771   0.04781  16.37389   2.50592    1694.2  0.601020  0.008885  0.000869  0.000174  0.178127  6.951284  0.780781     92.21  1.000151  1.000015     3.350    24.390      83.0      67.9      20.4     221.4     11.67     -3.21     -1.62      3.32     -0.86      2.30      0.15      1.25      3.14     -0.20     -1.48     -0.82     -1.58     -1.23      0.27     -4.46      0.61      2.77     -0.77      0.12
      28.605112     -65.235390     177.7      0.22      1.89     114.8         2         2      2450      2651   1059.55    -9.749       3.3      24.2   437.791     0.768     988.1   0.18036      23.1         H               192.6  0.088831  0.045182  0.001967  4.472536  0.928628  4.816283  1.247533     18.54    1.6705    6.8592   0.27631   3.45610   0.49363   0.08057   9.92776   1.89763    1321.6  0.614843  0.016051  0.001362  0.000172  0.177412  6.972243  0.808191     93.37  1.000166  1.000016     3.413    24.737      92.7      59.5      12.5     164.1     11.92     -2.64     -0.10      2.33     -0.64      1.39      1.40      1.01      2.97     -0.61     -1.10     -0.47     -0.84     -1.50      0.34     -8.65      0.38      0.17     -0.75     -1.90
      28.615702     -65.295334     186.0      0.22      1.89     121.8         2         3      2450      4302    918.97   -10.367       3.2      24.6   419.980     0.721     307.6   0.16264      26.0         H               192.6  0.085220  0.043539  0.001415  4.236735  0.887226  4.775261  1.204205     24.33    1.3928    4.7757   0.25673   3.19444   0.52651   0.09804   7.09921   1.62257    1106.5  0.585702  0.005836  0.000301  0.000176  0.178802  6.963122  0.755828     93.73  1.000170  1.000017     3.227    23.484      75.2      56.0       9.1     138.8     11.94     -2.81     -0.70      2.82     -1.07      1.65      0.35      1.21      2.84     -0.92     -1.77     -0.30     -1.21     -1.21      0.18     -6.39      0.11      1.06     -1.11     -0.80
      28.541315     -65.186592     200.4      0.23      1.89     161.1         3         1      3900      1000   1238.92    -9.070       3.4      23.7   424.408     0.736     326.7   0.16838      31.7         H               192.6  0.087314  0.043041  0.001391  4.163054  0.907482  4.587475  1.217108     19.63    2.0075    8.8813   0.26326   3.76110   0.44510   0.05790  13.08633   2.23598    1507.9  0.598503  0.006332  0.000296  0.000176  0.178450  6.951504  0.772323     94.74  1.000166  1.000017     3.313    23.998      79.7      65.0      16.4     190.6     11.70     -2.85     -0.28      3.12     -1.28      1.93      1.00      0.96      3.28     -0.45     -1.77     -1.22     -0.59     -0.83      0.08     -5.83     -0.41      0.62     -1.33     -0.63
      28.552126     -65.247597     209.7      0.24      1.89     160.2         3         2      3900      2651   1193.09    -9.233       3.6      24.2   422.385     0.730     299.1   0.16594      36.2         H               192.6  0.086095  0.043474  0.001232  4.257015  0.900076  4.729619  1.212275     17.72    1.9196    8.1591   0.26109   3.69123   0.45404   0.06144  12.05774   2.14931    1446.3  0.593955  0.005033  0.000344  0.000176  0.176947  6.957836  0.764758     91.66  1.000183  1.000018     3.320    25.747      79.7      64.0      15.2     194.4     11.67     -3.05     -0.49      3.32     -0.72      2.23      0.70      0.82      3.04     -0.41     -1.78     -0.34     -0.81     -0.93     -0.11     -5.08      1.16      1.46     -1.70     -0.01
      28.562714     -65.307503     145.1      0.22      1.89     120.9         3         3      3900      4302    927.19   -10.328       3.2      24.6   425.232     0.743     430.3   0.17302      14.3         H               192.6  0.088967  0.044438  0.001627  4.344322  0.901358  4.819750  1.224663     16.69    1.4173    5.0640   0.26704   3.21507   0.52443   0.09717   7.42337   1.64709    1135.4  0.600005  0.007881  0.000346  0.000183  0.177837  6.943796  0.780099     92.99  1.000204  1.000021     3.380    25.480      84.8      56.1       9.5     143.4     12.05     -3.10      0.23      2.36     -0.69      1.74      1.09      0.65      3.18     -0.41     -1.40     -0.57     -0.85     -1.07      0.61     -7.54      1.50     -0.29     -1.13     -1.39
