corner points
-96.06800842    -0.7230951786
-96.1058197    -0.9038475156
-96.24791718    -0.6843747497
-96.28577423    -0.865092814
========== RESULTS WAVE VERSION 16.10.2018 ====================
IMAGE SIZE  X: 5601     Y:4928    col:row     POLARIZATION:VV
COVERAGE    X: 20.41823946km       Y: 20.48644844km 
RESOLUTION dX: 3.645463215m       dY:4.157152687m  
resolution of original product 3.645463215m x 4.157152687m;   raster step x:5996.786988m  
===============================================================
FLAGS: H=HIGH PROBABILITY SEA STATE, I=LAND(ISLAND), O=OUTLIER NO SEA STATE, N=NO WIND AVAILABLE, SEA STATE NOT VISIBLE, M=MEAN PROBABILITY SEA STATE, L= LOW PROBABILITY SEA STATE
Filtering wave length
 integration  Lmin=1m
 integration  Lmax=2200m
  peak        Lmin=100m
               FFT=1024pixels, 3732.954332m 
   mean-Hs (SWH_c)=0.5099380875m
         mean-wind=1.989094615m/s
--------------0--------------1---------2---------3---------4---------5---------6---------7---------8---------9--------10--------11--------12--------13--------14--------15--------16--------17--------18--------19------------------20--------21--------22--------23--------24--------25--------26--------27--------28--------29--------30--------31--------32--------33--------34--------35--------36--------37--------38--------39--------40--------41--------42--------43--------44--------45--------46--------47--------48--------49--------50--------51--------52--------53--------54--------55--------56--------57--------58--------59--------60--------61--------62--------63--------64--------65--------66--------67--------68--------69--------70--------71--------72--------73
            LAT            LON  P-LENGHT     SWH_o     SWH_c     P-DIR      LINE     POINT     ROW-Y     COL-X  M-INTENC        dB      WIND INC-ANGLE  ENERGY-M  ENERGY-N  ENERGY-R ENERGY-NN  FG-DEPTH      FLAG         HEADING-DEG    E30-75   E75-390  E390-600 meanincut   meanout   cut/out  STD-NORM  SPEC-MAX   GL-MEAN    GL-VAR      CORR   ENTROPY   HOMOGEN    ENERGY  CONTRAST  DISSIMIL     STD-O    E 1-30 E600-2000   E2000 >      GODA  LONG-HIG     Tmean  CONVOLUT  MEAN-DIR  relation     Sy/Sx  SKEWNESS  KURTOSIS  cutoff-A >50/10000     INT*V   INT-LOG  S-1_g1f1  S-2_g1f2  S-3_g1f3  S-4_g2f1  S-5_g2f2  S-6_g2f3  S-7_g3f1  S-8_g3f2  S-9_g3f3 S-10_g1f4 S-11_g2f4 S-12_g3f4 S-13_g1f5 S-14_g2f5 S-15_g3f5 S-16_g4f1 S-17_g4f2 S-18_g4f3 S-19_g4f4 S-20_g4f5
--------------1--------------2---------3---------4---------5---------6---------7---------8---------9--------10--------11--------12--------13--------14--------15--------16--------17--------18--------19--------20------------------21--------22--------23--------24--------25--------26--------27--------28--------29--------30--------31--------32--------33--------34--------35--------36--------37--------38--------39--------40--------41--------42--------43--------44--------45--------46--------47--------48--------49--------50--------51--------52--------53--------54--------55--------56--------57--------58--------59--------60--------61--------62--------63--------64--------65--------66--------67--------68--------69--------70--------71--------72--------73--------74
      -0.752688     -96.108635     212.5      0.47      1.41     176.7         1         1      1000      1000    511.03   -12.916       1.9      23.7   420.859     0.693     232.9   0.14715      37.6         H               192.0  0.070597  0.060227  0.002677  4.182256  1.033346  4.047296  1.182401     51.99    0.6192    1.3407   0.23625   2.11094   0.69856   0.25392   2.04794   0.80333     604.2  0.555213  0.004101  0.000139  0.000155  0.217206  7.340602  0.732362    123.51  0.999790  0.999987     2.915    17.945      51.7      36.2       2.7      60.1     13.14     -2.34     -1.59     -0.25     -1.37     -1.48     -1.55     -0.67      3.04     -1.97     -0.74     -1.54     -0.42      0.81     -2.25     -9.14      1.69     -3.15      2.29      2.87
      -0.741193     -96.162041     202.4      0.99      1.41     176.9         1         2      1000      2645    448.31   -13.484       1.9      24.1   420.408     0.688     176.7   0.14351      32.6         H               192.0  0.068882  0.059208  0.002247  4.165490  1.003613  4.150492  1.177640     64.23    0.5058    1.0031   0.22477   1.88383   0.73441   0.30431   1.55525   0.67837     528.0  0.554825  0.003049  0.000084  0.000159  0.216898  7.342460  0.726267    138.66  0.999785  0.999987     2.880    17.380      53.1      31.8       2.1      49.5     13.11     -1.73     -1.82      0.06     -2.08     -1.12     -2.00     -0.07      2.93     -1.63     -1.44     -1.16     -0.12      0.99     -2.40     -8.09     -0.43     -2.19      0.69      3.24
      -0.729906     -96.214478     327.1      0.43      1.41      52.1         1         3      1000      4290    476.70   -13.218       2.1      24.6   419.545     0.686     379.6   0.14382     100.0         H               192.0  0.068368  0.056817  0.002183  3.918683  0.982872  3.986971  1.176524     73.84    0.5700    1.1845   0.23088   2.01660   0.71296   0.27319   1.82208   0.75038     560.9  0.552419  0.006154  0.000375  0.000156  0.215446  7.292005  0.723964     92.64  0.999804  0.999986     2.864    17.087      52.4      34.4       2.4      54.4     13.06      0.45     -2.74     -0.30     -3.11     -0.74     -1.47     -1.03      3.35     -0.88     -2.13     -1.28     -0.55      1.01     -2.27     -8.70     -2.41     -1.52     -0.74      3.04
      -0.805624     -96.119713     223.6      0.66      1.41     176.6         2         1      2443      1000    500.07   -13.010       1.9      23.7   429.034     0.710     193.5   0.15294      44.4         H               192.0  0.073257  0.065381  0.002732  4.444736  1.074142  4.137939  1.194691     57.84    0.6037    1.3163   0.23777   2.07764   0.70522   0.26389   2.00664   0.78618     597.4  0.565602  0.003500  0.000084  0.000166  0.216705  7.371150  0.751963    129.79  0.999782  0.999985     2.894    16.952      54.5      35.3       2.7      56.1     12.95     -3.87     -1.98      0.35     -1.81     -0.78     -1.59     -0.26      3.28     -2.06     -0.91     -1.30     -1.29     -0.22     -1.98     -8.23      1.87     -2.67      1.90      2.49
      -0.794126     -96.173126     327.1      0.20      1.41      52.1         2         2      2443      2645    499.58   -13.014       2.0      24.1   415.409     0.677     231.1   0.14084     100.0         H               192.0  0.069320  0.052974  0.001950  3.626866  0.973623  3.725124  1.167696     67.98    0.5995    1.2594   0.22918   2.07684   0.70234   0.25815   1.94159   0.78409     583.3  0.548934  0.004235  0.000161  0.000148  0.211781  7.250967  0.714026    119.41  0.999753  0.999983     2.872    17.488      51.7      35.7       2.6      59.8     12.88      0.63     -3.80     -0.50     -2.96     -1.11     -1.73     -0.11      3.20     -0.02     -1.17     -1.52     -0.81      1.48     -2.24     -8.58     -3.75     -0.58      0.08      3.49
      -0.782836     -96.225563     311.9      0.29      1.41      48.8         2         3      2443      4290    494.30   -13.060       2.1      24.6   412.202     0.672     216.6   0.13856     100.0         H               192.0  0.068019  0.053726  0.001656  3.543514  0.988365  3.585228  1.162916     74.33    0.5873    1.2126   0.22629   2.05384   0.70622   0.26290   1.87637   0.76977     574.8  0.545326  0.003348  0.000148  0.000153  0.214722  7.269645  0.708556    106.35  0.999776  0.999984     2.804    16.435      53.1      35.3       2.5      52.5     13.07      1.09     -4.21     -0.65     -2.92     -0.77     -2.35      0.16      3.33     -0.40     -1.35     -1.07     -0.59      1.94     -2.27     -7.84     -4.22      0.02     -0.58      3.80
      -0.858561     -96.130791     311.9      0.86      1.41      48.8         3         1      3886      1000    448.35   -13.484       1.8      23.7   426.906     0.702     224.2   0.14827     100.0         H               192.0  0.073103  0.059214  0.002383  4.311029  1.030436  4.183693  1.188927     65.07    0.5136    1.0442   0.23015   1.89733   0.73325   0.30334   1.60776   0.68639     533.0  0.563932  0.004026  0.000156  0.000146  0.211496  7.279084  0.742550    124.21  0.999828  0.999988     2.938    18.001      51.7      31.9       2.1      52.6     13.05     -0.51     -2.39     -0.36     -2.42     -0.69     -1.40     -0.55      2.87     -0.76     -1.61     -1.01     -0.86      1.25     -1.94     -9.00     -1.37     -1.15     -0.71      3.33
      -0.847059     -96.184204     212.5      0.20      1.41     176.7         3         2      3886      2645    563.24   -12.493       2.1      24.1   415.893     0.679     358.1   0.14125      37.6         H               192.0  0.069272  0.050249  0.001712  3.326799  0.971629  3.423939  1.171022     67.04    0.7197    1.6397   0.23231   2.29580   0.66699   0.21556   2.51764   0.91772     659.5  0.551289  0.006184  0.000378  0.000157  0.214051  7.233636  0.715473    154.51  0.999828  0.999987     2.815    16.260      53.8      39.9       3.3      60.5     13.04      0.62     -4.41     -0.54     -2.43     -1.02     -2.56      0.16      4.28      0.67     -1.81     -1.37      1.50      0.41     -2.98     -7.97     -3.15     -1.62     -1.54      1.25
      -0.835766     -96.236649     202.4      0.49      1.41     176.9         3         3      3886      4290    477.48   -13.210       2.1      24.6   409.409     0.657     169.2   0.13091      32.6         H               192.0  0.065930  0.047052  0.001435  3.143096  0.944793  3.326756  1.148716     52.06    0.5535    1.0948   0.21451   1.99023   0.71483   0.27398   1.71986   0.73521     548.5  0.539732  0.002682  0.000120  0.000149  0.210004  7.210477  0.689843    144.42  0.999789  0.999984     2.735    15.585      51.0      34.3       2.3      50.0     12.50     -0.12     -4.72      0.38     -2.32     -0.98     -2.21      0.08      3.90     -0.65     -0.97     -1.14      0.81      1.07     -2.63     -6.72     -2.71     -0.63      0.44      2.42
