corner points
-96.77449036    4.051054478
-96.81067657    3.87582159
-96.95278931    4.08836031
-96.98893738    3.913166761
========== RESULTS WAVE VERSION 16.10.2018 ====================
IMAGE SIZE  X: 4460     Y:4785    col:row     POLARIZATION:VV
COVERAGE    X: 20.16157944km       Y: 19.84711177km 
RESOLUTION dX: 4.520533506m       dY:4.147776754m  
resolution of original product 4.520533506m x 4.147776754m;   raster step x:5998.747963m  
===============================================================
FLAGS: H=HIGH PROBABILITY SEA STATE, I=LAND(ISLAND), O=OUTLIER NO SEA STATE, N=NO WIND AVAILABLE, SEA STATE NOT VISIBLE, M=MEAN PROBABILITY SEA STATE, L= LOW PROBABILITY SEA STATE
Filtering wave length
 integration  Lmin=1m
 integration  Lmax=2200m
  peak        Lmin=100m
               FFT=1024pixels, 4629.02631m 
   mean-Hs (SWH_c)=0.2m
         mean-wind=7.087242126m/s
--------------0--------------1---------2---------3---------4---------5---------6---------7---------8---------9--------10--------11--------12--------13--------14--------15--------16--------17--------18--------19------------------20--------21--------22--------23--------24--------25--------26--------27--------28--------29--------30--------31--------32--------33--------34--------35--------36--------37--------38--------39--------40--------41--------42--------43--------44--------45--------46--------47--------48--------49--------50--------51--------52--------53--------54--------55--------56--------57--------58--------59--------60--------61--------62--------63--------64--------65--------66--------67--------68--------69--------70--------71--------72--------73
            LAT            LON  P-LENGHT     SWH_o     SWH_c     P-DIR      LINE     POINT     ROW-Y     COL-X  M-INTENC        dB      WIND INC-ANGLE  ENERGY-M  ENERGY-N  ENERGY-R ENERGY-NN  FG-DEPTH      FLAG         HEADING-DEG    E30-75   E75-390  E390-600 meanincut   meanout   cut/out  STD-NORM  SPEC-MAX   GL-MEAN    GL-VAR      CORR   ENTROPY   HOMOGEN    ENERGY  CONTRAST  DISSIMIL     STD-O    E 1-30 E600-2000   E2000 >      GODA  LONG-HIG     Tmean  CONVOLUT  MEAN-DIR  relation     Sy/Sx  SKEWNESS  KURTOSIS  cutoff-A >50/10000     INT*V   INT-LOG  S-1_g1f1  S-2_g1f2  S-3_g1f3  S-4_g2f1  S-5_g2f2  S-6_g2f3  S-7_g3f1  S-8_g3f2  S-9_g3f3 S-10_g1f4 S-11_g2f4 S-12_g3f4 S-13_g1f5 S-14_g2f5 S-15_g3f5 S-16_g4f1 S-17_g4f2 S-18_g4f3 S-19_g4f4 S-20_g4f5
--------------1--------------2---------3---------4---------5---------6---------7---------8---------9--------10--------11--------12--------13--------14--------15--------16--------17--------18--------19--------20------------------21--------22--------23--------24--------25--------26--------27--------28--------29--------30--------31--------32--------33--------34--------35--------36--------37--------38--------39--------40--------41--------42--------43--------44--------45--------46--------47--------48--------49--------50--------51--------52--------53--------54--------55--------56--------57--------58--------59--------60--------61--------62--------63--------64--------65--------66--------67--------68--------69--------70--------71--------72--------73--------74
       4.022892     -96.822487     267.8      0.43      1.86      67.8         1         1      1000      1000    221.69   -16.543       7.0      36.9   215.935     0.538      37.5   0.05854     100.0         H               192.0  0.041219  0.013124  0.000484  1.197677  0.637953  1.877375  1.040757     23.66    3.9527   21.2032   0.07899   4.97663   0.26393   0.01370  39.05680   4.30917     230.7  0.482645  0.000494  0.000037  0.000109  0.182612  6.804973  0.540359     66.96  1.000104  1.000005     2.246    11.174      84.8      82.8      43.1     211.9     13.58      5.86      2.53     -1.31     -2.24     -2.23     -1.73     -2.90     -1.36      5.12     -1.46     -2.89     -2.51      1.51      1.12     -8.84     -3.64     -3.65     -2.51      2.78
       4.034037     -96.875732     312.1      0.42      1.86      54.0         1         2      1000      2327    207.46   -16.831       6.9      37.3   216.060     0.537      38.0   0.05836     100.0         H               192.0  0.040831  0.012776  0.000456  1.146319  0.627505  1.826787  1.039841     23.13    3.6728   18.5134   0.07675   4.84665   0.27685   0.01554  34.18492   4.03298     215.7  0.482782  0.000473  0.000047  0.000104  0.180539  6.790169  0.539263     65.14  1.000110  1.000005     2.225    10.949      86.6      81.6      37.9     205.4     13.30      5.11      2.17     -1.10     -2.76     -2.31     -1.15     -2.07     -0.57      4.05     -1.77     -1.88     -2.15      1.60      1.12     -8.60     -4.54     -4.06     -3.04      2.61
       4.045084     -96.928528     290.3      0.43      1.86      61.4         1         3      1000      3654    204.76   -16.888       7.1      37.7   216.301     0.535      34.7   0.05660     100.0         H               192.0  0.039792  0.012897  0.000429  1.148406  0.625966  1.834615  1.037989     29.51    3.6175   17.9734   0.07293   4.82020   0.27928   0.01590  33.32525   3.98197     212.5  0.481879  0.000441  0.000032  0.000105  0.183628  6.824123  0.537234     62.32  1.000065  1.000005     2.234    11.144      86.6      81.3      36.9     205.6     13.47      5.86      2.57     -1.05     -2.93     -2.02     -1.54     -2.78     -1.23      5.19     -2.16     -2.91     -2.90      1.66      1.28     -7.98     -4.76     -3.36     -3.17      3.07
       3.969929     -96.833420     266.8      0.44      1.86      59.8         2         1      2446      1000    229.45   -16.393       7.2      36.9   216.286     0.541      50.8   0.06011     100.0         H               192.0  0.041536  0.012989  0.000506  1.182687  0.639263  1.850080  1.043384     20.72    4.1070   22.8490   0.08200   5.04445   0.25767   0.01286  41.95038   4.46296     239.4  0.485182  0.000681  0.000079  0.000106  0.182037  6.805573  0.543453     66.45  1.000108  1.000005     2.250    11.063      84.8      83.4      46.3     217.5     13.32      5.24      2.10     -0.97     -2.45     -1.95     -1.24     -2.59     -0.72      4.13     -1.28     -2.43     -2.64      1.60      1.18     -8.73     -3.95     -3.61     -1.89      2.98
       3.981078     -96.886665     275.1      0.42      1.86      63.0         2         2      2446      2327    206.34   -16.854       6.9      37.3   216.340     0.536      32.2   0.05783     100.0         H               192.0  0.039969  0.013274  0.000455  1.190539  0.622526  1.912433  1.039188     25.57    3.6500   18.2919   0.07444   4.83579   0.27816   0.01567  33.86024   4.01216     214.4  0.482500  0.000399  0.000024  0.000108  0.184504  6.818191  0.538350     62.48  1.000088  1.000005     2.228    10.985      88.6      81.5      37.5     200.5     13.53      6.43      2.01     -1.31     -3.57     -1.65     -1.50     -2.69     -1.24      4.73     -1.87     -2.48     -3.12      1.97      1.46     -8.50     -5.65     -2.26     -3.09      2.92
       3.992128     -96.939453     298.7      0.43      1.86      50.7         2         3      2446      3654    204.33   -16.897       7.1      37.7   215.488     0.534      41.7   0.05635     100.0         H               192.0  0.039630  0.012231  0.000468  1.112866  0.626425  1.776536  1.036606     17.51    3.6087   17.8456   0.07244   4.81611   0.27969   0.01594  33.10577   3.97138     211.8  0.481087  0.000524  0.000058  0.000105  0.181101  6.795631  0.535707     69.71  1.000110  1.000006     2.223    11.065      88.6      81.3      36.6     208.4     13.36      5.28      2.19     -1.23     -2.98     -2.22     -1.12     -2.27     -0.47      4.04     -1.62     -2.03     -2.51      1.36      1.61     -8.89     -4.82     -4.27     -2.82      1.97
       3.916966     -96.844360     307.1      0.43      1.86      59.6         3         1      3892      1000    223.71   -16.503       7.1      36.9   214.642     0.537      34.0   0.05931     100.0         H               192.0  0.041186  0.013476  0.000435  1.215847  0.638039  1.905600  1.039633     23.67    3.9933   21.5498   0.08142   4.99468   0.26230   0.01345  39.59062   4.34237     232.5  0.481365  0.000382  0.000033  0.000107  0.184634  6.812320  0.539371     64.53  1.000102  1.000004     2.225    10.854      84.8      83.0      43.9     211.2     13.40      5.81      2.20     -0.86     -2.71     -1.99     -1.65     -2.47     -0.78      5.14     -1.77     -2.48     -3.05      1.53      1.48     -7.75     -4.24     -3.61     -3.10      2.77
       3.928118     -96.897598     270.8      0.43      1.86      55.0         3         2      3892      2327    210.09   -16.776       7.0      37.3   216.087     0.537      33.7   0.05835     100.0         H               192.0  0.040812  0.012872  0.000428  1.154399  0.634211  1.820212  1.040004     21.95    3.7247   19.0021   0.07709   4.87148   0.27444   0.01516  35.07446   4.08313     218.5  0.483005  0.000405  0.000030  0.000108  0.184000  6.808604  0.539671     64.70  1.000098  1.000004     2.227    10.892      86.6      81.8      38.8     200.9     13.53      5.70      1.83     -1.17     -2.53     -1.44     -1.90     -2.98     -1.28      4.53     -1.19     -2.81     -3.15      2.12      1.42     -8.08     -3.94     -1.96     -1.71      3.55
       3.939173     -96.950386     329.8      0.45      1.86      51.6         3         3      3892      3654    214.51   -16.685       7.4      37.7   215.982     0.537      36.1   0.05820     100.0         H               192.0  0.040747  0.012202  0.000490  1.103858  0.636204  1.735070  1.039489     15.22    3.8120   19.8008   0.07693   4.91243   0.27019   0.01455  36.55481   4.17135     223.0  0.483223  0.000426  0.000049  0.000101  0.176453  6.775342  0.539007     74.67  1.000117  1.000006     2.240    11.140      84.8      82.2      40.4     212.3     13.04      4.19      1.48     -0.98     -2.38     -1.99     -0.57     -1.40     -0.02      3.17     -1.52     -1.61     -2.12      1.63      0.86     -8.93     -4.41     -4.24     -2.44      2.99
