corner points
-112.2518845    -53.24224854
-112.3498306    -53.41503525
-112.5557938    -53.17834091
-112.6550293    -53.35087967
========== RESULTS WAVE VERSION 16.10.2018 ====================
IMAGE SIZE  X: 5601     Y:4906    col:row     POLARIZATION:VV
COVERAGE    X: 21.40779312km       Y: 20.24116907km 
RESOLUTION dX: 3.822137675m       dY:4.125798832m  
resolution of original product 3.822137675m x 4.125798832m;   raster step x:5996.934012m  
===============================================================
FLAGS: H=HIGH PROBABILITY SEA STATE, I=LAND(ISLAND), O=OUTLIER NO SEA STATE, N=NO WIND AVAILABLE, SEA STATE NOT VISIBLE, M=MEAN PROBABILITY SEA STATE, L= LOW PROBABILITY SEA STATE
Filtering wave length
 integration  Lmin=1m
 integration  Lmax=2200m
  peak        Lmin=100m
               FFT=1024pixels, 3913.868979m 
   mean-Hs (SWH_c)=1.527344666m
         mean-wind=8.984568596m/s
--------------0--------------1---------2---------3---------4---------5---------6---------7---------8---------9--------10--------11--------12--------13--------14--------15--------16--------17--------18--------19------------------20--------21--------22--------23--------24--------25--------26--------27--------28--------29--------30--------31--------32--------33--------34--------35--------36--------37--------38--------39--------40--------41--------42--------43--------44--------45--------46--------47--------48--------49--------50--------51--------52--------53--------54--------55--------56--------57--------58--------59--------60--------61--------62--------63--------64--------65--------66--------67--------68--------69--------70--------71--------72--------73
            LAT            LON  P-LENGHT     SWH_o     SWH_c     P-DIR      LINE     POINT     ROW-Y     COL-X  M-INTENC        dB      WIND INC-ANGLE  ENERGY-M  ENERGY-N  ENERGY-R ENERGY-NN  FG-DEPTH      FLAG         HEADING-DEG    E30-75   E75-390  E390-600 meanincut   meanout   cut/out  STD-NORM  SPEC-MAX   GL-MEAN    GL-VAR      CORR   ENTROPY   HOMOGEN    ENERGY  CONTRAST  DISSIMIL     STD-O    E 1-30 E600-2000   E2000 >      GODA  LONG-HIG     Tmean  CONVOLUT  MEAN-DIR  relation     Sy/Sx  SKEWNESS  KURTOSIS  cutoff-A >50/10000     INT*V   INT-LOG  S-1_g1f1  S-2_g1f2  S-3_g1f3  S-4_g2f1  S-5_g2f2  S-6_g2f3  S-7_g3f1  S-8_g3f2  S-9_g3f3 S-10_g1f4 S-11_g2f4 S-12_g3f4 S-13_g1f5 S-14_g2f5 S-15_g3f5 S-16_g4f1 S-17_g4f2 S-18_g4f3 S-19_g4f4 S-20_g4f5
--------------1--------------2---------3---------4---------5---------6---------7---------8---------9--------10--------11--------12--------13--------14--------15--------16--------17--------18--------19--------20------------------21--------22--------23--------24--------25--------26--------27--------28--------29--------30--------31--------32--------33--------34--------35--------36--------37--------38--------39--------40--------41--------42--------43--------44--------45--------46--------47--------48--------49--------50--------51--------52--------53--------54--------55--------56--------57--------58--------59--------60--------61--------62--------63--------64--------65--------66--------67--------68--------69--------70--------71--------72--------73--------74
     -53.265793    -112.327728     206.3      1.51      4.01     122.5         1         1      1000      1000   3899.49    -4.090       9.5      22.5   247.372     0.792     147.8   0.19859      34.5         H               196.2  0.094019  0.060504  0.002045  5.450122  1.025767  5.313215  1.261567     59.72    7.2434   86.0500   0.28286   6.00028   0.20201   0.00657 123.42067   7.18268    4919.0  0.633803  0.002007  0.000089  0.000191  0.203614  7.159777  0.829953    105.88  1.000258  1.000031     3.631    29.187     107.8      89.1     176.1     688.8     13.48     -3.57      4.16      2.42     -2.27      4.27     -0.93      2.74      0.44     -2.02     -2.01      0.80     -2.67      1.24      3.52     -6.13     -2.45      3.24     -1.53      2.37
     -53.247692    -112.414017     222.0      1.50      4.01     121.7         1         2      1000      2569   3289.87    -4.828       8.7      22.9   254.388     0.836     117.9   0.22056      43.3         H               196.2  0.101672  0.066941  0.002195  5.900070  1.082317  5.451333  1.296051     80.10    6.0501   65.6918   0.29525   5.65962   0.23259   0.00944  92.59090   6.08107    4263.5  0.664248  0.001621  0.000025  0.000187  0.206407  7.181724  0.878227    105.80  1.000257  1.000035     4.078    44.848     105.0      86.3     128.5     676.8     13.54     -3.83      3.71      1.90     -2.09      4.15     -0.96      2.78      0.44     -3.37     -1.59      1.14     -2.84      1.22      3.37     -6.14     -2.16      4.12     -0.44      2.23
     -53.229881    -112.498589     206.3      1.41      4.01     122.5         1         3      1000      4138   3166.29    -4.994       9.3      23.4   249.735     0.809     246.8   0.20755      34.5         H               196.2  0.096509  0.061384  0.002748  5.469241  1.060195  5.158712  1.275255     73.68    5.8150   60.1361   0.28982   5.59381   0.23707   0.00997  85.41549   5.85863    4037.4  0.645170  0.003480  0.000237  0.000178  0.204668  7.154284  0.848921    106.50  1.000267  1.000032     3.790    32.556     105.0      85.8     116.1     595.1     13.70     -2.67      3.26      0.97     -2.14      4.01     -0.32      2.78      0.34     -2.14     -1.18      1.21     -2.46      1.18      2.89     -8.91     -3.00      3.67     -0.75      2.25
     -53.317001    -112.356804     202.2      1.56      4.01     118.6         2         1      2454      1000   3743.67    -4.267       9.0      22.5   252.031     0.821     151.1   0.21191      32.5         H               196.2  0.099212  0.065543  0.002121  5.640564  1.051240  5.365631  1.284020     93.39    6.9286   81.8122   0.29187   5.91052   0.20987   0.00727 115.86866   6.89347    4806.6  0.652559  0.001910  0.000098  0.000203  0.206658  7.179148  0.861988    110.39  1.000264  1.000034     3.767    30.530     110.8      88.3     165.8     674.7     13.52     -3.83      4.71      2.64     -2.32      4.61     -0.87      3.14      0.31     -3.15     -2.36      1.97     -2.12      1.10      3.21     -5.87     -1.97      3.13     -1.41      1.98
     -53.298882    -112.443199     209.6      1.38      4.01     126.5         2         2      2454      2569   3215.44    -4.928       8.4      22.9   257.862     0.853     112.2   0.22729      36.1         H               196.2  0.107025  0.066664  0.002559  6.362825  1.103685  5.765076  1.308812     51.62    5.9069   63.7134   0.29832   5.61209   0.23737   0.01001  89.41313   5.95434    4208.4  0.676213  0.001450  0.000023  0.000190  0.200514  7.125243  0.896942     97.61  1.000275  1.000039     4.154    40.515     107.8      85.7     124.5     657.3     13.44     -2.69      4.00      1.81     -1.79      4.04     -0.07      1.55      0.89     -1.72     -1.77      0.29     -1.96      1.44      2.96     -7.22     -1.76      3.37     -1.96      2.67
     -53.281052    -112.527878     222.0      1.47      4.01     121.7         2         3      2454      4138   3214.88    -4.928       9.5      23.4   246.985     0.793     142.3   0.19927      43.3         H               196.2  0.093803  0.061212  0.002346  5.411013  1.046161  5.172258  1.261116     66.51    5.9195   61.2633   0.28343   5.63092   0.23328   0.00954  87.79904   5.96592    4054.3  0.634658  0.001923  0.000075  0.000182  0.205883  7.192104  0.831880    108.49  1.000258  1.000030     3.594    27.727     105.0      86.2     118.3     603.5     13.56     -3.74      3.90      1.77     -2.12      3.89     -0.77      3.02      0.34     -2.78     -1.58      1.22     -2.47      1.08      2.93     -7.20     -2.47      2.80     -0.68      2.35
     -53.368206    -112.385941     211.7      1.84      4.01     120.1         3         1      3908      1000   3692.12    -4.327       8.8      22.5   260.475     0.860     140.6   0.22855      37.2         H               196.2  0.106136  0.075923  0.002309  6.303741  1.106818  5.695373  1.315169     89.01    6.8155   81.9016   0.30108   5.86845   0.21607   0.00781 114.48663   6.78754    4854.9  0.675062  0.001727  0.000061  0.000201  0.210058  7.243764  0.906086    110.18  1.000270  1.000038     4.016    35.144     110.8      87.7     166.2     711.0     13.44     -4.48      5.37      3.12     -2.50      4.92     -0.66      2.26      0.33     -3.85     -2.95      0.97     -1.57      1.21      2.81     -5.03     -1.46      3.41     -1.62      1.84
     -53.350067    -112.472443     180.6      1.58      4.01     112.6         3         2      3908      2569   3187.93    -4.965       8.3      22.9   257.341     0.849     170.6   0.22511      24.1         H               196.2  0.104944  0.071482  0.002918  5.828775  1.112471  5.239488  1.306859     93.87    5.8705   63.4412   0.30046   5.59765   0.23993   0.01030  88.75742   5.91941    4166.0  0.668073  0.002585  0.000057  0.000209  0.212756  7.233488  0.893897    110.99  1.000262  1.000033     3.968    35.779     114.0      85.5     122.6     639.0     13.82     -4.17      5.21      2.32     -2.58      4.77     -0.74      2.65     -0.15     -3.93     -2.77      1.66     -1.68      1.07      2.93     -7.34     -2.02      3.35     -1.48      1.45
     -53.332211    -112.557228     197.5      1.50      4.01     120.9         3         3      3908      4138   3170.78    -4.988       9.3      23.4   248.880     0.798     139.1   0.20096      30.5         H               196.2  0.093532  0.062605  0.002406  5.632144  1.045893  5.385009  1.267373     74.69    5.8280   59.6987   0.28443   5.60216   0.23593   0.00977  85.43687   5.87471    4018.2  0.638617  0.001823  0.000069  0.000183  0.205418  7.192363  0.836818    110.72  1.000267  1.000032     3.744    31.297     107.8      86.0     115.2     574.6     13.55     -3.68      4.14      2.02     -2.38      4.44     -0.60      2.55     -0.24     -2.82     -1.92      0.86     -1.59      0.64      3.16     -7.15     -2.23      4.48     -0.69      0.69
