corner points
-115.4095078    -53.50243759
-115.5185394    -53.66764832
-115.7008286    -53.43298721
-115.8108826    -53.59793854
========== RESULTS WAVE VERSION 16.10.2018 ====================
IMAGE SIZE  X: 4460     Y:4765    col:row     POLARIZATION:VV
COVERAGE    X: 20.72723063km       Y: 19.68709332km 
RESOLUTION dX: 4.647361127m       dY:4.131604055m  
resolution of original product 4.647361127m x 4.131604055m;   raster step x:5999.743215m  
===============================================================
FLAGS: H=HIGH PROBABILITY SEA STATE, I=LAND(ISLAND), O=OUTLIER NO SEA STATE, N=NO WIND AVAILABLE, SEA STATE NOT VISIBLE, M=MEAN PROBABILITY SEA STATE, L= LOW PROBABILITY SEA STATE
Filtering wave length
 integration  Lmin=1m
 integration  Lmax=2200m
  peak        Lmin=100m
               FFT=1024pixels, 4758.897794m 
   mean-Hs (SWH_c)=1.613912964m
         mean-wind=13.78230381m/s
--------------0--------------1---------2---------3---------4---------5---------6---------7---------8---------9--------10--------11--------12--------13--------14--------15--------16--------17--------18--------19------------------20--------21--------22--------23--------24--------25--------26--------27--------28--------29--------30--------31--------32--------33--------34--------35--------36--------37--------38--------39--------40--------41--------42--------43--------44--------45--------46--------47--------48--------49--------50--------51--------52--------53--------54--------55--------56--------57--------58--------59--------60--------61--------62--------63--------64--------65--------66--------67--------68--------69--------70--------71--------72--------73
            LAT            LON  P-LENGHT     SWH_o     SWH_c     P-DIR      LINE     POINT     ROW-Y     COL-X  M-INTENC        dB      WIND INC-ANGLE  ENERGY-M  ENERGY-N  ENERGY-R ENERGY-NN  FG-DEPTH      FLAG         HEADING-DEG    E30-75   E75-390  E390-600 meanincut   meanout   cut/out  STD-NORM  SPEC-MAX   GL-MEAN    GL-VAR      CORR   ENTROPY   HOMOGEN    ENERGY  CONTRAST  DISSIMIL     STD-O    E 1-30 E600-2000   E2000 >      GODA  LONG-HIG     Tmean  CONVOLUT  MEAN-DIR  relation     Sy/Sx  SKEWNESS  KURTOSIS  cutoff-A >50/10000     INT*V   INT-LOG  S-1_g1f1  S-2_g1f2  S-3_g1f3  S-4_g2f1  S-5_g2f2  S-6_g2f3  S-7_g3f1  S-8_g3f2  S-9_g3f3 S-10_g1f4 S-11_g2f4 S-12_g3f4 S-13_g1f5 S-14_g2f5 S-15_g3f5 S-16_g4f1 S-17_g4f2 S-18_g4f3 S-19_g4f4 S-20_g4f5
--------------1--------------2---------3---------4---------5---------6---------7---------8---------9--------10--------11--------12--------13--------14--------15--------16--------17--------18--------19--------20------------------21--------22--------23--------24--------25--------26--------27--------28--------29--------30--------31--------32--------33--------34--------35--------36--------37--------38--------39--------40--------41--------42--------43--------44--------45--------46--------47--------48--------49--------50--------51--------52--------53--------54--------55--------56--------57--------58--------59--------60--------61--------62--------63--------64--------65--------66--------67--------68--------69--------70--------71--------72--------73--------74
     -53.521408    -115.498589     203.7      1.49      4.25     109.7         1         1      1000      1000    599.99   -12.219      13.1      35.7   296.655     0.597     105.6   0.09297      33.2         H               196.4  0.054919  0.023705  0.001326  2.322816  0.770995  3.012752  1.096473     18.89   11.3494  149.6898   0.13500   6.88763   0.12275   0.00205 258.96371  11.31617     657.9  0.515500  0.001871  0.000153  0.000116  0.188516  6.961618  0.602160     93.53  1.000228  1.000019     2.720    17.683     114.0      95.7     361.0     815.4     13.22     -0.35      3.98      0.65     -1.95      2.45      1.43      1.35     -0.22     -0.98     -1.26      0.68     -0.80      1.31      1.72    -11.45     -4.01      0.41     -1.18      1.45
     -53.501232    -115.583374     192.7      1.52      4.25     111.4         1         2      1000      2291    587.67   -12.309      13.3      36.1   295.943     0.594     127.7   0.09164      28.5         H               196.4  0.053740  0.023742  0.001468  2.284810  0.761858  2.998997  1.093533     18.44   11.1176  144.7485   0.13442   6.85156   0.12501   0.00214 250.58531  11.10525     642.7  0.513072  0.002112  0.000208  0.000115  0.191495  6.980901  0.598956     93.38  1.000206  1.000018     2.602    14.771     117.4      95.5     344.8     716.4     13.47      0.65      3.35     -0.26     -2.27      2.98      1.88      1.53     -0.27     -0.20     -1.47      0.71     -1.29      1.89      1.64    -13.36     -5.78      1.83     -2.45      2.90
     -53.481174    -115.667313     200.2      1.72      4.25     112.2         1         3      1000      3582    659.11   -11.810      14.5      36.5   295.881     0.593     112.6   0.09147      31.6         H               196.4  0.054168  0.023082  0.001257  2.262233  0.776545  2.913204  1.092233     20.66   12.4529  173.2591   0.13339   7.04750   0.11384   0.00171 300.29648  12.30108     719.9  0.512142  0.002105  0.000160  0.000116  0.187577  6.951275  0.597418     97.42  1.000194  1.000018     2.630    15.702     114.0      96.5     437.6     833.2     13.05     -0.26      4.02      1.10     -2.32      2.66      1.52      1.75      0.08     -0.83     -1.79      1.13     -0.35      1.06      2.03    -10.99     -5.27     -0.08     -3.19      0.29
     -53.571751    -115.531860     176.4      1.56      4.25     112.0         2         1      2452      1000    596.83   -12.241      13.0      35.7   298.535     0.603     193.4   0.09487      22.7         H               196.4  0.054785  0.024884  0.001476  2.418527  0.762626  3.171314  1.102628     17.77   11.2817  149.6495   0.13954   6.87413   0.12382   0.00210 257.53366  11.25691     658.0  0.518832  0.003287  0.000376  0.000117  0.192597  6.986091  0.609241     94.62  1.000235  1.000020     2.671    15.757     124.8      95.6     359.6     744.1     13.38      0.40      4.16      0.53     -1.88      2.78      1.59      1.21     -0.08     -0.24     -1.12      0.21     -1.10      1.55      1.91    -12.17     -4.58      0.59     -1.51      2.04
     -53.551548    -115.616730     195.8      1.62      4.25     108.9         2         2      2452      2291    635.83   -11.967      13.9      36.1   295.456     0.593     205.0   0.09211      29.7         H               196.4  0.053459  0.023091  0.001437  2.257456  0.756155  2.985441  1.093639     16.80   12.0226  164.8015   0.13754   6.98607   0.11726   0.00185 284.26932  11.91450     695.3  0.511956  0.003384  0.000427  0.000115  0.188433  6.958159  0.598587     94.31  1.000196  1.000017     2.577    14.518     117.4      96.1     407.0     763.4     13.14      0.06      3.67      0.30     -1.97      2.33      1.87      1.74      0.05     -0.69     -0.88      0.27     -0.49      0.82      2.17    -12.44     -5.22      0.37     -0.91      0.20
     -53.531467    -115.700752     200.2      1.60      4.25     112.2         2         3      2452      3582    613.58   -12.121      13.9      36.5   294.684     0.589     159.1   0.08983      31.6         H               196.4  0.052135  0.022912  0.001315  2.217197  0.739580  2.997912  1.088768     23.91   11.6126  154.6141   0.13319   6.92961   0.12008   0.00196 268.04263  11.55457     668.0  0.509360  0.002973  0.000265  0.000114  0.192832  6.984826  0.593352     97.65  1.000195  1.000018     2.585    15.004     114.0      95.9     375.7     764.3     13.49      0.36      3.64      0.13     -2.29      2.60      1.03      1.99     -0.76     -0.45     -1.25      0.79     -1.34      1.67      1.59    -12.26     -5.65      1.59     -1.44      2.54
     -53.622078    -115.565201     195.8      1.90      4.25     108.9         3         1      3904      1000    740.26   -11.306      14.8      35.7   296.356     0.597     304.6   0.09505      29.7         H               196.4  0.054392  0.023789  0.001349  2.339530  0.762814  3.066975  1.097706     19.04   13.9118  207.1064   0.13994   7.22405   0.10405   0.00138 356.24933  13.55114     812.5  0.513001  0.004133  0.000790  0.000118  0.187807  6.965971  0.602703     94.12  1.000201  1.000019     2.608    14.876     121.0      97.4     561.2     881.2     12.94     -0.02      3.84      1.08     -2.11      3.31      2.06      1.37      0.07     -0.82     -1.12      0.15     -0.23      1.82      1.83    -11.10     -5.18      2.05     -0.62      1.85
     -53.601856    -115.650162     203.7      1.58      4.25     109.7         3         2      3904      2291    605.82   -12.177      13.5      36.1   296.185     0.597     111.5   0.09286      33.2         H               196.4  0.055081  0.024131  0.001225  2.375082  0.762955  3.113006  1.096613     20.42   11.4559  151.9740   0.13528   6.90380   0.12152   0.00202 262.82910  11.41471     664.4  0.515199  0.001702  0.000191  0.000119  0.188072  6.956228  0.602431     92.78  1.000220  1.000018     2.676    16.205     117.4      95.7     369.0     778.3     13.24      0.37      4.04      0.96     -1.73      3.15      1.25      1.45     -0.38     -0.57     -0.82      0.70     -0.25      1.61      1.45    -10.61     -4.37      1.70     -0.80      2.00
     -53.581753    -115.734283     195.8      1.55      4.25     108.9         3         3      3904      3582    617.22   -12.096      14.0      36.5   295.592     0.592     215.6   0.09125      29.7         H               196.4  0.053895  0.022439  0.001309  2.169744  0.764394  2.838514  1.092812     17.02   11.6736  156.3693   0.13579   6.93681   0.11968   0.00194 270.27081  11.59921     674.5  0.511301  0.003312  0.000489  0.000111  0.187147  6.937454  0.597524     91.64  1.000209  1.000019     2.635    15.990     114.0      95.9     381.5     784.8     13.04      0.82      3.69      0.51     -1.65      2.33      1.81      1.59      0.33      0.69     -1.66      1.39      0.02      1.34      1.78    -11.64     -4.97     -0.14     -4.48      0.90
