corner points
-94.95001984    4.595016956
-94.98751068    4.414169312
-95.13034821    4.63297987
-95.16780853    4.452159405
========== RESULTS WAVE VERSION 16.10.2018 ====================
IMAGE SIZE  X: 5601     Y:4930    col:row     POLARIZATION:VV
COVERAGE    X: 20.38294671km       Y: 20.48653149km 
RESOLUTION dX: 3.639162062m       dY:4.155483061m  
resolution of original product 3.639162062m x 4.155483061m;   raster step x:5997.339078m  
===============================================================
FLAGS: H=HIGH PROBABILITY SEA STATE, I=LAND(ISLAND), O=OUTLIER NO SEA STATE, N=NO WIND AVAILABLE, SEA STATE NOT VISIBLE, M=MEAN PROBABILITY SEA STATE, L= LOW PROBABILITY SEA STATE
Filtering wave length
 integration  Lmin=1m
 integration  Lmax=2200m
  peak        Lmin=100m
               FFT=1024pixels, 3726.501951m 
   mean-Hs (SWH_c)=0.2m
         mean-wind=5.408847809m/s
--------------0--------------1---------2---------3---------4---------5---------6---------7---------8---------9--------10--------11--------12--------13--------14--------15--------16--------17--------18--------19------------------20--------21--------22--------23--------24--------25--------26--------27--------28--------29--------30--------31--------32--------33--------34--------35--------36--------37--------38--------39--------40--------41--------42--------43--------44--------45--------46--------47--------48--------49--------50--------51--------52--------53--------54--------55--------56--------57--------58--------59--------60--------61--------62--------63--------64--------65--------66--------67--------68--------69--------70--------71--------72--------73
            LAT            LON  P-LENGHT     SWH_o     SWH_c     P-DIR      LINE     POINT     ROW-Y     COL-X  M-INTENC        dB      WIND INC-ANGLE  ENERGY-M  ENERGY-N  ENERGY-R ENERGY-NN  FG-DEPTH      FLAG         HEADING-DEG    E30-75   E75-390  E390-600 meanincut   meanout   cut/out  STD-NORM  SPEC-MAX   GL-MEAN    GL-VAR      CORR   ENTROPY   HOMOGEN    ENERGY  CONTRAST  DISSIMIL     STD-O    E 1-30 E600-2000   E2000 >      GODA  LONG-HIG     Tmean  CONVOLUT  MEAN-DIR  relation     Sy/Sx  SKEWNESS  KURTOSIS  cutoff-A >50/10000     INT*V   INT-LOG  S-1_g1f1  S-2_g1f2  S-3_g1f3  S-4_g2f1  S-5_g2f2  S-6_g2f3  S-7_g3f1  S-8_g3f2  S-9_g3f3 S-10_g1f4 S-11_g2f4 S-12_g3f4 S-13_g1f5 S-14_g2f5 S-15_g3f5 S-16_g4f1 S-17_g4f2 S-18_g4f3 S-19_g4f4 S-20_g4f5
--------------1--------------2---------3---------4---------5---------6---------7---------8---------9--------10--------11--------12--------13--------14--------15--------16--------17--------18--------19--------20------------------21--------22--------23--------24--------25--------26--------27--------28--------29--------30--------31--------32--------33--------34--------35--------36--------37--------38--------39--------40--------41--------42--------43--------44--------45--------46--------47--------48--------49--------50--------51--------52--------53--------54--------55--------56--------57--------58--------59--------60--------61--------62--------63--------64--------65--------66--------67--------68--------69--------70--------71--------72--------73--------74
       4.565284     -94.990654     298.1      0.36      1.81      73.7         1         1      1000      1000   2083.17    -6.813       5.8      23.7   403.104     0.651     101.1   0.13491     100.0         H               192.0  0.069298  0.029512  0.000934  2.366816  0.851817  2.778548  1.143196     44.43    3.6804   22.4550   0.23037   4.81436   0.30370   0.01901  34.56419   3.84545    2381.3  0.550441  0.001284  0.000073  0.000167  0.192503  6.890779  0.679277     84.43  1.000175  1.000013     2.838    17.369      66.4      79.8      42.4     278.5     14.53      6.14      3.12     -2.03     -3.30     -1.71     -3.09     -2.34     -1.12      4.59     -1.74     -2.48     -0.87      1.06     -0.07     -8.85     -5.73     -2.67     -2.77      1.91
       4.576577     -95.044273     284.5      0.33      1.81      66.4         1         2      1000      2648   1697.97    -7.701       5.2      24.2   404.089     0.652      79.2   0.13542     100.0         H               192.0  0.070507  0.030860  0.000827  2.340633  0.846909  2.763735  1.143987     66.40    2.9304   15.0433   0.23104   4.41716   0.34937   0.02810  23.13541   3.13071    1942.5  0.549608  0.000885  0.000038  0.000177  0.195968  6.903602  0.680479     81.94  1.000144  1.000012     2.855    17.508      66.4      75.2      28.7     221.4     14.71      6.97      2.88     -2.28     -4.27     -1.75     -3.36     -2.67     -1.09      4.80     -1.38     -2.89     -1.20      1.09     -0.25     -8.79     -6.61     -2.52     -1.74      2.12
       4.587661     -95.096924     284.5      0.35      1.81      66.4         1         3      1000      4296   1610.92    -7.929       5.5      24.6   401.265     0.645     105.2   0.13245     100.0         H               192.0  0.069249  0.027377  0.001111  2.382555  0.851176  2.799133  1.139172     33.87    2.7379   13.2241   0.22775   4.30290   0.36278   0.03117  20.42439   2.94331    1835.1  0.545725  0.001508  0.000069  0.000165  0.183243  6.847425  0.672005     92.32  1.000136  1.000011     2.851    17.544      64.2      74.0      25.4     207.0     13.90      4.84      0.76     -1.91     -3.05     -1.48     -1.82     -0.94      0.69      3.29     -0.73     -2.02     -1.12      1.29     -0.38    -10.34     -5.94     -2.90     -1.14      2.80
       4.512341     -95.001625     295.9      0.36      1.81      60.9         2         1      2443      1000   2054.66    -6.873       5.7      23.7   402.322     0.647      84.5   0.13309     100.0         H               192.0  0.068677  0.029360  0.001060  2.220204  0.839909  2.643388  1.141330     60.31    3.6338   21.8180   0.22843   4.79281   0.30594   0.01937  33.66801   3.79990    2345.0  0.547527  0.001074  0.000034  0.000172  0.195139  6.887296  0.675030     78.11  1.000142  1.000011     2.823    17.066      67.5      79.6      41.4     263.8     14.74      7.46      2.12     -2.73     -4.26     -1.91     -3.10     -2.56     -0.21      4.82     -2.02     -2.34     -2.09      1.63      0.07    -10.11     -7.59     -3.38     -3.32      3.06
       4.523636     -95.055244     329.9      0.34      1.81      62.3         2         2      2443      2648   1756.07    -7.555       5.4      24.2   402.776     0.649     112.9   0.13423     100.0         H               192.0  0.069326  0.030874  0.001201  2.297622  0.817816  2.809460  1.142198     66.33    3.0410   15.9665   0.23075   4.48151   0.34190   0.02635  24.56456   3.23066    2005.7  0.546718  0.001522  0.000076  0.000173  0.199133  6.916577  0.677828     75.65  1.000141  1.000011     2.903    18.953      67.5      76.0      30.4     241.5     14.75      7.32      2.00     -3.04     -4.78     -2.16     -2.60     -2.12      0.34      4.82     -2.39     -2.14     -2.34      1.92      0.27    -11.05     -8.36     -3.91     -3.86      3.51
       4.534722     -95.107887     317.7      0.32      1.81      58.5         2         3      2443      4296   1508.61    -8.214       5.1      24.6   396.928     0.634      96.3   0.12853     100.0         H               192.0  0.066983  0.028483  0.001129  2.240636  0.827238  2.708575  1.128845     40.74    2.5439   11.4670   0.22442   4.18082   0.37765   0.03483  17.78725   2.75168    1702.9  0.537000  0.001196  0.000076  0.000165  0.191804  6.881956  0.661298     89.58  1.000116  1.000009     2.788    16.867      63.2      72.5      22.3     183.1     14.28      5.19      0.34     -2.47     -3.61     -1.52     -2.38     -1.22      1.26      2.97     -1.43     -1.52     -1.29      1.53     -0.72    -10.51     -6.63     -3.45     -2.52      3.44
       4.459398     -95.012604     305.7      0.34      1.81      64.5         3         1      3886      1000   1957.82    -7.082       5.4      23.7   398.006     0.639      64.6   0.13052     100.0         H               192.0  0.069071  0.028284  0.000917  2.189084  0.841736  2.600678  1.133472     49.89    3.4332   19.4810   0.22714   4.69471   0.31619   0.02120  30.11233   3.60440    2219.0  0.539995  0.000729  0.000026  0.000166  0.193208  6.866874  0.666089     82.80  1.000131  1.000010     2.761    16.112      63.2      78.6      37.1     236.3     14.10      6.08      1.50     -1.42     -3.47     -1.38     -2.91     -2.06      0.18      4.48     -1.76     -2.23     -1.27      1.55     -0.27     -8.39     -6.36     -2.65     -3.03      2.63
       4.470695     -95.066216     317.7      0.33      1.81      58.5         3         2      3886      2648   1732.69    -7.613       5.3      24.2   399.666     0.639      91.6   0.12953     100.0         H               192.0  0.067816  0.028943  0.001222  2.249068  0.839895  2.677795  1.133939     58.31    2.9736   15.1402   0.22594   4.44537   0.34515   0.02705  23.43899   3.16854    1964.7  0.540530  0.001149  0.000058  0.000169  0.193550  6.893555  0.666650     84.92  1.000158  1.000012     2.802    16.977      65.3      75.7      29.0     213.4     14.60      6.20      2.19     -2.88     -4.44     -2.63     -2.38     -1.24      0.41      5.16     -2.51     -2.29     -0.89      0.91     -0.60    -11.17     -8.45     -5.04     -4.13      2.37
       4.481784     -95.118858     295.9      0.33      1.81      60.9         3         3      3886      4296   1530.43    -8.152       5.2      24.6   400.671     0.643     120.6   0.13176     100.0         H               192.0  0.068241  0.028743  0.001055  2.258322  0.837084  2.697843  1.137476     57.34    2.5836   11.9389   0.22754   4.20485   0.37528   0.03431  18.44481   2.79398    1740.8  0.543766  0.001589  0.000106  0.000169  0.192969  6.882003  0.670631     81.05  1.000149  1.000012     2.827    17.248      65.3      72.7      23.0     195.4     14.69      6.51      2.62     -2.81     -4.57     -2.53     -2.77     -1.80     -0.07      4.84     -2.64     -1.97     -1.48      1.70     -0.28    -10.55     -8.04     -4.77     -4.54      3.17
