corner points
-100.457016    -20.18158531
-100.5003586    -20.36141014
-100.6504211    -20.13860703
-100.6940689    -20.31836319
========== RESULTS WAVE VERSION 16.10.2018 ====================
IMAGE SIZE  X: 5601     Y:4924    col:row     POLARIZATION:VV
COVERAGE    X: 20.70461204km       Y: 20.45442245km 
RESOLUTION dX: 3.696592045m       dY:4.15402568m  
resolution of original product 3.696592045m x 4.15402568m;   raster step x:5999.568889m  
===============================================================
FLAGS: H=HIGH PROBABILITY SEA STATE, I=LAND(ISLAND), O=OUTLIER NO SEA STATE, N=NO WIND AVAILABLE, SEA STATE NOT VISIBLE, M=MEAN PROBABILITY SEA STATE, L= LOW PROBABILITY SEA STATE
Filtering wave length
 integration  Lmin=1m
 integration  Lmax=2200m
  peak        Lmin=100m
               FFT=1024pixels, 3785.310254m 
   mean-Hs (SWH_c)=0.2m
         mean-wind=6.272222519m/s
--------------0--------------1---------2---------3---------4---------5---------6---------7---------8---------9--------10--------11--------12--------13--------14--------15--------16--------17--------18--------19------------------20--------21--------22--------23--------24--------25--------26--------27--------28--------29--------30--------31--------32--------33--------34--------35--------36--------37--------38--------39--------40--------41--------42--------43--------44--------45--------46--------47--------48--------49--------50--------51--------52--------53--------54--------55--------56--------57--------58--------59--------60--------61--------62--------63--------64--------65--------66--------67--------68--------69--------70--------71--------72--------73
            LAT            LON  P-LENGHT     SWH_o     SWH_c     P-DIR      LINE     POINT     ROW-Y     COL-X  M-INTENC        dB      WIND INC-ANGLE  ENERGY-M  ENERGY-N  ENERGY-R ENERGY-NN  FG-DEPTH      FLAG         HEADING-DEG    E30-75   E75-390  E390-600 meanincut   meanout   cut/out  STD-NORM  SPEC-MAX   GL-MEAN    GL-VAR      CORR   ENTROPY   HOMOGEN    ENERGY  CONTRAST  DISSIMIL     STD-O    E 1-30 E600-2000   E2000 >      GODA  LONG-HIG     Tmean  CONVOLUT  MEAN-DIR  relation     Sy/Sx  SKEWNESS  KURTOSIS  cutoff-A >50/10000     INT*V   INT-LOG  S-1_g1f1  S-2_g1f2  S-3_g1f3  S-4_g2f1  S-5_g2f2  S-6_g2f3  S-7_g3f1  S-8_g3f2  S-9_g3f3 S-10_g1f4 S-11_g2f4 S-12_g3f4 S-13_g1f5 S-14_g2f5 S-15_g3f5 S-16_g4f1 S-17_g4f2 S-18_g4f3 S-19_g4f4 S-20_g4f5
--------------1--------------2---------3---------4---------5---------6---------7---------8---------9--------10--------11--------12--------13--------14--------15--------16--------17--------18--------19--------20------------------21--------22--------23--------24--------25--------26--------27--------28--------29--------30--------31--------32--------33--------34--------35--------36--------37--------38--------39--------40--------41--------42--------43--------44--------45--------46--------47--------48--------49--------50--------51--------52--------53--------54--------55--------56--------57--------58--------59--------60--------61--------62--------63--------64--------65--------66--------67--------68--------69--------70--------71--------72--------73--------74
     -20.210249    -100.501289     373.3      0.34      1.43      52.1         1         1      1000      1000   2124.71    -6.727       5.4      23.3   357.650     0.682      46.4   0.14925     100.0         H               192.3  0.079530  0.022996  0.000935  2.125134  0.899229  2.363283  1.171121     15.93    3.7708   24.3347   0.23925   4.85162   0.30072   0.01856  37.02515   3.94204    2488.1  0.578728  0.000557  0.000015  0.000160  0.165677  6.714488  0.711567     87.48  1.000175  1.000018     3.399    41.605      73.8      80.1      45.6     377.6     11.75      2.80     -0.77      0.94     -2.03     -0.86      1.21      0.99      1.07      1.19     -0.69      0.07     -1.37      0.57     -0.64     -7.88     -5.52     -1.03     -1.58      2.95
     -20.197662    -100.557976     379.1      0.36      1.43      44.5         1         2      1000      2623   2009.92    -6.968       5.7      23.8   360.822     0.688      55.6   0.15079     100.0         H               192.3  0.079860  0.022495  0.000897  2.106925  0.907808  2.320893  1.174107     18.65    3.5433   22.0673   0.23862   4.74062   0.31237   0.02072  33.60337   3.73836    2359.7  0.584950  0.000695  0.000030  0.000160  0.163098  6.712813  0.717296     87.74  1.000181  1.000019     3.186    23.092      75.2      78.8      41.1     311.8     11.64      3.16     -1.11      1.00     -2.09     -0.34      1.32      0.88      0.84      0.90     -0.32      0.10     -2.20      1.16     -0.31     -7.57     -6.24      0.06     -0.77      3.59
     -20.185291    -100.613609     379.1      0.36      1.43      44.5         1         3      1000      4246   1838.22    -7.356       5.8      24.3   361.306     0.691      56.5   0.15204     100.0         H               192.3  0.081035  0.022141  0.000941  2.127417  0.919678  2.313221  1.178598     11.60    3.2042   18.5454   0.24109   4.56475   0.33307   0.02459  28.14862   3.40450    2166.5  0.586942  0.000799  0.000028  0.000160  0.160437  6.690625  0.721330     87.63  1.000187  1.000020     3.280    24.356      75.2      76.9      34.7     283.7     11.56      2.45     -1.00      1.33     -1.16      0.26      1.62      0.78      0.63      0.34      0.34      0.11     -1.49      0.33      0.37     -7.85     -4.23      1.38      0.50      1.57
     -20.262991    -100.514015     373.3      0.36      1.43      52.1         2         1      2444      1000   2237.18    -6.503       5.7      23.3   371.057     0.719     159.1   0.16259     100.0         H               192.3  0.085310  0.023871  0.001082  2.266918  0.948156  2.390870  1.202967     15.89    3.9996   28.3541   0.24969   4.94757   0.29223   0.01732  42.54736   4.17524    2691.0  0.607136  0.002595  0.000142  0.000158  0.163263  6.710685  0.751793     88.38  1.000185  1.000021     3.471    28.043      79.7      80.7      52.7     388.5     11.65      3.05     -0.76      0.92     -1.57     -0.10      1.88      0.63      0.64      1.19     -0.16      0.07     -1.72      0.30     -0.08     -8.75     -5.15      0.62     -0.80      1.51
     -20.250401    -100.570724     377.0      0.39      1.43      63.7         2         2      2444      2623   2165.17    -6.645       6.3      23.8   371.468     0.729      50.5   0.16932     100.0         H               192.3  0.090029  0.024802  0.000953  2.389969  0.956213  2.499412  1.209516     17.89    3.8589   26.8457   0.25414   4.88260   0.29951   0.01840  40.04621   4.03534    2618.8  0.612980  0.000623  0.000018  0.000165  0.163808  6.709104  0.761631     88.43  1.000198  1.000025     3.621    32.165      84.8      80.1      50.0     399.5     11.68      2.90      0.14      1.31     -1.63     -0.05      1.67      0.79      1.32      1.14     -0.29      0.44     -1.56      0.86      0.13     -7.18     -5.36     -0.69     -1.08      2.94
     -20.238022    -100.626389     393.6      0.41      1.43      56.3         2         3      2444      4246   2042.30    -6.899       6.6      24.3   367.091     0.708     196.9   0.15892     100.0         H               192.3  0.083775  0.023323  0.001098  2.261224  0.916604  2.466957  1.193395     15.73    3.6076   23.3711   0.24742   4.76731   0.31113   0.02050  35.17749   3.79688    2437.3  0.597112  0.003106  0.000198  0.000164  0.161247  6.708112  0.739603     89.52  1.000183  1.000019     3.401    27.534      81.3      78.9      43.4     350.1     11.70      2.66     -0.68      0.74     -1.62      0.48      2.21      0.71      0.42      1.01     -0.36      0.47     -1.41      0.07      0.22     -9.13     -4.85      1.40     -1.35      0.94
     -20.315731    -100.526741     373.3      0.41      1.43      52.1         3         1      3888      1000   2503.06    -6.015       6.7      23.3   369.435     0.728      57.6   0.17088     100.0         H               192.3  0.088161  0.024621  0.000926  2.342590  0.954293  2.454791  1.208561     15.11    4.5169   35.4824   0.25581   5.16354   0.27001   0.01397  52.81109   4.66344    3025.2  0.614025  0.000798  0.000024  0.000157  0.163983  6.712543  0.761352     89.04  1.000179  1.000023     3.459    26.783      81.3      82.9      66.5     410.2     11.55      2.67     -0.50      1.48     -1.32     -0.01      1.44      0.53      1.09      1.13     -0.22      0.32     -1.12      0.76     -0.21     -6.99     -4.63      0.07     -0.90      2.65
     -20.303135    -100.583488     393.6      0.40      1.43      56.3         3         2      3888      2623   2220.31    -6.536       6.5      23.8   376.040     0.740      94.4   0.17422     100.0         H               192.3  0.093418  0.025175  0.001047  2.454546  0.965483  2.542298  1.221319     18.43    3.9624   28.6233   0.25755   4.92610   0.29529   0.01783  42.50236   4.14072    2711.5  0.619973  0.001291  0.000063  0.000161  0.163306  6.721403  0.774353     90.16  1.000184  1.000023     3.620    30.224      83.0      80.4      53.0     393.3     11.80      2.93     -0.33      1.02     -1.58     -0.02      1.58      0.71      1.08      1.03     -0.22      0.18     -2.02      0.70      0.07     -8.06     -5.23      0.14     -0.62      2.98
     -20.290752    -100.639175     379.1      0.46      1.43      44.5         3         3      3888      4246   2275.18    -6.430       7.6      24.3   369.186     0.722      70.2   0.16796     100.0         H               192.3  0.089858  0.024232  0.001167  2.307457  0.960586  2.402135  1.205085     15.90    4.0747   29.3333   0.25516   4.98031   0.28855   0.01667  43.69712   4.23441    2741.8  0.606842  0.000999  0.000043  0.000166  0.162613  6.697409  0.755211     87.85  1.000188  1.000023     3.582    31.820      83.0      81.1      54.8     413.6     11.81      2.92     -0.60      0.55     -2.09      0.07      2.06      0.83      1.10      1.03     -0.44      0.43     -1.67      1.00     -0.20     -9.29     -6.56      0.08     -1.34      3.52
