corner points
-104.8948822    -35.98151398
-104.9513397    -36.15929413
-105.1208649    -35.93223572
-105.177948    -36.10990143
========== RESULTS WAVE VERSION 16.10.2018 ====================
IMAGE SIZE  X: 5601     Y:4916    col:row     POLARIZATION:VV
COVERAGE    X: 21.02484077km       Y: 20.36474862km 
RESOLUTION dX: 3.753765537m       dY:4.14254447m  
resolution of original product 3.753765537m x 4.14254447m;   raster step x:5998.517328m  
===============================================================
FLAGS: H=HIGH PROBABILITY SEA STATE, I=LAND(ISLAND), O=OUTLIER NO SEA STATE, N=NO WIND AVAILABLE, SEA STATE NOT VISIBLE, M=MEAN PROBABILITY SEA STATE, L= LOW PROBABILITY SEA STATE
Filtering wave length
 integration  Lmin=1m
 integration  Lmax=2200m
  peak        Lmin=100m
               FFT=1024pixels, 3843.85591m 
   mean-Hs (SWH_c)=1.132232819m
         mean-wind=4.815637589m/s
--------------0--------------1---------2---------3---------4---------5---------6---------7---------8---------9--------10--------11--------12--------13--------14--------15--------16--------17--------18--------19------------------20--------21--------22--------23--------24--------25--------26--------27--------28--------29--------30--------31--------32--------33--------34--------35--------36--------37--------38--------39--------40--------41--------42--------43--------44--------45--------46--------47--------48--------49--------50--------51--------52--------53--------54--------55--------56--------57--------58--------59--------60--------61--------62--------63--------64--------65--------66--------67--------68--------69--------70--------71--------72--------73
            LAT            LON  P-LENGHT     SWH_o     SWH_c     P-DIR      LINE     POINT     ROW-Y     COL-X  M-INTENC        dB      WIND INC-ANGLE  ENERGY-M  ENERGY-N  ENERGY-R ENERGY-NN  FG-DEPTH      FLAG         HEADING-DEG    E30-75   E75-390  E390-600 meanincut   meanout   cut/out  STD-NORM  SPEC-MAX   GL-MEAN    GL-VAR      CORR   ENTROPY   HOMOGEN    ENERGY  CONTRAST  DISSIMIL     STD-O    E 1-30 E600-2000   E2000 >      GODA  LONG-HIG     Tmean  CONVOLUT  MEAN-DIR  relation     Sy/Sx  SKEWNESS  KURTOSIS  cutoff-A >50/10000     INT*V   INT-LOG  S-1_g1f1  S-2_g1f2  S-3_g1f3  S-4_g2f1  S-5_g2f2  S-6_g2f3  S-7_g3f1  S-8_g3f2  S-9_g3f3 S-10_g1f4 S-11_g2f4 S-12_g3f4 S-13_g1f5 S-14_g2f5 S-15_g3f5 S-16_g4f1 S-17_g4f2 S-18_g4f3 S-19_g4f4 S-20_g4f5
--------------1--------------2---------3---------4---------5---------6---------7---------8---------9--------10--------11--------12--------13--------14--------15--------16--------17--------18--------19--------20------------------21--------22--------23--------24--------25--------26--------27--------28--------29--------30--------31--------32--------33--------34--------35--------36--------37--------38--------39--------40--------41--------42--------43--------44--------45--------46--------47--------48--------49--------50--------51--------52--------53--------54--------55--------56--------57--------58--------59--------60--------61--------62--------63--------64--------65--------66--------67--------68--------69--------70--------71--------72--------73--------74
     -36.008671    -104.947853     173.5      1.02      2.62     137.4         1         1      1000      1000   2082.18    -6.815       4.8      22.9   323.402     0.777     105.8   0.18871      21.8         H               193.2  0.094709  0.067922  0.001500  6.705902  0.999106  6.711904  1.250156     43.33    3.6881   26.5641   0.28353   4.77958   0.32079   0.02236  38.06520   3.84870    2602.9  0.612537  0.001223  0.000052  0.000225  0.176117  7.109114  0.820810     94.46  1.000218  1.000026     3.489    26.528      94.9      77.9      47.7     360.1     11.99     -4.06     -0.22      2.74     -1.12      3.94      0.91      1.73      3.72      1.40     -2.07     -1.39     -2.51      0.77      2.44     -4.34      0.02      5.10     -3.62      3.50
     -35.994465    -105.013123     178.2      1.20      2.62     142.9         1         2      1000      2598   1824.98    -7.387       4.7      23.4   323.587     0.777     102.6   0.18859      23.3         H               193.2  0.092274  0.072228  0.002049  6.987827  0.963754  7.250637  1.249776     41.65    3.1748   20.4584   0.28463   4.51717   0.35124   0.02896  29.27051   3.35811    2280.5  0.609566  0.001084  0.000039  0.000223  0.180870  7.153304  0.820276     94.35  1.000222  1.000029     3.480    25.617      92.7      74.7      36.5     286.6     12.22     -4.12     -1.14      1.89     -0.86      4.03      0.73      1.75      4.25      2.17     -1.88     -1.95     -2.58      1.23      2.48     -5.90      0.38      5.73     -3.71      4.18
     -35.980488    -105.077148     184.3      1.20      2.62     141.4         1         3      1000      4196   1530.89    -8.151       4.3      23.9   321.108     0.765     135.2   0.18242      25.3         H               193.2  0.088648  0.072015  0.002219  6.924260  0.937418  7.386527  1.240293     47.64    2.5982   14.2541   0.27978   4.17730   0.39293   0.03995  20.53239   2.80206    1898.8  0.600911  0.001701  0.000083  0.000219  0.180822  7.176780  0.808067     95.70  1.000200  1.000024     3.410    25.129      90.6      70.5      25.6     244.9     12.03     -4.03     -1.03      1.98     -0.73      3.95      1.26      1.18      4.15      2.35     -2.68     -1.95     -1.91      0.72      1.90     -6.26      1.39      5.85     -5.36      3.60
     -36.061043    -104.964516     178.8      1.13      2.62     135.8         2         1      2448      1000   2135.61    -6.705       4.9      22.9   321.918     0.771      92.6   0.18561      23.5         H               193.2  0.091899  0.069161  0.001599  6.766177  0.952276  7.105267  1.245119     48.30    3.7959   27.7969   0.28262   4.83138   0.31457   0.02121  39.88188   3.95040    2658.9  0.607621  0.001046  0.000026  0.000225  0.180039  7.133062  0.813687     95.34  1.000214  1.000027     3.405    24.231      94.9      78.4      50.0     332.1     12.09     -4.70     -0.43      2.73     -1.65      3.91      0.51      2.20      3.84      1.49     -1.93     -1.55     -3.28      0.46      2.67     -4.36     -0.44      5.06     -3.24      3.69
     -36.046825    -105.029839     173.2      1.07      2.62     140.9         2         2      2448      2598   1869.97    -7.282       4.8      23.4   319.899     0.766     111.1   0.18521      21.7         H               193.2  0.091248  0.068121  0.001613  6.667182  0.943465  7.066695  1.241259     37.89    3.2681   21.1992   0.28151   4.57062   0.34387   0.02721  30.46271   3.44369    2320.9  0.604295  0.001360  0.000047  0.000222  0.180694  7.151524  0.808519     96.52  1.000232  1.000028     3.460    26.162      94.9      75.5      38.1     309.5     12.10     -4.15     -0.62      2.63     -0.84      4.27      0.71      1.47      3.94      2.50     -2.20     -1.52     -2.41      0.70      2.54     -4.64      1.10      5.79     -4.57      3.08
     -36.032841    -105.093918     184.3      1.15      2.62     141.4         2         3      2448      4196   1693.24    -7.713       4.8      23.9   321.597     0.765     111.5   0.18267      25.3         H               193.2  0.088487  0.068903  0.002089  6.616242  0.949056  6.971391  1.238744     41.81    2.9177   17.3776   0.27900   4.37498   0.36775   0.03296  25.05903   3.11019    2097.5  0.604844  0.001205  0.000053  0.000221  0.179908  7.161025  0.806605     93.34  1.000216  1.000027     3.444    26.504      92.7      73.1      31.2     288.4     12.20     -3.61     -0.72      1.89     -1.40      3.86      1.30      2.48      4.36      2.53     -2.23     -1.42     -2.65      2.05      1.76     -6.43     -1.59      4.94     -4.61      5.96
     -36.113411    -104.981194     173.5      1.17      2.62     137.4         3         1      3896      1000   2161.36    -6.653       4.9      22.9   327.116     0.791     110.8   0.19509      21.8         H               193.2  0.095146  0.071025  0.001936  6.710526  0.997266  6.728925  1.260394     74.09    3.8419   28.8776   0.28867   4.84854   0.31358   0.02102  41.08322   3.99217    2724.1  0.622655  0.001311  0.000037  0.000225  0.182663  7.145571  0.836636    104.39  1.000240  1.000030     3.658    30.378      97.3      78.5      52.1     396.5     12.34     -4.65     -0.28      2.17     -1.75      3.92      0.56      2.43      3.57      1.62     -2.30     -1.43     -3.50      0.65      3.03     -5.89     -0.36      5.04     -4.03      3.85
     -36.099186    -105.046570     101.0      1.06      2.62      87.3         3         2      3896      2598   2019.94    -6.947       5.2      23.4   323.684     0.777      94.8   0.18819       6.5         H               193.2  0.093081  0.066958  0.001616  6.671160  0.968650  6.887072  1.248899     32.41    3.5630   24.9386   0.28165   4.72041   0.32648   0.02352  35.82963   3.73264    2522.6  0.614763  0.001033  0.000040  0.000224  0.178883  7.117558  0.819302     93.21  1.000235  1.000029     3.538    27.168      94.9      77.2      44.9     343.1     11.94     -4.23     -0.83      2.50     -0.74      4.15      1.06      1.41      4.03      1.66     -1.72     -1.84     -2.72      1.14      2.34     -4.60      0.93      5.93     -3.02      4.13
     -36.085190    -105.110695     173.5      1.19      2.62     137.4         3         3      3896      4196   1765.39    -7.532       5.0      23.9   320.422     0.767     102.7   0.18394      21.8         H               193.2  0.089575  0.069387  0.002011  6.501829  0.948682  6.853540  1.240933     44.23    3.0593   18.9565   0.28153   4.45559   0.35805   0.03051  27.23905   3.24671    2190.7  0.604970  0.001175  0.000035  0.000219  0.183818  7.169390  0.809694     97.58  1.000211  1.000025     3.376    23.835      92.7      74.1      33.9     270.0     12.23     -4.35     -1.00      2.02     -1.17      4.28      0.90      2.04      4.48      2.76     -2.60     -1.98     -2.16      0.95      2.44     -5.68     -0.28      5.83     -5.26      3.69
