corner points
-98.37913513    -11.3489275
-98.41899109    -11.52925587
-98.56342316    -11.30820274
-98.60345459    -11.48848057
========== RESULTS WAVE VERSION 16.10.2018 ====================
IMAGE SIZE  X: 5601     Y:4924    col:row     POLARIZATION:VV
COVERAGE    X: 20.55426625km       Y: 20.47016393km 
RESOLUTION dX: 3.669749374m       dY:4.15722257m  
resolution of original product 3.669749374m x 4.15722257m;   raster step x:5996.370478m  
===============================================================
FLAGS: H=HIGH PROBABILITY SEA STATE, I=LAND(ISLAND), O=OUTLIER NO SEA STATE, N=NO WIND AVAILABLE, SEA STATE NOT VISIBLE, M=MEAN PROBABILITY SEA STATE, L= LOW PROBABILITY SEA STATE
Filtering wave length
 integration  Lmin=1m
 integration  Lmax=2200m
  peak        Lmin=100m
               FFT=1024pixels, 3757.823359m 
   mean-Hs (SWH_c)=0.2m
         mean-wind=7.223662376m/s
--------------0--------------1---------2---------3---------4---------5---------6---------7---------8---------9--------10--------11--------12--------13--------14--------15--------16--------17--------18--------19------------------20--------21--------22--------23--------24--------25--------26--------27--------28--------29--------30--------31--------32--------33--------34--------35--------36--------37--------38--------39--------40--------41--------42--------43--------44--------45--------46--------47--------48--------49--------50--------51--------52--------53--------54--------55--------56--------57--------58--------59--------60--------61--------62--------63--------64--------65--------66--------67--------68--------69--------70--------71--------72--------73
            LAT            LON  P-LENGHT     SWH_o     SWH_c     P-DIR      LINE     POINT     ROW-Y     COL-X  M-INTENC        dB      WIND INC-ANGLE  ENERGY-M  ENERGY-N  ENERGY-R ENERGY-NN  FG-DEPTH      FLAG         HEADING-DEG    E30-75   E75-390  E390-600 meanincut   meanout   cut/out  STD-NORM  SPEC-MAX   GL-MEAN    GL-VAR      CORR   ENTROPY   HOMOGEN    ENERGY  CONTRAST  DISSIMIL     STD-O    E 1-30 E600-2000   E2000 >      GODA  LONG-HIG     Tmean  CONVOLUT  MEAN-DIR  relation     Sy/Sx  SKEWNESS  KURTOSIS  cutoff-A >50/10000     INT*V   INT-LOG  S-1_g1f1  S-2_g1f2  S-3_g1f3  S-4_g2f1  S-5_g2f2  S-6_g2f3  S-7_g3f1  S-8_g3f2  S-9_g3f3 S-10_g1f4 S-11_g2f4 S-12_g3f4 S-13_g1f5 S-14_g2f5 S-15_g3f5 S-16_g4f1 S-17_g4f2 S-18_g4f3 S-19_g4f4 S-20_g4f5
--------------1--------------2---------3---------4---------5---------6---------7---------8---------9--------10--------11--------12--------13--------14--------15--------16--------17--------18--------19--------20------------------21--------22--------23--------24--------25--------26--------27--------28--------29--------30--------31--------32--------33--------34--------35--------36--------37--------38--------39--------40--------41--------42--------43--------44--------45--------46--------47--------48--------49--------50--------51--------52--------53--------54--------55--------56--------57--------58--------59--------60--------61--------62--------63--------64--------65--------66--------67--------68--------69--------70--------71--------72--------73--------74
     -11.378102     -98.421013     249.9      0.51      1.97     176.2         1         1      1000      1000   2926.57    -5.336       8.6      23.5   383.208     0.672     155.4   0.14488      71.5         H               192.1  0.070345  0.026043  0.000741  1.915113  0.920884  2.079645  1.164012     34.09    5.3458   44.6074   0.23389   5.48271   0.23631   0.00981  68.34827   5.43308    3406.4  0.573679  0.001961  0.000205  0.000142  0.188754  6.863914  0.701059    125.72  1.000079  1.000007     3.175    23.605      65.3      86.1      86.3     464.2     12.88      1.62     -5.59     -0.79     -1.39      0.98     -2.23      0.75      4.47      2.03     -0.63     -0.91      3.13     -1.52     -2.41     -6.76     -3.74      0.21     -0.92     -1.30
     -11.366096     -98.475372     236.0      0.44      1.97     176.4         1         2      1000      2634   2309.13    -6.366       7.2      24.0   376.797     0.653      72.3   0.13567      54.2         H               192.1  0.068652  0.026530  0.000869  1.859757  0.884406  2.102831  1.145416     55.21    4.1386   27.6301   0.22790   5.02399   0.28043   0.01534  42.66657   4.28529    2644.9  0.556059  0.000923  0.000045  0.000157  0.190450  6.879638  0.680081    154.40  1.000028  1.000002     2.983    20.635      62.2      82.0      52.6     348.9     13.05      1.45     -6.42     -1.36     -1.56      0.73     -2.60      0.86      5.20      2.69     -1.35     -1.11      3.48     -0.79     -3.74     -7.32     -4.16     -0.17     -2.27      1.00
     -11.354298     -98.528732     234.6      0.35      1.97     172.8         1         3      1000      4268   1729.29    -7.621       5.7      24.4   377.264     0.653     217.9   0.13585      52.9         H               192.1  0.067514  0.029027  0.001092  1.830078  0.854198  2.142453  1.146494     58.38    2.9887   15.6069   0.23080   4.45046   0.34606   0.02733  24.00978   3.18433    1982.6  0.552432  0.003396  0.000212  0.000178  0.200943  6.919919  0.681740     91.11  0.999973  0.999999     2.910    18.671      65.3      75.6      29.7     236.5     13.49      1.95     -7.77     -1.95     -1.94      1.21     -3.28      0.71      6.16      1.50     -0.92     -0.55      4.37     -1.07     -4.19     -8.87     -5.00      0.59     -1.56      0.13
     -11.430957     -98.432701     249.9      0.53      1.97       3.8         2         1      2443      1000   3030.66    -5.185       9.0      23.5   379.606     0.665      57.8   0.14144      71.5         H               192.1  0.070543  0.024693  0.000830  1.979134  0.884016  2.238800  1.156365     22.85    5.5616   47.4791   0.23147   5.55702   0.22861   0.00904  72.97857   5.63541    3504.3  0.568778  0.000714  0.000024  0.000139  0.182018  6.827958  0.693208     88.86  1.000105  1.000008     3.052    20.540      67.5      86.8      92.4     432.1     12.70      2.68     -3.78     -0.76     -1.95      0.50     -0.96      0.19      3.01      2.15     -1.11     -0.46      0.88     -0.25     -1.66     -7.73     -4.58      0.43     -2.48      1.32
     -11.418945     -98.487068     234.6      0.44      1.97     172.8         2         2      2443      2634   2320.56    -6.344       7.3      24.0   378.183     0.660     114.9   0.13937      52.9         H               192.1  0.069013  0.026391  0.001050  1.835829  0.866157  2.119510  1.150928     47.79    4.1441   28.0540   0.23152   5.02379   0.28127   0.01554  43.11809   4.29564    2670.7  0.562083  0.001590  0.000102  0.000158  0.194555  6.890222  0.687770    121.64  1.000059  1.000005     2.931    18.647      67.5      81.8      52.9     316.8     13.52      2.26     -6.09     -2.46     -2.32      1.25     -2.03      1.10      4.67      2.12     -0.84     -1.00      2.49     -0.22     -3.18     -9.69     -5.95      0.68     -1.18      2.05
     -11.407144     -98.540451     229.3      0.39      1.97     165.9         2         3      2443      4268   1898.73    -7.215       6.4      24.4   377.034     0.655     204.0   0.13690      48.5         H               192.1  0.068078  0.027763  0.001273  1.816687  0.856136  2.121960  1.148314     51.97    3.3176   18.8248   0.23094   4.63091   0.32498   0.02296  28.95460   3.50459    2180.3  0.554748  0.003264  0.000178  0.000175  0.197946  6.882936  0.683100    134.51  1.000036  1.000004     2.874    17.581      68.7      77.6      35.5     238.9     13.66      1.73     -6.66     -2.59     -2.35      1.16     -2.38      1.56      5.32      3.13     -1.45     -1.32      3.09     -0.36     -3.67    -10.73     -6.39      0.61     -2.56      1.79
     -11.483810     -98.444389     234.6      0.47      1.97     172.8         3         1      3886      1000   2714.26    -5.663       7.8      23.5   391.222     0.697     415.8   0.15517      52.9         H               192.1  0.075200  0.027779  0.001151  2.092511  0.926329  2.258928  1.184668     35.67    4.9031   39.6843   0.24711   5.31727   0.25446   0.01195  59.75551   5.01719    3215.5  0.586540  0.006741  0.000392  0.000144  0.189244  6.873686  0.729714    106.18  1.000066  1.000006     3.235    23.379      76.6      84.3      75.2     417.3     13.08      1.87     -5.09     -1.46     -1.68      1.63     -1.26      0.59      3.44      2.37     -0.96     -1.05      2.31     -0.73     -1.75     -9.61     -4.50      2.50     -1.57     -0.69
     -11.471794     -98.498779     236.0      0.41      1.97     176.4         3         2      3886      2634   2167.92    -6.640       6.7      24.0   383.655     0.678     110.0   0.14783      54.2         H               192.1  0.072722  0.028141  0.001005  2.022395  0.879914  2.298400  1.168605     55.87    3.8543   25.2480   0.23969   4.89037   0.29652   0.01792  38.39278   4.02143    2533.5  0.575304  0.001464  0.000096  0.000158  0.193205  6.883955  0.708242    145.24  1.000067  1.000005     3.126    22.333      68.7      80.4      47.4     336.4     13.25      1.26     -6.20     -1.42     -1.42      1.33     -2.37      0.99      4.75      2.37     -1.04     -1.14      3.11     -1.37     -3.11     -8.27     -3.87      0.96     -1.68     -0.04
     -11.459988     -98.552177     234.6      0.39      1.97     172.8         3         3      3886      4268   1885.44    -7.246       6.3      24.4   378.319     0.653     189.1   0.13410      52.9         H               192.1  0.067958  0.029669  0.001240  1.829359  0.859679  2.127955  1.145195     69.69    3.2716   18.2737   0.23030   4.60702   0.32794   0.02351  28.13044   3.45635    2159.1  0.551329  0.002829  0.000161  0.000180  0.205630  6.962473  0.681768    160.16  0.999927  0.999994     2.883    18.357      65.3      77.4      34.6     255.1     13.77      2.08     -7.56     -2.62     -2.49      1.08     -3.27      1.21      5.84      2.65     -1.36     -1.09      3.90     -0.29     -4.15     -9.81     -6.37      0.76     -2.32      1.61
