corner points
-97.14247894    2.281117916
-97.17893982    2.105867624
-97.32045746    2.318819046
-97.35690308    2.143609285
========== RESULTS WAVE VERSION 16.10.2018 ====================
IMAGE SIZE  X: 4460     Y:4786    col:row     POLARIZATION:VV
COVERAGE    X: 20.16942689km       Y: 19.85672091km 
RESOLUTION dX: 4.522293024m       dY:4.148917868m  
resolution of original product 4.522293024m x 4.148917868m;   raster step x:5996.56055m  
===============================================================
FLAGS: H=HIGH PROBABILITY SEA STATE, I=LAND(ISLAND), O=OUTLIER NO SEA STATE, N=NO WIND AVAILABLE, SEA STATE NOT VISIBLE, M=MEAN PROBABILITY SEA STATE, L= LOW PROBABILITY SEA STATE
Filtering wave length
 integration  Lmin=1m
 integration  Lmax=2200m
  peak        Lmin=100m
               FFT=1024pixels, 4630.828057m 
   mean-Hs (SWH_c)=0.2m
         mean-wind=7.312036514m/s
--------------0--------------1---------2---------3---------4---------5---------6---------7---------8---------9--------10--------11--------12--------13--------14--------15--------16--------17--------18--------19------------------20--------21--------22--------23--------24--------25--------26--------27--------28--------29--------30--------31--------32--------33--------34--------35--------36--------37--------38--------39--------40--------41--------42--------43--------44--------45--------46--------47--------48--------49--------50--------51--------52--------53--------54--------55--------56--------57--------58--------59--------60--------61--------62--------63--------64--------65--------66--------67--------68--------69--------70--------71--------72--------73
            LAT            LON  P-LENGHT     SWH_o     SWH_c     P-DIR      LINE     POINT     ROW-Y     COL-X  M-INTENC        dB      WIND INC-ANGLE  ENERGY-M  ENERGY-N  ENERGY-R ENERGY-NN  FG-DEPTH      FLAG         HEADING-DEG    E30-75   E75-390  E390-600 meanincut   meanout   cut/out  STD-NORM  SPEC-MAX   GL-MEAN    GL-VAR      CORR   ENTROPY   HOMOGEN    ENERGY  CONTRAST  DISSIMIL     STD-O    E 1-30 E600-2000   E2000 >      GODA  LONG-HIG     Tmean  CONVOLUT  MEAN-DIR  relation     Sy/Sx  SKEWNESS  KURTOSIS  cutoff-A >50/10000     INT*V   INT-LOG  S-1_g1f1  S-2_g1f2  S-3_g1f3  S-4_g2f1  S-5_g2f2  S-6_g2f3  S-7_g3f1  S-8_g3f2  S-9_g3f3 S-10_g1f4 S-11_g2f4 S-12_g3f4 S-13_g1f5 S-14_g2f5 S-15_g3f5 S-16_g4f1 S-17_g4f2 S-18_g4f3 S-19_g4f4 S-20_g4f5
--------------1--------------2---------3---------4---------5---------6---------7---------8---------9--------10--------11--------12--------13--------14--------15--------16--------17--------18--------19--------20------------------21--------22--------23--------24--------25--------26--------27--------28--------29--------30--------31--------32--------33--------34--------35--------36--------37--------38--------39--------40--------41--------42--------43--------44--------45--------46--------47--------48--------49--------50--------51--------52--------53--------54--------55--------56--------57--------58--------59--------60--------61--------62--------63--------64--------65--------66--------67--------68--------69--------70--------71--------72--------73--------74
       2.253047     -97.190460     261.9      0.43      1.88      47.3         1         1      1000      1000    220.85   -16.559       7.0      36.9   215.203     0.534      51.2   0.05720     114.7         H               192.0  0.038474  0.013938  0.000407  1.098541  0.625606  1.755962  1.036535     37.13    3.9360   20.8855   0.07610   4.96952   0.26436   0.01375  38.59238   4.29360     229.0  0.480358  0.000603  0.000084  0.000114  0.197542  6.915262  0.536001     52.77  1.000052  1.000003     2.193    10.554      83.0      82.8      42.7     213.8     13.69      7.60      1.27     -1.10     -2.96     -1.15     -2.75     -4.35     -0.79      3.66     -0.83     -2.39     -5.03      2.44      2.84     -7.14     -3.73     -1.72     -0.97      3.42
       2.264302     -97.243568     284.3      0.43      1.88      53.0         1         2      1000      2326    208.91   -16.800       7.0      37.3   215.166     0.533      87.4   0.05715     100.0         H               192.0  0.038359  0.013707  0.000487  1.109098  0.619249  1.791038  1.036295     36.24    3.7013   18.6577   0.07688   4.86057   0.27567   0.01529  34.44651   4.05268     216.5  0.479327  0.001339  0.000177  0.000111  0.196585  6.906668  0.535782     50.41  1.000086  1.000004     2.205    10.736      84.8      81.7      38.3     198.1     13.63      6.98      1.23     -1.27     -2.90     -1.01     -2.09     -3.75     -0.37      3.09     -0.31     -2.37     -4.90      2.47      2.84     -8.35     -3.62     -2.36      0.25      3.22
       2.275458     -97.296234     285.7      0.43      1.88      47.7         1         3      1000      3652    200.68   -16.975       7.0      37.6   215.499     0.534      61.1   0.05622     100.0         H               192.0  0.038320  0.012872  0.000509  1.132779  0.617644  1.834032  1.036380     23.24    3.5369   17.2204   0.07371   4.78067   0.28356   0.01649  31.90217   3.89652     208.0  0.481076  0.000913  0.000108  0.000101  0.187555  6.857763  0.536101     53.20  1.000115  1.000004     2.227    11.075      88.6      81.0      35.4     202.6     13.28      6.39      0.99     -1.17     -2.78     -1.61     -1.32     -2.88      0.14      3.17     -0.81     -1.92     -4.29      2.42      2.21     -8.97     -4.49     -3.78     -1.35      3.84
       2.200090     -97.201477     273.0      0.45      1.88      50.0         2         1      2446      1000    236.35   -16.264       7.4      36.9   214.641     0.531      59.7   0.05776     100.0         H               192.0  0.038768  0.013629  0.000393  1.146020  0.637447  1.797829  1.034239     29.29    4.2438   23.8066   0.07722   5.10417   0.25107   0.01200  43.93633   4.58868     244.4  0.477704  0.000683  0.000113  0.000104  0.195446  6.910887  0.533170     52.43  1.000024  1.000002     2.199    10.767      75.2      84.1      48.5     233.5     13.33      5.91     -0.15     -0.53     -2.34     -0.62     -2.60     -3.08     -0.15      2.73     -0.76     -1.98     -4.16      2.00      1.92     -6.76     -3.62     -0.48     -1.14      3.61
       2.211348     -97.254585     273.0      0.45      1.88      50.0         2         2      2446      2326    225.84   -16.462       7.4      37.3   217.196     0.543     256.3   0.06165     100.0         H               192.0  0.039392  0.015365  0.000617  1.182753  0.635934  1.859867  1.047001     44.71    4.0383   22.2553   0.08864   5.01372   0.26152   0.01331  40.56531   4.38065     236.4  0.483688  0.003309  0.000745  0.000117  0.203715  6.969292  0.546866     50.11  1.000023  1.000001     2.274    11.372      94.9      83.1      45.0     223.6     14.05      7.37      0.76     -2.10     -3.27     -1.20     -2.33     -4.05     -0.16      3.39     -0.87     -2.23     -5.03      1.96      3.13     -9.93     -3.90     -2.00     -0.69      1.89
       2.222509     -97.307251     285.7      0.42      1.88      47.7         2         3      2446      3652    199.08   -17.010       6.9      37.6   216.268     0.535      97.6   0.05660     100.0         H               192.0  0.037717  0.014288  0.000635  1.135684  0.612829  1.853182  1.038283     34.54    3.5042   17.0000   0.07387   4.76419   0.28568   0.01685  31.48842   3.86920     206.7  0.481038  0.001383  0.000223  0.000111  0.202515  6.954153  0.537838     52.15  1.000064  1.000003     2.212    10.759      90.6      80.7      34.9     187.1     14.08      7.84      1.35     -2.48     -3.68     -1.93     -1.79     -3.32      0.21      3.77     -0.97     -2.33     -5.14      2.57      2.43    -10.91     -5.69     -4.01     -0.86      3.91
       2.147133     -97.212494     261.0      0.46      1.88      52.1         3         1      3892      1000    247.41   -16.066       7.7      36.9   215.661     0.536     151.7   0.05928     107.3         H               192.0  0.038372  0.014783  0.000463  1.165057  0.629093  1.851963  1.039922     35.57    4.4646   26.3816   0.08345   5.19452   0.24339   0.01108  48.35954   4.80484     257.3  0.480874  0.001543  0.000429  0.000111  0.203383  6.964365  0.539395     53.96  1.000005  1.000000     2.219    10.836      79.7      84.8      53.4     242.0     13.77      6.72      0.54     -1.20     -2.88     -1.41     -3.02     -3.53      0.03      4.00     -1.25     -2.53     -4.35      1.66      2.33     -7.48     -4.49     -2.16     -1.78      2.93
       2.158395     -97.265602     261.0      0.49      1.88      52.1         3         2      3892      2326    253.07   -15.968       8.1      37.3   214.798     0.533      38.4   0.05961     107.3         H               192.0  0.038530  0.015489  0.000433  1.153067  0.641042  1.798737  1.036316     42.30    4.5807   27.3977   0.08227   5.24118   0.23881   0.01050  50.28738   4.90857     262.2  0.478792  0.000404  0.000036  0.000118  0.205356  6.985481  0.535794     53.27  1.000013  1.000000     2.196    10.633      73.8      85.3      55.6     246.7     13.99      7.86      0.39     -1.74     -3.33     -1.27     -3.34     -3.90     -0.47      4.39     -0.86     -2.81     -5.72      2.58      2.53     -7.60     -5.03     -1.59     -1.18      4.51
       2.169559     -97.318268     273.0      0.45      1.88      50.0         3         3      3892      3652    218.67   -16.602       7.5      37.6   220.746     0.554     512.6   0.06436     100.0         M               192.0  0.039178  0.015457  0.000731  1.159745  0.642874  1.804001  1.059588     45.12    3.8948   21.3802   0.09513   4.94742   0.26956   0.01448  38.69257   4.24982     231.7  0.490953  0.006033  0.001621  0.000116  0.205944  6.979387  0.558475     50.92  0.999967  0.999997     2.331    11.781     121.0      82.3      42.9     222.7     14.27      7.59      0.69     -2.92     -3.98     -1.04     -1.83     -3.28     -0.67      3.07     -0.90     -2.07     -5.12      2.42      2.62    -11.91     -6.06     -1.18     -0.66      3.14
