corner points
-105.47332    -37.72629929
-105.5321045    -37.90371704
-105.7048035    -37.67601013
-105.7642593    -37.85330963
========== RESULTS WAVE VERSION 16.10.2018 ====================
IMAGE SIZE  X: 5601     Y:4914    col:row     POLARIZATION:VV
COVERAGE    X: 21.07871983km       Y: 20.34857697km 
RESOLUTION dX: 3.763385079m       dY:4.140939555m  
resolution of original product 3.763385079m x 4.140939555m;   raster step x:5998.835817m  
===============================================================
FLAGS: H=HIGH PROBABILITY SEA STATE, I=LAND(ISLAND), O=OUTLIER NO SEA STATE, N=NO WIND AVAILABLE, SEA STATE NOT VISIBLE, M=MEAN PROBABILITY SEA STATE, L= LOW PROBABILITY SEA STATE
Filtering wave length
 integration  Lmin=1m
 integration  Lmax=2200m
  peak        Lmin=100m
               FFT=1024pixels, 3853.706321m 
   mean-Hs (SWH_c)=2.185801086m
         mean-wind=7.542798519m/s
--------------0--------------1---------2---------3---------4---------5---------6---------7---------8---------9--------10--------11--------12--------13--------14--------15--------16--------17--------18--------19------------------20--------21--------22--------23--------24--------25--------26--------27--------28--------29--------30--------31--------32--------33--------34--------35--------36--------37--------38--------39--------40--------41--------42--------43--------44--------45--------46--------47--------48--------49--------50--------51--------52--------53--------54--------55--------56--------57--------58--------59--------60--------61--------62--------63--------64--------65--------66--------67--------68--------69--------70--------71--------72--------73
            LAT            LON  P-LENGHT     SWH_o     SWH_c     P-DIR      LINE     POINT     ROW-Y     COL-X  M-INTENC        dB      WIND INC-ANGLE  ENERGY-M  ENERGY-N  ENERGY-R ENERGY-NN  FG-DEPTH      FLAG         HEADING-DEG    E30-75   E75-390  E390-600 meanincut   meanout   cut/out  STD-NORM  SPEC-MAX   GL-MEAN    GL-VAR      CORR   ENTROPY   HOMOGEN    ENERGY  CONTRAST  DISSIMIL     STD-O    E 1-30 E600-2000   E2000 >      GODA  LONG-HIG     Tmean  CONVOLUT  MEAN-DIR  relation     Sy/Sx  SKEWNESS  KURTOSIS  cutoff-A >50/10000     INT*V   INT-LOG  S-1_g1f1  S-2_g1f2  S-3_g1f3  S-4_g2f1  S-5_g2f2  S-6_g2f3  S-7_g3f1  S-8_g3f2  S-9_g3f3 S-10_g1f4 S-11_g2f4 S-12_g3f4 S-13_g1f5 S-14_g2f5 S-15_g3f5 S-16_g4f1 S-17_g4f2 S-18_g4f3 S-19_g4f4 S-20_g4f5
--------------1--------------2---------3---------4---------5---------6---------7---------8---------9--------10--------11--------12--------13--------14--------15--------16--------17--------18--------19--------20------------------21--------22--------23--------24--------25--------26--------27--------28--------29--------30--------31--------32--------33--------34--------35--------36--------37--------38--------39--------40--------41--------42--------43--------44--------45--------46--------47--------48--------49--------50--------51--------52--------53--------54--------55--------56--------57--------58--------59--------60--------61--------62--------63--------64--------65--------66--------67--------68--------69--------70--------71--------72--------73--------74
     -37.753216    -105.527786     286.5      2.02      4.04     138.0         1         1      1000      1000   3008.24    -5.217       7.5      22.9   342.462     0.900     141.0   0.24414     100.0         H               193.4  0.116126  0.090622  0.003061  7.267050  1.081033  6.722319  1.343736    177.56    5.4979   59.2213   0.31589   5.45998   0.25758   0.01245  81.02771   5.55589    4041.9  0.689762  0.001054  0.000025  0.000261  0.210374  7.233541  0.955983    111.71  1.000288  1.000041     4.343    52.523     124.8      83.7     112.4     681.8     14.58     -9.20      2.51     -1.01      2.61      4.82     -1.03      3.27      1.04     -1.39     -3.06      0.52     -6.62      4.91      4.10     -9.33      6.23      5.26     -3.25      8.81
     -37.738750    -105.594490     286.5      1.93      4.04     138.0         1         2      1000      2594   2738.92    -5.624       7.6      23.3   338.365     0.891     138.3   0.24122     100.0         H               193.4  0.115056  0.087681  0.002696  6.975835  1.076893  6.477740  1.338361    110.88    4.9820   50.0133   0.31422   5.28266   0.27490   0.01479  68.59502   5.07580    3665.5  0.684904  0.001511  0.000029  0.000259  0.203999  7.202348  0.946462    103.01  1.000283  1.000041     4.096    37.243     124.8      82.1      92.3     570.3     14.07     -7.84      3.13      0.58      0.08      4.61     -1.01      3.49      1.20     -2.07     -3.44      0.18     -5.16      2.81      4.81     -7.59      1.91      4.39     -3.38      4.38
     -37.724525    -105.659920     260.4      2.05      4.04     137.5         1         3      1000      4188   2585.00    -5.875       8.0      23.8   337.170     0.883     182.8   0.23699     103.6         H               193.4  0.112173  0.088669  0.003103  6.860255  1.063928  6.448042  1.330885    178.73    4.6763   44.5235   0.31311   5.17124   0.28543   0.01642  61.16582   4.78833    3439.9  0.677531  0.001864  0.000077  0.000268  0.212237  7.245375  0.937732    112.39  1.000285  1.000040     3.994    33.627     124.8      81.1      81.2     491.4     14.48     -8.42      2.53     -0.83      2.35      5.37     -0.42      2.32      1.59     -1.04     -3.68     -0.73     -5.83      5.32      4.16     -9.42      5.67      5.91     -3.33      8.11
     -37.805500    -105.545143     316.9      2.12      4.04     132.3         2         1      2448      1000   3017.61    -5.203       7.5      22.9   347.846     0.928     310.4   0.25766     100.0         H               193.4  0.120994  0.095133  0.003707  7.516531  1.131265  6.644360  1.364960    160.58    5.5040   61.0200   0.32589   5.44947   0.26176   0.01301  82.26825   5.55469    4118.6  0.704938  0.003677  0.000180  0.000255  0.207578  7.219585  0.988960    106.79  1.000274  1.000042     4.242    40.817     124.8      83.3     115.3     640.7     14.47     -9.52      2.87     -0.96      3.06      4.61     -0.18      2.34      1.36     -2.28     -2.94      0.55     -6.57      5.26      3.57    -10.26      8.23      5.10     -3.31      9.97
     -37.791027    -105.611900     301.3      2.09      4.04     135.3         2         2      2448      2594   2692.97    -5.698       7.4      23.3   345.209     0.921     181.6   0.25648     100.0         H               193.4  0.121153  0.095401  0.003729  7.727369  1.104354  6.997184  1.360931    176.81    4.8877   49.7876   0.32455   5.23742   0.28132   0.01586  67.25768   4.98440    3664.9  0.699720  0.001865  0.000062  0.000264  0.206230  7.224151  0.980260    107.43  1.000289  1.000044     4.178    37.640     128.8      81.4      91.2     546.8     14.54     -9.14      2.82     -1.15      2.41      4.71     -0.39      2.98      0.78     -1.94     -2.89      0.16     -6.96      5.28      3.77    -10.60      5.97      5.58     -2.70      9.98
     -37.776787    -105.677383     301.3      2.35      4.04     135.3         2         3      2448      4188   2519.70    -5.987       7.7      23.8   348.941     0.929     170.9   0.25864     100.0         H               193.4  0.119208  0.100483  0.003925  7.346178  1.110569  6.614787  1.366107    237.90    4.5417   44.0643   0.32328   5.10404   0.29604   0.01818  59.63860   4.66198    3442.2  0.705052  0.001451  0.000028  0.000272  0.217880  7.295091  0.989565    119.60  1.000283  1.000042     4.307    41.756     128.8      80.0      80.0     545.5     15.11     -9.98      2.84     -1.96      3.10      4.44     -1.14      3.26      0.68     -1.83     -3.21      1.00     -7.51      5.61      4.09    -11.37      7.62      4.54     -3.71      9.72
     -37.857780    -105.562515     298.3      2.55      4.04     129.3         3         1      3896      1000   2886.03    -5.397       7.1      22.9   355.929     0.971     185.4   0.27996     100.0         H               193.4  0.128848  0.112597  0.004166  8.324887  1.155000  7.207693  1.396327    253.30    5.2457   58.3180   0.33644   5.34598   0.27470   0.01498  77.39484   5.31461    4029.8  0.724671  0.001504  0.000033  0.000286  0.215465  7.302124  1.038503    115.91  1.000298  1.000047     4.367    41.874     133.1      81.9     109.0     634.6     15.09    -10.76      3.30     -1.74      3.34      4.19     -1.19      3.29      0.41     -3.05     -2.73      1.29     -7.78      5.03      3.98    -11.19      8.61      4.27     -2.38      9.84
     -37.843300    -105.629326     301.3      2.49      4.04     135.3         3         2      3896      2594   2600.68    -5.849       7.1      23.3   357.320     0.963     197.8   0.27414     100.0         H               193.4  0.123837  0.109009  0.004441  8.016333  1.139872  7.032663  1.390938    230.58    4.6960   48.0688   0.33168   5.15095   0.29395   0.01793  64.25092   4.80581    3616.7  0.725175  0.001875  0.000055  0.000274  0.218474  7.312308  1.028274    118.15  1.000297  1.000046     4.406    43.234     128.8      80.1      87.6     577.3     15.13    -10.49      3.44     -1.68      3.70      3.99     -1.43      3.30      0.29     -2.89     -2.30      1.42     -7.55      5.16      3.95    -11.36      9.36      3.75     -1.60      9.73
     -37.829048    -105.694870     301.3      2.07      4.04     135.3         3         3      3896      4188   2586.14    -5.873       8.0      23.8   345.967     0.919     193.3   0.25331     100.0         H               193.4  0.120408  0.092285  0.004030  7.580392  1.099193  6.896325  1.360277    163.44    4.6746   45.7106   0.32156   5.16032   0.28896   0.01700  62.02357   4.78257    3517.3  0.701248  0.002101  0.000079  0.000268  0.206739  7.191073  0.978827    104.87  1.000296  1.000044     4.412    48.586     128.8      80.7      83.8     574.3     14.87     -9.04      3.16     -1.76      2.60      4.30     -0.52      3.22      0.47     -2.51     -2.20      1.06     -6.43      4.98      4.09    -11.87      6.09      5.06     -2.60      8.50
