corner points
-103.8029709    -32.48470306
-103.855423    -32.66306305
-104.0191574    -32.4372406
-104.0721436    -32.6155014
========== RESULTS WAVE VERSION 16.10.2018 ====================
IMAGE SIZE  X: 5601     Y:4918    col:row     POLARIZATION:VV
COVERAGE    X: 20.91753602km       Y: 20.38798526km 
RESOLUTION dX: 3.734607395m       dY:4.145584639m  
resolution of original product 3.734607395m x 4.145584639m;   raster step x:5997.779477m  
===============================================================
FLAGS: H=HIGH PROBABILITY SEA STATE, I=LAND(ISLAND), O=OUTLIER NO SEA STATE, N=NO WIND AVAILABLE, SEA STATE NOT VISIBLE, M=MEAN PROBABILITY SEA STATE, L= LOW PROBABILITY SEA STATE
Filtering wave length
 integration  Lmin=1m
 integration  Lmax=2200m
  peak        Lmin=100m
               FFT=1024pixels, 3824.237973m 
   mean-Hs (SWH_c)=0.5783672333m
         mean-wind=6.140329361m/s
--------------0--------------1---------2---------3---------4---------5---------6---------7---------8---------9--------10--------11--------12--------13--------14--------15--------16--------17--------18--------19------------------20--------21--------22--------23--------24--------25--------26--------27--------28--------29--------30--------31--------32--------33--------34--------35--------36--------37--------38--------39--------40--------41--------42--------43--------44--------45--------46--------47--------48--------49--------50--------51--------52--------53--------54--------55--------56--------57--------58--------59--------60--------61--------62--------63--------64--------65--------66--------67--------68--------69--------70--------71--------72--------73
            LAT            LON  P-LENGHT     SWH_o     SWH_c     P-DIR      LINE     POINT     ROW-Y     COL-X  M-INTENC        dB      WIND INC-ANGLE  ENERGY-M  ENERGY-N  ENERGY-R ENERGY-NN  FG-DEPTH      FLAG         HEADING-DEG    E30-75   E75-390  E390-600 meanincut   meanout   cut/out  STD-NORM  SPEC-MAX   GL-MEAN    GL-VAR      CORR   ENTROPY   HOMOGEN    ENERGY  CONTRAST  DISSIMIL     STD-O    E 1-30 E600-2000   E2000 >      GODA  LONG-HIG     Tmean  CONVOLUT  MEAN-DIR  relation     Sy/Sx  SKEWNESS  KURTOSIS  cutoff-A >50/10000     INT*V   INT-LOG  S-1_g1f1  S-2_g1f2  S-3_g1f3  S-4_g2f1  S-5_g2f2  S-6_g2f3  S-7_g3f1  S-8_g3f2  S-9_g3f3 S-10_g1f4 S-11_g2f4 S-12_g3f4 S-13_g1f5 S-14_g2f5 S-15_g3f5 S-16_g4f1 S-17_g4f2 S-18_g4f3 S-19_g4f4 S-20_g4f5
--------------1--------------2---------3---------4---------5---------6---------7---------8---------9--------10--------11--------12--------13--------14--------15--------16--------17--------18--------19--------20------------------21--------22--------23--------24--------25--------26--------27--------28--------29--------30--------31--------32--------33--------34--------35--------36--------37--------38--------39--------40--------41--------42--------43--------44--------45--------46--------47--------48--------49--------50--------51--------52--------53--------54--------55--------56--------57--------58--------59--------60--------61--------62--------63--------64--------65--------66--------67--------68--------69--------70--------71--------72--------73--------74
     -32.512299    -103.853310     107.2      0.70      2.31     107.6         1         1      1000      1000   2866.87    -5.426       7.4      23.1   348.856     0.799      68.5   0.19924       7.4         H               192.9  0.106861  0.052944  0.001418  5.453588  1.000646  5.450070  1.268123     35.55    5.2321   49.7201   0.28596   5.40474   0.25450   0.01195  71.00333   5.31532    3635.4  0.637375  0.000841  0.000011  0.000248  0.162694  6.893748  0.842406     97.99  1.000212  1.000030     3.709    29.537      97.3      84.3      93.7     504.4     11.88     -0.84      0.34      1.98     -1.83      2.96      1.79      0.27      2.68      0.34     -1.95     -1.58     -1.51      0.25      0.70     -5.61     -4.00      3.54     -3.14      1.71
     -32.498547    -103.916046     101.0      0.63      2.31     102.4         1         2      1000      2606   2381.86    -6.231       6.7      23.5   359.916     0.839     442.7   0.21767       6.5         H               192.9  0.113115  0.056221  0.002472  5.641315  1.032456  5.463976  1.298908     48.07    4.2525   36.4156   0.29979   5.01397   0.29886   0.01859  50.99738   4.39564    3093.5  0.659171  0.008223  0.000449  0.000259  0.162827  6.910151  0.887074     96.01  1.000179  1.000026     3.835    32.169     107.8      79.8      65.6     445.7     12.21     -1.32     -0.57      0.36     -1.18      4.25      3.07     -0.56      1.73      0.08     -2.12     -2.02     -0.90      0.09      0.97    -10.85     -1.38      8.00     -2.59      0.91
     -32.485020    -103.977600     102.4      0.41      2.31     105.4         1         3      1000      4212   1791.30    -7.468       5.3      24.0   364.453     0.854     227.0   0.22263       6.7         H               192.9  0.117971  0.057689  0.001726  6.016121  1.066262  5.642255  1.310520     39.59    3.1234   21.6880   0.29773   4.47103   0.35824   0.03107  30.46228   3.33611    2347.5  0.673679  0.003608  0.000179  0.000265  0.160908  6.896499  0.902459     94.88  1.000254  1.000040     3.997    34.430     110.8      73.8      38.0     343.9     12.03      0.36      1.41      1.53     -1.93      2.81      2.43     -0.09      2.85      0.79     -1.83     -1.81     -0.53      1.04      0.47     -7.05     -5.05      2.14     -3.53      2.57
     -32.564781    -103.868767     100.4      0.64      2.31     103.7         2         1      2447      1000   2052.69    -6.877       4.8      23.1   368.447     0.874     445.7   0.23315       6.4         H               192.9  0.118397  0.065068  0.002218  6.206682  1.074354  5.777130  1.329366     57.31    3.6396   28.8759   0.30814   4.72695   0.33257   0.02517  39.95631   3.82156    2728.7  0.681963  0.006939  0.000419  0.000280  0.164756  6.954915  0.927032    100.47  1.000216  1.000035     4.003    34.931     114.0      76.4      50.7     412.8     12.57     -0.69      0.38      0.45     -2.27      3.43      2.04      0.09      2.54      0.08     -2.50     -1.62     -0.61     -0.09      0.85     -9.04     -4.30      4.14     -3.83      0.35
     -32.551022    -103.931549     103.1      0.44      2.31     104.0         2         2      2447      2606   2158.79    -6.658       5.8      23.5   339.947     0.768     113.0   0.18528       6.8         H               192.9  0.100142  0.051248  0.001499  5.401103  0.941622  5.735956  1.243896     31.51    3.8478   28.3283   0.27814   4.85899   0.30949   0.02028  40.89770   4.00800    2685.3  0.614225  0.001542  0.000064  0.000273  0.158840  6.909261  0.808923     97.69  1.000215  1.000030     3.485    26.183     105.0      78.9      51.1     353.7     12.24     -0.25      0.75      1.08     -2.00      3.01      1.89      0.11      2.70      0.81     -2.47     -2.12     -1.30      0.96      0.46     -7.12     -4.82      3.12     -3.66      2.77
     -32.537487    -103.993149     106.4      0.50      2.31     103.0         2         3      2447      4212   2174.99    -6.625       6.7      24.0   332.870     0.739      95.7   0.17303       7.2         H               192.9  0.092623  0.048091  0.001443  4.984893  0.929271  5.364306  1.217650     32.23    3.8797   27.6859   0.26805   4.88340   0.30381   0.01919  40.52863   4.03746    2648.4  0.595874  0.001275  0.000055  0.000253  0.161668  6.909142  0.775962     96.13  1.000205  1.000027     3.371    25.025     102.3      79.6      50.7     356.6     12.28     -0.24      0.03      0.97     -2.28      3.40      1.88      0.46      2.51      0.00     -2.24     -1.53     -1.10      0.59      0.59     -7.72     -5.26      4.13     -2.99      2.80
     -32.617264    -103.884239     101.7      0.54      2.31     106.7         3         1      3894      1000   2443.36    -6.120       6.0      23.1   337.093     0.757      89.7   0.18166       6.6         H               192.9  0.096068  0.051783  0.001227  4.993862  0.946892  5.273951  1.234266     43.32    4.4024   35.3012   0.27544   5.10377   0.28188   0.01564  51.15526   4.52786    3015.6  0.607452  0.001236  0.000041  0.000281  0.160421  6.923131  0.796807    101.54  1.000213  1.000028     3.492    26.853     105.0      81.7      65.0     410.6     12.01     -0.64      0.70      1.85     -1.65      3.06      1.58     -0.34      2.57      0.23     -2.08     -1.72     -1.18      0.41      0.89     -5.70     -3.58      3.64     -3.12      1.61
     -32.603497    -103.947067     100.4      0.61      2.31     103.7         3         2      3894      2606   2235.90    -6.505       6.1      23.5   341.397     0.771     143.1   0.18715       6.4         H               192.9  0.098031  0.053967  0.001572  5.054002  0.946201  5.341362  1.245867     53.94    3.9764   29.9511   0.27966   4.91794   0.30293   0.01907  43.14941   4.12668    2785.3  0.615903  0.002025  0.000101  0.000284  0.163736  6.962401  0.812062    101.21  1.000214  1.000030     3.619    29.508     107.8      79.6      54.6     391.0     12.35     -0.38      0.30      1.00     -2.16      3.27      1.71      0.36      2.52      0.66     -2.28     -1.88     -1.26      0.61      1.02     -7.71     -4.62      4.00     -2.97      1.89
     -32.589951    -104.008713     100.4      0.74      2.31     103.7         3         3      3894      4212   2075.54    -6.829       6.3      24.0   338.184     0.757     119.9   0.18061       6.4         H               192.9  0.095021  0.055886  0.001539  5.318688  0.918815  5.788641  1.231970     44.65    3.6614   25.5903   0.27635   4.77431   0.31806   0.02185  37.03654   3.82732    2556.8  0.603106  0.001606  0.000083  0.000276  0.163979  7.000515  0.796754    101.31  1.000197  1.000027     3.447    28.397     102.3      78.1      46.3     367.6     11.58     -0.67      0.62      2.17     -3.17      4.16      3.00     -0.60      3.80     -0.61     -2.84     -2.92     -1.23      0.78      1.00     -5.38     -6.65      5.58     -4.04      3.19
