corner points
105.7988815    -12.29611969
105.7584152    -12.1216259
105.9775925    -12.25534534
105.9369965    -12.08090591
========== RESULTS WAVE VERSION 16.10.2018 ====================
IMAGE SIZE  X: 4376     Y:4779    col:row     POLARIZATION:VV
COVERAGE    X: 19.89377517km       Y: 19.84919693km 
RESOLUTION dX: 4.5461095m       dY:4.153420575m  
resolution of original product 4.5461095m x 4.153420575m;   raster step x:5996.318431m  
===============================================================
FLAGS: H=HIGH PROBABILITY SEA STATE, I=LAND(ISLAND), O=OUTLIER NO SEA STATE, N=NO WIND AVAILABLE, SEA STATE NOT VISIBLE, M=MEAN PROBABILITY SEA STATE, L= LOW PROBABILITY SEA STATE
Filtering wave length
 integration  Lmin=1m
 integration  Lmax=2200m
  peak        Lmin=100m
               FFT=1024pixels, 4655.216128m 
   mean-Hs (SWH_c)=0.2m
         mean-wind=3.709876299m/s
--------------0--------------1---------2---------3---------4---------5---------6---------7---------8---------9--------10--------11--------12--------13--------14--------15--------16--------17--------18--------19------------------20--------21--------22--------23--------24--------25--------26--------27--------28--------29--------30--------31--------32--------33--------34--------35--------36--------37--------38--------39--------40--------41--------42--------43--------44--------45--------46--------47--------48--------49--------50--------51--------52--------53--------54--------55--------56--------57--------58--------59--------60--------61--------62--------63--------64--------65--------66--------67--------68--------69--------70--------71--------72--------73
            LAT            LON  P-LENGHT     SWH_o     SWH_c     P-DIR      LINE     POINT     ROW-Y     COL-X  M-INTENC        dB      WIND INC-ANGLE  ENERGY-M  ENERGY-N  ENERGY-R ENERGY-NN  FG-DEPTH      FLAG         HEADING-DEG    E30-75   E75-390  E390-600 meanincut   meanout   cut/out  STD-NORM  SPEC-MAX   GL-MEAN    GL-VAR      CORR   ENTROPY   HOMOGEN    ENERGY  CONTRAST  DISSIMIL     STD-O    E 1-30 E600-2000   E2000 >      GODA  LONG-HIG     Tmean  CONVOLUT  MEAN-DIR  relation     Sy/Sx  SKEWNESS  KURTOSIS  cutoff-A >50/10000     INT*V   INT-LOG  S-1_g1f1  S-2_g1f2  S-3_g1f3  S-4_g2f1  S-5_g2f2  S-6_g2f3  S-7_g3f1  S-8_g3f2  S-9_g3f3 S-10_g1f4 S-11_g2f4 S-12_g3f4 S-13_g1f5 S-14_g2f5 S-15_g3f5 S-16_g4f1 S-17_g4f2 S-18_g4f3 S-19_g4f4 S-20_g4f5
--------------1--------------2---------3---------4---------5---------6---------7---------8---------9--------10--------11--------12--------13--------14--------15--------16--------17--------18--------19--------20------------------21--------22--------23--------24--------25--------26--------27--------28--------29--------30--------31--------32--------33--------34--------35--------36--------37--------38--------39--------40--------41--------42--------43--------44--------45--------46--------47--------48--------49--------50--------51--------52--------53--------54--------55--------56--------57--------58--------59--------60--------61--------62--------63--------64--------65--------66--------67--------68--------69--------70--------71--------72--------73--------74
     -12.250189     105.831711     386.3      0.24      1.29      95.2         1         1      1000      1000     96.91   -20.136       3.6      36.7   232.691     0.541     244.6   0.05219     100.0         H               347.9  0.035064  0.014271  0.001323  1.285128  0.596530  2.154340  1.044936      8.46    1.4851    4.0072   0.05204   3.34656   0.46437   0.06747   7.59735   1.84568     101.3  0.485523  0.004874  0.000489  0.000089  0.179812  6.931840  0.546219     94.25  1.000171  1.000002     2.271    11.408     166.7      61.6       8.8      89.1     12.54     -1.42      0.72     -2.18     -0.52     -2.22      4.30      2.00      1.06      0.68     -0.85      0.94      0.55     -0.99      0.08    -19.18     -2.72     -5.33     -3.14     -3.20
     -12.237863     105.885757     386.3      0.25      1.29      95.2         1         2      1000      2319    100.30   -19.987       3.8      37.1   233.646     0.546     275.4   0.05359     100.0         H               347.9  0.035343  0.015247  0.001376  1.377732  0.598709  2.301171  1.049692     10.30    1.5488    4.3445   0.05839   3.41022   0.45585   0.06411   8.18155   1.91367     105.3  0.488591  0.005143  0.000621  0.000089  0.181879  6.963143  0.551440    106.62  1.000003  1.000000     2.297    11.607     148.0      62.3       9.5      93.3     12.42     -2.50      1.02     -1.73      0.92     -2.67      4.01      1.48      1.38     -0.18      0.30      0.60      0.58     -1.67      1.17    -17.99      1.63     -6.38     -0.32     -6.00
     -12.225632     105.939346     331.5      0.25      1.29      94.5         1         3      1000      3638     95.17   -20.215       3.8      37.4   231.216     0.534     177.1   0.04988     100.0         H               347.9  0.033097  0.013140  0.001360  1.169621  0.576388  2.029223  1.038651      7.11    1.4520    3.8113   0.04475   3.31302   0.46870   0.06905   7.28156   1.81028      98.9  0.483019  0.003821  0.000325  0.000088  0.180442  6.934498  0.538215    105.28  1.000300  1.000005     2.211    10.786     166.7      61.3       8.5      81.0     12.55     -1.53      1.46     -2.28     -0.24     -3.06      4.61      1.75      1.58      0.25      0.08      0.14      0.65     -0.46     -0.02    -20.28     -1.81     -8.14     -0.48     -2.24
     -12.197458     105.819466       0.0      0.00      0.00       0.0         2         1      2444      1000      0.00     0.000       0.0      36.7     0.000     0.000       0.0   0.00000       0.0         O               347.9  0.000000  0.000000  0.000000  0.000000  0.000000  0.000000  0.000000      0.00    0.0000    0.0000   0.00000   0.00000   0.00000   0.00000   0.00000   0.00000       0.0  0.000000  0.000000  0.000000  0.000000  0.000000  0.000000  0.000000      0.00  0.000000  0.000000     0.000     0.000       0.0       0.0       0.0       0.0      0.00      0.00      0.00      0.00      0.00      0.00      0.00      0.00      0.00      0.00      0.00      0.00      0.00      0.00      0.00      0.00      0.00      0.00      0.00      0.00
     -12.185136     105.873512       0.0      0.00      0.00       0.0         2         2      2444      2319      0.00     0.000       0.0      37.1     0.000     0.000       0.0   0.00000       0.0         O               347.9  0.000000  0.000000  0.000000  0.000000  0.000000  0.000000  0.000000      0.00    0.0000    0.0000   0.00000   0.00000   0.00000   0.00000   0.00000   0.00000       0.0  0.000000  0.000000  0.000000  0.000000  0.000000  0.000000  0.000000      0.00  0.000000  0.000000     0.000     0.000       0.0       0.0       0.0       0.0      0.00      0.00      0.00      0.00      0.00      0.00      0.00      0.00      0.00      0.00      0.00      0.00      0.00      0.00      0.00      0.00      0.00      0.00      0.00      0.00
     -12.172911     105.927078       0.0      0.00      0.00       0.0         2         3      2444      3638      0.00     0.000       0.0      37.4     0.000     0.000       0.0   0.00000       0.0         O               347.9  0.000000  0.000000  0.000000  0.000000  0.000000  0.000000  0.000000      0.00    0.0000    0.0000   0.00000   0.00000   0.00000   0.00000   0.00000   0.00000       0.0  0.000000  0.000000  0.000000  0.000000  0.000000  0.000000  0.000000      0.00  0.000000  0.000000     0.000     0.000       0.0       0.0       0.0       0.0      0.00      0.00      0.00      0.00      0.00      0.00      0.00      0.00      0.00      0.00      0.00      0.00      0.00      0.00      0.00      0.00      0.00      0.00      0.00      0.00
     -12.144726     105.807236       0.0      0.00      0.00       0.0         3         1      3888      1000      0.00     0.000       0.0      36.7     0.000     0.000       0.0   0.00000       0.0         O               347.9  0.000000  0.000000  0.000000  0.000000  0.000000  0.000000  0.000000      0.00    0.0000    0.0000   0.00000   0.00000   0.00000   0.00000   0.00000   0.00000       0.0  0.000000  0.000000  0.000000  0.000000  0.000000  0.000000  0.000000      0.00  0.000000  0.000000     0.000     0.000       0.0       0.0       0.0       0.0      0.00      0.00      0.00      0.00      0.00      0.00      0.00      0.00      0.00      0.00      0.00      0.00      0.00      0.00      0.00      0.00      0.00      0.00      0.00      0.00
     -12.132409     105.861259       0.0      0.00      0.00       0.0         3         2      3888      2319      0.00     0.000       0.0      37.1     0.000     0.000       0.0   0.00000       0.0         O               347.9  0.000000  0.000000  0.000000  0.000000  0.000000  0.000000  0.000000      0.00    0.0000    0.0000   0.00000   0.00000   0.00000   0.00000   0.00000   0.00000       0.0  0.000000  0.000000  0.000000  0.000000  0.000000  0.000000  0.000000      0.00  0.000000  0.000000     0.000     0.000       0.0       0.0       0.0       0.0      0.00      0.00      0.00      0.00      0.00      0.00      0.00      0.00      0.00      0.00      0.00      0.00      0.00      0.00      0.00      0.00      0.00      0.00      0.00      0.00
     -12.120188     105.914825       0.0      0.00      0.00       0.0         3         3      3888      3638      0.00     0.000       0.0      37.4     0.000     0.000       0.0   0.00000       0.0         O               347.9  0.000000  0.000000  0.000000  0.000000  0.000000  0.000000  0.000000      0.00    0.0000    0.0000   0.00000   0.00000   0.00000   0.00000   0.00000   0.00000       0.0  0.000000  0.000000  0.000000  0.000000  0.000000  0.000000  0.000000      0.00  0.000000  0.000000     0.000     0.000       0.0       0.0       0.0       0.0      0.00      0.00      0.00      0.00      0.00      0.00      0.00      0.00      0.00      0.00      0.00      0.00      0.00      0.00      0.00      0.00      0.00      0.00      0.00      0.00
