corner points
123.5861588    -57.23349762
123.4562149    -57.07055664
123.8964005    -57.15900421
123.7652817    -56.99637604
========== RESULTS WAVE VERSION 16.10.2018 ====================
IMAGE SIZE  X: 4376     Y:4771    col:row     POLARIZATION:VV
COVERAGE    X: 20.39509398km       Y: 19.69787287km 
RESOLUTION dX: 4.660670472m       dY:4.128667547m  
resolution of original product 4.660670472m x 4.128667547m;   raster step x:5998.282897m  
===============================================================
FLAGS: H=HIGH PROBABILITY SEA STATE, I=LAND(ISLAND), O=OUTLIER NO SEA STATE, N=NO WIND AVAILABLE, SEA STATE NOT VISIBLE, M=MEAN PROBABILITY SEA STATE, L= LOW PROBABILITY SEA STATE
Filtering wave length
 integration  Lmin=1m
 integration  Lmax=2200m
  peak        Lmin=100m
               FFT=1024pixels, 4772.526563m 
   mean-Hs (SWH_c)=3.022556458m
         mean-wind=11.66975307m/s
--------------0--------------1---------2---------3---------4---------5---------6---------7---------8---------9--------10--------11--------12--------13--------14--------15--------16--------17--------18--------19------------------20--------21--------22--------23--------24--------25--------26--------27--------28--------29--------30--------31--------32--------33--------34--------35--------36--------37--------38--------39--------40--------41--------42--------43--------44--------45--------46--------47--------48--------49--------50--------51--------52--------53--------54--------55--------56--------57--------58--------59--------60--------61--------62--------63--------64--------65--------66--------67--------68--------69--------70--------71--------72--------73
            LAT            LON  P-LENGHT     SWH_o     SWH_c     P-DIR      LINE     POINT     ROW-Y     COL-X  M-INTENC        dB      WIND INC-ANGLE  ENERGY-M  ENERGY-N  ENERGY-R ENERGY-NN  FG-DEPTH      FLAG         HEADING-DEG    E30-75   E75-390  E390-600 meanincut   meanout   cut/out  STD-NORM  SPEC-MAX   GL-MEAN    GL-VAR      CORR   ENTROPY   HOMOGEN    ENERGY  CONTRAST  DISSIMIL     STD-O    E 1-30 E600-2000   E2000 >      GODA  LONG-HIG     Tmean  CONVOLUT  MEAN-DIR  relation     Sy/Sx  SKEWNESS  KURTOSIS  cutoff-A >50/10000     INT*V   INT-LOG  S-1_g1f1  S-2_g1f2  S-3_g1f3  S-4_g2f1  S-5_g2f2  S-6_g2f3  S-7_g3f1  S-8_g3f2  S-9_g3f3 S-10_g1f4 S-11_g2f4 S-12_g3f4 S-13_g1f5 S-14_g2f5 S-15_g3f5 S-16_g4f1 S-17_g4f2 S-18_g4f3 S-19_g4f4 S-20_g4f5
--------------1--------------2---------3---------4---------5---------6---------7---------8---------9--------10--------11--------12--------13--------14--------15--------16--------17--------18--------19--------20------------------21--------22--------23--------24--------25--------26--------27--------28--------29--------30--------31--------32--------33--------34--------35--------36--------37--------38--------39--------40--------41--------42--------43--------44--------45--------46--------47--------48--------49--------50--------51--------52--------53--------54--------55--------56--------57--------58--------59--------60--------61--------62--------63--------64--------65--------66--------67--------68--------69--------70--------71--------72--------73--------74
     -57.182198     123.630638     281.3      3.35      6.06      70.6         1         1      1000      1000    527.16   -12.781      12.0      35.6   331.168     0.689     131.7   0.12733     100.0         H               342.3  0.066330  0.059670  0.002533  4.568993  0.831449  5.495217  1.177145    110.54    9.8931  128.3563   0.17924   6.61812   0.14247   0.00292 210.70068   9.94004     620.5  0.558997  0.001643  0.000085  0.000212  0.229457  7.432134  0.705144     78.98  1.000432  1.000048     3.464    30.378     200.3      94.0     300.8     901.9     15.70      4.59     12.27     -0.19     -1.26      3.18     -1.36     -2.04     -3.82      5.69     -1.07     -2.87      5.53      3.52     -0.62    -10.21     -2.48      1.15     -1.92      2.38
     -57.160252     123.722221     240.8      2.98      6.06      73.5         1         2      1000      2287    504.64   -12.970      12.0      36.0   322.792     0.659     107.1   0.11633      59.0         H               342.3  0.061606  0.051940  0.001898  4.331210  0.811424  5.337788  1.151643     77.60    9.4945  117.9797   0.17060   6.55112   0.14652   0.00311 195.70316   9.57686     581.1  0.542727  0.001447  0.000062  0.000195  0.226729  7.402631  0.672604     80.65  1.000342  1.000035     3.250    31.133     181.9      93.6     266.8     811.9     15.05      3.44     11.31      1.37     -0.44      4.56     -1.40     -1.55     -3.46      4.19      0.07     -2.43      5.20      3.69     -0.07     -7.67     -1.87      3.31     -0.54      2.20
     -57.138435     123.812859     297.8      3.02      6.06      69.4         1         3      1000      3574    488.92   -13.108      12.1      36.3   322.589     0.656     106.7   0.11390     100.0         H               342.3  0.060191  0.051966  0.002392  4.235949  0.795883  5.322327  1.148351    102.04    9.1936  111.7682   0.16849   6.49349   0.15008   0.00332 185.87381   9.31200     561.5  0.540067  0.001230  0.000056  0.000192  0.229581  7.408575  0.668490     76.06  1.000349  1.000035     3.053    21.426     181.9      93.3     248.9     733.3     15.62      4.45     11.34     -0.47     -1.35      2.86     -1.31     -2.54     -3.42      5.26     -1.32     -3.04      3.89      3.63     -0.14    -10.64     -1.95      0.80     -2.15      3.37
     -57.132595     123.590927     281.3      3.07      6.06      70.6         2         1      2453      1000    502.27   -12.991      11.6      35.6   326.353     0.672     111.1   0.12015     100.0         H               342.3  0.063071  0.055097  0.002213  4.345627  0.804542  5.401366  1.162521     86.97    9.4377  117.7355   0.17362   6.53764   0.14787   0.00317 194.59061   9.52566     583.8  0.550493  0.001152  0.000071  0.000201  0.229018  7.422726  0.686232     80.36  1.000385  1.000041     3.276    26.886     190.7      93.5     267.6     836.0     15.63      3.71     12.05      0.15     -1.11      3.31     -1.70     -1.72     -3.93      4.36     -1.01     -2.10      5.21      3.50     -0.59     -9.41     -2.21      1.30     -2.34      2.51
     -57.110676     123.682404     316.2      3.01      6.06      68.0         2         2      2453      2287    481.34   -13.175      11.6      36.0   328.557     0.673     108.0   0.12021     100.0         H               342.3  0.063416  0.054462  0.002162  4.159822  0.808434  5.145530  1.163719     72.56    9.0382  109.5743   0.17228   6.45933   0.15287   0.00345 181.39163   9.16215     560.1  0.552261  0.001191  0.000051  0.000191  0.230805  7.426500  0.687163     80.30  1.000425  1.000044     3.314    27.790     181.9      93.0     245.1     800.9     15.75      3.79     12.21     -0.24     -1.29      2.60     -2.14     -1.70     -4.26      3.81     -0.71     -1.93      5.19      3.01     -0.42     -9.43     -2.74      0.75     -2.04      1.67
     -57.088882     123.772934     316.2      2.95      6.06      68.0         2         3      2453      3574    465.28   -13.323      11.7      36.3   325.847     0.666      99.8   0.11787     100.0         H               342.3  0.062802  0.053182  0.002254  4.245782  0.812563  5.225173  1.157841     93.16    8.7325  102.6684   0.16877   6.39892   0.15602   0.00365 170.68289   8.88814     538.7  0.547463  0.001063  0.000040  0.000192  0.227454  7.400134  0.679878     81.54  1.000396  1.000041     3.329    29.226     181.9      92.7     226.6     808.9     15.48      3.74     11.71     -0.11     -1.16      2.96     -1.10     -1.90     -3.18      4.35     -1.01     -2.46      5.55      2.94     -0.27     -9.82     -2.10      0.89     -1.83      1.48
     -57.082977     123.551323     287.1      3.14      6.06      74.2         3         1      3906      1000    484.05   -13.151      11.3      35.6   334.066     0.690     119.0   0.12691     100.0         H               342.3  0.066601  0.058601  0.002110  4.617861  0.850822  5.427532  1.178279     82.22    9.0773  111.4072   0.17776   6.46388   0.15278   0.00344 183.20618   9.19426     570.4  0.561932  0.001270  0.000088  0.000202  0.226761  7.397364  0.705581     83.73  1.000402  1.000044     3.500    30.298     190.7      93.1     252.2     817.9     15.24      3.26     11.58      0.81     -0.86      3.97     -1.19     -1.65     -3.02      3.81     -0.86     -2.37      5.66      3.30      0.00     -8.35     -2.07      1.74     -1.74      1.76
     -57.061085     123.642685     281.3      2.85      6.06      70.6         3         2      3906      2287    461.79   -13.356      11.3      36.0   324.796     0.666      93.7   0.11787     100.0         H               342.3  0.063652  0.053106  0.002018  4.390694  0.810456  5.417559  1.157639     81.73    8.6678  101.7282   0.17198   6.38434   0.15740   0.00371 168.46674   8.81444     534.5  0.546622  0.000952  0.000036  0.000192  0.225801  7.380688  0.679861     81.43  1.000409  1.000042     3.206    24.353     190.7      92.6     223.3     733.4     15.16      3.36     11.87      0.89     -0.54      3.44     -1.05     -1.42     -2.62      4.11     -0.31     -1.68      5.29      3.61      0.09     -8.39     -1.52      0.40     -1.43      2.13
     -57.039322     123.733116     266.4      2.83      6.06      71.6         3         3      3906      3574    461.79   -13.356      11.6      36.3   322.033     0.655     106.1   0.11273     100.0         H               342.3  0.061218  0.050908  0.002090  4.098849  0.797445  5.139980  1.147713     88.72    8.6706  100.7857   0.16686   6.38769   0.15693   0.00369 167.93805   8.81924     530.0  0.539590  0.001233  0.000071  0.000195  0.228439  7.385300  0.667954     81.94  1.000382  1.000039     3.108    22.633     190.7      92.7     220.7     700.4     15.40      2.86     12.16      0.17     -1.07      2.87     -1.18     -1.90     -3.21      3.82     -1.38     -2.68      5.70      3.11     -0.21     -9.03     -1.55      0.75     -1.77      2.14
