corner points
115.2495117    -48.53736115
115.1688538    -48.36273956
115.5191879    -48.48016357
115.4375153    -48.30573273
========== RESULTS WAVE VERSION 16.10.2018 ====================
IMAGE SIZE  X: 5471     Y:4906    col:row     POLARIZATION:VV
COVERAGE    X: 20.80648789km       Y: 20.26432406km 
RESOLUTION dX: 3.803050245m       dY:4.130518561m  
resolution of original product 3.803050245m x 4.130518561m;   raster step x:5997.410237m  
===============================================================
FLAGS: H=HIGH PROBABILITY SEA STATE, I=LAND(ISLAND), O=OUTLIER NO SEA STATE, N=NO WIND AVAILABLE, SEA STATE NOT VISIBLE, M=MEAN PROBABILITY SEA STATE, L= LOW PROBABILITY SEA STATE
Filtering wave length
 integration  Lmin=1m
 integration  Lmax=2200m
  peak        Lmin=100m
               FFT=1024pixels, 3894.323451m 
   mean-Hs (SWH_c)=4.154035339m
         mean-wind=14.04958725m/s
--------------0--------------1---------2---------3---------4---------5---------6---------7---------8---------9--------10--------11--------12--------13--------14--------15--------16--------17--------18--------19------------------20--------21--------22--------23--------24--------25--------26--------27--------28--------29--------30--------31--------32--------33--------34--------35--------36--------37--------38--------39--------40--------41--------42--------43--------44--------45--------46--------47--------48--------49--------50--------51--------52--------53--------54--------55--------56--------57--------58--------59--------60--------61--------62--------63--------64--------65--------66--------67--------68--------69--------70--------71--------72--------73
            LAT            LON  P-LENGHT     SWH_o     SWH_c     P-DIR      LINE     POINT     ROW-Y     COL-X  M-INTENC        dB      WIND INC-ANGLE  ENERGY-M  ENERGY-N  ENERGY-R ENERGY-NN  FG-DEPTH      FLAG         HEADING-DEG    E30-75   E75-390  E390-600 meanincut   meanout   cut/out  STD-NORM  SPEC-MAX   GL-MEAN    GL-VAR      CORR   ENTROPY   HOMOGEN    ENERGY  CONTRAST  DISSIMIL     STD-O    E 1-30 E600-2000   E2000 >      GODA  LONG-HIG     Tmean  CONVOLUT  MEAN-DIR  relation     Sy/Sx  SKEWNESS  KURTOSIS  cutoff-A >50/10000     INT*V   INT-LOG  S-1_g1f1  S-2_g1f2  S-3_g1f3  S-4_g2f1  S-5_g2f2  S-6_g2f3  S-7_g3f1  S-8_g3f2  S-9_g3f3 S-10_g1f4 S-11_g2f4 S-12_g3f4 S-13_g1f5 S-14_g2f5 S-15_g3f5 S-16_g4f1 S-17_g4f2 S-18_g4f3 S-19_g4f4 S-20_g4f5
--------------1--------------2---------3---------4---------5---------6---------7---------8---------9--------10--------11--------12--------13--------14--------15--------16--------17--------18--------19--------20------------------21--------22--------23--------24--------25--------26--------27--------28--------29--------30--------31--------32--------33--------34--------35--------36--------37--------38--------39--------40--------41--------42--------43--------44--------45--------46--------47--------48--------49--------50--------51--------52--------53--------54--------55--------56--------57--------58--------59--------60--------61--------62--------63--------64--------65--------66--------67--------68--------69--------70--------71--------72--------73--------74
     -48.491074     115.283699     282.4      4.36      4.87     109.5         1         1      1000      1000   5678.06    -2.458      15.4      22.6   299.064     0.936     424.7   0.26054     100.0         H               345.0  0.109510  0.118649  0.003234  7.526737  1.128403  6.670257  1.372081    284.51   10.4189  166.9047   0.32662   6.59740   0.16402   0.00379 224.78174   9.86054    7789.9  0.699545  0.005371  0.000266  0.000297  0.237664  7.553076  0.997801    106.12  1.000319  1.000045     4.415    47.028     153.8      92.5     429.9    1118.6     16.15     -4.48     12.32     -0.02      1.77      2.99     -3.92      2.48     -5.30     -5.49      2.10      3.13      4.45      1.84     -0.51     -7.01      2.35      2.49      2.43      0.58
     -48.474445     115.362267     269.0      3.97      4.87     104.7         1         2      1000      2577   5129.50    -2.899      15.1      23.1   291.751     0.901     214.9   0.24608     100.0         H               345.0  0.107843  0.108830  0.003271  7.412639  1.122355  6.604543  1.346175    162.42    9.4861  142.3142   0.31764   6.44737   0.17364   0.00440 194.21744   9.09079    6904.4  0.679235  0.002413  0.000061  0.000265  0.228371  7.469085  0.958299    100.66  1.000332  1.000046     4.160    38.142     148.0      91.6     340.9    1009.1     15.50     -4.14     11.38      0.70      1.64      3.73     -2.86      2.21     -3.98     -4.40      1.19      2.49      3.29      3.04      0.42     -6.69      2.49      2.94      1.81      2.13
     -48.458076     115.439301     282.4      4.05      4.87     109.5         1         3      1000      4154   4795.69    -3.191      15.3      23.5   292.408     0.892     291.5   0.23842     100.0         H               345.0  0.103197  0.108070  0.003288  7.178156  1.094810  6.556528  1.340197    252.94    8.8888  128.4043   0.31351   6.33442   0.18241   0.00503 176.29666   8.59883    6426.1  0.674137  0.003522  0.000135  0.000289  0.236491  7.528651  0.946916    108.56  1.000317  1.000040     4.178    41.012     148.0      90.7     294.6     964.7     16.18     -5.94     12.26     -0.64      2.18      1.93     -3.59      3.04     -4.50     -7.02      2.12      3.62      3.12      2.26      0.13     -7.86      3.34      0.49      3.68      1.44
     -48.439396     115.259735     248.2      4.58      4.87     107.1         2         1      2452      1000   5557.41    -2.551      15.0      22.6   303.411     0.952     253.5   0.26827      68.7         H               345.0  0.113401  0.127861  0.003119  7.567394  1.173677  6.447595  1.381319    334.29   10.2176  163.5982   0.32896   6.55719   0.16780   0.00403 219.56110   9.69526    7675.5  0.705775  0.002730  0.000081  0.000323  0.239910  7.582841  1.016006    105.41  1.000314  1.000045     4.355    41.847     160.0      92.1     419.2    1130.2     16.27     -5.75     12.99      0.13      1.73      2.90     -4.55      3.00     -5.69     -7.24      1.59      4.16      4.71      2.44     -1.19     -6.29      2.89      1.78      2.55      1.51
     -48.422783     115.338226     282.4      4.23      4.87     109.5         2         2      2452      2577   4796.27    -3.191      14.1      23.1   299.762     0.940     295.5   0.26299     100.0         H               345.0  0.110395  0.121237  0.004034  7.726244  1.135922  6.801740  1.375784    316.26    8.8621  130.7595   0.32587   6.31458   0.18624   0.00527 176.29843   8.54121    6597.2  0.701741  0.003234  0.000112  0.000294  0.238283  7.558896  1.002225    107.16  1.000338  1.000046     5.019    91.775     148.0      90.4     303.5    1031.2     16.26     -5.32     12.46     -0.72      1.84      1.96     -3.63      2.14     -4.90     -6.51      1.71      2.73      3.65      1.88     -0.27     -8.19      3.49      0.97      3.28      1.18
     -48.406433     115.415169     288.2      4.04      4.87     105.8         2         3      2452      4154   4463.52    -3.503      14.3      23.6   291.691     0.893     338.4   0.23977     100.0         H               345.0  0.102393  0.111392  0.003124  7.351867  1.098279  6.693990  1.340941    219.32    8.2756  115.3471   0.31779   6.20384   0.19260   0.00578 157.38055   8.05235    5984.6  0.672880  0.003751  0.000167  0.000273  0.235199  7.541856  0.949705    103.37  1.000351  1.000045     4.063    37.133     148.0      89.8     254.5     871.7     16.08     -4.73     12.51     -0.38      2.04      2.04     -3.47      1.83     -4.23     -5.17      1.89      2.01      3.83      2.50     -0.08     -7.44      3.71      0.33      3.64      1.73
     -48.387711     115.235825     275.7      4.13      4.87     113.0         3         1      3904      1000   5166.55    -2.868      13.9      22.6   301.439     0.940     287.9   0.26096     100.0         H               345.0  0.110398  0.118746  0.003190  7.506324  1.130891  6.637531  1.375151    189.65    9.5308  146.1705   0.32619   6.44341   0.17593   0.00454 196.98314   9.11866    7103.7  0.705049  0.003524  0.000130  0.000285  0.236440  7.553123  1.002227    102.37  1.000359  1.000049     4.744    72.662     148.0      91.4     355.7    1064.8     15.87     -4.46     12.62      0.48      0.85      2.95     -3.72      2.17     -4.73     -5.62      0.64      2.60      4.77      2.54     -0.89     -6.25      1.75      1.43      1.74      1.82
     -48.371117     115.314224     264.2      3.92      4.87     108.2         3         2      3904      2577   4187.97    -3.780      12.1      23.1   303.445     0.950     340.2   0.26619     100.0         H               345.0  0.113723  0.122371  0.003320  7.667742  1.139070  6.731580  1.382020    273.91    7.7384  107.3707   0.33016   6.06338   0.20731   0.00701 143.84363   7.57082    5787.3  0.706834  0.004008  0.000169  0.000293  0.235150  7.542478  1.012692    106.40  1.000321  1.000045     4.347    41.657     148.0      88.4     233.3     883.2     15.74     -5.07     11.96      0.70      1.13      3.48     -3.42      2.62     -3.99     -6.39      0.91      3.49      3.52      3.01     -0.25     -6.13      2.20      1.76      2.12      2.63
     -48.354778     115.391083     264.2      4.10      4.87     108.2         3         3      3904      4154   3607.09    -4.428      11.3      23.6   310.318     0.980     404.4   0.28012     100.0         H               345.0  0.116973  0.132500  0.005154  8.347797  1.163786  7.172968  1.405410    278.77    6.6375   84.7175   0.33769   5.78005   0.23277   0.00942 112.21831   6.55656    5068.9  0.720770  0.004743  0.000229  0.000283  0.238403  7.557497  1.047026    104.32  1.000350  1.000048     4.790    53.937     148.0      86.1     175.1     848.8     16.17     -4.10     12.18     -0.54      0.99      2.88     -3.01      1.99     -4.98     -5.07      0.69      2.74      4.59      1.76     -0.80     -9.02      2.08      2.70      1.69      0.88
