corner points
116.0881119    -50.25209045
116.0020905    -50.07801056
116.3672028    -50.1931076
116.2800903    -50.0192337
========== RESULTS WAVE VERSION 16.10.2018 ====================
IMAGE SIZE  X: 5471     Y:4907    col:row     POLARIZATION:VV
COVERAGE    X: 20.85760681km       Y: 20.26005645km 
RESOLUTION dX: 3.812393859m       dY:4.128807103m  
resolution of original product 3.812393859m x 4.128807103m;   raster step x:5996.895541m  
===============================================================
FLAGS: H=HIGH PROBABILITY SEA STATE, I=LAND(ISLAND), O=OUTLIER NO SEA STATE, N=NO WIND AVAILABLE, SEA STATE NOT VISIBLE, M=MEAN PROBABILITY SEA STATE, L= LOW PROBABILITY SEA STATE
Filtering wave length
 integration  Lmin=1m
 integration  Lmax=2200m
  peak        Lmin=100m
               FFT=1024pixels, 3903.891312m 
   mean-Hs (SWH_c)=3.319434509m
         mean-wind=10.43436146m/s
--------------0--------------1---------2---------3---------4---------5---------6---------7---------8---------9--------10--------11--------12--------13--------14--------15--------16--------17--------18--------19------------------20--------21--------22--------23--------24--------25--------26--------27--------28--------29--------30--------31--------32--------33--------34--------35--------36--------37--------38--------39--------40--------41--------42--------43--------44--------45--------46--------47--------48--------49--------50--------51--------52--------53--------54--------55--------56--------57--------58--------59--------60--------61--------62--------63--------64--------65--------66--------67--------68--------69--------70--------71--------72--------73
            LAT            LON  P-LENGHT     SWH_o     SWH_c     P-DIR      LINE     POINT     ROW-Y     COL-X  M-INTENC        dB      WIND INC-ANGLE  ENERGY-M  ENERGY-N  ENERGY-R ENERGY-NN  FG-DEPTH      FLAG         HEADING-DEG    E30-75   E75-390  E390-600 meanincut   meanout   cut/out  STD-NORM  SPEC-MAX   GL-MEAN    GL-VAR      CORR   ENTROPY   HOMOGEN    ENERGY  CONTRAST  DISSIMIL     STD-O    E 1-30 E600-2000   E2000 >      GODA  LONG-HIG     Tmean  CONVOLUT  MEAN-DIR  relation     Sy/Sx  SKEWNESS  KURTOSIS  cutoff-A >50/10000     INT*V   INT-LOG  S-1_g1f1  S-2_g1f2  S-3_g1f3  S-4_g2f1  S-5_g2f2  S-6_g2f3  S-7_g3f1  S-8_g3f2  S-9_g3f3 S-10_g1f4 S-11_g2f4 S-12_g3f4 S-13_g1f5 S-14_g2f5 S-15_g3f5 S-16_g4f1 S-17_g4f2 S-18_g4f3 S-19_g4f4 S-20_g4f5
--------------1--------------2---------3---------4---------5---------6---------7---------8---------9--------10--------11--------12--------13--------14--------15--------16--------17--------18--------19--------20------------------21--------22--------23--------24--------25--------26--------27--------28--------29--------30--------31--------32--------33--------34--------35--------36--------37--------38--------39--------40--------41--------42--------43--------44--------45--------46--------47--------48--------49--------50--------51--------52--------53--------54--------55--------56--------57--------58--------59--------60--------61--------62--------63--------64--------65--------66--------67--------68--------69--------70--------71--------72--------73--------74
     -50.205589     116.122971     273.5      3.34      4.24     101.2         1         1      1000      1000   3852.46    -4.143       9.6      22.6   275.859     0.877     156.9   0.23528     100.0         H               344.7  0.099037  0.108895  0.002703  7.139185  1.111340  6.423941  1.326965    143.22    7.1216   89.6483   0.31568   5.93797   0.21287   0.00752 122.69352   7.02283    5112.0  0.666136  0.001035  0.000020  0.000237  0.237184  7.577694  0.930957     93.39  1.000381  1.000046     3.972    34.025     128.8      88.0     184.6     736.0     15.57     -0.56     11.95      1.23      0.40      3.17     -3.58      0.62     -3.96     -1.44      1.19      0.64      4.40      2.05     -0.86     -5.54     -0.01      0.66      1.83      1.38
     -50.188484     116.204094     297.3      3.35      4.24      98.1         1         2      1000      2573   3638.69    -4.391      10.1      23.0   277.575     0.881     171.4   0.23588     100.0         H               344.7  0.098891  0.107538  0.003007  7.127990  1.089394  6.543078  1.329968    218.77    6.7196   81.5588   0.31484   5.83184   0.22253   0.00839 111.76117   6.65923    4838.7  0.670947  0.001249  0.000032  0.000261  0.238447  7.570189  0.934924     99.53  1.000400  1.000048     4.040    35.511     133.1      87.2     164.5     709.0     16.00     -2.14     13.15      0.19      1.17      1.88     -3.62      1.41     -4.65     -3.51      2.04      2.17      5.87      0.81     -1.24     -6.65      1.50     -0.15      3.05     -0.33
     -50.171650     116.283615     283.0      3.30      4.24     109.6         1         3      1000      4146   3434.24    -4.642      10.5      23.5   275.674     0.868     164.9   0.22914     100.0         H               344.7  0.097752  0.104213  0.003332  6.982903  1.112641  6.275973  1.321178    158.43    6.3303   72.9397   0.30909   5.72895   0.22989   0.00916 100.78942   6.31776    4536.7  0.662478  0.001154  0.000013  0.000232  0.240846  7.565091  0.920377     98.07  1.000414  1.000047     4.006    34.211     128.8      86.5     144.6     658.5     16.06     -1.75     12.08     -0.61      1.41      1.66     -3.00      0.80     -4.04     -2.25      1.52      1.34      4.80      1.33     -1.23     -8.35      2.18     -0.43      2.35      0.56
     -50.154045     116.097412     255.9      3.23      4.24     100.5         2         1      2453      1000   3944.49    -4.040       9.9      22.6   278.738     0.888     159.0   0.24032      84.9         H               344.7  0.104048  0.107550  0.002616  7.323327  1.079367  6.784832  1.334409    152.40    7.3042   93.8742   0.31633   5.98196   0.20951   0.00719 128.35880   7.19083    5262.8  0.673371  0.001188  0.000023  0.000241  0.232462  7.523575  0.942346     91.40  1.000388  1.000050     4.060    35.729     133.1      88.3     196.1     774.9     15.33     -0.33     11.47      1.53      0.79      3.83     -3.10      0.50     -3.70     -0.43      0.99      0.81      5.28      1.67     -0.83     -5.10      0.79      2.32      0.82      0.62
     -50.136959     116.178436     269.6      3.23      4.24     104.8         2         2      2453      2573   3717.93    -4.297      10.4      23.0   278.629     0.885     160.7   0.23751     100.0         H               344.7  0.102071  0.105024  0.002891  7.309032  1.118182  6.536532  1.333833    140.52    6.8656   84.3890   0.31364   5.87241   0.21809   0.00798 115.84457   6.80027    4958.4  0.674680  0.001242  0.000023  0.000229  0.232417  7.510170  0.938913     92.85  1.000356  1.000043     4.202    40.515     128.8      87.6     172.5     760.2     15.46     -0.42     11.39      1.06      0.41      2.89     -3.26      0.17     -3.97     -0.91      0.60      0.43      4.55      1.34     -0.99     -6.05      0.50      1.09      0.67      0.70
     -50.120140     116.257866     273.5      3.60      4.24     101.2         2         3      2453      4146   3580.51    -4.461      11.0      23.5   280.834     0.898     179.7   0.24370     100.0         H               344.7  0.101451  0.111855  0.003294  7.132442  1.108159  6.436296  1.344643    261.63    6.5913   79.2885   0.31594   5.79594   0.22480   0.00864 108.47610   6.54325    4814.2  0.681439  0.001258  0.000021  0.000264  0.242692  7.585040  0.954143    100.51  1.000408  1.000050     4.360    44.607     133.1      87.0     160.9     755.9     16.20     -2.17     12.95     -0.48      1.37      1.53     -3.55      1.49     -4.67     -3.38      1.85      2.38      5.64      0.80     -1.36     -7.57      1.72     -0.09      2.40     -0.00
     -50.102497     116.071899     273.5      3.23      4.24     101.2         3         1      3906      1000   4051.86    -3.923      10.3      22.6   276.387     0.875     147.0   0.23368     100.0         H               344.7  0.100389  0.104189  0.002506  7.108188  1.083990  6.557431  1.325149    171.52    7.4965   96.4661   0.31211   6.03570   0.20399   0.00671 132.71573   7.35904    5369.1  0.668037  0.000981  0.000011  0.000241  0.233974  7.516639  0.928687     90.90  1.000378  1.000046     4.143    40.119     128.8      88.9     204.0     834.4     15.53     -0.84     11.64      0.97      1.61      2.92     -3.33      0.44     -3.78     -1.22      1.90      1.13      5.10      1.55     -1.05     -5.77      2.22      0.94      1.88      0.79
     -50.085430     116.152832     273.5      3.36      4.24     101.2         3         2      3906      2573   3889.41    -4.101      11.0      23.0   276.397     0.876     159.1   0.23469     100.0         H               344.7  0.101066  0.105431  0.002363  7.506174  1.093965  6.861437  1.327084    175.22    7.1875   90.6212   0.31247   5.95732   0.21031   0.00726 124.61115   7.08717    5161.2  0.667261  0.001105  0.000020  0.000235  0.236161  7.529209  0.929265     97.60  1.000378  1.000046     4.069    36.681     128.8      88.3     187.6     766.7     15.66     -1.67     11.94      0.60      0.52      2.37     -3.68      0.74     -4.31     -2.45      0.69      1.11      4.57      1.14     -0.95     -5.42      1.20      1.04      1.77      0.34
     -50.068626     116.232162     255.9      3.24      4.24     100.5         3         3      3906      4146   3645.95    -4.382      11.3      23.5   276.750     0.875     154.8   0.23382      84.9         H               344.7  0.101422  0.101675  0.002708  6.894825  1.127006  6.117826  1.324912    141.96    6.7356   80.7614   0.30959   5.84247   0.21982   0.00816 111.51797   6.68313    4830.0  0.669102  0.001206  0.000025  0.000232  0.232716  7.491060  0.927701     98.46  1.000350  1.000042     4.417    60.157     128.8      87.4     164.3     791.9     15.32     -1.55     11.45      1.33      0.55      3.31     -2.89      0.41     -3.47     -2.64      0.48      1.20      4.10      2.25     -0.46     -5.65      1.42      1.29      1.47      1.80
