corner points
115.5712585    -43.7291832
115.4966049    -43.55942535
115.810936    -43.67232895
115.7356262    -43.50272369
========== RESULTS WAVE VERSION 16.10.2018 ====================
IMAGE SIZE  X: 4376     Y:4775    col:row     POLARIZATION:VV
COVERAGE    X: 20.23087603km       Y: 19.76550355km 
RESOLUTION dX: 4.623143517m       dY:4.139372471m  
resolution of original product 4.623143517m x 4.139372471m;   raster step x:5996.217141m  
===============================================================
FLAGS: H=HIGH PROBABILITY SEA STATE, I=LAND(ISLAND), O=OUTLIER NO SEA STATE, N=NO WIND AVAILABLE, SEA STATE NOT VISIBLE, M=MEAN PROBABILITY SEA STATE, L= LOW PROBABILITY SEA STATE
Filtering wave length
 integration  Lmin=1m
 integration  Lmax=2200m
  peak        Lmin=100m
               FFT=1024pixels, 4734.098961m 
   mean-Hs (SWH_c)=2.077041016m
         mean-wind=7.597736835m/s
--------------0--------------1---------2---------3---------4---------5---------6---------7---------8---------9--------10--------11--------12--------13--------14--------15--------16--------17--------18--------19------------------20--------21--------22--------23--------24--------25--------26--------27--------28--------29--------30--------31--------32--------33--------34--------35--------36--------37--------38--------39--------40--------41--------42--------43--------44--------45--------46--------47--------48--------49--------50--------51--------52--------53--------54--------55--------56--------57--------58--------59--------60--------61--------62--------63--------64--------65--------66--------67--------68--------69--------70--------71--------72--------73
            LAT            LON  P-LENGHT     SWH_o     SWH_c     P-DIR      LINE     POINT     ROW-Y     COL-X  M-INTENC        dB      WIND INC-ANGLE  ENERGY-M  ENERGY-N  ENERGY-R ENERGY-NN  FG-DEPTH      FLAG         HEADING-DEG    E30-75   E75-390  E390-600 meanincut   meanout   cut/out  STD-NORM  SPEC-MAX   GL-MEAN    GL-VAR      CORR   ENTROPY   HOMOGEN    ENERGY  CONTRAST  DISSIMIL     STD-O    E 1-30 E600-2000   E2000 >      GODA  LONG-HIG     Tmean  CONVOLUT  MEAN-DIR  relation     Sy/Sx  SKEWNESS  KURTOSIS  cutoff-A >50/10000     INT*V   INT-LOG  S-1_g1f1  S-2_g1f2  S-3_g1f3  S-4_g2f1  S-5_g2f2  S-6_g2f3  S-7_g3f1  S-8_g3f2  S-9_g3f3 S-10_g1f4 S-11_g2f4 S-12_g3f4 S-13_g1f5 S-14_g2f5 S-15_g3f5 S-16_g4f1 S-17_g4f2 S-18_g4f3 S-19_g4f4 S-20_g4f5
--------------1--------------2---------3---------4---------5---------6---------7---------8---------9--------10--------11--------12--------13--------14--------15--------16--------17--------18--------19--------20------------------21--------22--------23--------24--------25--------26--------27--------28--------29--------30--------31--------32--------33--------34--------35--------36--------37--------38--------39--------40--------41--------42--------43--------44--------45--------46--------47--------48--------49--------50--------51--------52--------53--------54--------55--------56--------57--------58--------59--------60--------61--------62--------63--------64--------65--------66--------67--------68--------69--------70--------71--------72--------73--------74
     -43.680534     115.611023     235.0      2.17      3.20     109.4         1         1      1000      1000    270.91   -15.672       7.5      35.9   290.572     0.618     110.9   0.09313      53.2         H               345.8  0.050361  0.047910  0.000872  3.170399  0.732140  4.330319  1.115121    105.07    4.9361   36.1724   0.14845   5.35987   0.23748   0.01037  61.60530   5.24691     302.1  0.517873  0.001018  0.000148  0.000238  0.241090  7.546633  0.630235    115.79  1.000068  1.000005     2.644    14.818     137.8      85.3      69.9     313.0     15.00    -10.31      7.81      1.63     -0.42      3.52     -4.49      5.45     -3.31     -9.88     -1.73      4.73     -2.62      1.92      2.29     -4.20      1.69      2.36      0.84      2.47
     -43.663643     115.682304     235.6      2.07      3.20     116.4         1         2      1000      2297    264.72   -15.772       7.7      36.3   290.324     0.614     155.2   0.09159      53.8         H               345.8  0.050045  0.046036  0.000838  3.193985  0.732053  4.363053  1.112095    115.41    4.8105   34.3728   0.14464   5.31413   0.24156   0.01083  58.80234   5.13017     294.3  0.515481  0.001447  0.000304  0.000236  0.235713  7.511486  0.625538    112.46  1.000097  1.000009     2.638    14.856     142.7      84.9      66.6     316.3     15.00     -9.67      8.99      2.11     -0.72      3.57     -4.50      5.33     -4.11     -9.94     -1.80      5.08     -1.11      1.85      1.37     -4.05      1.34      2.14      0.72      2.41
     -43.646862     115.752914     230.4      2.06      3.20     112.4         1         3      1000      3594    255.96   -15.918       7.8      36.7   288.558     0.609     104.1   0.08962      49.3         H               345.8  0.049000  0.045213  0.000933  3.110861  0.713631  4.359202  1.106971    118.63    4.6369   31.8568   0.14222   5.24886   0.24715   0.01144  54.65165   4.95194     283.3  0.512946  0.001060  0.000123  0.000246  0.237705  7.528224  0.620248    114.69  1.000080  1.000007     2.604    14.471     142.7      84.5      61.7     294.7     14.98    -10.10      8.19      1.77     -0.23      3.46     -4.31      5.18     -3.57     -9.97     -1.88      5.03     -2.37      1.97      1.94     -4.68      2.53      2.02      0.62      2.74
     -43.629021     115.588295     253.1      2.01      3.20     126.7         2         1      2449      1000    268.47   -15.711       7.5      35.9   290.019     0.615     115.2   0.09178      77.9         H               345.8  0.050183  0.045745  0.000812  3.190842  0.716074  4.456021  1.112624     83.95    4.8865   35.3239   0.14437   5.34269   0.23896   0.01049  60.44868   5.20168     298.7  0.517094  0.001209  0.000165  0.000210  0.234589  7.496211  0.626569    115.19  1.000133  1.000011     2.666    15.334     142.7      85.1      68.5     319.5     14.78     -9.46      7.75      1.84     -0.12      3.78     -3.83      4.92     -2.59     -8.35     -1.97      3.85     -2.53      2.54      2.50     -4.07      1.68      2.30     -0.06      2.97
     -43.612144     115.659523     220.5      2.15      3.20     111.4         2         2      2449      2297    259.74   -15.855       7.6      36.3   288.671     0.612     105.0   0.09115      42.3         H               345.8  0.049524  0.047145  0.000957  3.050786  0.716820  4.256000  1.110067    124.52    4.7114   33.0601   0.14565   5.27640   0.24533   0.01125  56.49016   5.02841     288.3  0.513811  0.000963  0.000152  0.000259  0.240802  7.566436  0.624482    111.97  1.000092  1.000008     2.596    14.201     148.0      84.5      63.9     301.8     15.04     -9.94      8.70      2.17     -0.92      4.15     -4.35      5.28     -3.87    -10.12     -2.29      4.88     -1.39      2.00      1.81     -4.49      1.50      2.65      0.79      2.16
     -43.595379     115.730072     250.5      2.13      3.20     122.1         2         3      2449      3594    253.32   -15.963       7.7      36.7   290.894     0.616     130.1   0.09166      72.7         H               345.8  0.049701  0.046664  0.000902  3.141001  0.732687  4.286962  1.113294    106.66    4.5842   31.5380   0.14493   5.22687   0.24963   0.01176  53.93482   4.90060     282.0  0.517326  0.001311  0.000214  0.000231  0.238697  7.532799  0.627703    115.86  1.000091  1.000006     2.668    15.257     142.7      84.2      60.8     297.0     15.07    -10.13      8.36      1.38     -0.15      3.16     -4.34      5.26     -3.44     -9.74     -1.48      4.55     -2.29      2.22      2.06     -4.62      1.64      1.97      0.64      2.89
     -43.577503     115.565613     235.0      2.07      3.20     109.4         3         1      3898      1000    266.09   -15.750       7.4      36.0   290.008     0.617     142.7   0.09318      53.2         H               345.8  0.051072  0.047105  0.001000  3.229145  0.729938  4.423864  1.115026     93.86    4.8401   34.8514   0.14912   5.32444   0.24095   0.01073  59.30817   5.14773     296.6  0.516898  0.001410  0.000246  0.000219  0.235898  7.514428  0.630116    112.93  1.000089  1.000006     2.677    15.496     142.7      85.0      67.5     336.6     14.84     -9.32      7.90      2.13     -0.73      4.44     -3.66      4.60     -3.12     -8.85     -2.32      3.97     -1.61      2.17      1.78     -4.87      1.88      2.94      0.26      2.55
     -43.560646     115.636787     228.0      2.10      3.20     105.6         3         2      3898      2297    261.06   -15.833       7.6      36.3   290.469     0.615      94.9   0.09208      47.5         H               345.8  0.050356  0.046840  0.000782  3.181988  0.730004  4.358865  1.112679     80.86    4.7372   33.4610   0.14558   5.28605   0.24385   0.01112  57.17934   5.05942     290.4  0.516338  0.000959  0.000095  0.000221  0.236757  7.533469  0.626752    111.92  1.000116  1.000010     2.648    14.993     142.7      84.6      64.7     306.6     14.79     -9.25      8.40      2.37     -0.34      4.20     -3.89      4.67     -2.88     -8.72     -1.96      3.96     -1.26      2.41      1.69     -3.80      1.93      2.26      0.51      2.88
     -43.543888     115.707275     265.8      1.95      3.20     116.0         3         3      3898      3594    247.42   -16.066       7.5      36.7   289.009     0.610     118.9   0.08946     100.0         H               345.8  0.049472  0.044487  0.000959  3.129237  0.718612  4.354559  1.107671     86.05    4.4671   29.8322   0.14167   5.18154   0.25362   0.01221  51.21177   4.78513     274.0  0.513673  0.001266  0.000169  0.000206  0.236602  7.490184  0.621030    114.51  1.000086  1.000006     2.609    14.428     142.7      83.9      57.8     283.0     15.01     -9.47      7.97      1.10      0.37      3.28     -3.55      4.40     -2.94     -9.01     -1.27      3.94     -2.04      2.27      2.05     -5.65      2.68      2.14      1.02      2.67
