corner points
122.6649628    -60.37642288
122.5257263    -60.2080307
123.0183792    -60.30230331
122.8774261    -60.13428116
========== RESULTS WAVE VERSION 16.10.2018 ====================
IMAGE SIZE  X: 5471     Y:4902    col:row     POLARIZATION:VV
COVERAGE    X: 21.06862315km       Y: 20.19254633km 
RESOLUTION dX: 3.850963837m       dY:4.119246497m  
resolution of original product 3.850963837m x 4.119246497m;   raster step x:5999.801658m  
===============================================================
FLAGS: H=HIGH PROBABILITY SEA STATE, I=LAND(ISLAND), O=OUTLIER NO SEA STATE, N=NO WIND AVAILABLE, SEA STATE NOT VISIBLE, M=MEAN PROBABILITY SEA STATE, L= LOW PROBABILITY SEA STATE
Filtering wave length
 integration  Lmin=1m
 integration  Lmax=2200m
  peak        Lmin=100m
               FFT=1024pixels, 3943.386969m 
   mean-Hs (SWH_c)=3.472278442m
         mean-wind=12.91996002m/s
--------------0--------------1---------2---------3---------4---------5---------6---------7---------8---------9--------10--------11--------12--------13--------14--------15--------16--------17--------18--------19------------------20--------21--------22--------23--------24--------25--------26--------27--------28--------29--------30--------31--------32--------33--------34--------35--------36--------37--------38--------39--------40--------41--------42--------43--------44--------45--------46--------47--------48--------49--------50--------51--------52--------53--------54--------55--------56--------57--------58--------59--------60--------61--------62--------63--------64--------65--------66--------67--------68--------69--------70--------71--------72--------73
            LAT            LON  P-LENGHT     SWH_o     SWH_c     P-DIR      LINE     POINT     ROW-Y     COL-X  M-INTENC        dB      WIND INC-ANGLE  ENERGY-M  ENERGY-N  ENERGY-R ENERGY-NN  FG-DEPTH      FLAG         HEADING-DEG    E30-75   E75-390  E390-600 meanincut   meanout   cut/out  STD-NORM  SPEC-MAX   GL-MEAN    GL-VAR      CORR   ENTROPY   HOMOGEN    ENERGY  CONTRAST  DISSIMIL     STD-O    E 1-30 E600-2000   E2000 >      GODA  LONG-HIG     Tmean  CONVOLUT  MEAN-DIR  relation     Sy/Sx  SKEWNESS  KURTOSIS  cutoff-A >50/10000     INT*V   INT-LOG  S-1_g1f1  S-2_g1f2  S-3_g1f3  S-4_g2f1  S-5_g2f2  S-6_g2f3  S-7_g3f1  S-8_g3f2  S-9_g3f3 S-10_g1f4 S-11_g2f4 S-12_g3f4 S-13_g1f5 S-14_g2f5 S-15_g3f5 S-16_g4f1 S-17_g4f2 S-18_g4f3 S-19_g4f4 S-20_g4f5
--------------1--------------2---------3---------4---------5---------6---------7---------8---------9--------10--------11--------12--------13--------14--------15--------16--------17--------18--------19--------20------------------21--------22--------23--------24--------25--------26--------27--------28--------29--------30--------31--------32--------33--------34--------35--------36--------37--------38--------39--------40--------41--------42--------43--------44--------45--------46--------47--------48--------49--------50--------51--------52--------53--------54--------55--------56--------57--------58--------59--------60--------61--------62--------63--------64--------65--------66--------67--------68--------69--------70--------71--------72--------73--------74
     -60.328228     122.702942     267.2      3.48      5.46      71.5         1         1      1000      1000   4963.93    -3.042      12.4      22.3   240.947     0.943     209.2   0.26536     100.0         H               341.2  0.117515  0.110450  0.003988  7.648165  1.143759  6.686867  1.378701    237.70    9.1580  138.3107   0.32549   6.37000   0.18110   0.00491 186.58423   8.82131    6843.5  0.709657  0.002194  0.000067  0.000308  0.225295  7.403204  1.000381     74.46  1.000355  1.000056     4.340    41.632     160.0      90.9     328.6     998.4     15.63      8.01     10.28     -0.61     -2.48      2.92     -1.77     -2.89     -2.48      8.17     -0.57     -3.50      1.03      4.13      1.27     -9.12     -5.64      1.53     -2.41      4.90
     -60.306942     122.804726     278.5      3.68      5.46      66.7         1         2      1000      2558   4504.86    -3.463      12.3      22.8   246.944     0.979     210.0   0.28253     100.0         H               341.2  0.121484  0.119021  0.004638  7.559112  1.165272  6.486991  1.400651    274.98    8.3051  120.1744   0.33130   6.19077   0.19528   0.00598 160.72000   8.06937    6309.2  0.732495  0.002088  0.000030  0.000309  0.233434  7.479851  1.039565     70.44  1.000355  1.000054     4.821    58.882     160.0      89.6     275.8    1008.5     16.03      8.25     10.14     -1.51     -2.51      2.61     -1.96     -2.85     -2.92      8.81     -1.11     -3.28      0.49      4.03      1.25    -10.78     -5.71      1.35     -3.72      4.59
     -60.285992     122.904434     246.2      3.71      5.46      69.5         1         3      1000      4116   4146.61    -3.823      12.4      23.2   248.361     0.989     235.4   0.28786      65.8         H               341.2  0.124324  0.121278  0.005630  7.975216  1.202471  6.632354  1.409617    320.18    7.6459  106.3656   0.33529   6.03694   0.20950   0.00715 141.40341   7.47875    5844.9  0.736320  0.002669  0.000033  0.000318  0.236730  7.483902  1.052456     70.68  1.000343  1.000053     4.936    63.571     160.0      88.3     235.0     983.5     16.27      8.80     10.94     -1.81     -3.01      1.90     -2.35     -3.13     -3.48      9.50     -1.43     -4.52      0.65      3.90      0.41    -11.48     -7.15      0.08     -3.90      5.27
     -60.278229     122.661415     261.5      3.35      5.46      68.2         2         1      2456      1000   5132.99    -2.896      12.9      22.3   237.878     0.924     181.9   0.25766     111.1         H               341.2  0.117187  0.104575  0.003514  7.197793  1.170041  6.151744  1.363740    262.82    9.4764  143.3718   0.31997   6.44060   0.17381   0.00444 194.99026   9.10071    6999.2  0.697428  0.001940  0.000027  0.000292  0.225307  7.390613  0.978634     73.66  1.000334  1.000049     4.291    39.646     148.0      91.5     347.3    1005.3     15.49      7.54     10.00     -0.10     -1.26      3.40     -2.10     -2.98     -2.79      8.84     -0.16     -3.86      1.40      3.62      1.19     -8.00     -3.87      2.75     -1.95      4.12
     -60.256973     122.763062     209.2      3.45      5.46      72.7         2         2      2456      2558   4837.76    -3.154      13.4      22.8   237.556     0.926     187.3   0.26022      35.9         H               341.2  0.117788  0.106198  0.004558  7.545583  1.163449  6.485532  1.363952    150.28    8.9558  131.6133   0.32081   6.34064   0.18154   0.00494 178.78090   8.64941    6597.6  0.696138  0.002096  0.000033  0.000281  0.221586  7.378353  0.981845     76.43  1.000330  1.000049     4.292    39.789     153.8      90.9     309.3     967.6     15.20      7.07      8.68     -0.02     -0.90      4.51     -0.95     -2.86     -1.86      7.21      0.93     -3.18      0.62      4.16      1.75     -9.96     -3.72      3.43     -1.04      4.85
     -60.236050     122.862617     297.7      3.31      5.46      64.9         2         3      2456      4116   4464.30    -3.502      13.4      23.2   238.552     0.924     194.8   0.25646     100.0         H               341.2  0.114640  0.101372  0.003848  7.372597  1.165925  6.323388  1.364778    198.02    8.2214  114.9563   0.31750   6.18984   0.19245   0.00580 156.91446   8.02233    6092.0  0.702408  0.002273  0.000056  0.000288  0.222831  7.390231  0.977317     74.13  1.000348  1.000052     4.482    48.960     153.8      89.8     257.9     948.0     15.28      7.72      9.54     -0.20     -1.60      3.55     -1.02     -2.76     -1.84      8.48     -0.30     -2.91      0.38      4.26      1.74     -9.35     -4.26      2.17     -3.11      5.20
     -60.228218     122.620018     228.1      3.25      5.46      67.8         3         1      3912      1000   5130.90    -2.898      12.9      22.3   235.270     0.912     153.2   0.25382      47.6         H               341.2  0.114932  0.100878  0.003020  7.120975  1.120639  6.354388  1.353463    182.49    9.4598  142.1971   0.31805   6.44072   0.17308   0.00441 193.94202   9.08547    6943.7  0.693162  0.001331  0.000018  0.000287  0.224318  7.384763  0.965860     74.60  1.000319  1.000049     4.318    44.184     148.0      91.6     341.8    1029.8     15.42      7.63      9.70      0.87     -1.08      4.31     -2.79     -3.34     -3.20      8.09      0.72     -3.93      0.90      3.88      0.91     -7.43     -3.80      2.34     -1.64      4.05
     -60.206993     122.721512     261.5      3.60      5.46      68.2         3         2      3912      2558   4767.75    -3.217      13.2      22.8   241.560     0.949     193.5   0.26916     111.1         H               341.2  0.119050  0.111973  0.003890  7.613410  1.207405  6.305595  1.382611    300.83    8.7711  128.8146   0.32528   6.29688   0.18607   0.00528 173.82855   8.47993    6590.9  0.712818  0.001748  0.000030  0.000306  0.232504  7.461050  1.006550     70.32  1.000325  1.000048     4.599    49.587     153.8      90.4     301.4    1016.0     16.01      8.60     10.26     -1.12     -2.23      2.41     -2.72     -4.18     -3.34      9.43     -1.26     -4.67      0.53      3.28      1.53     -9.34     -4.36      1.42     -3.35      3.50
     -60.186104     122.820923     288.5      3.42      5.46      61.4         3         3      3912      4116   4510.44    -3.458      13.6      23.2   240.974     0.938     183.4   0.26288     100.0         H               341.2  0.118672  0.105409  0.003836  7.173630  1.165660  6.154134  1.367959    219.19    8.3130  117.3142   0.32094   6.20723   0.19235   0.00574 159.32603   8.08380    6169.7  0.709101  0.001717  0.000035  0.000280  0.229585  7.419401  0.993512     71.48  1.000353  1.000052     4.537    48.011     148.0      89.9     267.8     998.4     15.53      8.00      9.77     -0.22     -1.46      3.25     -1.85     -3.24     -2.23      8.52     -0.22     -3.00      0.02      4.16      1.76     -8.95     -3.81      1.35     -3.10      4.55
