corner points
163.0517731    51.37892914
162.9873962    51.55649948
163.3286743    51.41693878
163.2654419    51.59458923
========== RESULTS WAVE VERSION 16.10.2018 ====================
IMAGE SIZE  X: 5345     Y:4917    col:row     POLARIZATION:VV
COVERAGE    X: 19.62867483km       Y: 20.19226107km 
RESOLUTION dX: 3.672343279m       dY:4.106622142m  
resolution of original product 3.672343279m x 4.106622142m;   raster step x:5996.936575m  
===============================================================
FLAGS: H=HIGH PROBABILITY SEA STATE, I=LAND(ISLAND), O=OUTLIER NO SEA STATE, N=NO WIND AVAILABLE, SEA STATE NOT VISIBLE, M=MEAN PROBABILITY SEA STATE, L= LOW PROBABILITY SEA STATE
Filtering wave length
 integration  Lmin=1m
 integration  Lmax=2200m
  peak        Lmin=100m
               FFT=1024pixels, 3760.479518m 
   mean-Hs (SWH_c)=4.451021118m
         mean-wind=10.15432167m/s
--------------0--------------1---------2---------3---------4---------5---------6---------7---------8---------9--------10--------11--------12--------13--------14--------15--------16--------17--------18--------19------------------20--------21--------22--------23--------24--------25--------26--------27--------28--------29--------30--------31--------32--------33--------34--------35--------36--------37--------38--------39--------40--------41--------42--------43--------44--------45--------46--------47--------48--------49--------50--------51--------52--------53--------54--------55--------56--------57--------58--------59--------60--------61--------62--------63--------64--------65--------66--------67--------68--------69--------70--------71--------72--------73
            LAT            LON  P-LENGHT     SWH_o     SWH_c     P-DIR      LINE     POINT     ROW-Y     COL-X  M-INTENC        dB      WIND INC-ANGLE  ENERGY-M  ENERGY-N  ENERGY-R ENERGY-NN  FG-DEPTH      FLAG         HEADING-DEG    E30-75   E75-390  E390-600 meanincut   meanout   cut/out  STD-NORM  SPEC-MAX   GL-MEAN    GL-VAR      CORR   ENTROPY   HOMOGEN    ENERGY  CONTRAST  DISSIMIL     STD-O    E 1-30 E600-2000   E2000 >      GODA  LONG-HIG     Tmean  CONVOLUT  MEAN-DIR  relation     Sy/Sx  SKEWNESS  KURTOSIS  cutoff-A >50/10000     INT*V   INT-LOG  S-1_g1f1  S-2_g1f2  S-3_g1f3  S-4_g2f1  S-5_g2f2  S-6_g2f3  S-7_g3f1  S-8_g3f2  S-9_g3f3 S-10_g1f4 S-11_g2f4 S-12_g3f4 S-13_g1f5 S-14_g2f5 S-15_g3f5 S-16_g4f1 S-17_g4f2 S-18_g4f3 S-19_g4f4 S-20_g4f5
--------------1--------------2---------3---------4---------5---------6---------7---------8---------9--------10--------11--------12--------13--------14--------15--------16--------17--------18--------19--------20------------------21--------22--------23--------24--------25--------26--------27--------28--------29--------30--------31--------32--------33--------34--------35--------36--------37--------38--------39--------40--------41--------42--------43--------44--------45--------46--------47--------48--------49--------50--------51--------52--------53--------54--------55--------56--------57--------58--------59--------60--------61--------62--------63--------64--------65--------66--------67--------68--------69--------70--------71--------72--------73--------74
      51.422398     163.091827     286.1      3.99      6.54     114.1         1         1      1000      1000   3393.74    -4.693      10.2      23.4   435.706     1.006     290.6   0.29311     100.0         H               344.6  0.115573  0.133324  0.006957  7.648974  1.138028  6.721251  1.423119    276.09    6.2092   77.6532   0.34164   5.64964   0.24516   0.01092 102.24724   6.18910    4828.7  0.747354  0.003286  0.000064  0.000305  0.249672  7.595774  1.068960    104.49  1.000423  1.000057     4.715    48.472     148.0      84.9     156.6     758.2     16.89     -5.06     11.62     -2.48      1.91      2.34     -3.31      2.36     -5.40     -5.36      1.38      2.73      4.23      1.95     -1.01    -12.88      2.99      1.17      2.15      0.47
      51.434155     163.177277     267.4      4.33      6.54     112.4         1         2      1000      2633   3162.52    -5.000      10.5      23.9   441.263     1.027     337.5   0.30456     100.0         H               344.6  0.116817  0.141979  0.007675  7.875068  1.170599  6.727385  1.438563    378.71    5.7510   69.7096   0.34860   5.50086   0.26134   0.01305  90.81714   5.76460    4548.8  0.757025  0.004525  0.000086  0.000333  0.251698  7.647987  1.093425    108.46  1.000407  1.000058     4.848    53.172     148.0      83.2     136.9     757.3     16.91     -5.80     12.20     -2.39      1.91      2.12     -3.23      2.58     -5.75     -6.61      1.55      3.34      3.93      2.28     -0.92    -12.93      3.55      1.38      2.78      1.28
      51.445641     163.261215     305.8      3.96      6.54     102.6         1         3      1000      4266   2849.31    -5.453      10.3      24.4   431.834     0.992     321.1   0.28567     100.0         H               344.6  0.109730  0.128310  0.009069  7.252946  1.129047  6.423955  1.411381    280.63    5.1898   57.8585   0.33900   5.32263   0.27774   0.01540  76.48662   5.26186    4021.2  0.740781  0.004536  0.000067  0.000304  0.252347  7.648950  1.052346    101.52  1.000475  1.000063     4.547    45.471     148.0      81.6     108.5     634.1     17.08     -4.81     11.97     -3.60      1.91      1.43     -2.28      2.05     -5.25     -5.62      2.01      1.82      4.94      1.63     -1.41    -15.92      3.19      0.39      4.96      0.41
      51.475174     163.072769     266.4      4.91      6.54      97.3         2         1      2461      1000   3301.16    -4.813       9.8      23.4   469.305     1.120     395.8   0.34352     100.0         H               344.6  0.128886  0.168571  0.009410  8.624036  1.269718  6.792086  1.498936    475.07    6.0030   78.6715   0.36475   5.55150   0.25999   0.01292  99.95380   5.98083    4947.7  0.808483  0.005583  0.000075  0.000383  0.255451  7.731220  1.197362    102.50  1.000467  1.000072     5.238    60.737     160.0      83.3     160.1     811.3     17.30     -4.84     13.80     -2.66      1.16      1.67     -3.77      2.88     -6.91     -6.67      1.29      4.07      6.69      1.42     -2.42    -13.32      1.63      0.74      1.70     -0.08
      51.486942     163.158325     260.2      4.48      6.54     104.3         2         2      2461      2633   3029.51    -5.186       9.9      23.9   447.297     1.053     326.1   0.31623     102.4         H               344.6  0.119853  0.149818  0.007849  8.164893  1.241930  6.574357  1.450522    404.14    5.5220   66.7645   0.35267   5.41851   0.26977   0.01426  86.43709   5.56151    4393.9  0.772404  0.004175  0.000048  0.000352  0.254380  7.711536  1.122750    104.08  1.000419  1.000062     4.749    47.645     153.8      82.4     129.0     688.5     16.98     -4.45     12.44     -2.33      0.94      2.07     -3.80      2.54     -6.08     -5.77      0.72      3.78      5.11      1.59     -1.77    -12.40      1.70      0.96      0.84      0.56
      51.498432     163.242371     267.4      4.92      6.54     112.4         2         3      2461      4266   2788.59    -5.546      10.0      24.4   454.485     1.067     377.7   0.32096     100.0         H               344.6  0.116924  0.159116  0.009686  8.246081  1.248389  6.605376  1.462697    410.32    5.0328   57.1944   0.35454   5.24953   0.28814   0.01704  73.83396   5.09746    4078.2  0.777202  0.004627  0.000062  0.000353  0.260684  7.772812  1.138420    105.22  1.000464  1.000065     5.199    66.875     160.0      80.6     108.7     743.1     17.46     -4.73     12.82     -3.80      1.92      1.35     -3.15      1.89     -6.20     -5.34      1.67      2.20      5.44      1.68     -1.79    -15.09      3.30      0.52      3.22      0.29
      51.527950     163.053680     300.3      4.62      6.54     106.6         3         1      3922      1000   3275.22    -4.848       9.7      23.4   454.988     1.084     360.5   0.33249     100.0         H               344.6  0.126916  0.159459  0.008479  8.503338  1.230227  6.912005  1.474646    269.83    5.9989   77.2129   0.36259   5.55898   0.25807   0.01260  98.43242   5.96904    4829.5  0.785893  0.004643  0.000081  0.000317  0.252907  7.695912  1.158417     94.78  1.000485  1.000073     4.998    54.472     153.8      83.6     155.8     807.5     16.81     -3.24     12.32     -1.95      1.28      2.97     -3.02      1.36     -5.88     -3.59      1.44      0.99      5.39      2.45     -1.94    -12.60      2.09      2.41      3.19      1.66
      51.539722     163.139343     263.8      4.70      6.54     100.8         3         2      3922      2633   3107.58    -5.076      10.3      23.9   457.940     1.087     394.5   0.32945     166.6         H               344.6  0.123930  0.157246  0.010131  8.041512  1.256554  6.399654  1.478111    436.20    5.6487   70.0471   0.35837   5.45168   0.26853   0.01405  89.88948   5.66210    4592.6  0.790858  0.005489  0.000085  0.000361  0.256780  7.693486  1.160300    104.95  1.000418  1.000062     5.202    64.187     160.0      82.6     138.3     793.1     17.32     -4.79     13.02     -3.45      1.42      1.23     -3.02      2.74     -5.95     -6.58      2.00      3.04      5.25      1.96     -2.16    -15.09      1.34     -0.17      3.66      1.77
      51.551224     163.223495     240.3      4.15      6.54     106.6         3         3      3922      4266   2946.28    -5.307      10.7      24.4   429.695     0.989     386.0   0.28624      58.5         H               344.6  0.110669  0.132422  0.007818  7.361489  1.135476  6.483174  1.410439    260.36    5.3656   60.4944   0.33962   5.38999   0.26873   0.01401  79.89883   5.41212    4155.3  0.732765  0.005783  0.000160  0.000312  0.250015  7.665569  1.050782    104.79  1.000410  1.000055     4.759    52.682     153.8      82.6     115.7     692.2     16.68     -4.22     11.79     -2.14      0.92      2.57     -2.61      2.18     -4.83     -5.13      0.88      2.35      4.45      2.06     -0.47    -13.43      1.76      0.91      2.72      0.24
