corner points
177.3009033    -8.693908691
177.2617493    -8.513280869
177.4751587    -8.655557632
177.4358673    -8.474973679
========== RESULTS WAVE VERSION 16.10.2018 ====================
IMAGE SIZE  X: 5345     Y:4929    col:row     POLARIZATION:VV
COVERAGE    X: 19.57628905km       Y: 20.49434025km 
RESOLUTION dX: 3.662542385m       dY:4.157910377m  
resolution of original product 3.662542385m x 4.157910377m;   raster step x:5999.244427m  
===============================================================
FLAGS: H=HIGH PROBABILITY SEA STATE, I=LAND(ISLAND), O=OUTLIER NO SEA STATE, N=NO WIND AVAILABLE, SEA STATE NOT VISIBLE, M=MEAN PROBABILITY SEA STATE, L= LOW PROBABILITY SEA STATE
Filtering wave length
 integration  Lmin=1m
 integration  Lmax=2200m
  peak        Lmin=100m
               FFT=1024pixels, 3750.443403m 
   mean-Hs (SWH_c)=0.2370886993m
         mean-wind=6.182304382m/s
--------------0--------------1---------2---------3---------4---------5---------6---------7---------8---------9--------10--------11--------12--------13--------14--------15--------16--------17--------18--------19------------------20--------21--------22--------23--------24--------25--------26--------27--------28--------29--------30--------31--------32--------33--------34--------35--------36--------37--------38--------39--------40--------41--------42--------43--------44--------45--------46--------47--------48--------49--------50--------51--------52--------53--------54--------55--------56--------57--------58--------59--------60--------61--------62--------63--------64--------65--------66--------67--------68--------69--------70--------71--------72--------73
            LAT            LON  P-LENGHT     SWH_o     SWH_c     P-DIR      LINE     POINT     ROW-Y     COL-X  M-INTENC        dB      WIND INC-ANGLE  ENERGY-M  ENERGY-N  ENERGY-R ENERGY-NN  FG-DEPTH      FLAG         HEADING-DEG    E30-75   E75-390  E390-600 meanincut   meanout   cut/out  STD-NORM  SPEC-MAX   GL-MEAN    GL-VAR      CORR   ENTROPY   HOMOGEN    ENERGY  CONTRAST  DISSIMIL     STD-O    E 1-30 E600-2000   E2000 >      GODA  LONG-HIG     Tmean  CONVOLUT  MEAN-DIR  relation     Sy/Sx  SKEWNESS  KURTOSIS  cutoff-A >50/10000     INT*V   INT-LOG  S-1_g1f1  S-2_g1f2  S-3_g1f3  S-4_g2f1  S-5_g2f2  S-6_g2f3  S-7_g3f1  S-8_g3f2  S-9_g3f3 S-10_g1f4 S-11_g2f4 S-12_g3f4 S-13_g1f5 S-14_g2f5 S-15_g3f5 S-16_g4f1 S-17_g4f2 S-18_g4f3 S-19_g4f4 S-20_g4f5
--------------1--------------2---------3---------4---------5---------6---------7---------8---------9--------10--------11--------12--------13--------14--------15--------16--------17--------18--------19--------20------------------21--------22--------23--------24--------25--------26--------27--------28--------29--------30--------31--------32--------33--------34--------35--------36--------37--------38--------39--------40--------41--------42--------43--------44--------45--------46--------47--------48--------49--------50--------51--------52--------53--------54--------55--------56--------57--------58--------59--------60--------61--------62--------63--------64--------65--------66--------67--------68--------69--------70--------71--------72--------73--------74
      -8.649910     177.326370     100.3      0.38      1.73      98.1         1         1      1000      1000   2231.61    -6.514       6.2      23.6   407.013     0.723      57.2   0.16631       6.4         H               348.0  0.085193  0.044663  0.000906  4.661653  0.886292  5.259727  1.205462     23.98    3.9821   28.4149   0.26218   4.93418   0.29742   0.01803  41.93021   4.13193    2689.8  0.591932  0.000659  0.000021  0.000237  0.156056  6.941449  0.760312     96.94  1.000178  1.000022     3.284    23.426      84.8      80.3      52.3     346.0     10.87     -0.63     -2.14      2.63     -0.73      3.47      2.48      0.08      1.79      0.09     -0.19     -0.77     -0.76     -1.79      1.27     -4.79     -0.88      7.50     -0.11     -2.15
      -8.638052     177.380264     109.0      0.38      1.73      98.8         1         2      1000      2638   1987.64    -7.017       6.1      24.1   403.952     0.715      65.4   0.16207       7.6         H               348.0  0.085414  0.042456  0.000935  4.422934  0.891828  4.959404  1.197251     22.51    3.4958   22.3580   0.25810   4.70648   0.32144   0.02240  33.17506   3.67436    2379.5  0.585607  0.000826  0.000031  0.000219  0.160246  6.927390  0.751618     95.75  1.000181  1.000021     3.241    23.491      84.8      77.9      41.1     319.7     10.88     -1.23     -2.49      2.57     -0.07      3.25      2.18      0.26      2.03      1.47     -0.27     -0.07     -0.77     -1.78      1.34     -4.64      0.92      7.40     -1.62     -2.68
      -8.626404     177.433182     102.7      0.39      1.73      99.7         1         3      1000      4276   1839.46    -7.353       6.3      24.5   407.218     0.720      62.1   0.16270       6.7         H               348.0  0.084095  0.041577  0.000932  4.305169  0.894737  4.811657  1.202808     25.38    3.2001   19.2550   0.25646   4.55208   0.33929   0.02604  28.63346   3.39452    2212.4  0.592844  0.000766  0.000027  0.000215  0.160980  6.922552  0.755991     94.93  1.000187  1.000022     3.334    24.930      86.6      76.1      35.3     291.9     11.06     -0.70     -2.31      2.35      0.24      4.14      2.56     -0.31      1.61      1.00     -0.43      0.15     -0.31     -1.80      1.39     -5.22      1.09      8.67     -1.87     -2.85
      -8.597022     177.314880     108.0      0.37      1.73     101.7         2         1      2443      1000   2183.30    -6.609       6.0      23.6   402.798     0.706      59.3   0.15805       7.5         H               348.0  0.082449  0.038728  0.000901  4.039014  0.894571  4.515031  1.192504     20.55    3.8847   26.6486   0.25239   4.89523   0.29986   0.01848  39.84549   4.04850    2603.6  0.583933  0.000747  0.000027  0.000206  0.159537  6.905987  0.740920     96.59  1.000169  1.000018     3.177    21.619      81.3      80.0      49.2     309.9     11.05     -1.08     -2.44      2.46     -0.41      3.59      2.33     -0.14      1.35      0.84     -0.61     -0.62     -0.93     -2.28      1.38     -5.43      0.30      8.37     -1.50     -3.71
      -8.585168     177.368774     102.2      0.38      1.73     101.1         2         2      2443      2638   1986.23    -7.020       6.1      24.1   400.034     0.704      60.0   0.15731       6.7         H               348.0  0.082112  0.038724  0.000860  4.009225  0.882062  4.545290  1.188998     22.32    3.4994   22.0825   0.25249   4.71147   0.32009   0.02211  33.01382   3.67831    2361.4  0.581590  0.000750  0.000026  0.000210  0.159934  6.915477  0.738594     98.10  1.000184  1.000020     3.164    21.709      83.0      78.0      40.8     295.9     10.94     -1.29     -2.20      2.78     -0.42      3.59      2.36     -0.26      1.67      0.63     -0.46     -0.11     -0.95     -2.20      1.19     -4.63      0.64      7.55     -1.69     -2.73
      -8.573523     177.421677     100.9      0.39      1.73      95.4         2         3      2443      4276   1828.74    -7.378       6.3      24.5   400.069     0.700      54.2   0.15548       6.5         H               348.0  0.081297  0.038348  0.000890  3.968812  0.886868  4.475090  1.184888     21.58    3.1835   18.6346   0.25014   4.54737   0.33868   0.02584  27.94630   3.37761    2166.8  0.579572  0.000635  0.000021  0.000204  0.160582  6.921501  0.734501     96.46  1.000175  1.000018     3.106    20.329      83.0      76.2      34.4     254.8     10.88     -1.42     -2.15      2.77     -0.31      3.59      2.36     -0.35      1.28      0.89     -1.22     -0.41     -0.66     -1.89      1.29     -4.72      1.01      8.38     -2.92     -3.10
      -8.544133     177.303421     101.3      0.38      1.73      91.4         3         1      3886      1000   2196.92    -6.582       6.1      23.6   404.426     0.714      56.2   0.16106       6.5         H               348.0  0.083970  0.040311  0.000740  4.236951  0.880312  4.813013  1.198058     23.74    3.9170   27.3175   0.25623   4.90817   0.29882   0.01831  40.63583   4.07774    2632.0  0.588668  0.000742  0.000021  0.000207  0.159207  6.921146  0.750084     90.85  1.000215  1.000024     3.229    22.650      84.8      80.1      50.4     330.2     10.66     -1.04     -2.05      3.39     -0.96      3.36      2.32     -0.55      1.97      0.22     -0.53     -0.84     -0.87     -2.10      0.85     -3.34     -0.58      6.89     -1.16     -2.48
      -8.532284     177.357300     101.4      0.38      1.73      90.0         3         2      3886      2638   2009.90    -6.968       6.2      24.1   409.253     0.727      79.8   0.16669       6.5         H               348.0  0.087747  0.042234  0.000979  4.434025  0.902998  4.910337  1.209032     19.51    3.5456   23.2785   0.26063   4.72833   0.31957   0.02209  34.42316   3.72442    2429.8  0.595282  0.001078  0.000058  0.000225  0.157563  6.906659  0.764087     91.42  1.000228  1.000026     3.307    23.838      86.6      78.0      42.6     307.5     11.02     -1.00     -2.20      2.46     -0.28      3.72      2.60      0.27      1.84      0.75     -0.28     -0.53     -0.36     -1.70      1.03     -5.39     -0.25      7.76     -0.99     -2.55
      -8.520642     177.410187     101.2      0.40      1.73      76.3         3         3      3886      4276   1856.58    -7.313       6.4      24.5   409.150     0.729      69.6   0.16869       6.5         H               348.0  0.088282  0.043270  0.000918  4.548964  0.895089  5.082136  1.211637     23.09    3.2335   19.8510   0.26345   4.56683   0.33861   0.02586  29.24224   3.42127    2249.3  0.596260  0.000845  0.000043  0.000217  0.159670  6.936583  0.766927     89.28  1.000221  1.000028     3.375    25.392      90.6      76.2      36.3     293.9     10.88     -1.11     -2.02      2.66     -0.28      3.86      2.50     -0.12      1.70      0.73     -0.65     -0.75     -0.48     -2.14      1.41     -4.51      0.48      8.20     -1.34     -2.95
