corner points
-169.6268616    -50.68464661
-169.714325    -50.51078415
-169.3518372    -50.6265564
-169.4403839    -50.45290375
========== RESULTS WAVE VERSION 16.10.2018 ====================
IMAGE SIZE  X: 5345     Y:4905    col:row     POLARIZATION:VV
COVERAGE    X: 20.38388466km       Y: 20.25074123km 
RESOLUTION dX: 3.813636044m       dY:4.128591485m  
resolution of original product 3.813636044m x 4.128591485m;   raster step x:5998.849498m  
===============================================================
FLAGS: H=HIGH PROBABILITY SEA STATE, I=LAND(ISLAND), O=OUTLIER NO SEA STATE, N=NO WIND AVAILABLE, SEA STATE NOT VISIBLE, M=MEAN PROBABILITY SEA STATE, L= LOW PROBABILITY SEA STATE
Filtering wave length
 integration  Lmin=1m
 integration  Lmax=2200m
  peak        Lmin=100m
               FFT=1024pixels, 3905.163309m 
   mean-Hs (SWH_c)=1.097655029m
         mean-wind=2.116666794m/s
--------------0--------------1---------2---------3---------4---------5---------6---------7---------8---------9--------10--------11--------12--------13--------14--------15--------16--------17--------18--------19------------------20--------21--------22--------23--------24--------25--------26--------27--------28--------29--------30--------31--------32--------33--------34--------35--------36--------37--------38--------39--------40--------41--------42--------43--------44--------45--------46--------47--------48--------49--------50--------51--------52--------53--------54--------55--------56--------57--------58--------59--------60--------61--------62--------63--------64--------65--------66--------67--------68--------69--------70--------71--------72--------73
            LAT            LON  P-LENGHT     SWH_o     SWH_c     P-DIR      LINE     POINT     ROW-Y     COL-X  M-INTENC        dB      WIND INC-ANGLE  ENERGY-M  ENERGY-N  ENERGY-R ENERGY-NN  FG-DEPTH      FLAG         HEADING-DEG    E30-75   E75-390  E390-600 meanincut   meanout   cut/out  STD-NORM  SPEC-MAX   GL-MEAN    GL-VAR      CORR   ENTROPY   HOMOGEN    ENERGY  CONTRAST  DISSIMIL     STD-O    E 1-30 E600-2000   E2000 >      GODA  LONG-HIG     Tmean  CONVOLUT  MEAN-DIR  relation     Sy/Sx  SKEWNESS  KURTOSIS  cutoff-A >50/10000     INT*V   INT-LOG  S-1_g1f1  S-2_g1f2  S-3_g1f3  S-4_g2f1  S-5_g2f2  S-6_g2f3  S-7_g3f1  S-8_g3f2  S-9_g3f3 S-10_g1f4 S-11_g2f4 S-12_g3f4 S-13_g1f5 S-14_g2f5 S-15_g3f5 S-16_g4f1 S-17_g4f2 S-18_g4f3 S-19_g4f4 S-20_g4f5
--------------1--------------2---------3---------4---------5---------6---------7---------8---------9--------10--------11--------12--------13--------14--------15--------16--------17--------18--------19--------20------------------21--------22--------23--------24--------25--------26--------27--------28--------29--------30--------31--------32--------33--------34--------35--------36--------37--------38--------39--------40--------41--------42--------43--------44--------45--------46--------47--------48--------49--------50--------51--------52--------53--------54--------55--------56--------57--------58--------59--------60--------61--------62--------63--------64--------65--------66--------67--------68--------69--------70--------71--------72--------73--------74
     -50.638092    -169.591888     157.0      0.63      1.78     126.5         1         1      1000      1000   1044.16    -9.812       2.3      22.6   246.002     0.706     167.5   0.15524      17.1         H               344.5  0.076462  0.066996  0.001045  6.310927  1.193977  5.285635  1.191315     34.35    1.6356    6.0577   0.25883   3.44160   0.49079   0.07773   8.97944   1.85465    1243.8  0.559417  0.002452  0.000131  0.000132  0.188700  7.251197  0.741827    119.05  1.000077  1.000005     3.031    19.259      49.1      60.2      11.6     139.9     10.84     -4.22      0.58      5.51     -2.01      2.23      0.81      1.20      1.55     -0.57     -1.34     -0.62     -1.69     -0.73      1.07     -0.40     -0.45      1.94     -1.04     -0.24
     -50.620861    -169.510132     188.5      1.24      1.78     147.9         1         2      1000      2573    720.10   -11.426       2.1      23.0   268.162     0.802     640.2   0.19582      26.9         H               344.5  0.090533  0.087307  0.004794  7.836585  1.449239  5.407378  1.271597     34.95    1.0151    3.2060   0.28750   2.71089   0.61164   0.16366   4.56850   1.21933     915.7  0.607416  0.012217  0.000631  0.000126  0.194303  7.293335  0.851896    123.48  1.000028  1.000003     3.378    23.235      54.5      46.1       6.0     106.0     11.77     -2.92     -1.06      1.92     -2.09      2.16      1.97      0.81      0.78      0.11     -0.65     -0.86     -0.64     -0.70      0.17     -9.30     -1.67      3.83     -0.15     -0.74
     -50.603901    -169.429977     236.4      2.48      1.78     147.0         1         3      1000      4146    609.44   -12.151       2.0      23.5   285.912     0.890     786.1   0.23430      54.5         H               344.5  0.096892  0.120028  0.009875  8.923038  1.568354  5.689427  1.339312    118.20    0.8263    2.5039   0.30518   2.41089   0.66883   0.22395   3.47946   1.00274     816.1  0.647024  0.016088  0.000530  0.000153  0.212475  7.487493  0.953801    139.92  0.999942  0.999997     3.427    23.331      59.4      39.8       4.6      90.8     12.88     -7.57     -1.75     -0.57      1.51      2.02      1.66     -0.18      0.69      2.07     -1.87     -0.84     -3.65      0.66      0.29    -14.48      9.56      4.37     -3.89      3.85
     -50.586594    -169.617889     144.5      0.80      1.78     125.5         2         1      2453      1000   1005.46    -9.976       2.1      22.6   253.377     0.740     424.1   0.16935      14.1         H               344.5  0.077331  0.071686  0.003135  6.432531  1.184923  5.428651  1.220215     35.60    1.5673    5.8966   0.26935   3.36315   0.50815   0.08770   8.61674   1.78443    1226.8  0.579565  0.008675  0.000326  0.000131  0.195194  7.292543  0.780195    119.59  1.000026  1.000001     3.063    19.073      54.5      58.1      11.1     134.0     11.73     -4.10     -0.16      2.74     -1.18      1.97      1.50      0.60      1.46     -0.63     -1.70     -0.29     -0.32     -1.39      1.05     -7.06      1.07      2.20     -1.93     -3.24
     -50.569382    -169.536224     189.8      1.27      1.78     128.9         2         2      2453      2573    820.09   -10.861       2.2      23.0   261.409     0.779     574.9   0.18599      27.4         H               344.5  0.082709  0.083919  0.004705  7.343672  1.317103  5.575624  1.254158     36.98    1.2096    4.0756   0.28181   2.96347   0.57475   0.13075   5.85404   1.41381    1028.5  0.597400  0.009922  0.000557  0.000127  0.202270  7.355822  0.825087    123.50  0.999999  1.000001     3.218    21.363      55.3      50.8       7.6     115.1     12.19     -3.88     -0.82      1.32     -1.39      1.89      1.49      0.81      0.72     -0.34     -1.06     -0.51     -0.98     -1.27      0.51     -9.72      0.08      3.39     -0.89     -1.59
     -50.552437    -169.456161     271.9      1.83      1.78     130.0         2         3      2453      4146    708.98   -11.494       2.2      23.5   275.661     0.842     574.3   0.21347     100.0         H               344.5  0.092944  0.101358  0.008674  8.207891  1.504899  5.454115  1.302760     69.07    1.0083    3.2566   0.29653   2.68896   0.62172   0.17328   4.58179   1.20077     923.5  0.626367  0.012828  0.000325  0.000138  0.205867  7.394011  0.897604    126.85  1.000077  1.000003     3.410    25.059      57.7      45.2       6.0     114.5     12.67     -6.29      0.57     -0.02      0.66      1.02      2.52     -0.33      0.47     -0.61     -1.27      0.21     -3.01      0.56     -0.31    -14.65      7.41      0.56     -2.24      3.48
     -50.535091    -169.643845     331.4      0.14      1.78     160.2         3         1      3906      1000    756.17   -11.214       2.0      22.6   247.144     0.753    2596.5   0.19170     100.0         H               344.5  0.072108  0.072370  0.005371  6.522347  1.113184  5.859181  1.241666     37.28    1.1040    3.4183   0.30721   2.74104   0.65254   0.14247   4.73630   1.13861     938.9  0.559955  0.040218  0.003835  0.000137  0.199194  7.354035  0.803689    119.65  0.999876  0.999991     3.794    27.356     137.8      56.0       6.5     108.7     12.32     -4.47     -0.88      0.50     -0.16      3.82      3.08     -0.39     -0.25      0.36     -2.49      0.11     -0.20     -1.61      1.57    -13.69      4.45      8.10     -4.95     -4.83
     -50.517895    -169.562271     388.0      1.62      1.78     156.6         3         2      3906      2573    762.41   -11.178       2.1      23.0   259.449     0.791     848.9   0.19920     100.0         H               344.5  0.083182  0.092385  0.007682  7.323605  1.308617  5.596445  1.258409     61.32    1.1003    3.5268   0.29579   2.80786   0.62235   0.14583   4.96722   1.23163     959.4  0.589094  0.018297  0.000668  0.000135  0.209186  7.434731  0.843021    126.50  0.999679  0.999982     3.462    25.031      64.2      50.8       6.6     119.8     12.75     -4.73     -1.91     -0.26     -0.23      3.20      2.03      0.37     -0.36      0.58     -1.96      0.46     -1.07     -1.24      1.03    -14.62      3.97      8.01     -4.62     -2.03
     -50.500969    -169.482315     330.9      0.14      1.78     149.4         3         3      3906      4146    555.06   -12.557       1.9      23.5   308.712     1.006    1324.4   0.29201     100.0         H               344.5  0.109495  0.149733  0.018170 10.030581  1.825879  5.493562  1.429484    164.99    0.7560    2.3328   0.33233   2.26595   0.71388   0.25330   3.11509   0.87073     793.3  0.698632  0.030440  0.000729  0.000155  0.224647  7.572902  1.089850    144.78  0.999748  0.999984     3.937    30.523      69.9      38.6       4.2      97.2     13.87     -7.06     -3.36     -3.64      1.94      3.06      2.50     -0.40     -0.08      2.73     -3.02     -0.02     -2.28     -0.40      0.24    -21.66     10.04      8.45     -7.42      1.29
