corner points
175.0185852    1.937505007
174.9810028    2.118289471
175.1903992    1.974117398
175.1528015    2.154872656
========== RESULTS WAVE VERSION 16.10.2018 ====================
IMAGE SIZE  X: 5345     Y:4928    col:row     POLARIZATION:VV
COVERAGE    X: 19.47702872km       Y: 20.48422181km 
RESOLUTION dX: 3.643971697m       dY:4.156700855m  
resolution of original product 3.643971697m x 4.156700855m;   raster step x:5997.977414m  
===============================================================
FLAGS: H=HIGH PROBABILITY SEA STATE, I=LAND(ISLAND), O=OUTLIER NO SEA STATE, N=NO WIND AVAILABLE, SEA STATE NOT VISIBLE, M=MEAN PROBABILITY SEA STATE, L= LOW PROBABILITY SEA STATE
Filtering wave length
 integration  Lmin=1m
 integration  Lmax=2200m
  peak        Lmin=100m
               FFT=1024pixels, 3731.427018m 
   mean-Hs (SWH_c)=1.410742798m
         mean-wind=8.930659294m/s
--------------0--------------1---------2---------3---------4---------5---------6---------7---------8---------9--------10--------11--------12--------13--------14--------15--------16--------17--------18--------19------------------20--------21--------22--------23--------24--------25--------26--------27--------28--------29--------30--------31--------32--------33--------34--------35--------36--------37--------38--------39--------40--------41--------42--------43--------44--------45--------46--------47--------48--------49--------50--------51--------52--------53--------54--------55--------56--------57--------58--------59--------60--------61--------62--------63--------64--------65--------66--------67--------68--------69--------70--------71--------72--------73
            LAT            LON  P-LENGHT     SWH_o     SWH_c     P-DIR      LINE     POINT     ROW-Y     COL-X  M-INTENC        dB      WIND INC-ANGLE  ENERGY-M  ENERGY-N  ENERGY-R ENERGY-NN  FG-DEPTH      FLAG         HEADING-DEG    E30-75   E75-390  E390-600 meanincut   meanout   cut/out  STD-NORM  SPEC-MAX   GL-MEAN    GL-VAR      CORR   ENTROPY   HOMOGEN    ENERGY  CONTRAST  DISSIMIL     STD-O    E 1-30 E600-2000   E2000 >      GODA  LONG-HIG     Tmean  CONVOLUT  MEAN-DIR  relation     Sy/Sx  SKEWNESS  KURTOSIS  cutoff-A >50/10000     INT*V   INT-LOG  S-1_g1f1  S-2_g1f2  S-3_g1f3  S-4_g2f1  S-5_g2f2  S-6_g2f3  S-7_g3f1  S-8_g3f2  S-9_g3f3 S-10_g1f4 S-11_g2f4 S-12_g3f4 S-13_g1f5 S-14_g2f5 S-15_g3f5 S-16_g4f1 S-17_g4f2 S-18_g4f3 S-19_g4f4 S-20_g4f5
--------------1--------------2---------3---------4---------5---------6---------7---------8---------9--------10--------11--------12--------13--------14--------15--------16--------17--------18--------19--------20------------------21--------22--------23--------24--------25--------26--------27--------28--------29--------30--------31--------32--------33--------34--------35--------36--------37--------38--------39--------40--------41--------42--------43--------44--------45--------46--------47--------48--------49--------50--------51--------52--------53--------54--------55--------56--------57--------58--------59--------60--------61--------62--------63--------64--------65--------66--------67--------68--------69--------70--------71--------72--------73--------74
       1.981216     175.043884     353.1      1.46      2.62       5.4         1         1      1000      1000   3012.08    -5.211       9.4      23.7   441.977     0.773      89.8   0.18731     100.0         H               348.0  0.089940  0.060306  0.001170  5.844877  0.959301  6.092851  1.247496     31.43    5.5035   52.9441   0.27780   5.50357   0.24391   0.01069  76.47176   5.56946    3757.3  0.621500  0.001005  0.000030  0.000224  0.187534  7.125861  0.817452     86.33  1.000219  1.000028     3.582    28.236     102.3      85.2     100.7     512.8     11.99     -1.14      0.83      3.59     -0.13      8.58      2.53      0.32      3.96     -0.84     -0.95      0.72      3.26      1.10      1.93     -3.25      1.36     10.01     -0.40     -0.23
       1.992595     175.097290     177.5      1.45      2.62      92.4         1         2      1000      2646   2703.99    -5.680       9.3      24.2   441.701     0.776      88.6   0.18826      23.0         H               348.0  0.090107  0.061174  0.001200  5.937393  0.944423  6.286793  1.247862     35.31    4.8941   43.4103   0.28057   5.28854   0.26514   0.01332  62.46149   4.99567    3374.2  0.622818  0.000947  0.000037  0.000226  0.189496  7.143739  0.819861     85.29  1.000237  1.000030     3.512    26.223     105.0      83.3      80.7     446.4     12.17     -1.11      1.92      3.76     -0.16      8.44      2.06      0.36      3.25     -0.70     -0.96      0.42      3.19      1.76      1.96     -3.30      0.89      8.97     -0.23      0.24
       2.003767     175.149734     138.1      1.43      2.62      91.9         1         3      1000      4292   2477.23    -6.060       9.4      24.6   443.574     0.777     110.3   0.18843      12.8         H               348.0  0.090510  0.061014  0.001149  5.897124  0.935263  6.305311  1.250699     38.77    4.4578   36.9279   0.27915   5.12015   0.28217   0.01576  53.23869   4.59014    3098.1  0.623590  0.001416  0.000054  0.000239  0.186923  7.124739  0.820958     85.88  1.000257  1.000035     3.579    28.522     107.8      81.6      67.7     440.7     11.86     -0.97      2.18      3.98     -0.22      8.76      3.11      0.21      4.44     -0.41     -1.36      0.44      3.58      2.60      2.68     -2.59      0.82      9.41     -0.88      1.57
       2.034162     175.032883     303.0      1.42      2.62       4.7         2         1      2443      1000   2918.90    -5.348       9.1      23.7   438.591     0.768      90.9   0.18586     100.0         H               348.0  0.089724  0.060570  0.001214  5.988265  0.961691  6.226809  1.241570     38.36    5.3285   50.0065   0.27944   5.44455   0.24965   0.01137  72.06548   5.40218    3624.0  0.615880  0.000991  0.000038  0.000224  0.187162  7.137856  0.811796     86.66  1.000222  1.000027     3.433    24.684     102.3      84.7      94.1     458.7     11.93     -0.85      1.45      3.86     -0.18      9.15      2.96      0.26      3.97     -0.96     -0.69      0.60      3.64      1.63      2.47     -3.05      0.87     10.69      0.21     -0.21
       2.045538     175.086273     282.9      1.40      2.62     175.7         2         2      2443      2646   2642.51    -5.780       9.0      24.2   440.480     0.769      97.4   0.18507     100.0         H               348.0  0.088368  0.060374  0.001360  5.667331  0.922183  6.145558  1.240708     40.20    4.7886   41.4844   0.27719   5.25121   0.26897   0.01381  59.97036   4.89791    3278.4  0.618193  0.001056  0.000041  0.000225  0.190441  7.142102  0.812170     84.04  1.000208  1.000025     3.489    27.014     102.3      82.9      76.9     459.6     12.05     -0.69     -0.27      2.82      0.48      9.14      2.83      0.30      4.19      0.10     -0.65      0.91      3.52      0.98      2.23     -4.13      1.77     11.89     -0.85     -0.33
       2.056707     175.138718     142.8      1.38      2.62      84.2         2         3      2443      4292   2411.38    -6.177       9.1      24.6   442.513     0.772      95.3   0.18516      13.8         H               348.0  0.089143  0.060130  0.001188  5.695547  0.924961  6.157606  1.244748     36.91    4.3296   34.9041   0.27615   5.06963   0.28679   0.01645  50.53100   4.47021    3001.6  0.620849  0.001053  0.000044  0.000222  0.189891  7.152576  0.815163     86.35  1.000239  1.000029     3.505    26.108     102.3      81.2      63.8     408.5     11.80     -0.73      1.31      3.81     -0.01      8.88      3.10      0.19      4.28     -0.31     -0.59      0.58      3.61      1.68      2.50     -2.85      1.09     10.44     -0.55      0.39
       2.087108     175.021866     326.2      1.37      2.62     175.0         3         1      3886      1000   2764.52    -5.584       8.5      23.7   445.387     0.783      80.7   0.19104     100.0         H               348.0  0.092628  0.062387  0.001036  5.919885  0.938406  6.308450  1.252854     42.54    5.0263   45.8251   0.28138   5.33474   0.26116   0.01283  65.86142   5.12626    3463.3  0.626691  0.000695  0.000025  0.000222  0.188417  7.156619  0.827462     87.04  1.000225  1.000029     3.581    28.637     102.3      83.6      85.3     492.8     11.81     -0.89      0.95      3.95     -0.15      8.84      2.68      0.24      4.45     -0.28     -1.01      0.36      3.17      1.54      2.68     -2.18      0.81     10.30     -0.69      0.25
       2.098481     175.075272     148.9      1.47      2.62      86.0         3         2      3886      2646   2493.03    -6.033       8.4      24.2   441.790     0.777     105.8   0.19041      15.1         H               348.0  0.089204  0.064250  0.001179  5.855300  0.938934  6.236115  1.252481     51.33    4.4904   37.4175   0.28185   5.13201   0.28180   0.01566  53.74296   4.61334    3122.5  0.622111  0.001251  0.000050  0.000239  0.190042  7.180484  0.822177     86.02  1.000237  1.000031     3.571    28.318     105.0      81.7      68.6     442.2     11.62     -0.62      1.93      4.40      0.11      9.18      3.43      0.36      5.02     -0.33     -0.50      0.91      3.58      2.41      2.95     -1.88      0.91     10.35     -0.49      1.19
       2.109648     175.127716     142.2      1.32      2.62      82.3         3         3      3886      4292   2221.02    -6.534       8.2      24.7   442.761     0.775      92.8   0.18797      13.6         H               348.0  0.089762  0.061893  0.001227  5.809896  0.942686  6.163131  1.248689     39.94    3.9611   29.9851   0.27920   4.90936   0.30413   0.01935  43.22626   4.12038    2773.1  0.622121  0.000964  0.000033  0.000227  0.192289  7.166143  0.819186     85.22  1.000232  1.000028     3.563    27.756     102.3      79.5      54.3     377.8     12.08     -0.57      1.68      3.83      0.33      8.87      2.50      0.23      3.88      0.12     -0.36      0.43      3.52      2.00      2.26     -3.14      1.13      9.97     -0.18      0.79
