corner points
172.501709    22.64504242
172.4657288    22.81997108
172.6886597    22.67785072
172.6529236    22.85275459
========== RESULTS WAVE VERSION 16.10.2018 ====================
IMAGE SIZE  X: 4316     Y:4783    col:row     POLARIZATION:VV
COVERAGE    X: 19.48319985km       Y: 19.75007023km 
RESOLUTION dX: 4.514179761m       dY:4.129222293m  
resolution of original product 4.514179761m x 4.129222293m;   raster step x:5999.344902m  
===============================================================
FLAGS: H=HIGH PROBABILITY SEA STATE, I=LAND(ISLAND), O=OUTLIER NO SEA STATE, N=NO WIND AVAILABLE, SEA STATE NOT VISIBLE, M=MEAN PROBABILITY SEA STATE, L= LOW PROBABILITY SEA STATE
Filtering wave length
 integration  Lmin=1m
 integration  Lmax=2200m
  peak        Lmin=100m
               FFT=1024pixels, 4622.520075m 
   mean-Hs (SWH_c)=1.242023926m
         mean-wind=8.426544189m/s
--------------0--------------1---------2---------3---------4---------5---------6---------7---------8---------9--------10--------11--------12--------13--------14--------15--------16--------17--------18--------19------------------20--------21--------22--------23--------24--------25--------26--------27--------28--------29--------30--------31--------32--------33--------34--------35--------36--------37--------38--------39--------40--------41--------42--------43--------44--------45--------46--------47--------48--------49--------50--------51--------52--------53--------54--------55--------56--------57--------58--------59--------60--------61--------62--------63--------64--------65--------66--------67--------68--------69--------70--------71--------72--------73
            LAT            LON  P-LENGHT     SWH_o     SWH_c     P-DIR      LINE     POINT     ROW-Y     COL-X  M-INTENC        dB      WIND INC-ANGLE  ENERGY-M  ENERGY-N  ENERGY-R ENERGY-NN  FG-DEPTH      FLAG         HEADING-DEG    E30-75   E75-390  E390-600 meanincut   meanout   cut/out  STD-NORM  SPEC-MAX   GL-MEAN    GL-VAR      CORR   ENTROPY   HOMOGEN    ENERGY  CONTRAST  DISSIMIL     STD-O    E 1-30 E600-2000   E2000 >      GODA  LONG-HIG     Tmean  CONVOLUT  MEAN-DIR  relation     Sy/Sx  SKEWNESS  KURTOSIS  cutoff-A >50/10000     INT*V   INT-LOG  S-1_g1f1  S-2_g1f2  S-3_g1f3  S-4_g2f1  S-5_g2f2  S-6_g2f3  S-7_g3f1  S-8_g3f2  S-9_g3f3 S-10_g1f4 S-11_g2f4 S-12_g3f4 S-13_g1f5 S-14_g2f5 S-15_g3f5 S-16_g4f1 S-17_g4f2 S-18_g4f3 S-19_g4f4 S-20_g4f5
--------------1--------------2---------3---------4---------5---------6---------7---------8---------9--------10--------11--------12--------13--------14--------15--------16--------17--------18--------19--------20------------------21--------22--------23--------24--------25--------26--------27--------28--------29--------30--------31--------32--------33--------34--------35--------36--------37--------38--------39--------40--------41--------42--------43--------44--------45--------46--------47--------48--------49--------50--------51--------52--------53--------54--------55--------56--------57--------58--------59--------60--------61--------62--------63--------64--------65--------66--------67--------68--------69--------70--------71--------72--------73--------74
      22.689327     172.537979     106.5      1.31      1.93      75.4         1         1      1000      1000    271.90   -15.656       8.3      36.9   233.752     0.590      63.8   0.08107       7.3         H               347.7  0.048662  0.033740  0.000539  3.348565  0.690877  4.846831  1.090016     23.60    4.9540   34.8950   0.12651   5.37314   0.23353   0.00990  60.96061   5.27812     296.4  0.506518  0.000901  0.000078  0.000171  0.181308  7.160582  0.596770     75.44  1.000098  1.000009     2.517    13.717     105.0      85.7      68.5     307.4     10.94      2.16      0.17      4.52      3.10      4.97      2.32      1.25      4.07      2.49      2.99      2.38     -1.02     -0.23      1.92     -1.07      2.75      6.10      2.00      1.11
      22.699469     172.595749     124.8      1.29      1.93      76.3         1         2      1000      2329    256.26   -15.913       8.2      37.3   235.181     0.592      67.0   0.08074      10.2         H               347.7  0.048953  0.033917  0.000467  3.390400  0.694605  4.881047  1.092211     22.82    4.6443   31.1012   0.12487   5.25628   0.24392   0.01110  54.43482   4.97533     279.9  0.508427  0.000932  0.000098  0.000178  0.180027  7.164976  0.599264     75.20  1.000096  1.000008     2.556    14.268     105.0      84.8      61.0     300.7     10.64      2.44      0.66      5.23      3.49      5.30      2.87      1.56      4.77      2.82      3.40      2.62     -0.54     -0.00      1.91      0.07      3.00      5.76      2.43      1.21
      22.709503     172.653046     111.4      1.37      1.93      70.0         1         3      1000      3658    257.38   -15.894       8.5      37.7   234.603     0.592      59.8   0.08131       8.0         H               347.7  0.048994  0.034400  0.000507  3.456208  0.688625  5.019000  1.091114     28.08    4.6663   31.3482   0.12652   5.26461   0.24332   0.01101  54.76311   4.99267     280.8  0.507405  0.000790  0.000073  0.000185  0.181096  7.179278  0.598533     74.53  1.000111  1.000009     2.533    13.861     110.8      84.8      61.4     288.3     10.86      2.26      1.15      5.04      3.35      5.97      3.06      1.79      4.38      3.00      3.82      2.62     -0.02      0.26      1.94     -0.39      3.04      6.80      2.83      0.81
      22.742477     172.527069     127.1      1.32      1.93      74.3         2         1      2453      1000    275.68   -15.596       8.4      36.9   233.788     0.592      73.6   0.08241      10.6         H               347.7  0.049619  0.034072  0.000604  3.401285  0.694332  4.898645  1.091859     21.04    5.0289   35.9681   0.12950   5.39982   0.23116   0.00967  62.62089   5.34534     301.0  0.506925  0.001011  0.000115  0.000181  0.179196  7.159802  0.599011     75.53  1.000123  1.000010     2.528    13.695     107.8      85.9      70.5     297.1     11.01      2.10      0.51      4.32      3.02      4.97      2.65      1.35      4.15      2.47      2.87      2.80     -0.91     -0.31      1.63     -1.65      2.98      5.68      1.92      0.76
      22.752617     172.584854     146.4      1.25      1.93      71.8         2         2      2453      2329    260.69   -15.839       8.4      37.3   234.083     0.589      54.0   0.08007      14.6         H               347.7  0.049080  0.033090  0.000532  3.272020  0.684366  4.781097  1.089236     24.13    4.7327   32.0668   0.12442   5.29067   0.24092   0.01071  56.15375   5.06168     283.9  0.506199  0.000736  0.000053  0.000172  0.180820  7.152629  0.595821     74.29  1.000129  1.000010     2.503    13.344     107.8      85.1      62.8     276.2     10.90      2.10      0.86      4.90      3.23      5.43      2.81      1.73      4.65      2.74      3.58      2.72     -0.49      0.20      1.75     -0.68      2.94      5.67      2.60      1.29
      22.762648     172.642166     141.2      1.14      1.93      66.4         2         3      2453      3658    258.97   -15.868       8.6      37.7   232.984     0.586      58.4   0.07919      13.4         H               347.7  0.048453  0.031094  0.000471  3.127781  0.683014  4.579382  1.086286     24.88    4.6966   31.4275   0.12235   5.27754   0.24112   0.01080  55.16435   5.02558     281.3  0.505942  0.000756  0.000081  0.000170  0.178050  7.120689  0.592546     74.26  1.000121  1.000009     2.512    13.771     105.0      85.0      61.7     293.6     10.66      2.13      1.07      5.22      3.65      5.38      3.23      1.78      4.20      2.89      3.55      2.76     -0.62     -0.07      1.39     -0.31      3.45      5.89      2.25      0.91
      22.795628     172.516144     144.8      1.16      1.93      70.0         3         1      3906      1000    281.98   -15.498       8.6      36.9   233.526     0.589      45.9   0.08068      14.2         H               347.7  0.049229  0.031451  0.000473  3.141609  0.673481  4.664732  1.088539     22.87    5.1549   37.4010   0.12433   5.44583   0.22636   0.00920  65.50101   5.48145     307.0  0.507073  0.000597  0.000040  0.000170  0.179468  7.129437  0.594547     74.55  1.000126  1.000010     2.500    13.431     105.0      86.2      73.7     310.0     10.87      2.58      0.65      5.01      3.31      5.43      2.81      1.52      4.00      2.79      3.39      2.69     -0.88     -0.12      1.57     -0.70      2.60      6.17      2.56      1.02
      22.805763     172.573959     149.3      1.11      1.93      75.7         3         2      3906      2329    259.06   -15.866       8.3      37.3   232.651     0.588      56.4   0.07997      15.2         H               347.7  0.049755  0.031678  0.000496  3.174936  0.684863  4.635872  1.087769     19.43    4.7002   31.5643   0.12504   5.27844   0.24156   0.01081  55.23445   5.02766     281.8  0.505456  0.000776  0.000067  0.000171  0.176778  7.107476  0.594517     75.42  1.000141  1.000011     2.502    13.447     107.8      85.1      61.9     284.7     10.91      2.23      0.77      4.78      3.34      5.10      2.61      1.33      4.12      2.92      3.34      2.70     -0.53      0.34      1.82     -0.84      3.25      5.54      1.88      1.39
      22.815794     172.631302     113.3      1.22      1.93      72.9         3         3      3906      3658    259.33   -15.861       8.6      37.7   232.824     0.586      52.7   0.07956       8.3         H               347.7  0.048407  0.032157  0.000466  3.209158  0.679127  4.725414  1.086243     18.81    4.7048   31.5346   0.12314   5.28050   0.24143   0.01078  55.30225   5.02922     281.7  0.504810  0.000667  0.000062  0.000169  0.179122  7.146260  0.592327     76.13  1.000129  1.000010     2.497    13.433     105.0      85.0      62.0     282.5     10.83      1.99      0.56      4.83      3.19      5.37      2.72      1.91      4.13      2.64      3.48      2.67     -0.35      0.03      1.80     -0.58      2.76      6.43      2.62      0.76
