corner points
172.861969    20.87598419
172.8261719    21.0510025
173.0465851    20.90905571
173.0110168    21.08404732
========== RESULTS WAVE VERSION 16.10.2018 ====================
IMAGE SIZE  X: 4316     Y:4784    col:row     POLARIZATION:VV
COVERAGE    X: 19.48471382km       Y: 19.76487449km 
RESOLUTION dX: 4.514530541m       dY:4.131453697m  
resolution of original product 4.514530541m x 4.131453697m;   raster step x:5999.811089m  
===============================================================
FLAGS: H=HIGH PROBABILITY SEA STATE, I=LAND(ISLAND), O=OUTLIER NO SEA STATE, N=NO WIND AVAILABLE, SEA STATE NOT VISIBLE, M=MEAN PROBABILITY SEA STATE, L= LOW PROBABILITY SEA STATE
Filtering wave length
 integration  Lmin=1m
 integration  Lmax=2200m
  peak        Lmin=100m
               FFT=1024pixels, 4622.879274m 
   mean-Hs (SWH_c)=1.550056915m
         mean-wind=12.29711819m/s
--------------0--------------1---------2---------3---------4---------5---------6---------7---------8---------9--------10--------11--------12--------13--------14--------15--------16--------17--------18--------19------------------20--------21--------22--------23--------24--------25--------26--------27--------28--------29--------30--------31--------32--------33--------34--------35--------36--------37--------38--------39--------40--------41--------42--------43--------44--------45--------46--------47--------48--------49--------50--------51--------52--------53--------54--------55--------56--------57--------58--------59--------60--------61--------62--------63--------64--------65--------66--------67--------68--------69--------70--------71--------72--------73
            LAT            LON  P-LENGHT     SWH_o     SWH_c     P-DIR      LINE     POINT     ROW-Y     COL-X  M-INTENC        dB      WIND INC-ANGLE  ENERGY-M  ENERGY-N  ENERGY-R ENERGY-NN  FG-DEPTH      FLAG         HEADING-DEG    E30-75   E75-390  E390-600 meanincut   meanout   cut/out  STD-NORM  SPEC-MAX   GL-MEAN    GL-VAR      CORR   ENTROPY   HOMOGEN    ENERGY  CONTRAST  DISSIMIL     STD-O    E 1-30 E600-2000   E2000 >      GODA  LONG-HIG     Tmean  CONVOLUT  MEAN-DIR  relation     Sy/Sx  SKEWNESS  KURTOSIS  cutoff-A >50/10000     INT*V   INT-LOG  S-1_g1f1  S-2_g1f2  S-3_g1f3  S-4_g2f1  S-5_g2f2  S-6_g2f3  S-7_g3f1  S-8_g3f2  S-9_g3f3 S-10_g1f4 S-11_g2f4 S-12_g3f4 S-13_g1f5 S-14_g2f5 S-15_g3f5 S-16_g4f1 S-17_g4f2 S-18_g4f3 S-19_g4f4 S-20_g4f5
--------------1--------------2---------3---------4---------5---------6---------7---------8---------9--------10--------11--------12--------13--------14--------15--------16--------17--------18--------19--------20------------------21--------22--------23--------24--------25--------26--------27--------28--------29--------30--------31--------32--------33--------34--------35--------36--------37--------38--------39--------40--------41--------42--------43--------44--------45--------46--------47--------48--------49--------50--------51--------52--------53--------54--------55--------56--------57--------58--------59--------60--------61--------62--------63--------64--------65--------66--------67--------68--------69--------70--------71--------72--------73--------74
      20.920338     172.897720     136.5      1.61      2.60      76.9         1         1      1000      1000    479.11   -13.196      12.3      36.9   229.414     0.588      89.1   0.08511      12.4         H               347.7  0.052106  0.028144  0.000617  2.886222  0.697990  4.135049  1.088432     19.29    9.0442  101.9996   0.13272   6.48143   0.14779   0.00321 176.92383   9.19845     521.4  0.506363  0.001207  0.000174  0.000169  0.172847  7.009597  0.594609     80.95  1.000171  1.000014     2.546    14.467     114.0      93.4     222.9     595.5     11.13      1.60      1.35      4.05      2.49      5.42      3.12      1.54      3.21      2.82      2.50      2.51     -0.21      0.85      2.69     -2.73      2.08      6.63      1.00      1.20
      20.930561     172.954773     126.1      1.46      2.60      72.7         1         2      1000      2329    437.01   -13.595      12.0      37.3   230.260     0.588      62.8   0.08343      10.4         H               347.7  0.050421  0.027012  0.000564  2.719606  0.687636  3.955008  1.087422     19.46    8.2231   86.3952   0.12680   6.30693   0.15897   0.00384 150.88031   8.44279     475.3  0.508941  0.000914  0.000092  0.000163  0.176538  7.038400  0.592915     79.88  1.000178  1.000014     2.509    13.587     114.0      92.5     183.4     507.3     11.00      1.70      1.24      4.26      2.68      5.72      3.26      1.53      3.35      2.67      3.29      2.46     -0.08      0.96      2.57     -2.15      2.15      7.10      2.29      1.55
      20.940678     173.011353     147.9      1.34      2.60      73.8         1         3      1000      3658    406.82   -13.906      11.7      37.7   228.924     0.578      56.2   0.07878      14.9         H               347.7  0.048597  0.025984  0.000476  2.577257  0.679071  3.795270  1.078752     19.98    7.6319   74.6947   0.11981   6.17111   0.16753   0.00436 131.49072   7.87215     438.8  0.502406  0.000732  0.000077  0.000151  0.178735  7.031126  0.582572     78.67  1.000143  1.000012     2.465    13.068     107.8      91.7     156.1     444.3     11.03      1.84      1.25      4.59      2.69      5.52      2.87      1.30      3.36      2.98      3.36      2.00     -0.40      0.78      3.01     -1.46      2.00      6.48      2.22      0.70
      20.973469     172.886871     136.7      1.69      2.60      71.1         2         1      2452      1000    489.34   -13.104      12.5      36.9   229.863     0.587     105.7   0.08465      12.5         H               347.7  0.051285  0.028565  0.000581  2.891225  0.692876  4.172786  1.087446     21.66    9.2428  105.8705   0.13023   6.52180   0.14498   0.00307 184.16743   9.39723     532.2  0.505695  0.001379  0.000245  0.000176  0.174126  7.038012  0.593355     79.91  1.000171  1.000014     2.529    14.014     114.0      93.6     233.1     594.4     11.00      1.96      1.28      4.27      2.41      5.69      3.43      1.58      3.30      2.80      3.17      2.47      0.03      0.40      2.43     -2.12      1.64      7.23      2.23      0.43
      20.983688     172.943954     141.5      1.47      2.60      78.4         2         2      2452      2329    435.42   -13.611      11.9      37.3   229.477     0.585      89.7   0.08244      13.5         H               347.7  0.050657  0.027278  0.000592  2.767122  0.694214  3.985981  1.085527     19.16    8.1915   85.5949   0.12749   6.30047   0.15963   0.00386 149.36407   8.40588     472.7  0.505957  0.001192  0.000179  0.000170  0.173967  7.027717  0.591193     81.86  1.000167  1.000014     2.502    13.616     114.0      92.5     181.7     504.0     11.23      1.82      1.23      4.05      2.44      5.31      2.81      0.98      3.24      2.75      2.70      2.08     -0.12      0.35      3.18     -2.76      2.32      6.02      1.33     -0.29
      20.993801     173.000534     149.3      1.44      2.60      75.7         2         3      2452      3658    433.83   -13.627      12.2      37.7   228.797     0.580      62.4   0.08078      15.2         H               347.7  0.049614  0.026273  0.000572  2.633444  0.683738  3.851542  1.080618     14.85    8.1652   84.4931   0.12328   6.29560   0.15961   0.00386 148.15427   8.38269     468.8  0.502984  0.000862  0.000092  0.000155  0.176136  7.027471  0.585048     81.90  1.000157  1.000012     2.466    13.188     107.8      92.5     179.2     497.4     11.27      1.72      1.11      4.07      2.24      5.01      2.53      0.85      2.70      2.57      2.58      1.33     -0.49      0.42      2.29     -3.09      1.73      5.64      1.36      0.98
      21.026598     172.876038     135.4      1.81      2.60      75.2         3         1      3904      1000    520.10   -12.839      13.0      36.9   230.727     0.591      99.5   0.08600      12.2         H               347.7  0.051885  0.028924  0.000639  2.894501  0.696280  4.157091  1.090657     17.61    9.8374  118.5738   0.13320   6.63375   0.13850   0.00274 205.55975   9.95030     567.2  0.508040  0.001312  0.000202  0.000175  0.174758  7.023609  0.596872     81.88  1.000157  1.000012     2.510    13.486     110.8      94.3     265.7     604.6     11.39      2.09      0.57      3.54      2.81      5.68      2.85      1.00      3.04      2.82      2.91      2.17      0.18      0.04      2.07     -3.62      2.35      7.05      1.36     -0.11
      21.036816     172.933121     142.4      1.67      2.60      80.3         3         2      3904      2329    487.96   -13.116      12.8      37.3   229.418     0.585      58.2   0.08386      13.7         H               347.7  0.050983  0.027700  0.000551  2.835423  0.694649  4.081808  1.085191     17.68    9.2189  105.2140   0.12870   6.51740   0.14544   0.00309 183.34671   9.37824     529.5  0.505495  0.000807  0.000080  0.000178  0.173927  7.021620  0.590764     82.11  1.000167  1.000014     2.498    13.678     110.8      93.7     230.7     581.5     11.04      2.17      1.41      4.41      2.70      5.43      3.00      1.10      3.29      2.36      3.52      2.56     -0.27      0.66      2.48     -2.05      2.49      6.42      2.62      1.32
      21.046926     172.989731     151.5      1.46      2.60      62.2         3         3      3904      3658    441.85   -13.547      12.3      37.7   227.832     0.578      54.4   0.08033      15.8         H               347.7  0.049378  0.026091  0.000537  2.670748  0.678136  3.938369  1.079010     17.78    8.3217   87.2001   0.12331   6.33106   0.15693   0.00372 152.89465   8.52737     476.7  0.501802  0.000816  0.000067  0.000169  0.173132  7.007873  0.583283     81.81  1.000178  1.000015     2.457    13.264     110.8      92.7     185.7     519.3     11.14      2.35      1.64      4.45      2.59      5.15      2.95      1.20      2.78      2.67      3.30      1.96     -0.53      0.56      2.29     -2.60      1.42      5.69      1.70      0.98
