corner points
63.60976028    -14.89020252
63.5680275    -15.06466866
63.42541122    -14.84778786
63.3835144    -15.02219391
========== RESULTS WAVE VERSION 16.10.2018 ====================
IMAGE SIZE  X: 4466     Y:4783    col:row     POLARIZATION:VV
COVERAGE    X: 20.32186166km       Y: 19.86526007km 
RESOLUTION dX: 4.550349678m       dY:4.153305471m  
resolution of original product 4.550349678m x 4.153305471m;   raster step x:5997.360875m  
===============================================================
FLAGS: H=HIGH PROBABILITY SEA STATE, I=LAND(ISLAND), O=OUTLIER NO SEA STATE, N=NO WIND AVAILABLE, SEA STATE NOT VISIBLE, M=MEAN PROBABILITY SEA STATE, L= LOW PROBABILITY SEA STATE
Filtering wave length
 integration  Lmin=1m
 integration  Lmax=2200m
  peak        Lmin=100m
               FFT=1024pixels, 4659.55807m 
   mean-Hs (SWH_c)=0.3728488541m
         mean-wind=7.759259701m/s
--------------0--------------1---------2---------3---------4---------5---------6---------7---------8---------9--------10--------11--------12--------13--------14--------15--------16--------17--------18--------19------------------20--------21--------22--------23--------24--------25--------26--------27--------28--------29--------30--------31--------32--------33--------34--------35--------36--------37--------38--------39--------40--------41--------42--------43--------44--------45--------46--------47--------48--------49--------50--------51--------52--------53--------54--------55--------56--------57--------58--------59--------60--------61--------62--------63--------64--------65--------66--------67--------68--------69--------70--------71--------72--------73
            LAT            LON  P-LENGHT     SWH_o     SWH_c     P-DIR      LINE     POINT     ROW-Y     COL-X  M-INTENC        dB      WIND INC-ANGLE  ENERGY-M  ENERGY-N  ENERGY-R ENERGY-NN  FG-DEPTH      FLAG         HEADING-DEG    E30-75   E75-390  E390-600 meanincut   meanout   cut/out  STD-NORM  SPEC-MAX   GL-MEAN    GL-VAR      CORR   ENTROPY   HOMOGEN    ENERGY  CONTRAST  DISSIMIL     STD-O    E 1-30 E600-2000   E2000 >      GODA  LONG-HIG     Tmean  CONVOLUT  MEAN-DIR  relation     Sy/Sx  SKEWNESS  KURTOSIS  cutoff-A >50/10000     INT*V   INT-LOG  S-1_g1f1  S-2_g1f2  S-3_g1f3  S-4_g2f1  S-5_g2f2  S-6_g2f3  S-7_g3f1  S-8_g3f2  S-9_g3f3 S-10_g1f4 S-11_g2f4 S-12_g3f4 S-13_g1f5 S-14_g2f5 S-15_g3f5 S-16_g4f1 S-17_g4f2 S-18_g4f3 S-19_g4f4 S-20_g4f5
--------------1--------------2---------3---------4---------5---------6---------7---------8---------9--------10--------11--------12--------13--------14--------15--------16--------17--------18--------19--------20------------------21--------22--------23--------24--------25--------26--------27--------28--------29--------30--------31--------32--------33--------34--------35--------36--------37--------38--------39--------40--------41--------42--------43--------44--------45--------46--------47--------48--------49--------50--------51--------52--------53--------54--------55--------56--------57--------58--------59--------60--------61--------62--------63--------64--------65--------66--------67--------68--------69--------70--------71--------72--------73--------74
     -14.917089      63.559265     399.5      0.52      2.84     159.9         1         1      1000      1000    299.09   -15.242       8.7      36.6   235.240     0.579     206.8   0.07894     100.0         H               192.1  0.051076  0.021523  0.001318  2.177122  0.700018  3.110096  1.080359     18.60    5.4963   41.3647   0.12272   5.56462   0.21527   0.00808  72.57726   5.79632     323.1  0.502144  0.002862  0.000544  0.000146  0.167366  6.889127  0.587289     86.19  1.000124  1.000009     2.463    13.184     117.4      87.4      82.2     331.6     11.27      0.33      0.36      1.17      1.78      5.60      6.33     -0.75      1.79      2.30     -1.30      2.52      1.00      0.85      3.12    -11.37      4.69     11.56     -7.23     -0.29
     -14.904524      63.504635     132.7      0.44      2.84      75.5         1         2      1000      2318    227.81   -16.424       7.3      37.0   237.061     0.586     109.0   0.08009      11.7         H               192.1  0.053524  0.023030  0.000876  2.422235  0.694408  3.488202  1.086836     14.72    4.0761   24.3934   0.12194   5.02258   0.26547   0.01386  42.83790   4.41668     247.6  0.507433  0.001304  0.000306  0.000161  0.164170  6.907268  0.594407     85.34  1.000182  1.000015     2.546    14.090     128.8      82.6      47.9     256.8     10.78      0.54      1.76      3.20      1.10      5.17      5.44     -0.09      3.17      1.26     -0.18      1.81      1.10      2.12      3.43     -5.65      2.73      8.10     -2.88      1.63
     -14.892056      63.450481     399.5      0.50      2.84     159.9         1         3      1000      3636    234.68   -16.295       7.7      37.4   240.929     0.612      84.3   0.09421     100.0         H               192.1  0.061425  0.027656  0.001251  2.884910  0.746603  3.864049  1.109942     13.09    4.2124   26.1314   0.12896   5.08009   0.26011   0.01309  45.52283   4.54712     260.5  0.520517  0.001427  0.000125  0.000154  0.167451  6.913452  0.622635     85.87  1.000247  1.000020     4.630   183.605     117.4      83.3      52.0     518.2     11.51      0.49      1.69      2.10      0.84      4.51      4.63      0.07      1.99      1.49     -0.44      1.60      0.76      1.31      3.04     -8.62      1.66      7.62     -3.50      0.36
     -14.969768      63.546654     120.2      0.49      2.84      78.6         2         1      2444      1000    274.56   -15.614       8.1      36.6   238.460     0.594     210.7   0.08397       9.4         H               192.1  0.055466  0.023481  0.001204  2.457418  0.700190  3.509645  1.094024     16.02    5.0062   35.7020   0.12915   5.39173   0.23128   0.00967  62.18228   5.32455     300.3  0.510899  0.002692  0.000550  0.000169  0.164404  6.877491  0.603173     84.65  1.000254  1.000019     2.618    15.361     137.8      85.9      70.2     345.7     11.34      0.19      1.89      1.60      1.14      4.31      5.64     -0.31      2.65      1.75     -0.84      2.09      1.38      1.19      3.38    -10.00      3.34      6.49     -4.97     -0.37
     -14.957198      63.492008     130.8      0.45      2.84      79.4         2         2      2444      2318    230.40   -16.375       7.4      37.0   239.814     0.599      65.2   0.08490      11.3         H               192.1  0.056354  0.025139  0.000946  2.626091  0.708635  3.705845  1.097898     16.53    4.1271   25.3631   0.12805   5.04290   0.26403   0.01370  44.23106   4.47247     253.0  0.515661  0.000915  0.000096  0.000173  0.165859  6.903347  0.607870     86.53  1.000261  1.000021     2.715    18.422     133.1      82.7      49.6     319.1     10.87     -0.07      1.79      3.06      1.53      5.68      5.36     -0.15      2.85      1.69     -0.37      1.96      1.91      1.91      3.89     -5.74      3.91      9.79     -3.85      0.89
     -14.944724      63.437843     120.2      0.46      2.84      78.6         2         3      2444      3636    227.50   -16.430       7.6      37.4   241.362     0.607     201.0   0.08866       9.4         H               192.1  0.057480  0.026370  0.000834  2.761565  0.727808  3.794360  1.106675     26.57    4.0717   25.0992   0.13618   5.01669   0.26783   0.01413  43.36256   4.40626     251.8  0.520187  0.002410  0.000559  0.000182  0.165562  6.901524  0.617829     83.45  1.000257  1.000020     2.787    19.208     142.7      82.6      48.9     317.9     10.91      0.53      2.60      3.17      1.13      4.71      4.94      0.32      3.90      1.26      0.51      1.76      1.18      2.60      3.38     -4.65      2.52      5.85     -0.49      3.37
     -15.022447      63.534039     126.6      0.48      2.84      78.0         3         1      3888      1000    268.20   -15.715       8.0      36.6   238.227     0.593      56.0   0.08328      10.5         H               192.1  0.055763  0.023673  0.001062  2.501386  0.701038  3.568118  1.092564     18.64    4.8796   33.9549   0.12603   5.34578   0.23489   0.01005  59.35087   5.20512     293.0  0.512450  0.000854  0.000066  0.000169  0.164985  6.887213  0.602147     87.14  1.000239  1.000018     2.639    15.784     133.1      85.7      66.8     336.8     11.09      0.83      2.11      2.47      0.51      5.17      5.62     -0.54      2.80      1.49     -0.68      1.80      1.21      2.23      3.38     -7.55      1.65      8.36     -4.52      2.13
     -15.009871      63.479378     126.6      0.45      2.84      78.0         3         2      3888      2318    235.75   -16.275       7.5      37.0   240.088     0.600      93.2   0.08563      10.5         H               192.1  0.057227  0.024386  0.001014  2.579689  0.703444  3.667226  1.099151     18.02    4.2336   26.6241   0.12945   5.08806   0.25973   0.01311  46.35507   4.57549     259.1  0.516245  0.001195  0.000191  0.000179  0.163997  6.885748  0.609007     86.76  1.000249  1.000021     2.685    16.297     137.8      83.1      52.0     302.3     10.77     -0.12      1.95      2.81      0.77      4.88      5.81     -0.71      3.79      0.99     -1.04      0.82      1.13      2.17      3.36     -6.19      2.76      7.19     -3.36      2.22
     -14.997392      63.425198     127.3      0.46      2.84      79.7         3         3      3888      3636    228.04   -16.420       7.6      37.4   238.143     0.590      61.2   0.08162      10.7         H               192.1  0.054289  0.024020  0.001080  2.523389  0.706936  3.569475  1.089509     17.75    4.0829   24.5240   0.12415   5.02515   0.26562   0.01381  42.95842   4.41875     248.5  0.509962  0.000828  0.000096  0.000167  0.165343  6.903986  0.598448     85.99  1.000211  1.000016     2.583    14.810     128.8      82.8      48.2     274.7     11.06      0.29      1.98      2.55      1.11      5.33      5.91     -0.50      3.12      1.61     -0.97      2.08      1.08      2.49      3.21     -7.71      3.54      8.44     -5.09      2.95
