corner points
70.10022736    6.870388985
70.06276703    6.689519405
69.91918182    6.908079147
69.88176727    6.727233887
========== RESULTS WAVE VERSION 16.10.2018 ====================
IMAGE SIZE  X: 5599     Y:4931    col:row     POLARIZATION:VV
COVERAGE    X: 20.37649131km       Y: 20.48493537km 
RESOLUTION dX: 3.63930904m       dY:4.154316644m  
resolution of original product 3.63930904m x 4.154316644m;   raster step x:5997.581298m  
===============================================================
FLAGS: H=HIGH PROBABILITY SEA STATE, I=LAND(ISLAND), O=OUTLIER NO SEA STATE, N=NO WIND AVAILABLE, SEA STATE NOT VISIBLE, M=MEAN PROBABILITY SEA STATE, L= LOW PROBABILITY SEA STATE
Filtering wave length
 integration  Lmin=1m
 integration  Lmax=2200m
  peak        Lmin=100m
               FFT=1024pixels, 3726.652457m 
   mean-Hs (SWH_c)=0.2m
         mean-wind=4.851234436m/s
--------------0--------------1---------2---------3---------4---------5---------6---------7---------8---------9--------10--------11--------12--------13--------14--------15--------16--------17--------18--------19------------------20--------21--------22--------23--------24--------25--------26--------27--------28--------29--------30--------31--------32--------33--------34--------35--------36--------37--------38--------39--------40--------41--------42--------43--------44--------45--------46--------47--------48--------49--------50--------51--------52--------53--------54--------55--------56--------57--------58--------59--------60--------61--------62--------63--------64--------65--------66--------67--------68--------69--------70--------71--------72--------73
            LAT            LON  P-LENGHT     SWH_o     SWH_c     P-DIR      LINE     POINT     ROW-Y     COL-X  M-INTENC        dB      WIND INC-ANGLE  ENERGY-M  ENERGY-N  ENERGY-R ENERGY-NN  FG-DEPTH      FLAG         HEADING-DEG    E30-75   E75-390  E390-600 meanincut   meanout   cut/out  STD-NORM  SPEC-MAX   GL-MEAN    GL-VAR      CORR   ENTROPY   HOMOGEN    ENERGY  CONTRAST  DISSIMIL     STD-O    E 1-30 E600-2000   E2000 >      GODA  LONG-HIG     Tmean  CONVOLUT  MEAN-DIR  relation     Sy/Sx  SKEWNESS  KURTOSIS  cutoff-A >50/10000     INT*V   INT-LOG  S-1_g1f1  S-2_g1f2  S-3_g1f3  S-4_g2f1  S-5_g2f2  S-6_g2f3  S-7_g3f1  S-8_g3f2  S-9_g3f3 S-10_g1f4 S-11_g2f4 S-12_g3f4 S-13_g1f5 S-14_g2f5 S-15_g3f5 S-16_g4f1 S-17_g4f2 S-18_g4f3 S-19_g4f4 S-20_g4f5
--------------1--------------2---------3---------4---------5---------6---------7---------8---------9--------10--------11--------12--------13--------14--------15--------16--------17--------18--------19--------20------------------21--------22--------23--------24--------25--------26--------27--------28--------29--------30--------31--------32--------33--------34--------35--------36--------37--------38--------39--------40--------41--------42--------43--------44--------45--------46--------47--------48--------49--------50--------51--------52--------53--------54--------55--------56--------57--------58--------59--------60--------61--------62--------63--------64--------65--------66--------67--------68--------69--------70--------71--------72--------73--------74
       6.840613      70.059464     235.9      0.31      0.93     176.4         1         1      1000      1000   1779.27    -7.498       4.9      23.7   374.933     0.573      64.8   0.10261      54.0         H               192.0  0.052664  0.014822  0.000465  1.293979  0.772343  1.675395  1.072842      7.53    3.0797   14.4613   0.18975   4.52181   0.32814   0.02329  23.43456   3.26387    1908.8  0.504106  0.001055  0.000064  0.000122  0.159469  6.720613  0.591759     95.58  1.000064  1.000003     2.443    12.948      40.6      77.7      29.0     184.9     10.44     -0.41     -3.27      2.56      0.39     -1.52      0.97      0.06      2.01      0.13     -0.13     -0.46      1.88     -0.61     -1.08     -4.79      1.10     -2.32      0.55     -1.58
       6.851829      70.005608     235.9      0.30      0.93     176.4         1         2      1000      2648   1569.35    -8.043       4.8      24.2   375.239     0.573      65.1   0.10242      54.0         H               192.0  0.051513  0.015797  0.000589  1.404069  0.765063  1.835233  1.073402      6.25    2.6636   11.2147   0.18821   4.27324   0.35837   0.02976  18.20784   2.86742    1684.4  0.503768  0.001193  0.000055  0.000120  0.164009  6.766381  0.590796     93.02  1.000085  1.000006     2.449    13.200      41.4      74.7      22.9     167.2     10.84     -0.49     -2.36      2.02      0.44     -1.36      1.24     -0.21      2.50     -0.06     -0.16     -0.49      1.13     -0.48     -0.20     -6.34      1.55     -3.85      0.50     -1.43
       6.862837      69.952728     210.8      0.33      0.93      26.9         1         3      1000      4296   1525.08    -8.167       5.2      24.6   373.446     0.572      61.1   0.10288      36.7         H               192.0  0.052009  0.015643  0.000566  1.409476  0.766478  1.838900  1.073541      4.94    2.5795   10.5966   0.19012   4.21886   0.36507   0.03133  17.16399   2.78262    1637.2  0.502548  0.001223  0.000030  0.000120  0.160469  6.743310  0.590344     89.39  1.000107  1.000007     2.467    13.477      42.3      74.1      21.7     167.9     10.63      0.22     -2.00      2.29      0.14     -1.29      1.74     -0.29      2.21     -0.37     -0.35     -0.03      1.09     -0.52      0.29     -6.13      0.78     -3.66      0.10     -2.04
       6.787638      70.048492     223.5      0.31      0.93     176.6         2         1      2444      1000   1783.31    -7.488       4.9      23.7   374.090     0.571      48.2   0.10183      44.3         H               192.0  0.052126  0.015437  0.000478  1.328609  0.767569  1.730932  1.071392      7.15    3.0868   14.4599   0.18836   4.52610   0.32728   0.02314  23.47264   3.26998    1910.6  0.502290  0.000788  0.000028  0.000122  0.162762  6.736165  0.589282     89.58  1.000045  1.000004     2.427    12.807      40.6      77.8      29.1     188.4     10.75      0.07     -3.66      1.96      0.65     -1.23      0.66      0.08      2.36     -0.69     -0.28     -0.03      1.82     -0.85     -0.51     -5.27      1.08     -1.99      0.24     -2.39
       6.798856      69.994644     212.4      0.30      0.93     176.7         2         2      2444      2648   1543.11    -8.116       4.7      24.2   375.432     0.574      45.2   0.10294      37.6         H               192.0  0.052405  0.015839  0.000464  1.411906  0.763249  1.849862  1.073646      7.99    2.6102   10.8542   0.18929   4.23862   0.36268   0.03085  17.59930   2.81754    1656.7  0.504447  0.000782  0.000019  0.000123  0.162142  6.741966  0.592154     92.08  1.000065  1.000004     2.437    12.911      41.4      74.2      22.2     166.9     10.70     -0.31     -2.97      2.55      0.45     -0.80      0.83      0.20      2.19     -0.10     -0.30     -0.31      1.60     -0.40     -0.56     -4.56      0.76     -1.42     -0.02     -1.09
       6.809866      69.941772     235.9      0.32      0.93     176.4         2         3      2444      4296   1504.90    -8.225       5.1      24.6   373.381     0.570      45.7   0.10209      54.0         H               192.0  0.051815  0.015874  0.000480  1.434517  0.771402  1.859624  1.071570      7.34    2.5356   10.2665   0.18875   4.19019   0.36848   0.03231  16.65732   2.74393    1612.5  0.501983  0.000728  0.000024  0.000121  0.163891  6.764282  0.589173     92.30  1.000071  1.000005     2.409    12.542      42.3      73.6      21.1     155.6     10.85     -0.08     -2.39      2.25      0.26     -0.76      0.95     -0.09      2.07     -0.37     -0.38     -0.56      1.35     -0.71     -0.44     -4.96      0.93     -2.33      0.27     -1.47
       6.734663      70.037521     212.4      0.30      0.93     176.7         3         1      3888      1000   1733.92    -7.610       4.7      23.7   375.155     0.574      73.6   0.10276      37.6         H               192.0  0.052263  0.015319  0.000540  1.346792  0.777890  1.731340  1.073940      6.98    2.9886   13.7328   0.19005   4.46984   0.33411   0.02454  22.24612   3.17920    1862.0  0.504440  0.001368  0.000059  0.000121  0.161938  6.740208  0.592413     84.90  1.000088  1.000004     2.453    13.216      42.3      77.1      27.7     189.4     10.64      0.58     -2.83      2.09      0.18     -1.64      1.24     -0.12      2.81      0.13     -0.28      0.10      1.64     -0.79     -0.38     -5.87     -0.05     -4.04     -1.16     -2.37
       6.745883      69.983681     235.9      0.30      0.93       3.6         3         2      3888      2648   1553.91    -8.086       4.7      24.2   374.583     0.573      54.9   0.10330      54.0         H               192.0  0.052340  0.015963  0.000637  1.419585  0.768288  1.847725  1.073708      7.27    2.6410   11.0689   0.19050   4.25845   0.36028   0.03024  17.92052   2.84413    1668.3  0.503743  0.000946  0.000036  0.000123  0.164240  6.751816  0.592186     83.22  1.000064  1.000004     2.446    13.057      41.9      74.5      22.5     165.5     10.92     -0.06     -2.41      1.79      0.75     -1.36      1.31     -0.40      2.43     -0.69      0.02     -0.37      1.66     -0.89     -0.20     -6.74      2.02     -3.37      1.34     -2.13
       6.756895      69.930809     223.5      0.31      0.93     176.6         3         3      3888      4296   1414.10    -8.495       4.8      24.6   376.324     0.574      64.5   0.10264      44.3         H               192.0  0.051710  0.016190  0.000529  1.446344  0.759686  1.903871  1.073774      5.82    2.3652    9.1723   0.18831   4.07323   0.38383   0.03628  14.89013   2.58210    1518.4  0.504799  0.001065  0.000052  0.000123  0.164146  6.766985  0.592495     79.66  1.000078  1.000006     2.442    13.019      41.9      72.1      18.9     154.4     10.84      0.07     -2.33      2.05      0.20     -1.08      1.11     -0.27      2.20     -0.90     -0.14     -0.47      1.27     -0.57     -0.27     -5.51      1.04     -2.41      0.73     -1.44
