corner points
69.35152435    11.63457298
69.31600952    11.45934868
69.16954803    11.6703825
69.13415527    11.49519157
========== RESULTS WAVE VERSION 16.10.2018 ====================
IMAGE SIZE  X: 4466     Y:4785    col:row     POLARIZATION:VV
COVERAGE    X: 20.16859895km       Y: 19.81692824km 
RESOLUTION dX: 4.516032008m       dY:4.141468807m  
resolution of original product 4.516032008m x 4.141468807m;   raster step x:5997.290506m  
===============================================================
FLAGS: H=HIGH PROBABILITY SEA STATE, I=LAND(ISLAND), O=OUTLIER NO SEA STATE, N=NO WIND AVAILABLE, SEA STATE NOT VISIBLE, M=MEAN PROBABILITY SEA STATE, L= LOW PROBABILITY SEA STATE
Filtering wave length
 integration  Lmin=1m
 integration  Lmax=2200m
  peak        Lmin=100m
               FFT=1024pixels, 4624.416776m 
   mean-Hs (SWH_c)=0.2m
         mean-wind=6.048353672m/s
--------------0--------------1---------2---------3---------4---------5---------6---------7---------8---------9--------10--------11--------12--------13--------14--------15--------16--------17--------18--------19------------------20--------21--------22--------23--------24--------25--------26--------27--------28--------29--------30--------31--------32--------33--------34--------35--------36--------37--------38--------39--------40--------41--------42--------43--------44--------45--------46--------47--------48--------49--------50--------51--------52--------53--------54--------55--------56--------57--------58--------59--------60--------61--------62--------63--------64--------65--------66--------67--------68--------69--------70--------71--------72--------73
            LAT            LON  P-LENGHT     SWH_o     SWH_c     P-DIR      LINE     POINT     ROW-Y     COL-X  M-INTENC        dB      WIND INC-ANGLE  ENERGY-M  ENERGY-N  ENERGY-R ENERGY-NN  FG-DEPTH      FLAG         HEADING-DEG    E30-75   E75-390  E390-600 meanincut   meanout   cut/out  STD-NORM  SPEC-MAX   GL-MEAN    GL-VAR      CORR   ENTROPY   HOMOGEN    ENERGY  CONTRAST  DISSIMIL     STD-O    E 1-30 E600-2000   E2000 >      GODA  LONG-HIG     Tmean  CONVOLUT  MEAN-DIR  relation     Sy/Sx  SKEWNESS  KURTOSIS  cutoff-A >50/10000     INT*V   INT-LOG  S-1_g1f1  S-2_g1f2  S-3_g1f3  S-4_g2f1  S-5_g2f2  S-6_g2f3  S-7_g3f1  S-8_g3f2  S-9_g3f3 S-10_g1f4 S-11_g2f4 S-12_g3f4 S-13_g1f5 S-14_g2f5 S-15_g3f5 S-16_g4f1 S-17_g4f2 S-18_g4f3 S-19_g4f4 S-20_g4f5
--------------1--------------2---------3---------4---------5---------6---------7---------8---------9--------10--------11--------12--------13--------14--------15--------16--------17--------18--------19--------20------------------21--------22--------23--------24--------25--------26--------27--------28--------29--------30--------31--------32--------33--------34--------35--------36--------37--------38--------39--------40--------41--------42--------43--------44--------45--------46--------47--------48--------49--------50--------51--------52--------53--------54--------55--------56--------57--------58--------59--------60--------61--------62--------63--------64--------65--------66--------67--------68--------69--------70--------71--------72--------73--------74
      11.606068      69.302895     390.8      0.39      1.05     111.6         1         1      1000      1000    191.94   -17.168       6.2      36.9   213.942     0.520      72.5   0.05243     100.0         H               192.0  0.036061  0.009461  0.000621  0.865835  0.600049  1.442940  1.023666      3.42    3.3617   15.3639   0.06327   4.69275   0.29146   0.01778  28.78384   3.72350     196.5  0.472500  0.001387  0.000138  0.000092  0.160056  6.728139  0.519769     71.84  1.000076  1.000004     2.129    10.091      76.6      80.1      32.1     171.9     11.10     -1.08     -0.66      0.51      1.44     -1.81      3.37     -1.13      1.46     -1.03      0.45      0.18      1.17     -0.43     -0.09    -11.65      5.30     -4.75      1.82     -1.14
      11.616763      69.248589     219.2      0.38      1.05      10.9         1         2      1000      2328    181.10   -17.421       6.2      37.3   214.160     0.521      80.0   0.05245      41.5         H               192.0  0.036717  0.009065  0.000544  0.816609  0.610910  1.336709  1.025017      3.75    3.1480   13.6897   0.06393   4.57835   0.30465   0.01991  25.62911   3.50609     185.6  0.473878  0.001441  0.000167  0.000094  0.158569  6.696771  0.521565     73.17  1.000064  1.000003     2.131    10.071      76.6      79.0      28.9     163.4     11.08     -0.58     -1.20      0.49      1.22     -1.46      2.89     -1.07      0.70     -1.10      0.28      0.43      0.56      0.57     -0.26    -10.61      4.12     -2.68      0.59      1.36
      11.627357      69.194740     246.3      0.38      1.05       9.2         1         3      1000      3656    169.04   -17.720       6.1      37.7   213.645     0.518      55.1   0.05075      65.9         H               192.0  0.035509  0.009177  0.000620  0.825930  0.603681  1.368156  1.021458      3.55    2.9073   11.8392   0.05935   4.44149   0.31899   0.02268  22.27298   3.26877     172.7  0.471906  0.001219  0.000071  0.000093  0.159040  6.715507  0.518265     68.90  1.000047  1.000003     2.124    10.054      78.1      77.4      25.2     148.5     11.09     -0.06     -1.19      0.19      1.65     -1.75      3.28     -1.37      1.19     -1.06      0.34      0.47      0.99     -0.36     -0.50    -12.11      5.36     -4.10      0.69     -0.05
      11.553034      69.292152     379.2      0.38      1.05     100.3         2         1      2448      1000    187.96   -17.259       6.1      36.9   213.833     0.521      69.1   0.05219     100.0         H               192.0  0.036403  0.009002  0.000527  0.821775  0.607658  1.352364  1.024487      3.26    3.2827   14.7537   0.06348   4.65125   0.29582   0.01855  27.63443   3.64510     192.6  0.473601  0.001190  0.000141  0.000093  0.156567  6.703550  0.520570     73.87  1.000052  1.000003     2.127    10.011      76.6      79.7      30.9     171.2     10.82     -0.50     -0.96      0.93      0.92     -1.86      3.05     -1.04      0.80     -0.85      0.56      0.13      0.90      0.20     -0.40     -9.90      3.81     -4.03      1.58      0.51
      11.563732      69.237862     379.2      0.38      1.05     100.3         2         2      2448      2328    176.70   -17.528       6.1      37.3   214.842     0.522      81.6   0.05233     100.0         H               192.0  0.036503  0.009133  0.000598  0.835330  0.617783  1.352142  1.025720      3.35    3.0610   13.0530   0.06316   4.52982   0.31011   0.02088  24.45717   3.42111     181.3  0.474740  0.001433  0.000172  0.000094  0.156419  6.684515  0.522426     73.75  1.000073  1.000003     2.141    10.152      78.1      78.5      27.6     158.5     11.06     -0.39     -0.97      0.30      1.02     -1.77      3.36     -0.76      1.20     -0.84      0.47      0.23      1.12     -0.29     -0.11    -11.64      3.75     -4.35      1.34     -0.89
      11.574328      69.184021     391.9      0.36      1.05     130.3         2         3      2448      3656    160.08   -17.957       5.8      37.7   215.561     0.521      64.8   0.04983     100.0         H               192.0  0.035420  0.009010  0.000526  0.826580  0.591612  1.397165  1.023949      3.04    2.7293   10.6537   0.05612   4.33348   0.33158   0.02531  20.11172   3.10172     163.9  0.474637  0.001279  0.000108  0.000093  0.157950  6.711253  0.520588     66.42  1.000055  1.000002     2.116     9.974      81.3      76.0      22.8     143.7     10.88     -0.62     -1.29      0.87      1.18     -1.35      2.93     -0.84      1.03     -0.84      0.51      0.51      1.14      0.09      0.02    -10.18      4.05     -3.01      1.07     -0.31
      11.500000      69.281410     371.8      0.39      1.05     105.2         3         1      3896      1000    192.39   -17.158       6.2      36.9   213.917     0.521      49.8   0.05256     100.0         H               192.0  0.036374  0.009479  0.000650  0.870090  0.607406  1.432468  1.024643      3.73    3.3699   15.4616   0.06445   4.69699   0.29105   0.01772  28.93015   3.73176     197.1  0.473662  0.001042  0.000065  0.000093  0.158331  6.716394  0.521156     68.31  1.000056  1.000001     2.130    10.044      73.8      80.2      32.3     172.3     11.14     -0.76     -0.75      0.18      1.52     -1.81      3.56     -1.32      1.29     -0.81      0.38      0.22      0.97     -0.27     -0.16    -12.33      5.05     -4.64      1.18     -0.68
      11.510700      69.227127     228.3      0.37      1.05      14.3         3         2      3896      2328    171.54   -17.656       5.9      37.3   215.228     0.523     105.4   0.05166      47.7         H               192.0  0.036321  0.009324  0.000530  0.858247  0.617160  1.390639  1.026765      3.83    2.9584   12.3085   0.06143   4.47109   0.31663   0.02216  23.10489   3.32310     176.1  0.475108  0.001668  0.000248  0.000093  0.158318  6.718373  0.523069     65.11  1.000060  1.000001     2.134    10.005      81.3      77.7      26.1     151.1     11.06     -0.15     -1.28      0.63      0.82     -1.28      2.80     -0.90      0.81     -0.52      0.03      0.47      1.00     -0.14     -0.25    -10.38      3.02     -2.67     -0.20     -0.33
      11.521300      69.173302     371.8      0.36      1.05     105.2         3         3      3896      3656    159.51   -17.972       5.8      37.7   214.201     0.519      56.7   0.05000     100.0         H               192.0  0.035730  0.009313  0.000627  0.853845  0.601449  1.419646  1.022171      4.75    2.7182   10.5476   0.05784   4.32660   0.33281   0.02543  19.87503   3.08301     163.0  0.472317  0.001122  0.000092  0.000093  0.158771  6.718646  0.519215     65.92  1.000075  1.000002     2.112     9.863      83.0      76.0      22.6     138.9     11.15     -0.44     -0.31      0.20      1.21     -2.55      3.36     -0.95      1.73     -1.20      0.99      0.26      1.52     -0.69      0.12    -11.95      4.14     -7.03      2.69     -2.26
