corner points
59.30066299    -30.6848526
59.24712372    -30.857584
59.09365845    -30.63589478
59.03973389    -30.80853081
========== RESULTS WAVE VERSION 16.10.2018 ====================
IMAGE SIZE  X: 4466     Y:4781    col:row     POLARIZATION:VV
COVERAGE    X: 20.49092925km       Y: 19.83184499km 
RESOLUTION dX: 4.588206281m       dY:4.148053752m  
resolution of original product 4.588206281m x 4.148053752m;   raster step x:5996.785609m  
===============================================================
FLAGS: H=HIGH PROBABILITY SEA STATE, I=LAND(ISLAND), O=OUTLIER NO SEA STATE, N=NO WIND AVAILABLE, SEA STATE NOT VISIBLE, M=MEAN PROBABILITY SEA STATE, L= LOW PROBABILITY SEA STATE
Filtering wave length
 integration  Lmin=1m
 integration  Lmax=2200m
  peak        Lmin=100m
               FFT=1024pixels, 4698.323231m 
   mean-Hs (SWH_c)=0.2135092163m
         mean-wind=7.162345886m/s
--------------0--------------1---------2---------3---------4---------5---------6---------7---------8---------9--------10--------11--------12--------13--------14--------15--------16--------17--------18--------19------------------20--------21--------22--------23--------24--------25--------26--------27--------28--------29--------30--------31--------32--------33--------34--------35--------36--------37--------38--------39--------40--------41--------42--------43--------44--------45--------46--------47--------48--------49--------50--------51--------52--------53--------54--------55--------56--------57--------58--------59--------60--------61--------62--------63--------64--------65--------66--------67--------68--------69--------70--------71--------72--------73
            LAT            LON  P-LENGHT     SWH_o     SWH_c     P-DIR      LINE     POINT     ROW-Y     COL-X  M-INTENC        dB      WIND INC-ANGLE  ENERGY-M  ENERGY-N  ENERGY-R ENERGY-NN  FG-DEPTH      FLAG         HEADING-DEG    E30-75   E75-390  E390-600 meanincut   meanout   cut/out  STD-NORM  SPEC-MAX   GL-MEAN    GL-VAR      CORR   ENTROPY   HOMOGEN    ENERGY  CONTRAST  DISSIMIL     STD-O    E 1-30 E600-2000   E2000 >      GODA  LONG-HIG     Tmean  CONVOLUT  MEAN-DIR  relation     Sy/Sx  SKEWNESS  KURTOSIS  cutoff-A >50/10000     INT*V   INT-LOG  S-1_g1f1  S-2_g1f2  S-3_g1f3  S-4_g2f1  S-5_g2f2  S-6_g2f3  S-7_g3f1  S-8_g3f2  S-9_g3f3 S-10_g1f4 S-11_g2f4 S-12_g3f4 S-13_g1f5 S-14_g2f5 S-15_g3f5 S-16_g4f1 S-17_g4f2 S-18_g4f3 S-19_g4f4 S-20_g4f5
--------------1--------------2---------3---------4---------5---------6---------7---------8---------9--------10--------11--------12--------13--------14--------15--------16--------17--------18--------19--------20------------------21--------22--------23--------24--------25--------26--------27--------28--------29--------30--------31--------32--------33--------34--------35--------36--------37--------38--------39--------40--------41--------42--------43--------44--------45--------46--------47--------48--------49--------50--------51--------52--------53--------54--------55--------56--------57--------58--------59--------60--------61--------62--------63--------64--------65--------66--------67--------68--------69--------70--------71--------72--------73--------74
     -30.709921      59.242535     298.3      0.41      2.09     140.6         1         1      1000      1000    222.25   -16.532       6.6      36.3   251.045     0.548     105.0   0.06552     100.0         H               192.8  0.041348  0.018734  0.000624  1.479641  0.659567  2.243351  1.050575     28.19    3.9637   21.7181   0.09509   4.97925   0.26610   0.01395  39.30568   4.30339     233.5  0.486081  0.001493  0.000206  0.000103  0.203775  7.042944  0.552522    137.89  1.000033  1.000003     2.276    11.375      83.0      82.6      43.7     231.1     13.65     -6.92     -2.33     -2.02      3.33      1.25     -1.45      2.94      1.29      1.13     -1.02     -0.34     -4.18      1.09      1.86     -9.87      6.05      1.86     -1.25      2.30
     -30.695541      59.181675     274.9      0.43      2.09     135.4         1         2      1000      2307    229.24   -16.397       7.1      36.7   251.454     0.551     166.0   0.06685     100.0         H               192.8  0.042016  0.018169  0.000816  1.438284  0.663693  2.167093  1.053931     26.91    4.1048   23.2332   0.09947   5.04115   0.26033   0.01311  41.84418   4.43362     241.6  0.487677  0.002463  0.000411  0.000102  0.201626  7.002320  0.556030    137.07  1.000019  1.000001     2.310    11.668      86.6      83.3      46.7     229.2     13.88     -6.88     -1.94     -2.82      3.68      1.17     -0.69      2.44      0.76      0.49     -0.65     -0.58     -4.09      1.50      2.39    -12.75      6.83      2.26     -0.13      2.24
     -30.681261      59.121372     329.5      0.48      2.09     140.9         1         3      1000      3614    255.96   -15.918       8.0      37.0   254.157     0.560     364.1   0.07163     100.0         H               192.8  0.042541  0.020104  0.001110  1.492884  0.668859  2.231986  1.064224     56.69    4.6371   29.5679   0.11099   5.25798   0.24137   0.01079  52.57223   4.95262     272.4  0.490788  0.004764  0.001076  0.000120  0.208828  7.037383  0.566003    140.19  0.999944  0.999997     2.347    11.872      94.9      85.0      58.8     258.7     14.71     -9.26     -2.52     -4.92      6.15      1.83     -0.07      2.38      0.91      1.81     -1.57     -0.70     -6.12      3.45      1.76    -16.88     11.30      3.26     -2.01      6.06
     -30.762169      59.226318     277.0      0.43      2.09     148.0         2         1      2446      1000    239.29   -16.211       7.0      36.3   249.750     0.546     101.2   0.06616     100.0         H               192.8  0.042248  0.018192  0.000638  1.441289  0.661692  2.178189  1.049114     31.14    4.3033   25.1074   0.09733   5.12623   0.25185   0.01203  45.32715   4.62767     251.0  0.483787  0.001662  0.000177  0.000105  0.199913  6.991128  0.550529    141.84  1.000031  1.000001     2.277    11.365      83.0      84.1      50.5     238.2     13.52     -7.36     -2.75     -1.86      3.27      1.57     -1.41      3.02      1.46      1.75     -1.41     -0.74     -4.27      1.03      2.40     -9.79      6.66      2.14     -1.54      2.09
     -30.747780      59.165428     286.4      0.44      2.09     137.9         2         2      2446      2307    235.84   -16.274       7.2      36.7   249.780     0.548     114.9   0.06701     100.0         H               192.8  0.042162  0.018368  0.000813  1.394462  0.666195  2.093174  1.049917     42.41    4.2366   24.4161   0.09959   5.09799   0.25514   0.01236  43.96889   4.55155     247.6  0.484444  0.001972  0.000186  0.000114  0.202618  6.986325  0.551989    138.98  1.000074  1.000003     2.277    11.263      88.6      83.9      49.1     236.8     14.28     -8.55     -2.16     -3.81      5.46      1.62     -0.43      2.71      0.87      1.82     -2.09     -0.03     -6.13      3.30      2.30    -14.10      9.40      2.10     -3.66      5.65
     -30.733492      59.105087     303.2      0.42      2.09     148.9         2         3      2446      3614    208.37   -16.812       6.8      37.0   252.104     0.552     228.5   0.06644     100.0         H               192.8  0.041738  0.018378  0.000880  1.448690  0.669324  2.164409  1.054989     30.93    3.6889   19.2483   0.09854   4.85115   0.27974   0.01589  34.70302   4.03181     219.8  0.486776  0.003560  0.000531  0.000105  0.201270  7.005072  0.556642    141.27  1.000081  1.000005     2.305    11.533      92.7      81.3      38.8     205.3     13.83     -7.12     -2.26     -2.82      3.11      1.33     -0.52      3.44      1.38      1.83     -1.78     -0.32     -4.39      1.39      2.55    -13.02      4.81      1.23     -2.94      1.88
     -30.814413      59.210087     286.4      0.45      2.09     137.9         3         1      3892      1000    257.31   -15.895       7.5      36.3   250.186     0.546     126.3   0.06544     100.0         H               192.8  0.041880  0.017366  0.000669  1.400147  0.661939  2.115220  1.049042     32.06    4.6625   29.0416   0.09603   5.27086   0.23773   0.01041  52.50518   4.98696     269.9  0.484259  0.002009  0.000244  0.000105  0.199351  6.983869  0.550074    137.33  1.000065  1.000004     2.271    11.219      86.6      85.3      58.4     251.4     13.80     -7.55     -1.75     -2.31      4.03      1.22     -0.97      2.67      1.14      0.98     -1.23     -0.36     -5.11      1.93      2.04    -11.18      7.84      1.08     -1.28      4.19
     -30.800016      59.149162     286.4      0.45      2.09     137.9         3         2      3892      2307    244.23   -16.122       7.4      36.7   251.121     0.549     131.2   0.06629     100.0         H               192.8  0.042363  0.016794  0.000783  1.333226  0.663535  2.009279  1.051593     29.22    4.4032   26.2598   0.09665   5.16743   0.24820   0.01153  47.44334   4.72685     256.8  0.487111  0.002262  0.000242  0.000104  0.197734  6.949357  0.553367    136.89  1.000064  1.000004     2.304    11.623      88.6      84.5      52.8     247.8     13.76     -7.41     -1.67     -2.67      3.78      0.84     -0.52      2.71      1.05      1.00     -0.76     -1.03     -4.30      1.81      2.36    -12.50      7.22      0.55     -0.21      2.72
     -30.785719      59.088787     293.0      0.42      2.09     145.9         3         3      3892      3614    210.31   -16.771       6.8      37.0   251.029     0.546     105.6   0.06403     100.0         H               192.8  0.041413  0.017253  0.000798  1.331984  0.654172  2.036135  1.049302     41.99    3.7275   19.3927   0.09258   4.87051   0.27720   0.01549  35.19464   4.07142     220.7  0.485194  0.001698  0.000208  0.000107  0.199286  6.977290  0.550264    143.03  1.000032  1.000001     2.271    11.265      84.8      81.5      39.3     209.5     13.78     -7.51     -2.67     -2.99      4.31      1.54     -0.33      2.84      1.08      2.37     -1.84     -0.81     -5.11      2.03      2.10    -13.22      7.61      2.18     -2.30      3.74
