corner points
65.6432724    -6.064424038
65.60492706    -6.239387989
65.46417236    -6.024614334
65.42575836    -6.199529648
========== RESULTS WAVE VERSION 16.10.2018 ====================
IMAGE SIZE  X: 4466     Y:4784    col:row     POLARIZATION:VV
COVERAGE    X: 20.24872441km       Y: 19.86528818km 
RESOLUTION dX: 4.533973222m       dY:4.152443182m  
resolution of original product 4.533973222m x 4.152443182m;   raster step x:5998.446573m  
===============================================================
FLAGS: H=HIGH PROBABILITY SEA STATE, I=LAND(ISLAND), O=OUTLIER NO SEA STATE, N=NO WIND AVAILABLE, SEA STATE NOT VISIBLE, M=MEAN PROBABILITY SEA STATE, L= LOW PROBABILITY SEA STATE
Filtering wave length
 integration  Lmin=1m
 integration  Lmax=2200m
  peak        Lmin=100m
               FFT=1024pixels, 4642.78858m 
   mean-Hs (SWH_c)=1.115775452m
         mean-wind=14.78333378m/s
--------------0--------------1---------2---------3---------4---------5---------6---------7---------8---------9--------10--------11--------12--------13--------14--------15--------16--------17--------18--------19------------------20--------21--------22--------23--------24--------25--------26--------27--------28--------29--------30--------31--------32--------33--------34--------35--------36--------37--------38--------39--------40--------41--------42--------43--------44--------45--------46--------47--------48--------49--------50--------51--------52--------53--------54--------55--------56--------57--------58--------59--------60--------61--------62--------63--------64--------65--------66--------67--------68--------69--------70--------71--------72--------73
            LAT            LON  P-LENGHT     SWH_o     SWH_c     P-DIR      LINE     POINT     ROW-Y     COL-X  M-INTENC        dB      WIND INC-ANGLE  ENERGY-M  ENERGY-N  ENERGY-R ENERGY-NN  FG-DEPTH      FLAG         HEADING-DEG    E30-75   E75-390  E390-600 meanincut   meanout   cut/out  STD-NORM  SPEC-MAX   GL-MEAN    GL-VAR      CORR   ENTROPY   HOMOGEN    ENERGY  CONTRAST  DISSIMIL     STD-O    E 1-30 E600-2000   E2000 >      GODA  LONG-HIG     Tmean  CONVOLUT  MEAN-DIR  relation     Sy/Sx  SKEWNESS  KURTOSIS  cutoff-A >50/10000     INT*V   INT-LOG  S-1_g1f1  S-2_g1f2  S-3_g1f3  S-4_g2f1  S-5_g2f2  S-6_g2f3  S-7_g3f1  S-8_g3f2  S-9_g3f3 S-10_g1f4 S-11_g2f4 S-12_g3f4 S-13_g1f5 S-14_g2f5 S-15_g3f5 S-16_g4f1 S-17_g4f2 S-18_g4f3 S-19_g4f4 S-20_g4f5
--------------1--------------2---------3---------4---------5---------6---------7---------8---------9--------10--------11--------12--------13--------14--------15--------16--------17--------18--------19--------20------------------21--------22--------23--------24--------25--------26--------27--------28--------29--------30--------31--------32--------33--------34--------35--------36--------37--------38--------39--------40--------41--------42--------43--------44--------45--------46--------47--------48--------49--------50--------51--------52--------53--------54--------55--------56--------57--------58--------59--------60--------61--------62--------63--------64--------65--------66--------67--------68--------69--------70--------71--------72--------73--------74
      -6.091991      65.594681     399.3      1.07      1.77     159.9         1         1      1000      1000    630.55   -12.003      14.4      36.8   222.056     0.569     144.0   0.08289     100.0         H               192.0  0.054379  0.014726  0.000588  1.504708  0.705007  2.134317  1.070278      5.04   11.9546  159.7126   0.12644   6.98521   0.11625   0.00182 279.03909  11.84735     674.9  0.496468  0.002342  0.000365  0.000157  0.149010  6.671681  0.574665     83.01  1.000075  1.000006     2.411    12.667      92.7      96.2     389.7     711.0     11.14     -0.24     -1.90      1.31      1.15      1.94      2.66     -0.46     -0.48      0.91     -0.05      0.71      0.26     -0.63      1.59     -8.78      2.83      6.21     -1.45     -2.02
      -6.080152      65.541420     399.3      1.09      1.77     159.9         1         2      1000      2323    631.51   -11.996      14.7      37.2   223.323     0.573     158.0   0.08427     100.0         H               192.0  0.056773  0.014710  0.000646  1.571855  0.720204  2.182515  1.074589      5.03   11.9681  160.6234   0.12829   6.98569   0.11663   0.00182 280.03229  11.85835     678.7  0.498661  0.001931  0.000525  0.000185  0.144000  6.649682  0.579216     82.38  1.000108  1.000010     2.442    12.922      97.3      96.2     392.8     711.1     10.95      0.34     -1.16      1.73      0.57      1.79      3.33     -0.28     -0.46      0.53     -0.00      0.80     -0.17     -0.48      1.36     -8.72      1.38      5.52     -1.25     -1.36
      -6.068409      65.488609     385.2      1.13      1.77     175.2         1         3      1000      3646    647.08   -11.890      15.1      37.5   223.401     0.573     111.8   0.08394     100.0         H               192.0  0.057615  0.014285  0.000599  1.508735  0.721285  2.091731  1.074147      4.10   12.2591  167.0494   0.12790   7.02703   0.11449   0.00174 291.36725  12.12316     695.1  0.498631  0.001981  0.000216  0.000196  0.144818  6.640017  0.579371     83.09  1.000103  1.000008     2.430    12.888      99.7      96.5     413.2     745.0     10.99      0.15     -1.20      1.69      0.43      1.89      2.97     -0.17     -0.33      0.83      0.28      0.22      0.18     -0.57      1.66     -8.24      0.89      5.26     -0.67     -2.00
      -6.144810      65.583107     399.3      1.09      1.77     159.9         2         1      2444      1000    637.34   -11.956      14.5      36.8   223.137     0.573     129.6   0.08445     100.0         H               192.0  0.055769  0.014916  0.000634  1.583423  0.713138  2.220360  1.074224      4.88   12.0756  162.9384   0.12756   7.00135   0.11548   0.00179 284.30475  11.96597     684.6  0.499374  0.002183  0.000308  0.000171  0.145545  6.661736  0.579043     82.40  1.000094  1.000009     2.428    12.701      92.7      96.2     400.4     708.8     11.12     -0.51     -1.87      1.18      1.03      1.61      2.97     -0.13     -0.25      0.87     -0.19      0.49     -0.02     -0.44      0.96     -9.48      2.77      5.19     -1.43     -1.25
      -6.132966      65.529831     326.3      1.10      1.77     176.0         2         2      2444      2323    626.73   -12.029      14.6      37.2   223.820     0.577     105.3   0.08594     100.0         H               192.0  0.057726  0.015285  0.000653  1.622997  0.719342  2.256224  1.077660      4.46   11.8769  159.1774   0.12967   6.97140   0.11779   0.00186 277.07263  11.78111     675.4  0.501276  0.001954  0.000202  0.000184  0.146732  6.667603  0.583429     83.35  1.000118  1.000010     2.454    13.073      99.7      96.1     388.1     706.5     11.06      0.32     -1.05      1.57      1.16      2.09      3.29     -0.08     -0.09      0.78      0.18      1.17      0.46     -0.38      1.36     -8.81      2.42      5.43     -1.37     -1.70
      -6.121219      65.477020     350.3      1.22      1.77     171.3         2         3      2444      3646    675.59   -11.703      15.5      37.5   222.176     0.571     107.9   0.08482     100.0         H               192.0  0.057009  0.014369  0.000622  1.505974  0.714322  2.108257  1.072606      4.08   12.7895  178.6054   0.12797   7.09854   0.11017   0.00160 311.49683  12.60195     724.6  0.497435  0.001678  0.000290  0.000195  0.144794  6.633790  0.577239     82.72  1.000104  1.000009     2.400    12.400      97.3      96.7     451.3     745.9     11.06      0.21     -1.38      1.55      0.98      2.19      3.15     -0.90     -0.70      0.97     -0.27      0.86     -0.10     -0.49      1.28     -9.25      3.16      6.14     -2.73     -1.85
      -6.197628      65.571518     386.6      1.15      1.77     155.4         3         1      3888      1000    660.64   -11.800      14.7      36.8   222.993     0.573     111.0   0.08465     100.0         H               192.0  0.056491  0.014940  0.000766  1.577908  0.719195  2.193994  1.074105      5.16   12.5132  172.9346   0.12745   7.06145   0.11212   0.00168 301.78894  12.36735     709.6  0.498820  0.001923  0.000228  0.000172  0.147155  6.667815  0.579167     83.04  1.000118  1.000009     2.415    12.688      97.3      96.5     431.7     756.9     11.33     -0.26     -1.44      0.73      1.52      2.25      3.54     -1.17     -0.72      1.08     -0.75      1.51      0.09     -0.20      0.82    -11.19      4.82      7.03     -4.35     -0.45
      -6.185780      65.518242     399.3      1.07      1.77     159.9         3         2      3888      2323    627.18   -12.026      14.6      37.2   223.540     0.574      87.9   0.08435     100.0         H               192.0  0.057209  0.014738  0.000711  1.562601  0.711689  2.195623  1.074512      6.21   11.8879  159.0875   0.12791   6.97410   0.11732   0.00185 277.47458  11.79647     673.9  0.499458  0.001700  0.000134  0.000202  0.144720  6.646079  0.579892     83.61  1.000101  1.000009     2.436    13.102      97.3      96.1     386.8     731.9     11.14     -0.28     -2.02      0.91      1.27      2.51      3.42     -0.68     -0.82      1.10     -0.64      0.63      0.18     -0.24      1.45    -10.25      3.74      7.96     -2.69     -1.54
      -6.174028      65.465424     399.3      1.12      1.77     159.9         3         3      3888      3646    633.78   -11.981      15.0      37.5   224.101     0.576      75.2   0.08527     100.0         H               192.0  0.058541  0.014875  0.000673  1.566903  0.715772  2.189109  1.077276      7.02   12.0056  161.9100   0.12857   6.99007   0.11642   0.00182 282.18555  11.90453     682.8  0.501189  0.001312  0.000129  0.000206  0.143569  6.629365  0.582856     84.28  1.000139  1.000014     2.457    13.133      99.7      96.2     396.6     727.5     11.28      0.22     -1.50      1.05      1.21      2.21      3.18     -1.20     -0.62      0.98     -0.35      0.87      0.02     -0.27      0.94     -9.94      3.73      6.21     -2.61     -0.71
