corner points
57.56450272    -35.90900421
57.50437164    -36.08054733
57.344944    -35.85696793
57.28432465    -36.02839661
========== RESULTS WAVE VERSION 16.10.2018 ====================
IMAGE SIZE  X: 4466     Y:4773    col:row     POLARIZATION:VV
COVERAGE    X: 20.56552995km       Y: 19.7830426km 
RESOLUTION dX: 4.604910423m       dY:4.144781605m  
resolution of original product 4.604910423m x 4.144781605m;   raster step x:5995.59337m  
===============================================================
FLAGS: H=HIGH PROBABILITY SEA STATE, I=LAND(ISLAND), O=OUTLIER NO SEA STATE, N=NO WIND AVAILABLE, SEA STATE NOT VISIBLE, M=MEAN PROBABILITY SEA STATE, L= LOW PROBABILITY SEA STATE
Filtering wave length
 integration  Lmin=1m
 integration  Lmax=2200m
  peak        Lmin=100m
               FFT=1024pixels, 4715.428273m 
   mean-Hs (SWH_c)=0.2m
         mean-wind=5.547736168m/s
--------------0--------------1---------2---------3---------4---------5---------6---------7---------8---------9--------10--------11--------12--------13--------14--------15--------16--------17--------18--------19------------------20--------21--------22--------23--------24--------25--------26--------27--------28--------29--------30--------31--------32--------33--------34--------35--------36--------37--------38--------39--------40--------41--------42--------43--------44--------45--------46--------47--------48--------49--------50--------51--------52--------53--------54--------55--------56--------57--------58--------59--------60--------61--------62--------63--------64--------65--------66--------67--------68--------69--------70--------71--------72--------73
            LAT            LON  P-LENGHT     SWH_o     SWH_c     P-DIR      LINE     POINT     ROW-Y     COL-X  M-INTENC        dB      WIND INC-ANGLE  ENERGY-M  ENERGY-N  ENERGY-R ENERGY-NN  FG-DEPTH      FLAG         HEADING-DEG    E30-75   E75-390  E390-600 meanincut   meanout   cut/out  STD-NORM  SPEC-MAX   GL-MEAN    GL-VAR      CORR   ENTROPY   HOMOGEN    ENERGY  CONTRAST  DISSIMIL     STD-O    E 1-30 E600-2000   E2000 >      GODA  LONG-HIG     Tmean  CONVOLUT  MEAN-DIR  relation     Sy/Sx  SKEWNESS  KURTOSIS  cutoff-A >50/10000     INT*V   INT-LOG  S-1_g1f1  S-2_g1f2  S-3_g1f3  S-4_g2f1  S-5_g2f2  S-6_g2f3  S-7_g3f1  S-8_g3f2  S-9_g3f3 S-10_g1f4 S-11_g2f4 S-12_g3f4 S-13_g1f5 S-14_g2f5 S-15_g3f5 S-16_g4f1 S-17_g4f2 S-18_g4f3 S-19_g4f4 S-20_g4f5
--------------1--------------2---------3---------4---------5---------6---------7---------8---------9--------10--------11--------12--------13--------14--------15--------16--------17--------18--------19--------20------------------21--------22--------23--------24--------25--------26--------27--------28--------29--------30--------31--------32--------33--------34--------35--------36--------37--------38--------39--------40--------41--------42--------43--------44--------45--------46--------47--------48--------49--------50--------51--------52--------53--------54--------55--------56--------57--------58--------59--------60--------61--------62--------63--------64--------65--------66--------67--------68--------69--------70--------71--------72--------73--------74
     -35.933189      57.502117     255.0      0.35      2.08     147.3         1         1      1000      1000    185.50   -17.317       5.5      36.1   263.611     0.551      64.1   0.06388      82.3         H               193.3  0.041505  0.022662  0.000593  1.942279  0.629430  3.085776  1.053415     28.23    3.2340   15.1799   0.09140   4.62097   0.30384   0.01993  27.58510   3.59038     195.4  0.485666  0.000915  0.000078  0.000122  0.204263  7.122148  0.555687    137.56  1.000026  1.000002     2.287    11.424      90.6      78.7      30.9     185.1     13.33     -8.94     -1.72      0.40      0.78      0.91     -2.90      4.18      2.32      0.74     -1.61     -1.86     -4.27      0.04      2.27     -6.57      4.01     -0.19     -0.77      1.60
     -35.917965      57.437805     262.4      0.33      2.08     149.9         1         2      1000      2302    166.65   -17.782       5.3      36.5   264.599     0.552      66.2   0.06267     121.2         H               193.3  0.040737  0.022898  0.000737  1.937310  0.633126  3.059912  1.054877     26.17    2.8640   12.2536   0.08780   4.41167   0.32815   0.02435  22.35559   3.21976     175.8  0.487048  0.000918  0.000081  0.000119  0.208385  7.138637  0.556898    133.23  1.000031  1.000002     2.307    11.638      97.3      76.6      25.3     167.7     13.67     -9.04     -0.98     -0.50      1.21      0.73     -2.54      4.33      1.61     -0.43     -1.39     -0.90     -4.70      0.33      2.45     -8.23      3.91     -0.29     -0.31      1.52
     -35.902843      57.374084     229.6      0.33      2.08     144.2         1         3      1000      3604    156.52   -18.054       5.2      36.9   263.687     0.548      86.9   0.06030      48.7         H               193.3  0.039962  0.020526  0.000738  1.776434  0.625084  2.841914  1.050286     23.98    2.6580   10.7187   0.08261   4.28497   0.34229   0.02756  19.66652   3.02155     164.4  0.485239  0.001225  0.000160  0.000115  0.205180  7.091532  0.551799    132.20  1.000060  1.000003     2.287    11.559      97.3      75.0      22.4     159.2     13.70     -8.39     -0.25     -0.50      0.96      0.21     -2.55      4.50      1.40     -1.06     -1.11     -0.23     -3.88     -0.10      2.53     -8.58      3.40     -1.53      0.05      0.56
     -35.985199      57.483860     242.6      0.37      2.08     149.0         2         1      2447      1000    198.46   -17.023       5.9      36.1   264.373     0.555     113.6   0.06595      61.2         H               193.3  0.041752  0.022593  0.000608  1.800762  0.638844  2.818781  1.057373     36.18    3.4922   17.5297   0.09564   4.75461   0.29014   0.01754  31.70651   3.84669     209.9  0.488655  0.001408  0.000238  0.000125  0.209878  7.131033  0.559787    144.32  1.000050  1.000004     2.302    11.401      90.6      80.2      35.4     190.0     13.53     -9.10     -2.62     -0.54      1.64      1.01     -3.02      4.61      2.57      2.02     -1.52     -2.46     -4.27      0.66      2.53     -7.26      4.02      0.61     -0.94      1.69
     -35.969967      57.419502     251.1      0.35      2.08     140.3         2         2      2447      2302    175.85   -17.549       5.5      36.5   261.338     0.543      44.5   0.06095      73.8         H               193.3  0.041197  0.019640  0.000426  1.667278  0.636547  2.619253  1.046260     26.32    3.0462   13.4412   0.08510   4.51863   0.31475   0.02174  24.59485   3.39804     184.0  0.481860  0.000541  0.000047  0.000113  0.199566  7.036226  0.547010    134.04  1.000053  1.000003     2.258    11.274      90.6      78.0      27.8     175.6     13.20     -8.17     -2.00      0.18      1.09      1.52     -2.69      4.19      1.50      0.79     -1.96     -1.34     -4.12      0.52      2.48     -5.96      2.79      1.70     -1.52      1.34
     -35.954834      57.355740     287.5      0.35      2.08     127.6         2         3      2447      3604    169.74   -17.702       5.6      36.9   262.661     0.547      51.8   0.06140     100.0         H               193.3  0.041045  0.019989  0.000460  1.731426  0.643121  2.692224  1.049292     21.73    2.9204   12.6005   0.08518   4.44550   0.32332   0.02352  23.05430   3.28051     178.2  0.485041  0.000691  0.000059  0.000114  0.203657  7.063152  0.550779    129.40  1.000078  1.000004     2.284    11.563      94.9      76.9      26.1     172.0     13.33     -8.31     -0.36      0.45      0.74      0.90     -2.69      4.22      1.49     -1.19     -1.47     -0.52     -4.17      0.21      2.73     -5.75      2.44     -0.30     -0.46      0.57
     -36.037209      57.465580     247.5      0.36      2.08     144.7         3         1      3894      1000    196.51   -17.066       5.8      36.1   263.556     0.554      79.0   0.06559      67.7         H               193.3  0.043296  0.021235  0.000400  1.780967  0.662244  2.689291  1.056196     31.72    3.4536   17.1389   0.09553   4.73526   0.29187   0.01781  31.00342   3.80237     207.5  0.488170  0.000936  0.000138  0.000126  0.204179  7.055775  0.558378    133.33  1.000073  1.000004     2.318    11.609      92.7      80.0      34.7     191.3     13.76     -9.81     -1.73     -0.73      2.70      1.32     -3.63      5.17      1.30      0.59     -1.61     -0.78     -5.17      1.34      3.36     -6.00      4.78      1.42     -1.61      2.29
     -36.021961      57.401180     259.7      0.35      2.08     142.7         3         2      3894      2302    180.28   -17.440       5.6      36.5   263.581     0.551      72.8   0.06316      99.5         H               193.3  0.041966  0.019931  0.000400  1.663194  0.652947  2.547211  1.053744     29.53    3.1343   14.3341   0.08936   4.56700   0.30991   0.02088  26.10669   3.48852     190.0  0.487872  0.000858  0.000129  0.000116  0.202614  7.034322  0.554840    137.91  1.000064  1.000003     2.298    11.451      90.6      78.4      29.4     175.6     13.44     -9.06     -1.55     -0.12      1.61      0.80     -3.45      5.06      1.44      0.17     -1.24     -1.09     -4.43      0.90      2.84     -5.55      3.09      0.67     -0.65      1.56
     -36.006821      57.337376     298.6      0.35      2.08     140.7         3         3      3894      3604    168.95   -17.722       5.5      36.9   261.323     0.542      49.1   0.05930     100.0         H               193.3  0.040772  0.017750  0.000426  1.505520  0.639887  2.352791  1.044790     17.56    2.9040   12.3802   0.08086   4.43652   0.32379   0.02359  22.75830   3.26460     176.5  0.482766  0.000681  0.000059  0.000108  0.195803  6.994123  0.545424    129.59  1.000030  1.000001     2.251    11.084      90.6      77.0      25.7     158.2     12.96     -7.21     -2.00      0.35      0.96      1.04     -2.17      3.52      2.14      0.29     -1.37     -1.03     -3.25      0.54      1.80     -6.18      2.50      0.70     -1.31      1.64
