corner points
55.58446884    -41.10010529
55.51525497    -41.27058029
55.34928894    -41.0443306
55.27946472    -41.21466446
========== RESULTS WAVE VERSION 16.10.2018 ====================
IMAGE SIZE  X: 4466     Y:4776    col:row     POLARIZATION:VV
COVERAGE    X: 20.623167km       Y: 19.77750208km 
RESOLUTION dX: 4.617816167m       dY:4.141018023m  
resolution of original product 4.617816167m x 4.141018023m;   raster step x:5998.543201m  
===============================================================
FLAGS: H=HIGH PROBABILITY SEA STATE, I=LAND(ISLAND), O=OUTLIER NO SEA STATE, N=NO WIND AVAILABLE, SEA STATE NOT VISIBLE, M=MEAN PROBABILITY SEA STATE, L= LOW PROBABILITY SEA STATE
Filtering wave length
 integration  Lmin=1m
 integration  Lmax=2200m
  peak        Lmin=100m
               FFT=1024pixels, 4728.643755m 
   mean-Hs (SWH_c)=0.2m
         mean-wind=6.603909969m/s
--------------0--------------1---------2---------3---------4---------5---------6---------7---------8---------9--------10--------11--------12--------13--------14--------15--------16--------17--------18--------19------------------20--------21--------22--------23--------24--------25--------26--------27--------28--------29--------30--------31--------32--------33--------34--------35--------36--------37--------38--------39--------40--------41--------42--------43--------44--------45--------46--------47--------48--------49--------50--------51--------52--------53--------54--------55--------56--------57--------58--------59--------60--------61--------62--------63--------64--------65--------66--------67--------68--------69--------70--------71--------72--------73
            LAT            LON  P-LENGHT     SWH_o     SWH_c     P-DIR      LINE     POINT     ROW-Y     COL-X  M-INTENC        dB      WIND INC-ANGLE  ENERGY-M  ENERGY-N  ENERGY-R ENERGY-NN  FG-DEPTH      FLAG         HEADING-DEG    E30-75   E75-390  E390-600 meanincut   meanout   cut/out  STD-NORM  SPEC-MAX   GL-MEAN    GL-VAR      CORR   ENTROPY   HOMOGEN    ENERGY  CONTRAST  DISSIMIL     STD-O    E 1-30 E600-2000   E2000 >      GODA  LONG-HIG     Tmean  CONVOLUT  MEAN-DIR  relation     Sy/Sx  SKEWNESS  KURTOSIS  cutoff-A >50/10000     INT*V   INT-LOG  S-1_g1f1  S-2_g1f2  S-3_g1f3  S-4_g2f1  S-5_g2f2  S-6_g2f3  S-7_g3f1  S-8_g3f2  S-9_g3f3 S-10_g1f4 S-11_g2f4 S-12_g3f4 S-13_g1f5 S-14_g2f5 S-15_g3f5 S-16_g4f1 S-17_g4f2 S-18_g4f3 S-19_g4f4 S-20_g4f5
--------------1--------------2---------3---------4---------5---------6---------7---------8---------9--------10--------11--------12--------13--------14--------15--------16--------17--------18--------19--------20------------------21--------22--------23--------24--------25--------26--------27--------28--------29--------30--------31--------32--------33--------34--------35--------36--------37--------38--------39--------40--------41--------42--------43--------44--------45--------46--------47--------48--------49--------50--------51--------52--------53--------54--------55--------56--------57--------58--------59--------60--------61--------62--------63--------64--------65--------66--------67--------68--------69--------70--------71--------72--------73--------74
     -41.123203      55.516636     211.3      0.39      2.43     116.6         1         1      1000      1000    221.63   -16.544       6.4      36.0   273.911     0.567      89.3   0.07289      37.0         H               193.9  0.045949  0.021238  0.000497  2.005740  0.689587  2.908613  1.069172     21.40    3.9540   22.3266   0.10783   4.97191   0.26844   0.01424  39.83809   4.29432     236.9  0.498721  0.001250  0.000166  0.000108  0.197488  7.022059  0.571743    113.67  1.000185  1.000012     2.436    13.137      99.7      82.4      44.5     242.8     12.93     -5.77      3.26      2.42     -1.22      1.98     -1.66      3.18     -0.44     -3.44     -1.99      1.08     -1.04      0.34      1.55     -4.27     -0.31      0.43     -0.42      0.37
     -41.106922      55.447895     214.6      0.42      2.43     120.4         1         2      1000      2299    230.59   -16.372       6.9      36.4   273.069     0.565      80.8   0.07297      38.8         H               193.9  0.046658  0.020254  0.000489  1.924711  0.684489  2.811894  1.066613     24.05    4.1322   24.0896   0.10790   5.05076   0.26066   0.01317  42.98053   4.46681     246.0  0.496514  0.001267  0.000128  0.000110  0.196825  7.006758  0.568973    117.65  1.000204  1.000013     2.415    12.792      99.7      83.2      47.9     249.4     12.99     -5.61      3.05      2.16     -0.81      1.77     -1.90      3.53     -0.63     -3.13     -1.73      1.50     -1.70      0.46      2.04     -4.50      0.04      0.34     -1.07      0.73
     -41.090748      55.379795     206.5      0.41      2.43     119.1         1         3      1000      3598    210.27   -16.772       6.6      36.7   272.305     0.561      53.6   0.07038      34.6         H               193.9  0.045589  0.019357  0.000491  1.867909  0.684181  2.730139  1.062487     17.05    3.7261   19.8586   0.10201   4.86768   0.27873   0.01568  35.66564   4.06873     223.4  0.495278  0.000763  0.000067  0.000108  0.192756  6.978657  0.564651    114.64  1.000199  1.000011     2.388    12.522      97.3      81.5      39.8     223.3     12.77     -5.62      3.34      2.50     -1.43      1.69     -1.13      2.60     -0.37     -3.03     -2.12      0.95     -1.62      0.03      1.57     -4.77      0.09     -0.47     -1.26      0.43
     -41.174892      55.495617     207.2      0.39      2.43     113.0         2         1      2448      1000    217.03   -16.635       6.3      36.0   274.849     0.570      55.3   0.07378      34.9         H               193.9  0.047339  0.021713  0.000460  2.081244  0.696566  2.987863  1.071110     22.03    3.8626   21.4992   0.10876   4.92990   0.27302   0.01490  38.32137   4.20560     232.4  0.500003  0.000730  0.000069  0.000118  0.198197  7.018510  0.574309    112.60  1.000207  1.000013     2.437    13.022     102.3      81.9      42.8     239.6     12.99     -5.98      3.79      2.94     -1.70      2.36     -1.83      2.99     -0.15     -3.30     -3.12      0.79     -1.02      0.10      1.84     -3.66     -0.22     -0.21     -1.79      0.03
     -41.158600      55.426823     180.7      0.41      2.43     126.6         2         2      2448      2299    222.94   -16.518       6.7      36.4   273.160     0.564      73.8   0.07209      24.1         H               193.9  0.046389  0.020344  0.000521  1.984983  0.681847  2.911185  1.066119     17.28    3.9794   22.4928   0.10664   4.98362   0.26738   0.01409  40.18833   4.31739     237.7  0.496193  0.001201  0.000109  0.000108  0.195143  7.001756  0.568481    116.67  1.000198  1.000012     2.391    12.433      97.3      82.5      44.8     235.9     12.78     -5.43      3.83      2.85     -1.54      2.00     -1.24      3.03     -0.56     -2.83     -2.30      1.14     -1.18      0.11      1.56     -4.24     -0.76      0.36     -1.91      0.56
     -41.142410      55.358673     223.3      0.41      2.43     121.8         2         3      2448      3598    211.82   -16.740       6.7      36.7   272.008     0.562      89.5   0.07117      44.2         H               193.9  0.045926  0.020615  0.000534  1.983143  0.672845  2.947400  1.063849     20.88    3.7580   20.2037   0.10649   4.88228   0.27768   0.01554  36.10452   4.09742     225.4  0.494097  0.001263  0.000170  0.000110  0.199704  7.017911  0.566638    116.58  1.000191  1.000011     2.369    12.273      99.7      81.6      40.4     213.7     13.22     -6.04      3.83      2.19     -1.18      1.80     -1.99      3.47     -0.72     -3.26     -2.08      1.26     -1.46      0.37      1.71     -4.99     -0.24     -0.39     -1.14      0.62
     -41.226578      55.474571     241.0      0.39      2.43     113.4         3         1      3896      1000    218.35   -16.609       6.3      36.0   274.467     0.571      79.4   0.07401      59.3         H               193.9  0.047867  0.021368  0.000455  2.072127  0.680944  3.043023  1.072564     19.62    3.8890   21.8122   0.11013   4.94187   0.27202   0.01475  38.81979   4.22946     234.1  0.500581  0.001096  0.000135  0.000114  0.197831  7.003883  0.576119    109.31  1.000233  1.000015     2.452    13.218     105.0      82.0      43.4     242.8     13.34     -6.04      4.58      2.18     -0.96      1.43     -2.46      3.25     -1.39     -4.13     -1.43      1.68     -0.31     -0.00      1.07     -4.25      0.29     -0.59     -0.15     -0.16
     -41.210270      55.405720     187.7      0.41      2.43     119.1         3         2      3896      2299    224.71   -16.484       6.8      36.4   274.451     0.572     111.4   0.07596      26.6         H               193.9  0.048096  0.022177  0.000565  2.135694  0.696987  3.064181  1.073753     19.75    4.0142   23.1739   0.11379   4.99753   0.26708   0.01401  41.07436   4.35036     241.3  0.500124  0.001475  0.000238  0.000114  0.201858  7.047843  0.577141    113.69  1.000229  1.000015     2.460    13.283     107.8      82.6      45.9     249.3     13.33     -5.56      4.86      2.45     -1.28      1.89     -2.07      3.12     -0.95     -3.49     -2.29      1.55     -0.36      0.61      1.60     -4.76      0.13     -0.97     -1.28      0.08
     -41.194069      55.337517     239.5      0.42      2.43     120.6         3         3      3896      3598    218.69   -16.602       6.8      36.7   272.145     0.563      57.9   0.07223      57.7         H               193.9  0.046637  0.020762  0.000508  1.972216  0.688130  2.866051  1.064792     16.91    3.8949   21.5770   0.10711   4.94561   0.27135   0.01462  38.53177   4.23092     232.8  0.494895  0.000920  0.000066  0.000110  0.198218  7.026487  0.567664    111.19  1.000221  1.000012     2.371    12.183     102.3      82.2      43.1     226.7     13.02     -5.40      4.00      2.44     -1.22      1.96     -1.46      2.98     -0.13     -3.17     -2.29      0.89     -0.47      0.75      1.62     -4.58     -0.57     -0.54     -1.20      0.67
