corner points
-13.48931408    -53.20624924
-13.58713913    -53.37903976
-13.7969141    -53.14154434
-13.89603806    -53.3140831
========== RESULTS WAVE VERSION 16.10.2018 ====================
IMAGE SIZE  X: 5671     Y:4906    col:row     POLARIZATION:VV
COVERAGE    X: 21.68480228km       Y: 20.24067572km 
RESOLUTION dX: 3.823805727m       dY:4.125698271m  
resolution of original product 3.823805727m x 4.125698271m;   raster step x:5999.551186m  
===============================================================
FLAGS: H=HIGH PROBABILITY SEA STATE, I=LAND(ISLAND), O=OUTLIER NO SEA STATE, N=NO WIND AVAILABLE, SEA STATE NOT VISIBLE, M=MEAN PROBABILITY SEA STATE, L= LOW PROBABILITY SEA STATE
Filtering wave length
 integration  Lmin=1m
 integration  Lmax=2200m
  peak        Lmin=100m
               FFT=1024pixels, 3915.577064m 
   mean-Hs (SWH_c)=0.2038150024m
         mean-wind=6.776954174m/s
--------------0--------------1---------2---------3---------4---------5---------6---------7---------8---------9--------10--------11--------12--------13--------14--------15--------16--------17--------18--------19------------------20--------21--------22--------23--------24--------25--------26--------27--------28--------29--------30--------31--------32--------33--------34--------35--------36--------37--------38--------39--------40--------41--------42--------43--------44--------45--------46--------47--------48--------49--------50--------51--------52--------53--------54--------55--------56--------57--------58--------59--------60--------61--------62--------63--------64--------65--------66--------67--------68--------69--------70--------71--------72--------73
            LAT            LON  P-LENGHT     SWH_o     SWH_c     P-DIR      LINE     POINT     ROW-Y     COL-X  M-INTENC        dB      WIND INC-ANGLE  ENERGY-M  ENERGY-N  ENERGY-R ENERGY-NN  FG-DEPTH      FLAG         HEADING-DEG    E30-75   E75-390  E390-600 meanincut   meanout   cut/out  STD-NORM  SPEC-MAX   GL-MEAN    GL-VAR      CORR   ENTROPY   HOMOGEN    ENERGY  CONTRAST  DISSIMIL     STD-O    E 1-30 E600-2000   E2000 >      GODA  LONG-HIG     Tmean  CONVOLUT  MEAN-DIR  relation     Sy/Sx  SKEWNESS  KURTOSIS  cutoff-A >50/10000     INT*V   INT-LOG  S-1_g1f1  S-2_g1f2  S-3_g1f3  S-4_g2f1  S-5_g2f2  S-6_g2f3  S-7_g3f1  S-8_g3f2  S-9_g3f3 S-10_g1f4 S-11_g2f4 S-12_g3f4 S-13_g1f5 S-14_g2f5 S-15_g3f5 S-16_g4f1 S-17_g4f2 S-18_g4f3 S-19_g4f4 S-20_g4f5
--------------1--------------2---------3---------4---------5---------6---------7---------8---------9--------10--------11--------12--------13--------14--------15--------16--------17--------18--------19--------20------------------21--------22--------23--------24--------25--------26--------27--------28--------29--------30--------31--------32--------33--------34--------35--------36--------37--------38--------39--------40--------41--------42--------43--------44--------45--------46--------47--------48--------49--------50--------51--------52--------53--------54--------55--------56--------57--------58--------59--------60--------61--------62--------63--------64--------65--------66--------67--------68--------69--------70--------71--------72--------73--------74
     -53.229790     -13.565140     331.0      0.42      2.14      30.5         1         1      1000      1000   3077.00    -5.119       6.8      22.5   243.771     0.785      64.8   0.19506     100.0         H               196.2  0.110768  0.036762  0.001215  3.825688  1.018611  3.755788  1.255298     14.98    5.6443   55.6779   0.27791   5.55002   0.23795   0.01004  80.40745   5.71471    3862.5  0.635932  0.000751  0.000018  0.000254  0.157818  6.714692  0.820410     92.17  1.000241  1.000034     3.732    31.772     105.0      85.8     107.2     575.3     12.43      1.51      0.58      0.94     -0.65      1.87      0.82      0.01      0.99      0.07      0.49     -0.06     -1.58      0.44      0.96     -7.30     -1.87      2.37      0.63      1.51
     -53.211685     -13.651438     290.9      0.42      2.14      26.5         1         2      1000      2569   2763.57    -5.585       6.8      22.9   248.800     0.813      80.0   0.20866     100.0         H               196.2  0.118368  0.039948  0.001262  4.088670  1.053933  3.879439  1.278689     15.42    5.0235   46.5459   0.28697   5.33093   0.25986   0.01269  66.37544   5.12810    3533.4  0.652867  0.001076  0.000029  0.000266  0.155501  6.699855  0.851140     91.16  1.000249  1.000038     4.006    37.375     107.8      83.7      87.9     534.4     12.15      1.50      0.53      1.41     -1.13      2.28      1.35     -0.05      0.99      0.54      0.18     -0.39     -0.71      0.59      0.61     -6.91     -2.70      2.84      0.11      1.44
     -53.193867     -13.736021     331.0      0.43      2.14      30.5         1         3      1000      4138   2568.73    -5.903       7.1      23.4   242.849     0.785      73.1   0.19668     100.0         H               196.2  0.112578  0.038728  0.001312  4.007274  1.005968  3.983502  1.256443     15.68    4.6441   39.7292   0.28168   5.19462   0.27230   0.01437  57.07650   4.76575    3227.2  0.632062  0.000907  0.000024  0.000286  0.156014  6.709848  0.821323     92.32  1.000261  1.000039     3.739    30.976     110.8      82.5      73.8     459.2     12.38      1.32      0.36      1.28     -0.88      2.53      1.04      0.61      1.16     -0.17      0.73      0.10     -1.50      0.27      0.95     -7.52     -2.67      3.45      1.27      1.51
     -53.280998     -13.594177     337.1      0.41      2.14      37.1         2         1      2454      1000   3030.58    -5.185       6.7      22.4   243.520     0.785      71.9   0.19616     100.0         H               196.2  0.112813  0.037023  0.001113  3.801194  1.024115  3.711686  1.256763     17.03    5.5516   54.2450   0.28059   5.51822   0.24142   0.01042  78.04912   5.62099    3808.5  0.634104  0.000843  0.000035  0.000273  0.155057  6.693636  0.821250     92.57  1.000258  1.000037     3.721    31.529     102.3      85.5     103.6     567.0     12.16      1.41      0.15      1.51     -0.79      2.08      0.93      0.25      1.11      0.22      0.61     -0.22     -1.17      0.54      0.81     -6.56     -2.43      2.63      0.92      1.16
     -53.262878     -13.680583     367.1      0.41      2.14      69.7         2         2      2454      2569   2722.36    -5.651       6.7      22.9   244.143     0.789      68.6   0.19879     100.0         H               196.2  0.114822  0.037875  0.001300  4.016499  1.017794  3.946279  1.259730      9.51    4.9492   44.6357   0.28276   5.30844   0.26141   0.01287  64.03019   5.05611    3429.4  0.634849  0.000888  0.000021  0.000285  0.151973  6.691129  0.825037     93.18  1.000263  1.000040     3.748    31.680     105.0      83.6      83.7     503.9     11.85      1.25      0.78      1.90     -0.28      2.09      1.74      0.11      1.30      0.57      0.28     -0.17     -0.72      0.25      1.14     -6.73     -1.86      2.66      0.11      0.66
     -53.245037     -13.765271     283.6      0.42      2.14      52.8         2         3      2454      4138   2516.72    -5.992       6.9      23.4   252.769     0.837     114.6   0.22060     100.0         H               196.2  0.122581  0.046597  0.001547  4.913210  1.033486  4.754014  1.297348     17.56    4.5380   38.7363   0.28484   5.14955   0.27794   0.01514  55.40490   4.66993    3265.0  0.665596  0.001764  0.000049  0.000265  0.161990  6.770904  0.877213     90.88  1.000246  1.000040     6.662   241.547     107.8      82.1      73.7     734.5     12.59      1.22      1.07      1.45     -0.35      3.44      0.88     -0.42      0.76      0.25      0.52     -0.33     -0.71      0.34      1.56     -7.25     -1.14      5.03      0.65     -0.05
     -53.332203     -13.623279     344.8      0.42      2.14      26.1         3         1      3908      1000   3073.75    -5.123       6.8      22.4   243.658     0.787      75.8   0.19648     100.0         H               196.2  0.116037  0.037998  0.001223  3.978215  1.005650  3.955864  1.256919     10.57    5.6362   55.8064   0.28193   5.54464   0.23956   0.01019  80.14539   5.69409    3863.5  0.630996  0.001061  0.000034  0.000315  0.150241  6.681588  0.823403     91.75  1.000269  1.000040     3.657    28.881     110.8      85.7     106.9     534.4     12.28      1.29      0.36      1.48     -0.53      2.14      0.72      0.17      0.90      0.49      0.18      0.07     -1.07      0.24      0.93     -7.22     -1.64      2.59     -0.06      0.71
     -53.314060     -13.709793     319.8      0.39      2.14      40.8         3         2      3908      2569   2639.10    -5.785       6.4      22.9   246.743     0.799      73.7   0.20124     100.0         H               196.2  0.117399  0.038388  0.001320  4.152074  1.020131  4.070138  1.266659     10.81    4.7826   42.3462   0.28387   5.24433   0.26837   0.01379  60.65021   4.90183    3342.4  0.641529  0.000932  0.000025  0.000312  0.149021  6.678648  0.836125     91.64  1.000271  1.000040     3.882    35.953     110.8      83.0      78.9     524.7     12.24      1.05      0.79      1.27     -0.36      2.13      1.50      0.55      1.24      0.54      0.33      0.19     -0.72      0.33      0.91     -7.75     -1.73      2.17     -0.02      0.76
     -53.296200     -13.794587     352.9      0.42      2.14      54.2         3         3      3908      4138   2535.95    -5.959       6.9      23.4   249.979     0.819      95.7   0.21065     100.0         H               196.2  0.121791  0.040405  0.001375  4.308657  1.049407  4.105801  1.282655     12.85    4.5833   40.1169   0.28856   5.16270   0.27726   0.01511  57.08136   4.71693    3252.6  0.654524  0.001302  0.000049  0.000320  0.150978  6.672836  0.857536     92.80  1.000266  1.000041     4.031    39.564     114.0      82.0      74.2     523.0     12.35      1.33      1.13      1.38     -1.06      2.16      1.27     -0.22      0.68      0.75     -0.13     -0.52     -1.07      0.35      1.10     -7.73     -2.66      2.32     -0.63      0.84
