corner points
-18.10643005    -59.93034744
-18.24350739    -60.09895325
-18.46770859    -59.85456467
-18.60653305    -60.02279663
========== RESULTS WAVE VERSION 16.10.2018 ====================
IMAGE SIZE  X: 5671     Y:4902    col:row     POLARIZATION:VV
COVERAGE    X: 21.79907033km       Y: 20.19391923km 
RESOLUTION dX: 3.843955269m       dY:4.119526567m  
resolution of original product 3.843955269m x 4.119526567m;   raster step x:5996.57022m  
===============================================================
FLAGS: H=HIGH PROBABILITY SEA STATE, I=LAND(ISLAND), O=OUTLIER NO SEA STATE, N=NO WIND AVAILABLE, SEA STATE NOT VISIBLE, M=MEAN PROBABILITY SEA STATE, L= LOW PROBABILITY SEA STATE
Filtering wave length
 integration  Lmin=1m
 integration  Lmax=2200m
  peak        Lmin=100m
               FFT=1024pixels, 3936.210196m 
   mean-Hs (SWH_c)=0.2m
         mean-wind=3.000823021m/s
--------------0--------------1---------2---------3---------4---------5---------6---------7---------8---------9--------10--------11--------12--------13--------14--------15--------16--------17--------18--------19------------------20--------21--------22--------23--------24--------25--------26--------27--------28--------29--------30--------31--------32--------33--------34--------35--------36--------37--------38--------39--------40--------41--------42--------43--------44--------45--------46--------47--------48--------49--------50--------51--------52--------53--------54--------55--------56--------57--------58--------59--------60--------61--------62--------63--------64--------65--------66--------67--------68--------69--------70--------71--------72--------73
            LAT            LON  P-LENGHT     SWH_o     SWH_c     P-DIR      LINE     POINT     ROW-Y     COL-X  M-INTENC        dB      WIND INC-ANGLE  ENERGY-M  ENERGY-N  ENERGY-R ENERGY-NN  FG-DEPTH      FLAG         HEADING-DEG    E30-75   E75-390  E390-600 meanincut   meanout   cut/out  STD-NORM  SPEC-MAX   GL-MEAN    GL-VAR      CORR   ENTROPY   HOMOGEN    ENERGY  CONTRAST  DISSIMIL     STD-O    E 1-30 E600-2000   E2000 >      GODA  LONG-HIG     Tmean  CONVOLUT  MEAN-DIR  relation     Sy/Sx  SKEWNESS  KURTOSIS  cutoff-A >50/10000     INT*V   INT-LOG  S-1_g1f1  S-2_g1f2  S-3_g1f3  S-4_g2f1  S-5_g2f2  S-6_g2f3  S-7_g3f1  S-8_g3f2  S-9_g3f3 S-10_g1f4 S-11_g2f4 S-12_g3f4 S-13_g1f5 S-14_g2f5 S-15_g3f5 S-16_g4f1 S-17_g4f2 S-18_g4f3 S-19_g4f4 S-20_g4f5
--------------1--------------2---------3---------4---------5---------6---------7---------8---------9--------10--------11--------12--------13--------14--------15--------16--------17--------18--------19--------20------------------21--------22--------23--------24--------25--------26--------27--------28--------29--------30--------31--------32--------33--------34--------35--------36--------37--------38--------39--------40--------41--------42--------43--------44--------45--------46--------47--------48--------49--------50--------51--------52--------53--------54--------55--------56--------57--------58--------59--------60--------61--------62--------63--------64--------65--------66--------67--------68--------69--------70--------71--------72--------73--------74
     -59.951061     -18.200068     386.9      0.22      0.57      79.4         1         1      1000      1000   1689.64    -7.722       3.3      22.3   178.595     0.534     104.7   0.08860     100.0         H               198.7  0.046741  0.011002  0.000477  0.992738  0.751725  1.320613  1.036956      3.09    2.8993   12.1504   0.16978   4.42424   0.33530   0.02456  20.17490   3.08019    1752.1  0.474482  0.001747  0.000103  0.000109  0.155164  6.683010  0.544434     79.52  1.000037  1.000002     2.228    10.924      35.8      77.2      25.5     157.0     10.31      0.48     -0.61      2.03      0.01     -1.69      2.86     -0.18     -0.62     -0.26      0.26     -0.36      0.86     -0.17      0.75     -6.67      0.21     -2.52      1.11     -1.78
     -59.929977     -18.300901     381.4      0.20      0.57     144.5         1         2      1000      2560   1295.30    -8.876       2.9      22.8   201.696     0.638     436.6   0.12426     100.0         H               198.7  0.065992  0.022192  0.001933  1.731316  1.283013  1.349414  1.136367      8.12    2.1305    8.5505   0.21981   3.88888   0.41341   0.04538  13.34191   2.36177    1471.9  0.540349  0.007948  0.000383  0.000106  0.169511  6.812576  0.662016     88.05  0.999904  0.999993     3.186    25.218      51.0      68.8      16.9     198.0     11.09      0.81     -2.65     -0.48     -0.38     -0.92      3.89      0.33     -0.82      0.40     -0.52     -0.09      0.41      0.48      0.29    -14.34     -2.06      1.27     -1.11      0.52
     -59.909222     -18.399683     381.1      0.20      0.57      50.8         1         3      1000      4120   1103.54    -9.572       2.8      23.3   205.229     0.659     318.0   0.13192     100.0         H               198.7  0.074114  0.025275  0.002083  1.979931  1.508203  1.312775  1.152631      9.57    1.7549    6.3823   0.22802   3.57195   0.46089   0.06299   9.85404   1.99121    1271.9  0.551374  0.005829  0.000349  0.000107  0.167687  6.795198  0.685528     65.57  0.999944  0.999996     3.237    25.054      42.3      63.7      12.6     165.7     10.96      1.11     -1.77     -0.01     -0.60     -1.54      3.52      0.80     -0.79     -0.29     -0.43     -0.01      0.91      0.36      0.93    -12.93     -3.13     -0.45     -0.33     -0.71
     -60.001137     -18.240829     232.7      0.20      0.57       6.8         2         1      2456      1000   1456.47    -8.367       2.9      22.3   200.969     0.636     340.6   0.12346      51.2         H               198.7  0.065822  0.022750  0.001674  1.839388  1.234374  1.490139  1.132516      7.48    2.4459   10.7314   0.21840   4.11880   0.38232   0.03601  16.77550   2.66626    1649.4  0.538676  0.007095  0.000297  0.000105  0.169447  6.818915  0.659601     92.87  0.999905  0.999995     3.262    27.842      46.3      72.1      21.1     227.1     10.96      0.68     -2.37      0.41     -0.82     -0.78      3.18      0.67     -0.47     -0.10     -0.07     -0.20      0.55      0.51      0.11    -11.79     -3.08      1.02      0.73      0.62
     -59.980022     -18.341808     391.9      0.21      0.57      84.7         2         2      2456      2560   1400.79    -8.536       3.1      22.8   178.673     0.532     107.6   0.08626     100.0         H               198.7  0.044628  0.011699  0.000697  1.002674  0.766608  1.307936  1.034039      4.09    2.3333    8.3170   0.16487   4.05779   0.38092   0.03517  13.89155   2.54239    1448.5  0.472901  0.001986  0.000092  0.000107  0.160402  6.714043  0.541622     86.54  1.000019  1.000001     2.220    11.103      36.8      72.6      17.9     137.4     10.86      0.87     -1.30      0.89     -0.34     -2.06      2.75      0.15      0.50     -0.05     -0.38      0.13      0.54      0.23      0.34     -9.79     -1.42     -3.68     -1.02     -0.08
     -59.959232     -18.440731     357.3      0.20      0.57      21.3         2         3      2456      4120   1114.53    -9.529       2.8      23.3   196.483     0.620     224.6   0.11798     100.0         H               198.7  0.063774  0.024242  0.001845  1.857630  1.269332  1.463471  1.117039      9.88    1.7687    6.0782   0.21288   3.59388   0.45177   0.05873   9.56855   2.00086    1244.8  0.525518  0.004441  0.000215  0.000106  0.171927  6.863628  0.642080     69.03  0.999973  0.999999     3.314    30.809      39.4      64.9      12.4     183.0     11.00      0.41     -2.73     -0.04      0.43     -0.97      3.28     -0.42     -0.86     -0.24      0.22      0.17      0.84      0.46      0.23    -12.42      1.24      1.39      0.57      0.09
     -60.051201     -18.281706     387.7      0.21      0.57      23.2         3         1      3912      1000   1616.53    -7.914       3.2      22.3   194.181     0.606     290.1   0.11274     100.0         H               198.7  0.059734  0.018863  0.001308  1.537758  1.105622  1.390853  1.106697      6.40    2.7657   12.6240   0.20615   4.33114   0.35484   0.02904  20.04338   2.96725    1789.0  0.521247  0.005028  0.000243  0.000105  0.166651  6.786061  0.625630     80.22  0.999950  0.999998     3.006    28.245      42.8      74.9      25.2     270.2     10.85      0.86     -2.72      0.50     -0.22     -0.62      3.25      0.14     -0.40     -0.16      0.08      0.11      0.67      0.41      0.20    -11.34     -1.32      1.63      0.32     -0.01
     -60.030052     -18.382832     381.4      0.20      0.57      35.5         3         2      3912      2560   1309.01    -8.831       2.9      22.8   185.254     0.562     221.3   0.09642     100.0         H               198.7  0.049966  0.014214  0.001216  1.167623  0.910456  1.282459  1.064584      6.96    2.1563    7.6973   0.18135   3.92280   0.40276   0.04152  12.60267   2.37804    1393.6  0.493015  0.003955  0.000167  0.000106  0.164112  6.749701  0.576093     79.24  1.000008  1.000001     2.436    13.367      42.8      70.2      16.2     143.3     11.05      1.01     -2.77     -0.48     -0.51     -0.32      3.91      0.32     -1.14     -0.02      0.27     -0.63      0.32      0.50      0.72    -14.05     -2.24      2.87      1.45      0.08
     -60.009235     -18.481897     387.7      0.20      0.57      23.2         3         3      3912      4120   1159.47    -9.357       2.9      23.2   184.040     0.558     264.0   0.09560     100.0         H               198.7  0.048478  0.015687  0.001411  1.260355  0.874638  1.441002  1.060366      8.13    1.8591    5.9692   0.18218   3.68277   0.43520   0.05218   9.76348   2.08528    1229.4  0.488186  0.004348  0.000269  0.000104  0.171889  6.804924  0.571938     68.44  1.000008  1.000000     2.481    15.037      46.3      66.8      12.8     143.1     11.55      1.53     -2.04     -0.90     -0.33     -0.73      3.52     -0.10     -0.82     -1.16      0.46      0.04      0.43      0.54      0.13    -14.78     -1.50      1.36      1.85      0.95
