corner points
-25.34261131    -63.27165222
-25.53038788    -63.42732239
-25.71011925    -63.1807518
-25.8993721    -63.33595276
========== RESULTS WAVE VERSION 16.10.2018 ====================
IMAGE SIZE  X: 4486     Y:4762    col:row     POLARIZATION:VV
COVERAGE    X: 20.95525343km       Y: 19.63880237km 
RESOLUTION dX: 4.671255779m       dY:4.124066016m  
resolution of original product 4.671255779m x 4.124066016m;   raster step x:5997.892421m  
===============================================================
FLAGS: H=HIGH PROBABILITY SEA STATE, I=LAND(ISLAND), O=OUTLIER NO SEA STATE, N=NO WIND AVAILABLE, SEA STATE NOT VISIBLE, M=MEAN PROBABILITY SEA STATE, L= LOW PROBABILITY SEA STATE
Filtering wave length
 integration  Lmin=1m
 integration  Lmax=2200m
  peak        Lmin=100m
               FFT=1024pixels, 4783.365918m 
   mean-Hs (SWH_c)=0.06666666508m
         mean-wind=7.485390663m/s
--------------0--------------1---------2---------3---------4---------5---------6---------7---------8---------9--------10--------11--------12--------13--------14--------15--------16--------17--------18--------19------------------20--------21--------22--------23--------24--------25--------26--------27--------28--------29--------30--------31--------32--------33--------34--------35--------36--------37--------38--------39--------40--------41--------42--------43--------44--------45--------46--------47--------48--------49--------50--------51--------52--------53--------54--------55--------56--------57--------58--------59--------60--------61--------62--------63--------64--------65--------66--------67--------68--------69--------70--------71--------72--------73
            LAT            LON  P-LENGHT     SWH_o     SWH_c     P-DIR      LINE     POINT     ROW-Y     COL-X  M-INTENC        dB      WIND INC-ANGLE  ENERGY-M  ENERGY-N  ENERGY-R ENERGY-NN  FG-DEPTH      FLAG         HEADING-DEG    E30-75   E75-390  E390-600 meanincut   meanout   cut/out  STD-NORM  SPEC-MAX   GL-MEAN    GL-VAR      CORR   ENTROPY   HOMOGEN    ENERGY  CONTRAST  DISSIMIL     STD-O    E 1-30 E600-2000   E2000 >      GODA  LONG-HIG     Tmean  CONVOLUT  MEAN-DIR  relation     Sy/Sx  SKEWNESS  KURTOSIS  cutoff-A >50/10000     INT*V   INT-LOG  S-1_g1f1  S-2_g1f2  S-3_g1f3  S-4_g2f1  S-5_g2f2  S-6_g2f3  S-7_g3f1  S-8_g3f2  S-9_g3f3 S-10_g1f4 S-11_g2f4 S-12_g3f4 S-13_g1f5 S-14_g2f5 S-15_g3f5 S-16_g4f1 S-17_g4f2 S-18_g4f3 S-19_g4f4 S-20_g4f5
--------------1--------------2---------3---------4---------5---------6---------7---------8---------9--------10--------11--------12--------13--------14--------15--------16--------17--------18--------19--------20------------------21--------22--------23--------24--------25--------26--------27--------28--------29--------30--------31--------32--------33--------34--------35--------36--------37--------38--------39--------40--------41--------42--------43--------44--------45--------46--------47--------48--------49--------50--------51--------52--------53--------54--------55--------56--------57--------58--------59--------60--------61--------62--------63--------64--------65--------66--------67--------68--------69--------70--------71--------72--------73--------74
     -63.283909     -25.465124     382.7      0.50      3.19       4.6         1         1      1000      1000    324.30   -14.890       8.3      35.5   303.137     0.548     705.2   0.06745     100.0         H               201.1  0.040035  0.009750  0.001250  0.850681  0.683003  1.245502  1.055461      5.97    5.9997   46.5066   0.10597   5.73028   0.19929   0.00665  83.15778   6.27541     342.3  0.485433  0.009819  0.002187  0.000090  0.160584  6.696789  0.549408     89.75  0.999898  0.999993     2.313    11.644     142.7      89.0      94.4     329.2     12.05      1.78     -0.63     -3.00     -1.57     -1.76      5.82      0.46     -0.11      0.97     -0.47      0.49      1.96     -1.74      1.92    -22.96     -5.01     -2.85     -2.05     -7.36
     -63.257782     -25.570957     383.5      0.37      3.19      74.2         1         2      1000      2284    208.85   -16.802       6.0      35.8   299.496     0.529     253.0   0.05609     100.0         H               201.1  0.037805  0.010126  0.001157  0.881334  0.646025  1.364241  1.033108      7.38    3.6983   18.4029   0.07375   4.85973   0.27476   0.01514  34.09156   4.04553     215.8  0.475470  0.003929  0.000669  0.000087  0.166095  6.747723  0.528294     78.11  1.000041  1.000002     2.563    33.091      97.3      81.9      38.2     303.3     12.27      1.49      0.79     -2.60     -1.09     -2.69      5.10      0.47      0.65      0.87     -0.60      0.04      1.13     -0.54      0.78    -20.82     -3.54     -6.54     -1.63     -2.59
     -63.231819     -25.675634     391.7      0.48      3.19     100.7         1         3      1000      3568    284.52   -15.459       8.1      36.2   331.459     0.633    1250.8   0.09692     100.0         H               201.1  0.046514  0.023820  0.007441  1.831793  0.831171  2.203871  1.135164     50.95    5.1963   40.0189   0.15562   5.45223   0.22653   0.00921  67.58215   5.50117     323.0  0.531169  0.021554  0.002956  0.000093  0.212483  7.099705  0.645036     97.94  1.000388  1.000028     3.326    28.274     404.2      86.3      79.3     466.4     16.00     -0.82      6.40    -11.37      1.18     -7.45      9.77     -1.62      5.60     -2.30      2.28     -1.62      3.41     -2.83      2.07    -47.81      4.98    -27.80      8.32    -10.63
     -63.331429     -25.522491     395.7      0.41      3.19      41.4         2         1      2454      1000    251.11   -16.001       6.7      35.5   320.878     0.597    1145.0   0.08206     100.0         H               201.1  0.045047  0.018937  0.002947  1.302808  0.820244  1.588318  1.103444     24.08    4.5392   30.1093   0.13390   5.21366   0.24754   0.01146  52.15564   4.85829     277.0  0.511698  0.015545  0.003244  0.000089  0.194684  6.972876  0.604394     36.58  1.000024  1.000002     2.936    21.880     287.2      84.5      59.3     373.1     13.33      4.39     -2.49     -5.17     -3.65     -0.94      4.97      1.95      1.27     -1.16      0.58      0.30      0.23      0.69      0.22    -27.20    -12.99     -1.13      2.15      0.38
     -63.305264     -25.628454     398.8      0.45      3.19      48.6         2         2      2454      2284    273.40   -15.632       7.5      35.8   308.199     0.560     569.7   0.06990     100.0         H               201.1  0.042001  0.014524  0.001956  1.186803  0.755645  1.570582  1.064613      9.41    4.9817   33.2572   0.10808   5.38916   0.22733   0.00924  59.32551   5.28446     291.0  0.491155  0.009110  0.001429  0.000087  0.184964  6.872746  0.563005     98.01  1.000154  1.000009     2.675    19.345     133.1      86.5      67.2     389.0     13.38      0.20      1.19     -4.23     -1.11     -2.02      4.61      1.13      0.11      0.74     -0.59      0.77      0.28      0.67      0.34    -24.66     -4.12     -5.27     -2.67      0.35
     -63.279259     -25.733257     386.8      0.46      3.19     145.5         2         3      2454      3568    263.70   -15.789       7.6      36.2   407.753     0.852    2043.5   0.17444     100.0         H               201.1  0.078061  0.053932  0.016531  3.373726  1.624595  2.076656  1.315181     80.41    4.7655   43.9299   0.23725   5.24781   0.25227   0.01228  67.01425   5.11087     346.7  0.655114  0.045142  0.003918  0.000102  0.223714  7.262153  0.890633    147.15  0.999439  0.999962     4.688    47.829     190.7      83.7      84.0     566.2     14.93     -4.80     -4.25    -10.30      3.36      3.86      9.16     -1.96     -3.88      1.90     -2.70      2.48     -0.94      1.63     -1.30    -45.18     12.98     16.71    -10.56      5.80
     -63.378925     -25.580042     386.3      0.44      3.19      23.8         3         1      3908      1000    271.45   -15.663       7.2      35.5   342.975     0.665    1103.6   0.10778     100.0         H               201.1  0.056893  0.027860  0.005066  1.861425  1.099106  1.693581  1.161320     32.34    4.9354   37.7499   0.16701   5.35384   0.23517   0.01010  62.89042   5.24833     315.3  0.551722  0.021389  0.002417  0.000089  0.199904  7.026076  0.680483     42.62  0.999768  0.999985     3.726    34.423     142.7      85.6      74.5     472.9     13.51      2.24     -3.72     -6.13     -2.66      1.88      6.15      2.01     -1.58     -1.17      1.45     -1.49      0.81      0.02      0.59    -30.62     -9.74      9.19      6.48     -1.76
     -63.352718     -25.686136     382.7      0.44      3.19     175.4         3         2      3908      2284    260.92   -15.835       7.2      35.8   428.894     0.917    2696.5   0.20093     100.0         H               201.1  0.081819  0.057702  0.020473  3.332848  1.617348  2.060687  1.365527    146.10    4.7070   45.4474   0.25929   5.20846   0.26143   0.01339  67.32500   5.03477     356.2  0.692035  0.060240  0.005117  0.000105  0.228269  7.261338  0.963031    162.79  0.999072  0.999914     4.995    54.020     210.9      83.0      86.7     600.8     15.36     -0.34     -8.19    -12.34      0.15      9.56     10.65     -0.18     -8.90      0.80     -0.59      0.22      3.23     -4.44      4.41    -51.04      0.51     38.84     -1.82    -18.21
     -63.326672     -25.791067     379.1      0.52      3.19       9.1         3         3      3908      3568    315.37   -15.012       8.8      36.2   397.415     0.821    4067.7   0.16816     100.0         H               201.1  0.066880  0.036001  0.008946  2.488017  1.243139  2.001400  1.306903     49.48    5.7780   60.7725   0.24341   5.59316   0.22521   0.00916  91.96205   6.06469     412.2  0.639834  0.057056  0.012378  0.000092  0.207373  7.085063  0.854231    112.26  0.999128  0.999933     4.322    42.751     450.0      86.2     119.6     656.7     14.30     -1.16     -5.00     -8.24     -0.02      4.68      7.75      0.58     -4.09     -0.57      0.96     -0.85      2.74     -2.90      2.06    -38.35     -0.27     18.98      4.02    -10.15
