corner points
-6.716852188    -37.68981552
-6.775622368    -37.86730194
-6.951288223    -37.63887405
-7.010736465    -37.81623459
========== RESULTS WAVE VERSION 16.10.2018 ====================
IMAGE SIZE  X: 5671     Y:4916    col:row     POLARIZATION:VV
COVERAGE    X: 21.357784km       Y: 20.35594704km 
RESOLUTION dX: 3.766140716m       dY:4.140754076m  
resolution of original product 3.766140716m x 4.140754076m;   raster step x:5999.46216m  
===============================================================
FLAGS: H=HIGH PROBABILITY SEA STATE, I=LAND(ISLAND), O=OUTLIER NO SEA STATE, N=NO WIND AVAILABLE, SEA STATE NOT VISIBLE, M=MEAN PROBABILITY SEA STATE, L= LOW PROBABILITY SEA STATE
Filtering wave length
 integration  Lmin=1m
 integration  Lmax=2200m
  peak        Lmin=100m
               FFT=1024pixels, 3856.528093m 
   mean-Hs (SWH_c)=0.2080323219m
         mean-wind=3.465432167m/s
--------------0--------------1---------2---------3---------4---------5---------6---------7---------8---------9--------10--------11--------12--------13--------14--------15--------16--------17--------18--------19------------------20--------21--------22--------23--------24--------25--------26--------27--------28--------29--------30--------31--------32--------33--------34--------35--------36--------37--------38--------39--------40--------41--------42--------43--------44--------45--------46--------47--------48--------49--------50--------51--------52--------53--------54--------55--------56--------57--------58--------59--------60--------61--------62--------63--------64--------65--------66--------67--------68--------69--------70--------71--------72--------73
            LAT            LON  P-LENGHT     SWH_o     SWH_c     P-DIR      LINE     POINT     ROW-Y     COL-X  M-INTENC        dB      WIND INC-ANGLE  ENERGY-M  ENERGY-N  ENERGY-R ENERGY-NN  FG-DEPTH      FLAG         HEADING-DEG    E30-75   E75-390  E390-600 meanincut   meanout   cut/out  STD-NORM  SPEC-MAX   GL-MEAN    GL-VAR      CORR   ENTROPY   HOMOGEN    ENERGY  CONTRAST  DISSIMIL     STD-O    E 1-30 E600-2000   E2000 >      GODA  LONG-HIG     Tmean  CONVOLUT  MEAN-DIR  relation     Sy/Sx  SKEWNESS  KURTOSIS  cutoff-A >50/10000     INT*V   INT-LOG  S-1_g1f1  S-2_g1f2  S-3_g1f3  S-4_g2f1  S-5_g2f2  S-6_g2f3  S-7_g3f1  S-8_g3f2  S-9_g3f3 S-10_g1f4 S-11_g2f4 S-12_g3f4 S-13_g1f5 S-14_g2f5 S-15_g3f5 S-16_g4f1 S-17_g4f2 S-18_g4f3 S-19_g4f4 S-20_g4f5
--------------1--------------2---------3---------4---------5---------6---------7---------8---------9--------10--------11--------12--------13--------14--------15--------16--------17--------18--------19--------20------------------21--------22--------23--------24--------25--------26--------27--------28--------29--------30--------31--------32--------33--------34--------35--------36--------37--------38--------39--------40--------41--------42--------43--------44--------45--------46--------47--------48--------49--------50--------51--------52--------53--------54--------55--------56--------57--------58--------59--------60--------61--------62--------63--------64--------65--------66--------67--------68--------69--------70--------71--------72--------73--------74
     -37.716724      -6.771346     146.9      0.20      1.63     139.6         1         1      1000      1000   1307.74    -8.835       3.0      22.8   276.430     0.637     316.8   0.12813      14.7         H               193.4  0.057760  0.043046  0.001081  3.482883  0.864546  4.028569  1.132342     51.25    2.1513    8.6644   0.22970   3.89890   0.41779   0.04699  13.34827   2.36517    1480.8  0.530054  0.005170  0.000395  0.000172  0.198242  7.290494  0.664771    139.16  1.000078  1.000004     2.701    15.403      65.3      68.2      17.0     152.7     10.94     -2.40     -3.17      4.08     -3.20     -1.76     -0.49      0.00      2.61      0.97      0.72     -1.21     -3.25     -3.48      0.46     -3.99     -1.44     -1.50      0.09     -2.80
     -37.702255      -6.838050     139.4      0.21      1.63     133.7         1         2      1000      2593   1214.88    -9.155       3.1      23.3   282.574     0.654     588.9   0.13319      13.0         H               193.4  0.060009  0.041096  0.001070  3.404109  0.886476  3.840045  1.149762     39.17    1.9739    7.7109   0.23367   3.75452   0.43968   0.05501  11.81820   2.19711    1396.8  0.542287  0.009343  0.000549  0.000168  0.195267  7.236042  0.682744    136.71  0.999960  0.999997     2.802    16.565      65.3      65.8      15.0     151.6     10.83     -2.16     -3.34      4.23     -3.67     -0.80     -0.03     -0.31      1.72      1.29      0.59     -1.28     -3.49     -3.31     -0.33     -3.90     -2.54      1.57     -0.32     -1.73
     -37.688023      -6.903479     146.9      0.24      1.63     136.7         1         3      1000      4186   1322.13    -8.787       3.7      23.8   274.601     0.628     221.1   0.12474      14.7         H               193.4  0.058720  0.034350  0.000641  2.976182  0.859610  3.462248  1.124617     37.99    2.1803    8.7358   0.22017   3.92448   0.41214   0.04506  13.62464   2.40029    1486.9  0.530745  0.003635  0.000208  0.000157  0.189846  7.119489  0.651974    136.16  1.000013  1.000001     2.669    14.907      56.9      68.9      17.3     147.2     10.69     -2.24     -2.77      4.69     -3.32     -0.53     -0.06     -0.69      1.55      0.80      0.51     -0.64     -4.12     -3.49     -0.12     -2.12     -1.31      1.19     -0.15     -1.28
     -37.769043      -6.788698     142.9      0.22      1.63     151.2         2         1      2449      1000   1440.91    -8.414       3.2      22.8   276.345     0.634     173.5   0.12701      13.8         H               193.4  0.060195  0.042088  0.000667  3.602518  0.864387  4.167713  1.130117     32.30    2.4166   10.5053   0.22723   4.09229   0.39174   0.03888  16.23626   2.62479    1628.4  0.529185  0.002563  0.000145  0.000160  0.194210  7.242251  0.661227    140.45  0.999997  1.000000     2.667    14.865      62.2      71.0      20.4     165.2     10.61     -1.69     -3.53      4.84     -3.13     -1.02     -0.57     -0.58      2.07      0.82      0.12     -1.53     -3.49     -3.07     -0.37     -1.78     -1.77      1.04     -0.39     -1.24
     -37.754562      -6.855460     141.8      0.23      1.63     129.5         2         2      2449      2593   1397.32    -8.547       3.5      23.3   278.095     0.639     290.6   0.12858      13.6         H               193.4  0.059090  0.040893  0.000668  3.535561  0.842754  4.195245  1.134968     33.71    2.3276    9.9276   0.22758   4.02869   0.40056   0.04155  15.33664   2.53953    1585.8  0.533475  0.004766  0.000306  0.000166  0.195870  7.267723  0.665396    135.86  1.000009  1.000000     2.727    15.922      62.2      70.0      19.3     176.0     10.61     -2.69     -2.99      5.10     -3.42     -0.64     -0.31     -0.17      2.14      0.82     -0.08     -1.53     -3.44     -3.16     -0.61     -1.54     -1.94      1.10     -0.80     -1.48
     -37.740322      -6.920944     141.8      0.25      1.63     129.5         2         3      2449      4186   1352.60    -8.688       3.8      23.8   277.037     0.636     324.5   0.12785      13.6         H               193.4  0.059521  0.038586  0.000772  3.354364  0.851345  3.940074  1.132816     34.28    2.2451    9.3103   0.22652   3.96959   0.40848   0.04380  14.40256   2.45831    1532.3  0.532690  0.005051  0.000284  0.000162  0.194554  7.201194  0.662527    132.91  1.000041  1.000002     2.706    15.438      60.3      69.3      18.2     161.2     10.90     -2.24     -2.41      4.59     -3.86     -0.36     -0.04     -1.05      1.97      0.75     -0.02     -1.29     -3.91     -3.36     -0.31     -2.41     -1.97      0.96     -0.64     -1.73
     -37.821362      -6.806071     150.7      0.22      1.63     135.3         3         1      3898      1000   1492.63    -8.260       3.3      22.8   279.586     0.646     132.8   0.13147      15.6         H               193.4  0.061587  0.043896  0.000604  3.638516  0.874543  4.160476  1.140263     39.48    2.5177   11.4582   0.23070   4.15829   0.38461   0.03685  17.62948   2.72216    1701.8  0.538071  0.001945  0.000101  0.000165  0.193698  7.262746  0.673235    137.15  1.000043  1.000002     2.763    16.393      62.2      71.7      22.1     183.9     10.50     -2.58     -3.27      5.29     -3.12     -1.22     -0.57     -0.05      1.98      1.09      0.27     -1.41     -3.77     -3.25     -0.41     -1.16     -1.08      0.66     -0.32     -1.20
     -37.806873      -6.872890     142.6      0.26      1.63     132.3         3         2      3898      2593   1509.07    -8.213       3.8      23.3   283.128     0.660     412.4   0.13743      13.7         H               193.4  0.062830  0.044048  0.000641  3.660233  0.894942  4.089912  1.154431     38.14    2.5509   12.0169   0.23904   4.17594   0.38409   0.03668  18.28868   2.75334    1742.0  0.546605  0.006284  0.000407  0.000170  0.195039  7.265756  0.689684    138.76  1.000041  1.000003     2.846    17.206      62.2      71.8      22.9     190.9     10.64     -2.58     -3.36      5.09     -4.03     -0.52     -0.50     -0.56      2.35      0.37      0.13     -1.55     -3.82     -3.14     -0.45     -1.52     -2.33      1.35     -0.34     -0.96
     -37.792622      -6.938430     140.6      0.25      1.63     126.7         3         3      3898      4186   1400.62    -8.537       3.9      23.8   280.212     0.652     143.6   0.13456      13.3         H               193.4  0.063540  0.041562  0.000658  3.683328  0.864690  4.259710  1.145092     30.09    2.3378   10.1956   0.23198   4.03366   0.40018   0.04151  15.66088   2.55346    1603.7  0.544886  0.002074  0.000117  0.000163  0.196178  7.233965  0.679755    132.00  1.000076  1.000005     2.829    17.326      60.3      70.0      19.7     182.2     10.82     -1.73     -2.71      4.75     -4.18     -0.08     -0.37     -1.26      2.12      0.39     -0.17     -1.71     -4.00     -3.04     -0.25     -1.45     -3.03      1.99     -0.76     -1.33
