corner points
-82.63481903    -47.69410324
-82.71309662    -47.51910782
-82.36206055    -47.63615799
-82.44134521    -47.46134949
========== RESULTS WAVE VERSION 16.10.2018 ====================
IMAGE SIZE  X: 5619     Y:4909    col:row     POLARIZATION:VV
COVERAGE    X: 21.36332578km       Y: 20.28079288km 
RESOLUTION dX: 3.801980028m       dY:4.13134913m  
resolution of original product 3.801980028m x 4.13134913m;   raster step x:5999.524484m  
===============================================================
FLAGS: H=HIGH PROBABILITY SEA STATE, I=LAND(ISLAND), O=OUTLIER NO SEA STATE, N=NO WIND AVAILABLE, SEA STATE NOT VISIBLE, M=MEAN PROBABILITY SEA STATE, L= LOW PROBABILITY SEA STATE
Filtering wave length
 integration  Lmin=1m
 integration  Lmax=2200m
  peak        Lmin=100m
               FFT=1024pixels, 3893.227549m 
   mean-Hs (SWH_c)=3.188887634m
         mean-wind=13.58024693m/s
--------------0--------------1---------2---------3---------4---------5---------6---------7---------8---------9--------10--------11--------12--------13--------14--------15--------16--------17--------18--------19------------------20--------21--------22--------23--------24--------25--------26--------27--------28--------29--------30--------31--------32--------33--------34--------35--------36--------37--------38--------39--------40--------41--------42--------43--------44--------45--------46--------47--------48--------49--------50--------51--------52--------53--------54--------55--------56--------57--------58--------59--------60--------61--------62--------63--------64--------65--------66--------67--------68--------69--------70--------71--------72--------73
            LAT            LON  P-LENGHT     SWH_o     SWH_c     P-DIR      LINE     POINT     ROW-Y     COL-X  M-INTENC        dB      WIND INC-ANGLE  ENERGY-M  ENERGY-N  ENERGY-R ENERGY-NN  FG-DEPTH      FLAG         HEADING-DEG    E30-75   E75-390  E390-600 meanincut   meanout   cut/out  STD-NORM  SPEC-MAX   GL-MEAN    GL-VAR      CORR   ENTROPY   HOMOGEN    ENERGY  CONTRAST  DISSIMIL     STD-O    E 1-30 E600-2000   E2000 >      GODA  LONG-HIG     Tmean  CONVOLUT  MEAN-DIR  relation     Sy/Sx  SKEWNESS  KURTOSIS  cutoff-A >50/10000     INT*V   INT-LOG  S-1_g1f1  S-2_g1f2  S-3_g1f3  S-4_g2f1  S-5_g2f2  S-6_g2f3  S-7_g3f1  S-8_g3f2  S-9_g3f3 S-10_g1f4 S-11_g2f4 S-12_g3f4 S-13_g1f5 S-14_g2f5 S-15_g3f5 S-16_g4f1 S-17_g4f2 S-18_g4f3 S-19_g4f4 S-20_g4f5
--------------1--------------2---------3---------4---------5---------6---------7---------8---------9--------10--------11--------12--------13--------14--------15--------16--------17--------18--------19--------20------------------21--------22--------23--------24--------25--------26--------27--------28--------29--------30--------31--------32--------33--------34--------35--------36--------37--------38--------39--------40--------41--------42--------43--------44--------45--------46--------47--------48--------49--------50--------51--------52--------53--------54--------55--------56--------57--------58--------59--------60--------61--------62--------63--------64--------65--------66--------67--------68--------69--------70--------71--------72--------73--------74
     -47.647900     -82.600868     239.8      3.18      4.46      99.8         1         1      1000      1000   4712.66    -3.267      12.5      22.6   293.942     0.911     267.0   0.25171      57.9         H               345.2  0.114452  0.100703  0.002486  7.345376  1.137364  6.458246  1.352731    149.02    8.7071  124.8125   0.31753   6.29600   0.18372   0.00511 170.36052   8.43672    6374.1  0.690719  0.003057  0.000215  0.000264  0.220693  7.377618  0.967637     95.02  1.000403  1.000061     4.254    39.125     148.0      90.7     288.2     903.7     14.77     -2.00     11.05      2.98     -0.60      5.84     -2.65      1.58     -3.72     -2.95     -0.40      1.59      5.86      3.19     -0.87     -4.49     -0.81      3.85      0.53      1.07
     -47.631474     -82.523369     237.1      3.00      4.46     103.0         1         2      1000      2578   4360.06    -3.605      12.6      23.1   294.973     0.912     224.2   0.25127      55.2         H               345.2  0.115081  0.096173  0.002308  7.324661  1.144167  6.401739  1.355683    182.81    8.0636  110.2859   0.31549   6.16083   0.19355   0.00586 150.98438   7.87539    5910.9  0.696547  0.002820  0.000104  0.000264  0.219950  7.347178  0.967706     99.26  1.000381  1.000056     4.393    43.378     142.7      89.9     245.9     920.0     14.74     -2.27     11.23      3.04     -0.35      5.63     -2.80      2.00     -3.70     -3.44     -0.17      2.35      5.68      3.28     -0.80     -3.79     -0.59      3.77      0.63      1.75
     -47.615307     -82.447395     233.8      3.24      4.46     106.0         1         3      1000      4156   4532.94    -3.436      14.4      23.5   288.547     0.878     194.2   0.23635      52.2         H               345.2  0.106738  0.092356  0.002554  7.086865  1.085112  6.531000  1.328300    170.47    8.3925  115.1158   0.30776   6.24286   0.18593   0.00529 159.37628   8.16710    6021.0  0.674949  0.002105  0.000087  0.000266  0.221505  7.366858  0.929943     99.37  1.000380  1.000056     4.194    39.724     148.0      90.5     258.3     918.6     15.27     -2.79     11.64      1.78     -0.28      4.51     -3.19      1.95     -4.78     -4.40      0.12      2.54      5.66      2.82     -1.72     -5.50     -0.33      3.36      0.75      1.97
     -47.596142     -82.624107     233.8      3.29      4.46     106.0         2         1      2452      1000   5157.02    -2.876      13.8      22.6   289.317     0.885     259.6   0.23830      52.2         H               345.2  0.105433  0.094075  0.003170  7.075912  1.102830  6.416142  1.333619    184.96    9.5419  141.5560   0.30838   6.46814   0.17001   0.00419 195.80872   9.17582    6876.6  0.679242  0.003401  0.000140  0.000265  0.222533  7.387581  0.937995    100.35  1.000363  1.000050     4.219    42.060     142.7      92.0     340.0    1047.2     14.89     -2.99     10.98      2.46     -0.53      5.55     -2.64      2.54     -4.60     -4.04     -0.57      2.66      5.43      2.87     -1.08     -5.75     -1.07      4.90      0.42      1.28
     -47.579731     -82.546692     233.8      3.16      4.46     106.0         2         2      2452      2578   4889.22    -3.108      14.3      23.1   283.415     0.856     214.9   0.22561      52.2         H               345.2  0.101827  0.087933  0.002528  6.752914  1.074813  6.282873  1.311146    150.01    9.0680  128.6743   0.30290   6.38736   0.17450   0.00450 179.39883   8.76518    6409.7  0.660856  0.002946  0.000101  0.000257  0.222591  7.388572  0.905642    100.47  1.000342  1.000045     4.013    35.850     137.8      91.6     297.4     892.8     14.88     -3.64     10.53      2.39     -0.06      5.19     -3.02      2.49     -4.27     -4.65     -0.59      3.37      4.63      2.77     -0.54     -5.13      0.93      4.42      0.43      1.46
     -47.563580     -82.470795     248.1      3.04      4.46     107.1         2         3      2452      4156   4328.61    -3.637      13.8      23.5   285.906     0.869     186.0   0.23208      68.6         H               345.2  0.105961  0.089312  0.002172  6.674073  1.092421  6.109435  1.320870    162.20    8.0260  106.5030   0.30634   6.16465   0.19231   0.00576 147.75494   7.84036    5717.6  0.669585  0.002231  0.000082  0.000259  0.223575  7.360538  0.919609    101.65  1.000387  1.000053     4.306    50.094     142.7      89.9     233.3     894.0     15.22     -4.21     11.24      1.97     -0.13      4.25     -3.65      2.92     -4.57     -5.89      0.15      3.52      4.72      2.60     -1.08     -4.89      0.16      2.71      1.71      1.53
     -47.544380     -82.647301     233.8      3.37      4.46     106.0         3         1      3904      1000   5222.94    -2.821      14.0      22.6   290.485     0.892     162.2   0.24204      52.2         H               345.2  0.108734  0.096977  0.002595  7.064929  1.106599  6.384364  1.339215    189.09    9.6576  143.5924   0.30826   6.49080   0.16776   0.00407 198.65775   9.26598    6993.5  0.682196  0.001667  0.000040  0.000273  0.223892  7.403624  0.945689    102.11  1.000382  1.000053     4.414    47.704     142.7      92.1     350.5    1063.9     15.12     -3.38     11.34      2.40     -0.81      5.23     -3.38      2.46     -4.85     -5.11     -1.05      3.40      5.74      2.82     -1.33     -4.93     -0.57      4.11      0.09      1.35
     -47.527985     -82.569969     248.1      3.42      4.46     107.1         3         2      3904      2578   4659.37    -3.317      13.6      23.1   287.860     0.875     162.0   0.23479      68.6         H               345.2  0.103813  0.098217  0.002336  6.963951  1.096006  6.353933  1.327094    213.29    8.6399  120.9536   0.30947   6.29283   0.18302   0.00508 167.04474   8.38412    6182.9  0.670049  0.001519  0.000041  0.000276  0.226873  7.435518  0.927662    104.14  1.000367  1.000051     4.095    37.761     142.7      90.7     273.8     923.4     15.28     -4.06     11.65      2.12     -0.17      4.63     -3.80      3.07     -4.64     -5.73     -0.20      3.71      4.86      2.90     -1.02     -4.57      0.00      2.77      1.12      1.67
     -47.511845     -82.494156     248.1      3.00      4.46     107.1         3         3      3904      4156   4127.13    -3.844      13.1      23.5   284.984     0.864     176.6   0.23016      68.6         H               345.2  0.103824  0.089996  0.002335  6.907766  1.066392  6.477699  1.317521    181.58    7.6491   98.9460   0.30795   6.07659   0.19939   0.00632 136.94806   7.49826    5437.5  0.666184  0.001884  0.000066  0.000266  0.222399  7.355714  0.914241    102.31  1.000357  1.000048     4.054    37.298     137.8      89.3     210.7     823.4     15.21     -4.00     11.19      1.64     -0.30      4.06     -3.39      2.87     -4.27     -5.58     -0.16      3.41      4.51      2.45     -0.61     -5.08     -0.45      3.01      0.92      2.01
