corner points
-84.36723328    -37.70759964
-84.42996216    -37.53623962
-84.14377594    -37.65461731
-84.20702362    -37.48337936
========== RESULTS WAVE VERSION 16.10.2018 ====================
IMAGE SIZE  X: 4444     Y:4777    col:row     POLARIZATION:VV
COVERAGE    X: 20.48026463km       Y: 19.79518948km 
RESOLUTION dX: 4.608520393m       dY:4.143853774m  
resolution of original product 4.608520393m x 4.143853774m;   raster step x:5995.685031m  
===============================================================
FLAGS: H=HIGH PROBABILITY SEA STATE, I=LAND(ISLAND), O=OUTLIER NO SEA STATE, N=NO WIND AVAILABLE, SEA STATE NOT VISIBLE, M=MEAN PROBABILITY SEA STATE, L= LOW PROBABILITY SEA STATE
Filtering wave length
 integration  Lmin=1m
 integration  Lmax=2200m
  peak        Lmin=100m
               FFT=1024pixels, 4719.124882m 
   mean-Hs (SWH_c)=1.097400665m
         mean-wind=6.057201862m/s
--------------0--------------1---------2---------3---------4---------5---------6---------7---------8---------9--------10--------11--------12--------13--------14--------15--------16--------17--------18--------19------------------20--------21--------22--------23--------24--------25--------26--------27--------28--------29--------30--------31--------32--------33--------34--------35--------36--------37--------38--------39--------40--------41--------42--------43--------44--------45--------46--------47--------48--------49--------50--------51--------52--------53--------54--------55--------56--------57--------58--------59--------60--------61--------62--------63--------64--------65--------66--------67--------68--------69--------70--------71--------72--------73
            LAT            LON  P-LENGHT     SWH_o     SWH_c     P-DIR      LINE     POINT     ROW-Y     COL-X  M-INTENC        dB      WIND INC-ANGLE  ENERGY-M  ENERGY-N  ENERGY-R ENERGY-NN  FG-DEPTH      FLAG         HEADING-DEG    E30-75   E75-390  E390-600 meanincut   meanout   cut/out  STD-NORM  SPEC-MAX   GL-MEAN    GL-VAR      CORR   ENTROPY   HOMOGEN    ENERGY  CONTRAST  DISSIMIL     STD-O    E 1-30 E600-2000   E2000 >      GODA  LONG-HIG     Tmean  CONVOLUT  MEAN-DIR  relation     Sy/Sx  SKEWNESS  KURTOSIS  cutoff-A >50/10000     INT*V   INT-LOG  S-1_g1f1  S-2_g1f2  S-3_g1f3  S-4_g2f1  S-5_g2f2  S-6_g2f3  S-7_g3f1  S-8_g3f2  S-9_g3f3 S-10_g1f4 S-11_g2f4 S-12_g3f4 S-13_g1f5 S-14_g2f5 S-15_g3f5 S-16_g4f1 S-17_g4f2 S-18_g4f3 S-19_g4f4 S-20_g4f5
--------------1--------------2---------3---------4---------5---------6---------7---------8---------9--------10--------11--------12--------13--------14--------15--------16--------17--------18--------19--------20------------------21--------22--------23--------24--------25--------26--------27--------28--------29--------30--------31--------32--------33--------34--------35--------36--------37--------38--------39--------40--------41--------42--------43--------44--------45--------46--------47--------48--------49--------50--------51--------52--------53--------54--------55--------56--------57--------58--------59--------60--------61--------62--------63--------64--------65--------66--------67--------68--------69--------70--------71--------72--------73--------74
     -37.659698     -84.329498     206.9      1.09      3.15     113.0         1         1      1000      1000    203.18   -16.921       6.0      36.1   280.070     0.612      70.0   0.08815      34.8         H               346.6  0.053126  0.038000  0.000942  3.035900  0.706403  4.297686  1.109555     55.33    3.5871   20.1855   0.13513   4.79122   0.29220   0.01791  34.91589   3.93961     225.4  0.519017  0.000788  0.000055  0.000179  0.215564  7.270350  0.622288    117.98  1.000206  1.000015     2.675    15.624     137.8      79.9      39.1     239.6     13.97     -9.02      4.64      2.05     -1.58      4.20     -2.25      4.53     -0.41     -5.49     -3.71      1.77     -4.10      1.67      3.83     -5.57      0.94      2.71     -1.40      2.81
     -37.644150     -84.263832     252.7      1.21      3.15     126.6         1         2      1000      2301    194.16   -17.118       6.0      36.5   279.065     0.609      65.7   0.08697      77.0         H               346.6  0.052834  0.039482  0.000848  3.175083  0.706686  4.492919  1.107257     67.68    3.4100   18.3536   0.13430   4.70296   0.30172   0.01944  31.77752   3.75681     215.0  0.515250  0.000667  0.000044  0.000178  0.219030  7.308400  0.620055    123.25  1.000210  1.000014     2.662    15.422     137.8      79.2      35.7     233.5     14.09     -9.90      4.59      1.89     -0.85      3.53     -3.10      5.41     -0.56     -5.40     -2.67      1.75     -5.26      1.77      4.80     -4.51      1.16      2.44     -0.91      2.67
     -37.628700     -84.198784     224.9      1.17      3.15     115.1         1         3      1000      3602    193.83   -17.126       6.2      36.8   278.765     0.608      75.2   0.08619      45.3         H               346.6  0.052269  0.038082  0.000887  3.000599  0.704916  4.256678  1.105869     70.95    3.4003   18.2608   0.13339   4.69800   0.30193   0.01958  31.65040   3.75357     214.4  0.515966  0.000781  0.000073  0.000183  0.219303  7.289327  0.618504    116.86  1.000197  1.000014     2.647    15.225     137.8      79.0      35.5     229.3     14.31     -9.87      5.22      1.82     -1.24      3.91     -3.08      5.14     -1.37     -6.69     -3.13      2.63     -4.39      1.74      3.99     -5.41      1.37      2.94     -0.64      3.08
     -37.607792     -84.348549     242.2      1.16      3.15     124.8         2         1      2447      1000    201.01   -16.968       5.9      36.1   278.110     0.605      70.7   0.08499      60.6         H               346.6  0.051456  0.038405  0.000813  2.843217  0.707923  4.016281  1.103155     81.46    3.5441   19.5610   0.13136   4.77127   0.29353   0.01817  33.98341   3.89740     221.8  0.513486  0.000812  0.000048  0.000189  0.222172  7.317121  0.615421    123.01  1.000215  1.000015     2.614    14.715     137.8      79.7      38.1     226.3     14.37    -10.56      4.62      1.35     -0.37      3.27     -3.76      6.20     -1.32     -5.99     -2.59      2.78     -5.79      1.58      4.94     -4.94      1.47      2.69     -0.98      2.71
     -37.592251     -84.282936     226.5      1.14      3.15     129.8         2         2      2447      2301    190.93   -17.191       5.9      36.5   279.381     0.607      68.5   0.08591      46.4         H               346.6  0.052186  0.038464  0.000818  2.892095  0.702764  4.115314  1.106035     64.12    3.3458   17.7053   0.13193   4.67020   0.30487   0.02003  30.73913   3.69646     211.1  0.515341  0.000770  0.000044  0.000185  0.220902  7.311077  0.618059    120.94  1.000223  1.000017     2.662    15.461     137.8      78.8      34.6     228.0     14.34    -10.59      4.97      1.72     -0.54      3.39     -3.59      5.57     -1.22     -5.98     -3.08      2.51     -5.44      1.71      4.44     -5.01      2.27      1.82     -1.06      2.61
     -37.576817     -84.217926     239.2      1.01      3.15     120.5         2         3      2447      3602    190.07   -17.211       6.1      36.8   277.103     0.600      63.3   0.08271      57.3         H               346.6  0.051043  0.035764  0.000859  2.851331  0.694983  4.102737  1.099068     59.61    3.3257   17.3429   0.12759   4.66107   0.30519   0.02008  30.26012   3.67688     208.9  0.512231  0.000616  0.000046  0.000167  0.216906  7.263583  0.610220    120.65  1.000187  1.000012     2.642    15.558     133.1      78.7      34.0     232.8     14.17     -9.55      4.27      1.50     -0.78      3.45     -3.07      5.25     -1.33     -5.63     -2.47      2.53     -5.01      1.32      3.98     -5.43      1.39      2.93     -0.60      2.55
     -37.555882     -84.367577     223.0      1.09      3.15     121.7         3         1      3894      1000    208.46   -16.810       6.1      36.1   279.648     0.609     119.7   0.08743      44.0         H               346.6  0.052161  0.037306  0.001022  2.910329  0.693270  4.197976  1.107775     71.56    3.6918   21.1811   0.13456   4.84232   0.28637   0.01697  36.66236   4.04069     230.9  0.517551  0.001520  0.000184  0.000179  0.219131  7.281496  0.619879    122.06  1.000226  1.000015     2.689    15.893     137.8      80.5      41.1     256.2     14.37    -10.44      3.96      0.66     -0.22      3.16     -2.84      5.35     -0.98     -5.15     -2.71      2.08     -5.94      1.56      4.73     -6.92      2.30      2.76     -1.29      3.02
     -37.540356     -84.302002     225.3      0.89      3.15     125.7         3         2      3894      2301    195.64   -17.085       6.1      36.5   275.896     0.595      62.2   0.08203      45.5         H               346.6  0.050080  0.033918  0.000785  2.760634  0.700683  3.939915  1.095062     64.01    3.4391   18.2389   0.12531   4.72056   0.29810   0.01887  31.90665   3.78776     214.2  0.510071  0.000643  0.000049  0.000167  0.215769  7.244761  0.604228    123.83  1.000201  1.000014     2.565    14.130     128.8      79.5      35.8     218.3     14.01     -9.77      3.99      1.67     -1.06      3.09     -2.96      5.18     -0.67     -5.39     -2.38      1.62     -5.69      1.03      4.51     -5.10      1.34      2.16     -0.23      2.24
     -37.524925     -84.237045     216.8      1.13      3.15     124.2         3         3      3894      3602    191.05   -17.189       6.2      36.8   277.586     0.601      66.5   0.08373      40.1         H               346.6  0.050154  0.036936  0.000849  2.855817  0.701119  4.073225  1.100120     77.72    3.3451   17.5554   0.12757   4.67101   0.30415   0.01992  30.63181   3.69880     210.2  0.513121  0.000610  0.000055  0.000184  0.222662  7.321529  0.611099    123.89  1.000200  1.000013     2.621    14.934     133.1      78.8      34.4     225.0     14.36    -10.39      4.34      1.18     -0.46      2.97     -3.49      6.03     -0.91     -6.07     -2.00      2.30     -6.04      1.74      4.95     -5.31      1.33      2.22      0.27      3.02
