corner points
-97.54211426    6.801609993
-97.57958221    6.98248291
-97.36052704    6.839430809
-97.39794159    7.020279408
========== RESULTS WAVE VERSION 16.10.2018 ====================
IMAGE SIZE  X: 5619     Y:4931    col:row     POLARIZATION:VV
COVERAGE    X: 20.43805755km       Y: 20.48518741km 
RESOLUTION dX: 3.637312253m       dY:4.154367756m  
resolution of original product 3.637312253m x 4.154367756m;   raster step x:5997.927906m  
===============================================================
FLAGS: H=HIGH PROBABILITY SEA STATE, I=LAND(ISLAND), O=OUTLIER NO SEA STATE, N=NO WIND AVAILABLE, SEA STATE NOT VISIBLE, M=MEAN PROBABILITY SEA STATE, L= LOW PROBABILITY SEA STATE
Filtering wave length
 integration  Lmin=1m
 integration  Lmax=2200m
  peak        Lmin=100m
               FFT=1024pixels, 3724.607747m 
   mean-Hs (SWH_c)=0.2m
         mean-wind=8.091976166m/s
--------------0--------------1---------2---------3---------4---------5---------6---------7---------8---------9--------10--------11--------12--------13--------14--------15--------16--------17--------18--------19------------------20--------21--------22--------23--------24--------25--------26--------27--------28--------29--------30--------31--------32--------33--------34--------35--------36--------37--------38--------39--------40--------41--------42--------43--------44--------45--------46--------47--------48--------49--------50--------51--------52--------53--------54--------55--------56--------57--------58--------59--------60--------61--------62--------63--------64--------65--------66--------67--------68--------69--------70--------71--------72--------73
            LAT            LON  P-LENGHT     SWH_o     SWH_c     P-DIR      LINE     POINT     ROW-Y     COL-X  M-INTENC        dB      WIND INC-ANGLE  ENERGY-M  ENERGY-N  ENERGY-R ENERGY-NN  FG-DEPTH      FLAG         HEADING-DEG    E30-75   E75-390  E390-600 meanincut   meanout   cut/out  STD-NORM  SPEC-MAX   GL-MEAN    GL-VAR      CORR   ENTROPY   HOMOGEN    ENERGY  CONTRAST  DISSIMIL     STD-O    E 1-30 E600-2000   E2000 >      GODA  LONG-HIG     Tmean  CONVOLUT  MEAN-DIR  relation     Sy/Sx  SKEWNESS  KURTOSIS  cutoff-A >50/10000     INT*V   INT-LOG  S-1_g1f1  S-2_g1f2  S-3_g1f3  S-4_g2f1  S-5_g2f2  S-6_g2f3  S-7_g3f1  S-8_g3f2  S-9_g3f3 S-10_g1f4 S-11_g2f4 S-12_g3f4 S-13_g1f5 S-14_g2f5 S-15_g3f5 S-16_g4f1 S-17_g4f2 S-18_g4f3 S-19_g4f4 S-20_g4f5
--------------1--------------2---------3---------4---------5---------6---------7---------8---------9--------10--------11--------12--------13--------14--------15--------16--------17--------18--------19--------20------------------21--------22--------23--------24--------25--------26--------27--------28--------29--------30--------31--------32--------33--------34--------35--------36--------37--------38--------39--------40--------41--------42--------43--------44--------45--------46--------47--------48--------49--------50--------51--------52--------53--------54--------55--------56--------57--------58--------59--------60--------61--------62--------63--------64--------65--------66--------67--------68--------69--------70--------71--------72--------73--------74
       6.845208     -97.516556     230.9      0.48      1.74     150.3         1         1      1000      1000   2649.53    -5.768       8.0      23.7   429.082     0.726      68.1   0.16658      49.7         H               348.0  0.090847  0.031689  0.000842  3.138053  0.900867  3.483368  1.207426     13.78    4.8022   39.5256   0.25836   5.27242   0.26059   0.01272  58.62807   4.91963    3199.0  0.602262  0.000904  0.000037  0.000221  0.160441  6.741731  0.761784     95.81  1.000181  1.000021     3.390    26.003      84.8      83.8      74.3     446.3     12.06      0.33     -1.95      1.61      0.06      1.78     -0.28      1.14      1.61      1.44      0.70     -0.82     -1.52     -0.62      0.72     -5.79     -1.37      2.77      1.00      0.44
       6.856428     -97.462700     244.4      0.48      1.74     156.8         1         2      1000      2649   2402.24    -6.194       8.0      24.2   428.383     0.726      60.1   0.16798      63.4         H               348.0  0.092492  0.031864  0.000737  3.228809  0.897766  3.596491  1.207613     13.47    4.3220   32.8624   0.25955   5.08196   0.28025   0.01541  48.66604   4.46380    2901.0  0.600526  0.000858  0.000018  0.000233  0.160140  6.735868  0.761417     97.44  1.000182  1.000023     3.381    25.742      84.8      81.9      61.1     395.8     11.88      0.65     -2.20      2.05     -0.17      2.37     -0.30      0.91      1.87      0.83      0.81     -0.35     -1.28     -0.49      0.47     -4.72     -1.78      3.58      1.01      0.47
       6.867439     -97.409805     249.7      0.49      1.74     176.2         1         3      1000      4298   2219.20    -6.538       8.2      24.7   426.648     0.717      70.3   0.16397      71.2         H               348.0  0.091947  0.029859  0.000673  3.079438  0.914504  3.367333  1.198465      9.86    3.9674   28.0215   0.25632   4.93089   0.29583   0.01781  41.67770   4.12902    2659.4  0.594401  0.001015  0.000039  0.000232  0.156097  6.695037  0.751698     94.38  1.000182  1.000021     3.248    22.570      84.8      80.4      51.9     352.5     11.77      1.31     -2.04      2.13     -0.45      1.77     -0.32      0.20      1.80      0.75      0.55     -0.09     -1.61     -0.45      0.80     -4.55     -1.96      2.57      0.40      0.63
       6.898184     -97.527534     244.4      0.48      1.74     156.8         2         1      2444      1000   2647.12    -5.772       8.0      23.7   426.858     0.715      88.9   0.16183      63.4         H               348.0  0.088838  0.030722  0.000724  3.053138  0.911880  3.348181  1.200420     14.36    4.7935   38.9737   0.25409   5.27144   0.26064   0.01270  58.14189   4.91283    3177.5  0.594256  0.001282  0.000073  0.000213  0.160230  6.737709  0.749372     95.88  1.000192  1.000022     3.328    25.172      78.1      83.8      73.3     432.0     11.96      0.83     -2.75      1.67     -0.31      1.50     -0.70      0.73      2.57      1.37      0.21     -0.57     -1.58     -0.64      0.71     -5.01     -2.12      1.88     -0.00      0.41
       6.909402     -97.473663     244.4      0.47      1.74     156.8         2         2      2444      2649   2372.19    -6.248       7.9      24.2   426.968     0.719      66.9   0.16490      63.4         H               348.0  0.091145  0.029901  0.000685  3.080265  0.903480  3.409333  1.202669     10.58    4.2668   31.8760   0.25579   5.06090   0.28207   0.01567  47.44485   4.41499    2852.9  0.596835  0.000890  0.000036  0.000225  0.155976  6.718321  0.752880     94.34  1.000200  1.000023     3.325    24.219      81.3      81.7      59.2     369.6     11.87      0.83     -1.85      2.08     -0.48      1.27     -0.52      0.41      1.46      0.73      0.50     -0.61     -2.09     -0.70      0.78     -4.82     -2.22      1.86      1.02      0.38
       6.920411     -97.420769     250.4      0.51      1.74     160.4         2         3      2444      4298   2274.62    -6.431       8.5      24.7   424.028     0.715      61.3   0.16323      72.4         H               348.0  0.091086  0.029667  0.000731  3.010607  0.881098  3.416883  1.199049     11.74    4.0554   29.0636   0.25616   4.97044   0.29134   0.01712  43.23770   4.21310    2727.3  0.592801  0.000822  0.000029  0.000233  0.157474  6.701495  0.749014     93.64  1.000205  1.000025     3.260    23.101      86.6      80.8      53.7     347.9     12.03      0.24     -1.87      1.93      0.05      1.99     -0.43      0.60      1.88      1.69      0.38     -0.51     -1.54     -0.74      0.86     -5.07     -1.09      2.46      0.08     -0.03
       6.951161     -97.538506     250.4      0.50      1.74     160.4         3         1      3888      1000   2714.72    -5.663       8.3      23.7   422.611     0.709      76.7   0.16056      72.4         H               348.0  0.088148  0.030377  0.000719  3.023340  0.911132  3.318225  1.194753     15.27    4.9217   40.5383   0.25321   5.32082   0.25514   0.01201  60.54676   5.03200    3243.5  0.589107  0.001038  0.000053  0.000205  0.162547  6.744553  0.742455     95.93  1.000180  1.000018     3.250    23.083      78.1      84.3      76.6     411.0     11.98      0.62     -2.13      1.90     -0.00      1.43     -0.60      0.37      2.41      1.93      0.26     -0.71     -1.69     -0.83      0.78     -4.92     -1.23      1.05     -0.45     -0.16
       6.962377     -97.484634     244.4      0.47      1.74     156.8         3         2      3888      2649   2363.66    -6.264       7.9      24.2   429.741     0.723      69.9   0.16525      63.4         H               348.0  0.090477  0.031079  0.000797  3.170053  0.921896  3.438625  1.205908     14.45    4.2430   31.6829   0.25628   5.05020   0.28303   0.01586  47.12598   4.39572    2850.2  0.600494  0.001004  0.000036  0.000218  0.158951  6.739617  0.758116     97.89  1.000201  1.000023     3.408    26.618      83.0      81.6      58.9     397.7     11.91      0.70     -2.18      1.76     -0.67      1.44     -0.33      0.67      2.13      1.38      0.00     -0.64     -1.71     -0.37      0.73     -5.35     -2.68      2.09     -0.21      0.89
       6.973383     -97.431732     217.7      0.48      1.74     166.5         3         3      3888      4298   2169.42    -6.637       8.0      24.7   428.092     0.721      66.6   0.16487      40.6         H               348.0  0.090061  0.030689  0.000817  3.119683  0.933926  3.340395  1.205297     10.35    3.8592   26.6595   0.25614   4.88202   0.30091   0.01867  39.66199   4.02662    2614.8  0.599555  0.000967  0.000028  0.000207  0.157480  6.742925  0.756313     96.49  1.000181  1.000020     3.499    30.757      81.3      79.9      49.5     398.4     11.95      1.58     -2.30      1.49     -1.11      1.27     -0.32      0.51      1.56      0.79      0.59     -0.46     -1.78      0.13      0.74     -6.03     -3.53      2.52      0.98      1.69
