corner points
-81.52126312    -44.60196686
-81.59805298    -44.4324379
-81.2743988    -44.54340744
-81.35189056    -44.37404251
========== RESULTS WAVE VERSION 16.10.2018 ====================
IMAGE SIZE  X: 4444     Y:4776    col:row     POLARIZATION:VV
COVERAGE    X: 20.56156207km       Y: 19.76615376km 
RESOLUTION dX: 4.626814146m       dY:4.138641909m  
resolution of original product 4.626814146m x 4.138641909m;   raster step x:5996.351134m  
===============================================================
FLAGS: H=HIGH PROBABILITY SEA STATE, I=LAND(ISLAND), O=OUTLIER NO SEA STATE, N=NO WIND AVAILABLE, SEA STATE NOT VISIBLE, M=MEAN PROBABILITY SEA STATE, L= LOW PROBABILITY SEA STATE
Filtering wave length
 integration  Lmin=1m
 integration  Lmax=2200m
  peak        Lmin=100m
               FFT=1024pixels, 4737.857686m 
   mean-Hs (SWH_c)=4.744693604m
         mean-wind=13.29938316m/s
--------------0--------------1---------2---------3---------4---------5---------6---------7---------8---------9--------10--------11--------12--------13--------14--------15--------16--------17--------18--------19------------------20--------21--------22--------23--------24--------25--------26--------27--------28--------29--------30--------31--------32--------33--------34--------35--------36--------37--------38--------39--------40--------41--------42--------43--------44--------45--------46--------47--------48--------49--------50--------51--------52--------53--------54--------55--------56--------57--------58--------59--------60--------61--------62--------63--------64--------65--------66--------67--------68--------69--------70--------71--------72--------73
            LAT            LON  P-LENGHT     SWH_o     SWH_c     P-DIR      LINE     POINT     ROW-Y     COL-X  M-INTENC        dB      WIND INC-ANGLE  ENERGY-M  ENERGY-N  ENERGY-R ENERGY-NN  FG-DEPTH      FLAG         HEADING-DEG    E30-75   E75-390  E390-600 meanincut   meanout   cut/out  STD-NORM  SPEC-MAX   GL-MEAN    GL-VAR      CORR   ENTROPY   HOMOGEN    ENERGY  CONTRAST  DISSIMIL     STD-O    E 1-30 E600-2000   E2000 >      GODA  LONG-HIG     Tmean  CONVOLUT  MEAN-DIR  relation     Sy/Sx  SKEWNESS  KURTOSIS  cutoff-A >50/10000     INT*V   INT-LOG  S-1_g1f1  S-2_g1f2  S-3_g1f3  S-4_g2f1  S-5_g2f2  S-6_g2f3  S-7_g3f1  S-8_g3f2  S-9_g3f3 S-10_g1f4 S-11_g2f4 S-12_g3f4 S-13_g1f5 S-14_g2f5 S-15_g3f5 S-16_g4f1 S-17_g4f2 S-18_g4f3 S-19_g4f4 S-20_g4f5
--------------1--------------2---------3---------4---------5---------6---------7---------8---------9--------10--------11--------12--------13--------14--------15--------16--------17--------18--------19--------20------------------21--------22--------23--------24--------25--------26--------27--------28--------29--------30--------31--------32--------33--------34--------35--------36--------37--------38--------39--------40--------41--------42--------43--------44--------45--------46--------47--------48--------49--------50--------51--------52--------53--------54--------55--------56--------57--------58--------59--------60--------61--------62--------63--------64--------65--------66--------67--------68--------69--------70--------71--------72--------73--------74
     -44.553185     -81.481148     251.4      4.51      4.40     107.3         1         1      1000      1000    603.98   -12.190      13.3      35.9   303.356     0.669     158.1   0.12184      74.2         H               345.7  0.057970  0.068750  0.001426  3.784884  0.797787  4.744229  1.160479    244.93   11.3550  162.4977   0.19059   6.85548   0.13098   0.00233 263.05457  11.19969     700.9  0.539821  0.001559  0.000170  0.000370  0.253088  7.733871  0.688176    108.75  1.000163  1.000020     2.851    16.885     190.7      95.0     393.3     782.6     16.16     -9.94     12.57      0.61      0.73      3.06     -5.23      5.49     -5.80    -11.59     -0.69      6.31      2.69      2.97      0.11     -5.14      2.35      1.88      1.09      2.33
     -44.536068     -81.408875     251.4      5.23      4.40     107.3         1         2      1000      2296    590.44   -12.288      13.5      36.3   307.555     0.688     173.1   0.13107      74.2         H               345.7  0.059165  0.079615  0.001614  3.830381  0.806206  4.751121  1.176580    402.25   11.0858  159.2067   0.20271   6.80597   0.13519   0.00252 253.86798  10.94402     694.7  0.546473  0.001475  0.000173  0.000501  0.263077  7.871845  0.710352    107.32  1.000178  1.000025     2.927    17.754     200.3      94.5     382.0     791.0     16.84    -10.27     14.14      0.01      0.62      2.17     -6.66      5.96     -7.82    -13.07     -0.22      7.30      4.16      2.35     -1.64     -5.40      1.90      1.20      1.91      1.85
     -44.519058     -81.337303     264.8      4.93      4.40     108.2         1         3      1000      3592    566.73   -12.466      13.4      36.7   305.661     0.680     192.5   0.12714     100.0         H               345.7  0.058591  0.074969  0.001682  3.967388  0.803792  4.935838  1.170084    290.66   10.6574  148.7408   0.19907   6.74063   0.13929   0.00271 238.26288  10.56497     663.1  0.543152  0.002067  0.000212  0.000409  0.261039  7.819425  0.701582    108.13  1.000184  1.000022     2.876    17.154     190.7      94.3     348.2     756.7     16.75    -10.24     13.32     -0.41      0.93      1.93     -5.91      5.58     -6.89    -12.45      0.06      6.75      2.99      2.01     -0.80     -6.50      2.65      0.96      2.03      1.56
     -44.501755     -81.504517     239.2      4.34      4.40     106.4         2         1      2449      1000    589.52   -12.295      13.1      35.9   298.352     0.657     137.8   0.11728      57.4         H               345.7  0.057000  0.066290  0.001222  3.939226  0.796266  4.947122  1.149513    258.52   11.1015  155.2640   0.18715   6.82092   0.13255   0.00241 252.41098  10.97277     677.6  0.531239  0.001213  0.000127  0.000377  0.251607  7.695580  0.675293    108.19  1.000164  1.000020     2.787    16.306     181.9      94.8     369.3     767.4     16.27     -9.69     12.62      0.65      0.32      2.86     -5.95      5.75     -6.69    -11.90     -0.77      6.95      2.68      2.70     -0.63     -4.97      1.75      1.57      1.33      2.38
     -44.484650     -81.432312     251.4      4.75      4.40     107.3         2         2      2449      2296    582.12   -12.350      13.4      36.3   305.795     0.675     294.9   0.12404      74.2         H               345.7  0.057142  0.071607  0.001553  3.756607  0.803315  4.676382  1.166892    271.12   10.9415  154.2618   0.19446   6.78831   0.13559   0.00253 248.52710  10.83258     679.2  0.541742  0.003088  0.000601  0.000403  0.258225  7.795493  0.695489    108.71  1.000129  1.000016     2.888    17.399     190.7      94.5     366.5     786.5     16.36    -10.46     12.53      0.51      0.35      2.95     -5.74      5.89     -6.42    -12.24     -1.06      6.46      1.97      2.77     -0.04     -5.92      2.30      1.49      1.92      2.34
     -44.467655     -81.360794     266.0      4.66      4.40     116.1         2         3      2449      3592    578.72   -12.375      13.6      36.7   302.485     0.667     213.4   0.12197     100.0         H               345.7  0.056946  0.069502  0.001362  3.748677  0.792536  4.729975  1.158892    219.81   10.8901  151.7265   0.19192   6.78383   0.13527   0.00253 245.21611  10.77947     670.7  0.536961  0.002373  0.000309  0.000352  0.255776  7.766871  0.686226    112.29  1.000191  1.000025     2.854    17.152     181.9      94.6     359.0     778.3     16.25     -9.93     12.45      0.36      0.67      2.59     -5.35      5.56     -5.70    -11.88     -0.15      6.07      2.02      2.50      0.83     -5.20      1.82      1.64      1.71      1.65
     -44.450317     -81.527847     246.6      5.16      4.40     110.4         3         1      3898      1000    607.21   -12.167      13.4      35.9   309.494     0.694     310.2   0.13228      66.4         H               345.7  0.059216  0.079030  0.001646  3.916691  0.818848  4.783171  1.182270    407.47   11.3846  166.5401   0.20439   6.84875   0.13242   0.00239 265.00067  11.20210     717.8  0.550388  0.003228  0.000575  0.000499  0.264681  7.859347  0.716684    108.82  1.000157  1.000020     2.973    18.324     200.3      94.8     407.0     831.6     16.91    -10.32     13.73     -0.23      1.00      2.17     -6.85      6.36     -7.90    -12.98     -0.04      8.10      3.43      2.34     -1.02     -5.62      2.03      1.66      1.08      1.78
     -44.433228     -81.455704     239.2      4.43      4.40     106.4         3         2      3898      2296    547.87   -12.613      12.9      36.3   300.572     0.662     189.2   0.12010      57.4         H               345.7  0.056363  0.068105  0.001506  3.825889  0.793548  4.821243  1.154596    253.22   10.3174  138.5095   0.18875   6.69139   0.14095   0.00280 224.72900  10.27291     632.5  0.534410  0.002070  0.000262  0.000389  0.254338  7.767879  0.680980    107.29  1.000166  1.000021     2.845    17.136     181.9      94.1     318.7     739.7     16.28     -9.28     12.95      0.98     -0.00      3.26     -5.76      5.60     -6.67    -11.64     -0.75      6.63      3.60      2.46     -0.83     -5.60      1.58      1.25      1.97      1.28
     -44.416248     -81.384247     264.8      4.70      4.40     108.2         3         3      3898      3592    548.90   -12.605      13.2      36.7   302.979     0.669     208.7   0.12200     100.0         H               345.7  0.056189  0.070860  0.001837  3.741447  0.791839  4.725011  1.160809    276.29   10.3355  140.2609   0.19303   6.69133   0.14190   0.00283 226.37006  10.28250     637.2  0.538286  0.002318  0.000291  0.000386  0.261225  7.815111  0.689116    108.69  1.000168  1.000021     2.828    16.489     190.7      94.1     322.3     713.6     16.58    -10.24     12.61     -0.34      1.08      2.55     -5.57      5.77     -6.80    -11.82     -0.36      6.72      2.87      2.14     -0.20     -6.93      2.58      2.17      1.27      0.83
