corner points
-87.7977066    -27.25443649
-87.84764862    -27.08116341
-87.59829712    -27.20740891
-87.64855957    -27.03421974
========== RESULTS WAVE VERSION 16.10.2018 ====================
IMAGE SIZE  X: 4444     Y:4782    col:row     POLARIZATION:VV
COVERAGE    X: 20.350169km       Y: 19.84567103km 
RESOLUTION dX: 4.57924595m       dY:4.150077589m  
resolution of original product 4.57924595m x 4.150077589m;   raster step x:5998.812195m  
===============================================================
FLAGS: H=HIGH PROBABILITY SEA STATE, I=LAND(ISLAND), O=OUTLIER NO SEA STATE, N=NO WIND AVAILABLE, SEA STATE NOT VISIBLE, M=MEAN PROBABILITY SEA STATE, L= LOW PROBABILITY SEA STATE
Filtering wave length
 integration  Lmin=1m
 integration  Lmax=2200m
  peak        Lmin=100m
               FFT=1024pixels, 4689.147853m 
   mean-Hs (SWH_c)=0.2549097061m
         mean-wind=5.777160645m/s
--------------0--------------1---------2---------3---------4---------5---------6---------7---------8---------9--------10--------11--------12--------13--------14--------15--------16--------17--------18--------19------------------20--------21--------22--------23--------24--------25--------26--------27--------28--------29--------30--------31--------32--------33--------34--------35--------36--------37--------38--------39--------40--------41--------42--------43--------44--------45--------46--------47--------48--------49--------50--------51--------52--------53--------54--------55--------56--------57--------58--------59--------60--------61--------62--------63--------64--------65--------66--------67--------68--------69--------70--------71--------72--------73
            LAT            LON  P-LENGHT     SWH_o     SWH_c     P-DIR      LINE     POINT     ROW-Y     COL-X  M-INTENC        dB      WIND INC-ANGLE  ENERGY-M  ENERGY-N  ENERGY-R ENERGY-NN  FG-DEPTH      FLAG         HEADING-DEG    E30-75   E75-390  E390-600 meanincut   meanout   cut/out  STD-NORM  SPEC-MAX   GL-MEAN    GL-VAR      CORR   ENTROPY   HOMOGEN    ENERGY  CONTRAST  DISSIMIL     STD-O    E 1-30 E600-2000   E2000 >      GODA  LONG-HIG     Tmean  CONVOLUT  MEAN-DIR  relation     Sy/Sx  SKEWNESS  KURTOSIS  cutoff-A >50/10000     INT*V   INT-LOG  S-1_g1f1  S-2_g1f2  S-3_g1f3  S-4_g2f1  S-5_g2f2  S-6_g2f3  S-7_g3f1  S-8_g3f2  S-9_g3f3 S-10_g1f4 S-11_g2f4 S-12_g3f4 S-13_g1f5 S-14_g2f5 S-15_g3f5 S-16_g4f1 S-17_g4f2 S-18_g4f3 S-19_g4f4 S-20_g4f5
--------------1--------------2---------3---------4---------5---------6---------7---------8---------9--------10--------11--------12--------13--------14--------15--------16--------17--------18--------19--------20------------------21--------22--------23--------24--------25--------26--------27--------28--------29--------30--------31--------32--------33--------34--------35--------36--------37--------38--------39--------40--------41--------42--------43--------44--------45--------46--------47--------48--------49--------50--------51--------52--------53--------54--------55--------56--------57--------58--------59--------60--------61--------62--------63--------64--------65--------66--------67--------68--------69--------70--------71--------72--------73--------74
     -27.207516     -87.762764     218.2      0.35      2.24     131.9         1         1      1000      1000    183.89   -17.354       5.6      36.4   250.461     0.559      43.7   0.06613      40.9         H               347.4  0.042811  0.023883  0.000517  1.904056  0.648189  2.937501  1.061471     47.86    3.2026   15.1485   0.09438   4.60308   0.30674   0.02037  27.43764   3.56209     195.2  0.492046  0.000421  0.000032  0.000145  0.218161  7.200933  0.565123    131.51  1.000082  1.000004     2.366    12.265      99.7      78.6      30.7     189.6     13.59    -10.86      0.31      1.04     -0.86      1.55     -3.50      5.60      0.14     -2.26     -1.61     -0.13     -7.47      0.09      4.28     -5.06      1.66      1.77     -0.30      2.13
     -27.193615     -87.703766     234.4      0.36      2.24     131.4         1         2      1000      2310    178.40   -17.486       5.7      36.7   250.151     0.559      47.0   0.06587      52.7         H               347.4  0.042045  0.025054  0.000485  1.802000  0.642884  2.802995  1.060310     66.20    3.0933   14.2150   0.09473   4.54298   0.31374   0.02165  25.73675   3.45321     189.1  0.491104  0.000432  0.000039  0.000179  0.225144  7.265322  0.564985    129.49  1.000054  1.000002     2.323    11.672     107.8      77.9      28.9     179.4     13.85    -11.95      0.26      0.91     -0.79      1.78     -4.27      6.77     -0.27     -2.99     -1.47      0.38     -8.94      0.24      5.46     -4.91      1.76      2.37      0.23      2.43
     -27.179811     -87.645302     224.9      0.36      2.24     137.8         1         3      1000      3620    173.06   -17.618       5.8      37.1   247.861     0.552      44.7   0.06344      45.2         H               347.4  0.041764  0.022524  0.000582  1.811003  0.645117  2.807248  1.054538     38.05    2.9870   13.2339   0.09087   4.48337   0.31952   0.02283  24.06269   3.34548     182.5  0.486972  0.000471  0.000032  0.000145  0.217341  7.183134  0.557683    134.11  1.000086  1.000004     2.313    11.808     102.3      77.1      27.2     176.6     13.68    -10.87      0.02      0.55     -0.79      1.52     -3.33      6.18     -0.12     -2.00     -1.15     -0.48     -7.58      0.15      4.72     -6.26      1.09      2.17      0.42      1.79
     -27.155153     -87.777885     203.7      0.35      2.24     136.0         2         1      2445      1000    184.61   -17.338       5.7      36.4   248.564     0.554      41.1   0.06472      33.2         H               347.4  0.042353  0.022915  0.000459  1.883765  0.635780  2.962919  1.056502     36.35    3.2171   15.1216   0.09278   4.61165   0.30547   0.02013  27.43715   3.57528     195.0  0.488105  0.000384  0.000030  0.000141  0.215702  7.180836  0.559625    134.97  1.000065  1.000003     2.292    11.292      97.3      78.7      30.7     173.4     13.35    -10.42     -0.61      1.10     -1.04      1.32     -3.25      5.42      0.50     -1.03     -1.34     -0.79     -7.39     -0.23      3.90     -5.17      1.70      1.71     -0.42      2.12
     -27.141258     -87.718910     233.9      0.36      2.24     135.7         2         2      2445      2310    178.13   -17.493       5.7      36.7   250.031     0.559      50.3   0.06545      52.3         H               347.4  0.042309  0.023775  0.000606  1.852742  0.648050  2.858950  1.060580     48.33    3.0878   14.1717   0.09425   4.53995   0.31388   0.02169  25.67208   3.44746     188.9  0.492040  0.000447  0.000052  0.000145  0.220653  7.204045  0.564978    134.29  1.000067  1.000003     2.353    12.323     102.3      77.9      28.8     190.9     13.79    -10.69     -0.38      0.30     -0.60      1.91     -3.36      5.91      0.18     -1.82     -1.17     -0.82     -7.30      0.44      4.29     -6.27      1.19      2.95      0.46      2.09
     -27.127462     -87.660477     262.4      0.37      2.24     137.8         2         3      2445      3620    176.42   -17.534       5.9      37.1   249.238     0.557      46.8   0.06551     121.3         H               347.4  0.041697  0.024355  0.000557  1.885957  0.644148  2.927831  1.059278     52.08    3.0536   13.8754   0.09454   4.52064   0.31593   0.02211  25.12727   3.41188     186.9  0.490322  0.000428  0.000036  0.000154  0.224536  7.236924  0.563069    134.84  1.000071  1.000003     2.336    11.887     105.0      77.5      28.3     178.0     13.98    -11.34      0.22      0.12     -0.06      1.89     -3.83      6.50     -0.18     -2.44     -1.28     -0.67     -7.62      1.01      4.54     -5.72      1.25      2.54      1.06      2.23
     -27.102789     -87.792992     242.2      0.36      2.24     137.8         3         1      3890      1000    188.21   -17.254       5.8      36.4   250.408     0.560      45.8   0.06674      60.7         H               347.4  0.043009  0.024888  0.000557  1.962956  0.649195  3.023679  1.062050     39.56    3.2895   15.8931   0.09626   4.64953   0.30228   0.01954  28.72661   3.64743     199.9  0.491482  0.000403  0.000031  0.000144  0.221989  7.218191  0.566223    136.88  1.000091  1.000005     2.347    12.026     105.0      79.1      32.1     190.5     13.84    -10.33     -0.73      0.11     -0.93      1.89     -3.35      5.59      0.76     -1.29     -1.36     -1.29     -7.49      0.52      3.98     -6.15      0.40      2.42      0.34      2.65
     -27.088902     -87.734055     233.9      0.36      2.24     135.7         3         2      3890      2310    179.87   -17.450       5.8      36.7   249.726     0.557      40.7   0.06530      52.3         H               347.4  0.042016  0.023794  0.000555  1.792888  0.640380  2.799724  1.058874     49.21    3.1223   14.4117   0.09315   4.55941   0.31127   0.02121  26.13850   3.48109     190.5  0.490922  0.000355  0.000018  0.000151  0.221855  7.211373  0.562988    136.56  1.000059  1.000002     2.356    12.361     102.3      78.1      29.4     191.3     14.05    -11.32     -0.42     -0.22      0.19      1.57     -3.98      6.42      0.45     -1.52     -1.31     -0.73     -7.79      1.00      4.84     -6.23      2.01      2.06      0.04      2.41
     -27.075113     -87.675636     243.3      0.37      2.24     133.4         3         3      3890      3620    175.37   -17.561       5.9      37.1   248.681     0.554      47.9   0.06414      62.0         H               347.4  0.041821  0.022758  0.000606  1.722191  0.651801  2.642205  1.056386     43.17    3.0326   13.6395   0.09139   4.50926   0.31700   0.02230  24.78595   3.39136     185.3  0.488746  0.000514  0.000035  0.000148  0.220789  7.185365  0.559729    132.30  1.000078  1.000003     2.313    11.577     102.3      77.5      27.9     173.3     14.02    -10.91      0.27     -0.21     -0.14      1.47     -3.63      6.31     -0.31     -2.61     -0.95      0.03     -7.62      0.77      4.56     -6.60      1.27      2.14      0.61      2.29
