corner points
-81.82176208    -49.41169357
-81.9050293    -49.23731613
-81.53968811    -49.35198975
-81.62404633    -49.17781448
========== RESULTS WAVE VERSION 16.10.2018 ====================
IMAGE SIZE  X: 5619     Y:4907    col:row     POLARIZATION:VV
COVERAGE    X: 21.4165244km       Y: 20.26406451km 
RESOLUTION dX: 3.81144766m       dY:4.129623906m  
resolution of original product 3.81144766m x 4.129623906m;   raster step x:5999.218616m  
===============================================================
FLAGS: H=HIGH PROBABILITY SEA STATE, I=LAND(ISLAND), O=OUTLIER NO SEA STATE, N=NO WIND AVAILABLE, SEA STATE NOT VISIBLE, M=MEAN PROBABILITY SEA STATE, L= LOW PROBABILITY SEA STATE
Filtering wave length
 integration  Lmin=1m
 integration  Lmax=2200m
  peak        Lmin=100m
               FFT=1024pixels, 3902.922404m 
   mean-Hs (SWH_c)=2.982564697m
         mean-wind=13.62674904m/s
--------------0--------------1---------2---------3---------4---------5---------6---------7---------8---------9--------10--------11--------12--------13--------14--------15--------16--------17--------18--------19------------------20--------21--------22--------23--------24--------25--------26--------27--------28--------29--------30--------31--------32--------33--------34--------35--------36--------37--------38--------39--------40--------41--------42--------43--------44--------45--------46--------47--------48--------49--------50--------51--------52--------53--------54--------55--------56--------57--------58--------59--------60--------61--------62--------63--------64--------65--------66--------67--------68--------69--------70--------71--------72--------73
            LAT            LON  P-LENGHT     SWH_o     SWH_c     P-DIR      LINE     POINT     ROW-Y     COL-X  M-INTENC        dB      WIND INC-ANGLE  ENERGY-M  ENERGY-N  ENERGY-R ENERGY-NN  FG-DEPTH      FLAG         HEADING-DEG    E30-75   E75-390  E390-600 meanincut   meanout   cut/out  STD-NORM  SPEC-MAX   GL-MEAN    GL-VAR      CORR   ENTROPY   HOMOGEN    ENERGY  CONTRAST  DISSIMIL     STD-O    E 1-30 E600-2000   E2000 >      GODA  LONG-HIG     Tmean  CONVOLUT  MEAN-DIR  relation     Sy/Sx  SKEWNESS  KURTOSIS  cutoff-A >50/10000     INT*V   INT-LOG  S-1_g1f1  S-2_g1f2  S-3_g1f3  S-4_g2f1  S-5_g2f2  S-6_g2f3  S-7_g3f1  S-8_g3f2  S-9_g3f3 S-10_g1f4 S-11_g2f4 S-12_g3f4 S-13_g1f5 S-14_g2f5 S-15_g3f5 S-16_g4f1 S-17_g4f2 S-18_g4f3 S-19_g4f4 S-20_g4f5
--------------1--------------2---------3---------4---------5---------6---------7---------8---------9--------10--------11--------12--------13--------14--------15--------16--------17--------18--------19--------20------------------21--------22--------23--------24--------25--------26--------27--------28--------29--------30--------31--------32--------33--------34--------35--------36--------37--------38--------39--------40--------41--------42--------43--------44--------45--------46--------47--------48--------49--------50--------51--------52--------53--------54--------55--------56--------57--------58--------59--------60--------61--------62--------63--------64--------65--------66--------67--------68--------69--------70--------71--------72--------73--------74
     -49.365284     -81.787132     204.5      3.11      4.21      95.5         1         1      1000      1000   5655.83    -2.475      15.1      22.5   267.826     0.835     147.8   0.21762      33.6         H               344.8  0.100755  0.082255  0.001876  6.558530  1.049215  6.250892  1.295473    119.34   10.4831  158.2068   0.29487   6.65099   0.15338   0.00325 223.11267   9.99235    7326.2  0.649498  0.001549  0.000061  0.000254  0.217988  7.345888  0.882285     98.28  1.000355  1.000048     3.903    33.256     137.8      93.4     396.3    1005.4     14.30     -1.59     10.08      4.12     -1.00      6.87     -2.22      0.94     -3.00     -2.87     -1.23      1.48      4.61      3.92     -0.11     -3.69     -0.27      4.60      0.34      2.11
     -49.348400     -81.707176     224.4      2.92      4.21     102.3         1         2      1000      2574   4672.84    -3.304      13.5      23.0   271.370     0.854     180.6   0.22683      44.9         H               344.8  0.104886  0.086347  0.002046  7.016209  1.067276  6.573943  1.310326    106.94    8.6802  119.1109   0.30055   6.31363   0.17938   0.00482 166.62541   8.41998    6122.4  0.659818  0.002059  0.000110  0.000241  0.214694  7.317398  0.903904     96.32  1.000363  1.000050     4.541    72.202     137.8      91.1     269.5     948.4     14.39     -1.33     10.19      3.51     -0.69      6.00     -2.01      1.07     -2.74     -2.76     -0.66      1.47      4.56      3.47     -0.42     -4.07     -0.69      3.54      0.44      2.08
     -49.331787     -81.628807     226.6      3.10      4.21      99.3         1         3      1000      4148   4302.04    -3.663      13.5      23.5   275.644     0.869     179.9   0.23231      46.4         H               344.8  0.105010  0.091471  0.002192  6.923347  1.080867  6.405363  1.321069    139.88    7.9738  105.2649   0.30560   6.15457   0.19244   0.00575 146.19095   7.79409    5683.2  0.669502  0.001991  0.000093  0.000256  0.222045  7.381486  0.919386     96.39  1.000396  1.000056     4.147    37.783     142.7      90.0     231.0     827.0     14.57     -1.18     10.77      3.45     -0.98      6.50     -2.31      1.30     -3.35     -2.84     -0.59      1.37      5.40      4.11     -0.56     -4.02     -1.54      4.41      0.77      2.56
     -49.313686     -81.811859     224.4      3.31      4.21     102.3         2         1      2452      1000   6217.83    -2.064      16.6      22.5   269.866     0.841     237.6   0.21860      44.9         H               344.8  0.101740  0.081704  0.001561  6.290311  1.056611  5.953287  1.300322    146.34   11.4722  181.0586   0.29378   6.80344   0.14384   0.00275 255.73340  10.81395    8085.0  0.653517  0.002944  0.000199  0.000268  0.216724  7.320253  0.888180     98.60  1.000382  1.000052     4.130    44.466     137.8      94.3     482.7    1135.9     14.39     -2.22     11.18      4.43     -1.19      6.37     -2.80      1.62     -3.28     -3.99     -1.59      2.37      5.59      4.29     -0.91     -2.91     -0.68      2.39     -0.02      2.17
     -49.296818     -81.732002     226.6      2.83      4.21      99.3         2         2      2452      2574   4740.77    -3.242      13.7      23.0   276.256     0.866     343.5   0.22985      46.4         H               344.8  0.106065  0.083656  0.002303  6.901355  1.094680  6.304450  1.319968     92.61    8.7773  122.1361   0.30244   6.32966   0.17863   0.00477 170.39436   8.51511    6257.0  0.670239  0.004483  0.000374  0.000239  0.211942  7.292702  0.915780     94.82  1.000356  1.000048     4.597    66.415     137.8      91.2     279.3     981.9     14.23     -1.01      9.48      3.33     -0.62      6.17     -1.46      0.73     -2.08     -1.57     -0.74      0.72      4.01      3.52      0.49     -4.62     -0.50      4.06      0.17      2.04
     -49.280224     -81.653709     221.6      2.71      4.21     105.2         2         3      2452      4148   3789.95    -4.214      11.7      23.5   280.233     0.897     216.4   0.24507      43.0         H               344.8  0.112898  0.091481  0.002305  7.333629  1.109140  6.611996  1.343760    128.15    6.9876   87.0357   0.31365   5.90420   0.21492   0.00767 119.47356   6.91169    5092.4  0.688884  0.002553  0.000104  0.000251  0.217864  7.316180  0.950335     96.71  1.000381  1.000056     4.418    46.811     142.7      87.9     180.7     818.2     14.73     -1.27     10.66      2.92     -0.26      5.61     -2.62      0.89     -3.62     -2.05     -0.79      1.68      5.11      3.02     -0.56     -4.52      0.05      3.81     -0.58      1.32
     -49.262085     -81.836533     215.7      3.20      4.21      95.9         3         1      3904      1000   6081.97    -2.160      16.3      22.5   265.929     0.819     252.3   0.20786      39.4         H               344.8  0.097213  0.078219  0.001836  6.289078  1.025028  6.135521  1.283718    119.76   11.2459  175.1506   0.29026   6.77400   0.14535   0.00283 248.62495  10.63985    7807.5  0.639042  0.003068  0.000207  0.000252  0.216829  7.308205  0.864371     96.89  1.000383  1.000049     3.757    30.714     137.8      94.2     453.5    1038.6     14.54     -1.44     10.55      3.67     -0.80      6.26     -2.72      0.95     -3.64     -2.67     -0.96      1.39      4.97      3.85     -0.57     -3.86     -0.23      4.10      0.30      2.04
     -49.245235     -81.756775     203.3      2.83      4.21      98.3         3         2      3904      2574   4426.02    -3.540      12.7      23.0   276.866     0.873     295.9   0.23295      33.0         H               344.8  0.107106  0.087932  0.002186  6.944101  1.073130  6.470888  1.325424     85.62    8.1938  111.1473   0.30831   6.19843   0.18994   0.00558 153.76025   7.99546    5865.9  0.672856  0.003728  0.000189  0.000246  0.213915  7.314780  0.923746     92.03  1.000364  1.000051     4.125    38.593     142.7      90.1     244.8     877.2     14.34      0.08     10.15      3.43     -1.10      6.14     -1.71      0.41     -2.54     -0.50     -0.67      0.32      4.40      3.57      0.39     -4.27     -1.48      4.15     -0.05      1.93
     -49.228657     -81.678574     228.2      2.83      4.21      96.2         3         3      3904      4148   3179.71    -4.976       9.5      23.5   302.313     1.006     198.6   0.29419      47.7         H               344.8  0.132617  0.111941  0.003327  8.311686  1.232315  6.744771  1.422372    159.39    5.8062   68.3619   0.33508   5.54051   0.25029   0.01158  90.91076   5.83263    4522.2  0.756839  0.002180  0.000063  0.000268  0.217624  7.323833  1.070044     91.64  1.000394  1.000066     5.471    90.275     148.0      84.4     136.7     810.0     14.89      0.17     10.79      2.47     -0.60      5.64     -2.37      0.27     -3.80      0.13     -0.82      0.20      5.60      3.36     -1.09     -5.69     -0.81      4.12     -0.63      2.15
