corner points
-91.88776398    -11.42673206
-91.92793274    -11.25189114
-91.70690155    -11.38559532
-91.74719238    -11.21080875
========== RESULTS WAVE VERSION 16.10.2018 ====================
IMAGE SIZE  X: 4444     Y:4787    col:row     POLARIZATION:VV
COVERAGE    X: 20.1909527km       Y: 19.88259172km 
RESOLUTION dX: 4.5434187m       dY:4.153455551m  
resolution of original product 4.5434187m x 4.153455551m;   raster step x:5997.312684m  
===============================================================
FLAGS: H=HIGH PROBABILITY SEA STATE, I=LAND(ISLAND), O=OUTLIER NO SEA STATE, N=NO WIND AVAILABLE, SEA STATE NOT VISIBLE, M=MEAN PROBABILITY SEA STATE, L= LOW PROBABILITY SEA STATE
Filtering wave length
 integration  Lmin=1m
 integration  Lmax=2200m
  peak        Lmin=100m
               FFT=1024pixels, 4652.460749m 
   mean-Hs (SWH_c)=0.2m
         mean-wind=8.036830902m/s
--------------0--------------1---------2---------3---------4---------5---------6---------7---------8---------9--------10--------11--------12--------13--------14--------15--------16--------17--------18--------19------------------20--------21--------22--------23--------24--------25--------26--------27--------28--------29--------30--------31--------32--------33--------34--------35--------36--------37--------38--------39--------40--------41--------42--------43--------44--------45--------46--------47--------48--------49--------50--------51--------52--------53--------54--------55--------56--------57--------58--------59--------60--------61--------62--------63--------64--------65--------66--------67--------68--------69--------70--------71--------72--------73
            LAT            LON  P-LENGHT     SWH_o     SWH_c     P-DIR      LINE     POINT     ROW-Y     COL-X  M-INTENC        dB      WIND INC-ANGLE  ENERGY-M  ENERGY-N  ENERGY-R ENERGY-NN  FG-DEPTH      FLAG         HEADING-DEG    E30-75   E75-390  E390-600 meanincut   meanout   cut/out  STD-NORM  SPEC-MAX   GL-MEAN    GL-VAR      CORR   ENTROPY   HOMOGEN    ENERGY  CONTRAST  DISSIMIL     STD-O    E 1-30 E600-2000   E2000 >      GODA  LONG-HIG     Tmean  CONVOLUT  MEAN-DIR  relation     Sy/Sx  SKEWNESS  KURTOSIS  cutoff-A >50/10000     INT*V   INT-LOG  S-1_g1f1  S-2_g1f2  S-3_g1f3  S-4_g2f1  S-5_g2f2  S-6_g2f3  S-7_g3f1  S-8_g3f2  S-9_g3f3 S-10_g1f4 S-11_g2f4 S-12_g3f4 S-13_g1f5 S-14_g2f5 S-15_g3f5 S-16_g4f1 S-17_g4f2 S-18_g4f3 S-19_g4f4 S-20_g4f5
--------------1--------------2---------3---------4---------5---------6---------7---------8---------9--------10--------11--------12--------13--------14--------15--------16--------17--------18--------19--------20------------------21--------22--------23--------24--------25--------26--------27--------28--------29--------30--------31--------32--------33--------34--------35--------36--------37--------38--------39--------40--------41--------42--------43--------44--------45--------46--------47--------48--------49--------50--------51--------52--------53--------54--------55--------56--------57--------58--------59--------60--------61--------62--------63--------64--------65--------66--------67--------68--------69--------70--------71--------72--------73--------74
     -11.380850     -91.854996     312.7      0.49      1.60      28.1         1         1      1000      1000    270.75   -15.674       8.1      36.7   224.928     0.547      80.1   0.06553     100.0         H               347.9  0.044594  0.011758  0.000565  1.058338  0.672195  1.574450  1.048886      6.31    4.9313   32.1023   0.09365   5.37274   0.22832   0.00935  58.19188   5.24958     284.0  0.488358  0.001430  0.000142  0.000103  0.163121  6.713885  0.550081     83.19  1.000102  1.000006     2.303    11.713      79.7      86.4      64.7     268.8     11.65     -0.56     -2.51     -0.01      0.86      0.75      1.99     -0.25      0.23     -0.02      0.61      0.10     -1.73      0.97      0.66    -10.08      3.08      2.57      0.82      2.41
     -11.368591     -91.801071     293.5      0.48      1.60      26.2         1         2      1000      2320    256.98   -15.901       8.1      37.1   223.861     0.545      77.9   0.06523     100.0         H               347.9  0.044220  0.012008  0.000636  1.063417  0.660135  1.610909  1.047724      6.87    4.6562   28.8541   0.09348   5.26870   0.23740   0.01037  52.31414   4.98118     269.2  0.486817  0.001383  0.000140  0.000101  0.165242  6.723414  0.548533     83.46  1.000126  1.000009     2.300    11.850      83.0      85.3      58.1     271.8     11.78     -0.78     -2.68     -0.41      1.18      1.02      2.30     -0.61      0.54     -0.19      0.61      0.36     -1.55      0.92      0.52    -11.25      4.33      2.64      0.58      2.67
     -11.356429     -91.747620     312.7      0.47      1.60      28.1         1         3      1000      3640    232.07   -16.344       7.7      37.5   224.607     0.543      53.9   0.06387     100.0         H               347.9  0.043749  0.012045  0.000644  1.056365  0.659544  1.601660  1.045780      9.30    4.1607   23.4521   0.08947   5.06676   0.25666   0.01261  42.70782   4.49461     242.7  0.485984  0.001062  0.000066  0.000102  0.166998  6.731315  0.546431     82.49  1.000117  1.000007     2.283    11.519      81.3      83.8      47.4     236.1     12.10     -0.90     -2.70     -1.02      0.68      0.51      2.07     -0.09      0.85     -0.55      1.12     -0.38     -1.54      0.43      0.84    -12.42      3.25      0.99      2.21      1.00
     -11.328102     -91.867119     275.5      0.50      1.60      13.7         2         1      2444      1000    280.59   -15.519       8.3      36.7   223.903     0.542      59.1   0.06406     100.0         H               347.9  0.043316  0.011802  0.000575  1.041362  0.662222  1.572526  1.044822      5.10    5.1268   34.1998   0.09026   5.44421   0.22145   0.00867  62.22614   5.44562     293.1  0.485745  0.001078  0.000091  0.000100  0.165258  6.736494  0.545478     82.82  1.000110  1.000007     2.272    11.431      76.6      86.9      69.0     287.0     11.59     -1.06     -2.73      0.27      1.08      0.58      1.81     -0.74      0.47      0.25      0.24      0.05     -1.40      0.64      0.29    -10.05      4.27      1.97     -0.29      2.47
     -11.315848     -91.813217     301.4      0.49      1.60      22.9         2         2      2444      2320    259.93   -15.851       8.1      37.1   224.790     0.546      98.4   0.06557     100.0         H               347.9  0.044176  0.012315  0.000577  1.084185  0.665411  1.629346  1.049376      8.03    4.7151   29.6138   0.09374   5.29119   0.23549   0.01017  53.67559   5.04467     272.8  0.487946  0.001590  0.000211  0.000101  0.168400  6.739539  0.550198     82.89  1.000128  1.000008     2.290    11.621      81.3      85.5      59.5     268.2     11.88     -0.68     -2.63     -0.09      0.65      0.27      1.18      0.04      0.80     -0.20      0.84     -0.03     -1.53      0.25      1.16     -9.94      2.46      0.80      0.75      0.55
     -11.303692     -91.759773     217.0      0.47      1.60     135.6         2         3      2444      3640    233.36   -16.320       7.8      37.5   224.882     0.546      55.6   0.06501      40.2         H               347.9  0.044365  0.012345  0.000623  1.092707  0.663074  1.647941  1.048223      6.09    4.1863   23.8183   0.09222   5.07721   0.25619   0.01254  43.24362   4.51948     244.6  0.487576  0.001003  0.000075  0.000101  0.168239  6.744474  0.549151     83.51  1.000111  1.000008     2.286    11.515      79.7      83.9      48.1     234.8     12.17     -1.43     -2.54     -0.66      1.02      0.61      1.28     -0.11      0.64      0.29      0.22     -0.02     -1.50      0.69      0.80    -11.02      3.64      1.74      0.12      1.98
     -11.275352     -91.879250     302.7      0.48      1.60      31.4         3         1      3888      1000    270.16   -15.684       8.1      36.7   223.502     0.542      89.9   0.06416     100.0         H               347.9  0.043626  0.011567  0.000531  1.024014  0.658153  1.555890  1.044695      6.78    4.9192   31.7089   0.09111   5.36890   0.22812   0.00935  57.63981   5.23964     282.3  0.484894  0.001464  0.000198  0.000103  0.163917  6.714676  0.545375     82.31  1.000104  1.000007     2.254    11.223      81.3      86.4      64.1     274.3     11.75     -0.94     -2.97     -0.17      0.86      0.66      1.60     -0.40     -0.05      0.10      0.51      0.19     -2.04      1.20      0.83    -10.18      3.47      3.11      0.26      2.78
     -11.263104     -91.825348     308.6      0.49      1.60      19.4         3         2      3888      2320    259.35   -15.861       8.1      37.1   224.580     0.545      84.3   0.06536     100.0         H               347.9  0.044161  0.012157  0.000567  1.077183  0.655656  1.642909  1.048063      8.56    4.7039   29.4335   0.09258   5.28715   0.23573   0.01019  53.41690   5.03056     271.8  0.487047  0.001340  0.000168  0.000105  0.166200  6.726504  0.548510     81.90  1.000115  1.000007     2.282    11.373      83.0      85.5      59.2     246.5     12.02     -0.62     -2.91     -0.55      0.51      1.26      1.66     -0.31      0.24     -0.11      0.52      0.36     -1.83      0.83      0.68    -10.79      2.64      3.24     -0.40      2.10
     -11.250952     -91.771919     301.4      0.48      1.60      22.9         3         3      3888      3640    239.22   -16.212       7.9      37.5   224.664     0.546      92.5   0.06565     100.0         H               347.9  0.044348  0.012445  0.000623  1.095698  0.664887  1.647945  1.048759      6.91    4.3034   25.0538   0.09310   5.12660   0.25173   0.01197  45.44270   4.63321     250.9  0.487077  0.001533  0.000192  0.000102  0.166984  6.741714  0.549395     83.46  1.000114  1.000008     2.275    11.348      83.0      84.2      50.4     233.5     11.90     -1.01     -2.46     -0.40      1.04      0.34      1.76     -0.08      0.74      0.09      0.48      0.15     -1.38      0.52      0.77    -10.85      3.35      0.85     -0.03      1.29
