corner points
-93.75379944    -10.91807652
-93.79351807    -10.7375021
-93.56892395    -10.87724209
-93.60881805    -10.69671726
========== RESULTS WAVE VERSION 16.10.2018 ====================
IMAGE SIZE  X: 5619     Y:4930    col:row     POLARIZATION:VV
COVERAGE    X: 20.64056072km       Y: 20.49565339km 
RESOLUTION dX: 3.673351258m       dY:4.157333345m  
resolution of original product 3.673351258m x 4.157333345m;   raster step x:5998.582604m  
===============================================================
FLAGS: H=HIGH PROBABILITY SEA STATE, I=LAND(ISLAND), O=OUTLIER NO SEA STATE, N=NO WIND AVAILABLE, SEA STATE NOT VISIBLE, M=MEAN PROBABILITY SEA STATE, L= LOW PROBABILITY SEA STATE
Filtering wave length
 integration  Lmin=1m
 integration  Lmax=2200m
  peak        Lmin=100m
               FFT=1024pixels, 3761.511688m 
   mean-Hs (SWH_c)=0.2m
         mean-wind=6.911934376m/s
--------------0--------------1---------2---------3---------4---------5---------6---------7---------8---------9--------10--------11--------12--------13--------14--------15--------16--------17--------18--------19------------------20--------21--------22--------23--------24--------25--------26--------27--------28--------29--------30--------31--------32--------33--------34--------35--------36--------37--------38--------39--------40--------41--------42--------43--------44--------45--------46--------47--------48--------49--------50--------51--------52--------53--------54--------55--------56--------57--------58--------59--------60--------61--------62--------63--------64--------65--------66--------67--------68--------69--------70--------71--------72--------73
            LAT            LON  P-LENGHT     SWH_o     SWH_c     P-DIR      LINE     POINT     ROW-Y     COL-X  M-INTENC        dB      WIND INC-ANGLE  ENERGY-M  ENERGY-N  ENERGY-R ENERGY-NN  FG-DEPTH      FLAG         HEADING-DEG    E30-75   E75-390  E390-600 meanincut   meanout   cut/out  STD-NORM  SPEC-MAX   GL-MEAN    GL-VAR      CORR   ENTROPY   HOMOGEN    ENERGY  CONTRAST  DISSIMIL     STD-O    E 1-30 E600-2000   E2000 >      GODA  LONG-HIG     Tmean  CONVOLUT  MEAN-DIR  relation     Sy/Sx  SKEWNESS  KURTOSIS  cutoff-A >50/10000     INT*V   INT-LOG  S-1_g1f1  S-2_g1f2  S-3_g1f3  S-4_g2f1  S-5_g2f2  S-6_g2f3  S-7_g3f1  S-8_g3f2  S-9_g3f3 S-10_g1f4 S-11_g2f4 S-12_g3f4 S-13_g1f5 S-14_g2f5 S-15_g3f5 S-16_g4f1 S-17_g4f2 S-18_g4f3 S-19_g4f4 S-20_g4f5
--------------1--------------2---------3---------4---------5---------6---------7---------8---------9--------10--------11--------12--------13--------14--------15--------16--------17--------18--------19--------20------------------21--------22--------23--------24--------25--------26--------27--------28--------29--------30--------31--------32--------33--------34--------35--------36--------37--------38--------39--------40--------41--------42--------43--------44--------45--------46--------47--------48--------49--------50--------51--------52--------53--------54--------55--------56--------57--------58--------59--------60--------61--------62--------63--------64--------65--------66--------67--------68--------69--------70--------71--------72--------73--------74
     -10.873992     -93.728088     257.8      0.44      1.72     141.9         1         1      1000      1000   2586.77    -5.872       7.3      23.5   379.737     0.676      83.8   0.14640      90.9         H               347.9  0.074926  0.024685  0.000894  2.211429  0.879751  2.513699  1.165939     10.09    4.6886   35.7197   0.23790   5.24233   0.25970   0.01258  54.44369   4.81558    3016.0  0.574952  0.001328  0.000055  0.000161  0.169576  6.773263  0.705719     85.58  1.000199  1.000019     3.071    21.207      73.8      84.0      67.6     392.6     11.90     -0.57     -3.31      0.55      0.93      1.19      0.44      0.14      1.67      0.67      0.64     -0.34     -1.40      0.02      0.56     -7.80      2.21      2.62      0.79      1.02
     -10.862003     -93.673775     281.9      0.43      1.72      22.0         1         2      1000      2633   2258.50    -6.462       7.0      24.0   380.196     0.675      64.0   0.14597     100.0         H               347.9  0.074629  0.024562  0.000929  2.243868  0.881555  2.545351  1.165053     12.22    4.0332   27.2516   0.23606   4.97262   0.28703   0.01638  41.63729   4.19625    2631.2  0.574855  0.000945  0.000036  0.000158  0.167426  6.775589  0.704113     84.69  1.000189  1.000019     3.100    21.121      72.4      81.3      51.3     316.0     12.09     -1.06     -3.23      0.28      1.24      1.34      0.23     -0.13      1.40      0.82      0.23     -0.06     -0.85      0.27      0.10     -8.31      3.44      3.16     -0.48      1.36
     -10.850224     -93.620468     296.1      0.42      1.72      33.4         1         3      1000      4266   2027.42    -6.931       6.9      24.4   379.006     0.674      66.9   0.14562     100.0         H               347.9  0.074200  0.025116  0.000955  2.323270  0.897423  2.588825  1.163773     13.88    3.5724   21.9962   0.23650   4.75761   0.31051   0.02025  33.58815   3.75549    2359.4  0.572990  0.001078  0.000026  0.000160  0.167751  6.784750  0.702888     84.06  1.000176  1.000017     3.043    19.938      72.4      79.1      41.2     280.6     11.95     -0.39     -2.94      0.70      0.73      1.55      0.55     -0.22      1.15      0.12      0.76      0.25     -1.82     -0.14      0.39     -7.81      2.88      3.53      0.12      1.21
     -10.821131     -93.739731     281.9      0.43      1.72      22.0         2         1      2443      1000   2550.16    -5.934       7.1      23.5   376.909     0.668      91.4   0.14366     100.0         H               347.9  0.072561  0.024696  0.000987  2.153271  0.879212  2.449093  1.159315     14.85    4.6097   34.2757   0.23527   5.21334   0.26248   0.01290  52.42377   4.73653    2956.4  0.569093  0.001373  0.000079  0.000153  0.172396  6.805028  0.697024     82.38  1.000172  1.000015     3.009    19.891      71.1      83.7      65.0     369.0     12.30     -0.82     -4.04     -0.30      0.68      1.55      0.09      0.20      1.52      0.87      0.40     -0.40     -1.29      0.10      0.39     -9.03      2.41      3.79     -0.18      1.06
     -10.809146     -93.685432     276.8      0.42      1.72      12.8         2         2      2443      2633   2229.69    -6.518       6.9      24.0   379.076     0.676      69.9   0.14719     100.0         H               347.9  0.074551  0.024655  0.000876  2.327424  0.867704  2.682279  1.165269      8.56    3.9786   26.6340   0.23846   4.94785   0.28974   0.01680  40.56508   4.13870    2598.0  0.575192  0.001184  0.000036  0.000164  0.166568  6.770458  0.705015     82.96  1.000182  1.000019     3.083    20.672      72.4      81.1      50.0     305.1     11.82     -1.08     -2.73      0.93      0.80      1.05      0.56      0.32      1.74      0.67      0.22     -0.15     -1.14     -0.30      0.61     -7.42      2.79      2.20     -0.38      0.21
     -10.797371     -93.632133     289.3      0.42      1.72      17.9         2         3      2443      4266   2045.57    -6.892       6.9      24.4   380.253     0.676      69.1   0.14604     100.0         H               347.9  0.074255  0.025319  0.001100  2.349932  0.887309  2.648381  1.166154     12.07    3.6066   22.3813   0.23643   4.77422   0.30862   0.01994  34.17950   3.78567    2385.4  0.574498  0.001071  0.000033  0.000159  0.170208  6.786391  0.704600     82.82  1.000183  1.000019     3.119    21.809      72.4      79.3      42.1     305.0     12.37     -0.87     -2.47     -0.13      0.69      1.11      0.71      0.05      1.70      0.57      0.13      0.16     -1.49     -0.25      0.79     -9.51      2.47      1.97     -0.61      0.06
     -10.768269     -93.751366     207.6      0.42      1.72     167.2         3         1      3886      1000   2469.18    -6.074       6.8      23.5   373.336     0.654      85.1   0.13628      35.1         H               347.9  0.068308  0.023528  0.000922  2.102703  0.849186  2.476140  1.145297     10.79    4.4485   31.5003   0.22723   5.15338   0.26703   0.01348  48.68419   4.58518    2827.9  0.559984  0.001371  0.000071  0.000146  0.171408  6.809602  0.680501     81.26  1.000146  1.000013     2.921    18.520      64.2      83.3      59.9     330.6     11.95     -1.14     -3.48      0.56      1.09      1.15      0.30      0.17      1.71      1.18     -0.24     -0.31     -0.87      0.01      0.15     -8.00      2.82      3.17     -1.37      0.88
     -10.756288     -93.697083     308.8      0.41      1.72      29.5         3         2      3886      2633   2182.29    -6.611       6.7      24.0   379.154     0.673      61.4   0.14483     100.0         H               347.9  0.073251  0.025894  0.000984  2.371826  0.893979  2.653112  1.162518     12.33    3.8804   25.4226   0.23539   4.90413   0.29432   0.01755  38.87677   4.05045    2536.9  0.572616  0.000971  0.000023  0.000155  0.168896  6.807245  0.702156     80.88  1.000169  1.000016     3.043    20.176      68.7      80.6      47.7     307.2     12.00      0.33     -3.45      0.39      0.74      1.34      0.54     -0.08      1.35      0.23      0.46     -0.14     -1.80      0.32      0.18     -8.38      1.89      3.59      0.46      1.89
     -10.744516     -93.643799     370.5      0.41      1.72     150.5         3         3      3886      4266   1966.13    -7.064       6.6      24.4   379.360     0.671      62.7   0.14357     100.0         H               347.9  0.072417  0.024477  0.001216  2.175471  0.884282  2.460156  1.160185     16.01    3.4544   20.5926   0.23300   4.69990   0.31666   0.02138  31.58901   3.64426    2280.9  0.572595  0.000968  0.000025  0.000162  0.171868  6.789676  0.699446     82.51  1.000170  1.000016     3.044    20.324      71.1      78.5      38.8     299.1     12.57     -1.56     -3.24     -0.86      1.77      1.87      0.88     -0.13      1.28      0.50     -0.06      0.47     -2.07      0.97     -0.10    -11.01      5.01      4.00     -1.14      3.22
