corner points
-91.24176025    -21.51342773
-91.28570557    -21.33369255
-91.04588318    -21.46990395
-91.09016418    -21.29023743
========== RESULTS WAVE VERSION 16.10.2018 ====================
IMAGE SIZE  X: 5618     Y:4924    col:row     POLARIZATION:VV
COVERAGE    X: 20.78374181km       Y: 20.45124316km 
RESOLUTION dX: 3.699491244m       dY:4.153380009m  
resolution of original product 3.699491244m x 4.153380009m;   raster step x:5996.875306m  
===============================================================
FLAGS: H=HIGH PROBABILITY SEA STATE, I=LAND(ISLAND), O=OUTLIER NO SEA STATE, N=NO WIND AVAILABLE, SEA STATE NOT VISIBLE, M=MEAN PROBABILITY SEA STATE, L= LOW PROBABILITY SEA STATE
Filtering wave length
 integration  Lmin=1m
 integration  Lmax=2200m
  peak        Lmin=100m
               FFT=1024pixels, 3788.279033m 
   mean-Hs (SWH_c)=0.7885451508m
         mean-wind=8.728600502m/s
--------------0--------------1---------2---------3---------4---------5---------6---------7---------8---------9--------10--------11--------12--------13--------14--------15--------16--------17--------18--------19------------------20--------21--------22--------23--------24--------25--------26--------27--------28--------29--------30--------31--------32--------33--------34--------35--------36--------37--------38--------39--------40--------41--------42--------43--------44--------45--------46--------47--------48--------49--------50--------51--------52--------53--------54--------55--------56--------57--------58--------59--------60--------61--------62--------63--------64--------65--------66--------67--------68--------69--------70--------71--------72--------73
            LAT            LON  P-LENGHT     SWH_o     SWH_c     P-DIR      LINE     POINT     ROW-Y     COL-X  M-INTENC        dB      WIND INC-ANGLE  ENERGY-M  ENERGY-N  ENERGY-R ENERGY-NN  FG-DEPTH      FLAG         HEADING-DEG    E30-75   E75-390  E390-600 meanincut   meanout   cut/out  STD-NORM  SPEC-MAX   GL-MEAN    GL-VAR      CORR   ENTROPY   HOMOGEN    ENERGY  CONTRAST  DISSIMIL     STD-O    E 1-30 E600-2000   E2000 >      GODA  LONG-HIG     Tmean  CONVOLUT  MEAN-DIR  relation     Sy/Sx  SKEWNESS  KURTOSIS  cutoff-A >50/10000     INT*V   INT-LOG  S-1_g1f1  S-2_g1f2  S-3_g1f3  S-4_g2f1  S-5_g2f2  S-6_g2f3  S-7_g3f1  S-8_g3f2  S-9_g3f3 S-10_g1f4 S-11_g2f4 S-12_g3f4 S-13_g1f5 S-14_g2f5 S-15_g3f5 S-16_g4f1 S-17_g4f2 S-18_g4f3 S-19_g4f4 S-20_g4f5
--------------1--------------2---------3---------4---------5---------6---------7---------8---------9--------10--------11--------12--------13--------14--------15--------16--------17--------18--------19--------20------------------21--------22--------23--------24--------25--------26--------27--------28--------29--------30--------31--------32--------33--------34--------35--------36--------37--------38--------39--------40--------41--------42--------43--------44--------45--------46--------47--------48--------49--------50--------51--------52--------53--------54--------55--------56--------57--------58--------59--------60--------61--------62--------63--------64--------65--------66--------67--------68--------69--------70--------71--------72--------73--------74
     -21.468983     -91.214890     283.7      0.86      2.61     143.2         1         1      1000      1000   3253.21    -4.877       9.3      23.3   386.255     0.791      91.4   0.19648     100.0         H               347.7  0.102780  0.048924  0.001220  4.553834  0.964970  4.719148  1.260593     77.07    5.9906   62.5063   0.28232   5.65215   0.23174   0.00938  89.71870   6.03400    4101.0  0.637765  0.001074  0.000033  0.000255  0.177629  6.892313  0.834478     86.96  1.000232  1.000032     3.594    27.969      99.7      86.2     120.6     569.0     13.98     -7.37     -2.28     -1.61      3.00      3.26     -1.98      3.55      1.15      2.19     -1.70     -0.85     -5.49      1.64      2.85     -8.92      5.84      4.97     -1.55      3.44
     -21.456299     -91.157753     269.2      0.80      2.61     145.4         1         2      1000      2621   2891.58    -5.389       9.1      23.8   382.209     0.773      99.9   0.18847     100.0         H               347.7  0.096637  0.047694  0.001291  4.156073  0.978642  4.246777  1.245836     81.06    5.2845   49.0961   0.27565   5.43070   0.25120   0.01151  71.12495   5.36499    3602.4  0.627089  0.001192  0.000042  0.000236  0.181952  6.933030  0.814765     91.48  1.000209  1.000026     3.714    35.423      97.3      84.6      93.1     574.7     14.01     -7.88     -2.75     -1.64      3.06      2.78     -2.64      4.02      1.71      2.78     -1.31     -1.63     -5.80      1.66      3.68     -8.54      5.41      4.49     -1.22      2.98
     -21.443830     -91.101685     269.2      0.79      2.61     145.4         1         3      1000      4242   2549.13    -5.936       8.7      24.2   378.302     0.757     109.2   0.18048     100.0         H               347.7  0.092407  0.048158  0.001177  4.041102  0.940536  4.296596  1.232541     78.98    4.5997   38.2292   0.27146   5.18176   0.27491   0.01466  55.70262   4.72775    3141.7  0.614414  0.001250  0.000058  0.000241  0.184642  6.945817  0.796711     91.76  1.000203  1.000027     3.384    24.466      97.3      82.3      70.5     413.1     14.34     -7.91     -3.50     -2.69      3.52      2.94     -2.86      4.60      1.46      2.41     -1.28     -0.91     -6.08      1.92      3.36     -9.36      5.20      4.87     -1.28      3.56
     -21.416267     -91.227806     246.3      0.80      2.61     144.2         2         1      2444      1000   3122.48    -5.055       8.9      23.3   380.024     0.772      97.9   0.18916      66.0         H               347.7  0.098224  0.048111  0.001342  4.171967  0.957269  4.358197  1.246897     86.49    5.7326   56.9762   0.27766   5.57712   0.23765   0.00999  82.31201   5.78870    3893.2  0.623868  0.001135  0.000033  0.000244  0.182624  6.935686  0.813770     94.20  1.000225  1.000030     3.487    26.095      97.3      85.8     108.9     524.6     14.17     -8.24     -2.95     -2.01      3.27      2.81     -2.75      4.12      1.50      2.71     -1.63     -1.55     -6.16      1.97      3.33     -9.16      5.87      4.46     -1.84      3.78
     -21.403589     -91.170700     283.7      0.79      2.61     143.2         2         2      2444      2621   2777.06    -5.564       8.7      23.8   382.568     0.776     114.6   0.19073     100.0         H               347.7  0.097529  0.049243  0.001689  4.311056  0.984731  4.377903  1.249692     89.36    5.0564   45.8444   0.27893   5.34834   0.25948   0.01254  66.11391   5.15021    3470.2  0.627164  0.001364  0.000060  0.000232  0.182563  6.947966  0.818179     97.59  1.000210  1.000027     3.629    30.052      97.3      83.8      85.9     503.7     14.28     -8.35     -2.83     -2.63      3.54      2.89     -2.09      4.34      1.22      2.94     -1.87     -1.60     -6.02      2.05      3.21    -10.83      5.82      4.83     -1.61      3.95
     -21.391129     -91.114655     269.2      0.60      2.61     145.4         2         3      2444      4242   2444.54    -6.118       8.3      24.2   381.320     0.766      84.3   0.18413     100.0         H               347.7  0.095671  0.045974  0.001119  4.143362  0.962788  4.303504  1.241232     53.64    4.3979   35.4699   0.27179   5.10078   0.28286   0.01583  51.65950   4.53833    3034.1  0.622958  0.000930  0.000037  0.000232  0.178679  6.911161  0.805962     87.64  1.000204  1.000026     3.678    34.639      94.9      81.6      65.4     464.0     13.78     -7.08     -2.42     -1.23      2.35      2.44     -2.51      4.55      1.54      2.19     -0.85     -1.07     -5.35      1.20      3.24     -7.94      3.64      3.95     -0.68      2.77
     -21.363550     -91.240707     283.7      0.79      2.61     143.2         3         1      3888      1000   3096.79    -5.091       8.8      23.3   383.594     0.778      92.0   0.19034     100.0         H               347.7  0.098518  0.048157  0.001393  4.326779  1.000169  4.326050  1.251000     73.70    5.6839   56.0706   0.27736   5.56203   0.23890   0.01012  81.03793   5.74379    3874.1  0.629833  0.001006  0.000031  0.000221  0.181781  6.929109  0.820678     90.24  1.000199  1.000025     3.653    30.720      94.9      85.7     107.6     573.5     13.97     -7.38     -2.95     -1.81      3.02      3.12     -1.98      3.43      1.19      2.28     -1.79     -0.86     -5.46      1.22      2.57     -9.49      5.62      5.37     -2.37      2.91
     -21.350880     -91.183632     280.0      0.94      2.61     148.8         3         2      3888      2621   2714.95    -5.662       8.4      23.8   383.405     0.783     110.4   0.19440     100.0         H               347.7  0.096940  0.053549  0.001244  4.525513  0.964190  4.693590  1.253725    111.01    4.9353   44.2964   0.28226   5.30173   0.26466   0.01328  63.58731   5.03702    3403.8  0.630833  0.001272  0.000050  0.000239  0.190613  7.015649  0.826434    101.79  1.000198  1.000026     3.624    29.629      97.3      83.3      82.4     485.6     14.31     -8.73     -3.82     -2.31      4.11      3.48     -3.04      4.61      2.00      4.34     -2.86     -1.54     -5.74      1.31      3.27     -8.84      6.21      5.18     -3.75      2.59
     -21.338423     -91.127617     283.7      0.73      2.61     143.2         3         3      3888      4242   2437.59    -6.130       8.3      24.2   379.887     0.767      94.9   0.18619     100.0         H               347.7  0.095254  0.049149  0.001518  4.169151  0.960804  4.339233  1.241834     79.62    4.3899   35.5711   0.27636   5.09460   0.28416   0.01611  51.48059   4.52798    3027.0  0.620389  0.000989  0.000035  0.000232  0.185706  6.940623  0.807615     93.83  1.000190  1.000025     3.463    25.754      94.9      81.4      65.1     404.3     14.26     -7.40     -3.58     -2.60      3.33      3.63     -2.19      4.14      1.53      3.57     -1.99     -1.11     -4.97      1.27      2.95    -10.28      5.38      6.05     -2.65      2.54
