corner points
-91.67803955    -19.74998093
-91.72109222    -19.57004166
-91.48472595    -19.70700836
-91.5280838    -19.52713585
========== RESULTS WAVE VERSION 16.10.2018 ====================
IMAGE SIZE  X: 5618     Y:4926    col:row     POLARIZATION:VV
COVERAGE    X: 20.7384687km       Y: 20.46409599km 
RESOLUTION dX: 3.691432664m       dY:4.154302881m  
resolution of original product 3.691432664m x 4.154302881m;   raster step x:5998.578078m  
===============================================================
FLAGS: H=HIGH PROBABILITY SEA STATE, I=LAND(ISLAND), O=OUTLIER NO SEA STATE, N=NO WIND AVAILABLE, SEA STATE NOT VISIBLE, M=MEAN PROBABILITY SEA STATE, L= LOW PROBABILITY SEA STATE
Filtering wave length
 integration  Lmin=1m
 integration  Lmax=2200m
  peak        Lmin=100m
               FFT=1024pixels, 3780.027047m 
   mean-Hs (SWH_c)=0.616271286m
         mean-wind=9.137243271m/s
--------------0--------------1---------2---------3---------4---------5---------6---------7---------8---------9--------10--------11--------12--------13--------14--------15--------16--------17--------18--------19------------------20--------21--------22--------23--------24--------25--------26--------27--------28--------29--------30--------31--------32--------33--------34--------35--------36--------37--------38--------39--------40--------41--------42--------43--------44--------45--------46--------47--------48--------49--------50--------51--------52--------53--------54--------55--------56--------57--------58--------59--------60--------61--------62--------63--------64--------65--------66--------67--------68--------69--------70--------71--------72--------73
            LAT            LON  P-LENGHT     SWH_o     SWH_c     P-DIR      LINE     POINT     ROW-Y     COL-X  M-INTENC        dB      WIND INC-ANGLE  ENERGY-M  ENERGY-N  ENERGY-R ENERGY-NN  FG-DEPTH      FLAG         HEADING-DEG    E30-75   E75-390  E390-600 meanincut   meanout   cut/out  STD-NORM  SPEC-MAX   GL-MEAN    GL-VAR      CORR   ENTROPY   HOMOGEN    ENERGY  CONTRAST  DISSIMIL     STD-O    E 1-30 E600-2000   E2000 >      GODA  LONG-HIG     Tmean  CONVOLUT  MEAN-DIR  relation     Sy/Sx  SKEWNESS  KURTOSIS  cutoff-A >50/10000     INT*V   INT-LOG  S-1_g1f1  S-2_g1f2  S-3_g1f3  S-4_g2f1  S-5_g2f2  S-6_g2f3  S-7_g3f1  S-8_g3f2  S-9_g3f3 S-10_g1f4 S-11_g2f4 S-12_g3f4 S-13_g1f5 S-14_g2f5 S-15_g3f5 S-16_g4f1 S-17_g4f2 S-18_g4f3 S-19_g4f4 S-20_g4f5
--------------1--------------2---------3---------4---------5---------6---------7---------8---------9--------10--------11--------12--------13--------14--------15--------16--------17--------18--------19--------20------------------21--------22--------23--------24--------25--------26--------27--------28--------29--------30--------31--------32--------33--------34--------35--------36--------37--------38--------39--------40--------41--------42--------43--------44--------45--------46--------47--------48--------49--------50--------51--------52--------53--------54--------55--------56--------57--------58--------59--------60--------61--------62--------63--------64--------65--------66--------67--------68--------69--------70--------71--------72--------73--------74
     -19.705610     -91.651466     269.0      0.68      2.62     145.3         1         1      1000      1000   3093.15    -5.096       8.9      23.4   383.891     0.751      88.2   0.17979     100.0         H               347.7  0.091844  0.043594  0.001215  3.510312  0.965147  3.637074  1.228827     87.30    5.6842   54.7654   0.26984   5.56967   0.23570   0.00980  79.97505   5.74660    3800.9  0.613573  0.000964  0.000031  0.000212  0.188721  6.906785  0.789750    107.01  1.000207  1.000024     3.429    25.565      88.6      86.0     104.9     513.1     13.97     -7.64     -3.73     -1.98      4.04      3.03     -2.53      4.19      2.03      4.42     -1.63     -1.88     -6.22      1.92      3.38     -8.84      6.32      4.91     -2.26      3.83
     -19.693056     -91.594940     269.0      0.55      2.62     145.3         1         2      1000      2625   2778.99    -5.561       8.8      23.8   384.852     0.755      75.3   0.18090     100.0         H               347.7  0.092763  0.041966  0.001137  3.496661  0.967022  3.615906  1.232652     77.40    5.0575   44.8136   0.26819   5.35663   0.25558   0.01212  65.59064   5.16699    3425.2  0.619022  0.000789  0.000022  0.000207  0.184811  6.905704  0.793735    101.23  1.000215  1.000026     3.505    27.250      90.6      84.1      84.1     478.1     13.80     -6.65     -3.34     -1.88      3.61      3.08     -1.96      4.06      1.86      3.74     -1.99     -1.08     -5.38      2.11      2.97     -8.69      4.49      4.84     -2.93      3.72
     -19.680716     -91.539459     270.9      0.68      2.62     139.8         1         3      1000      4250   2723.07    -5.649       9.6      24.3   380.479     0.746     102.4   0.17844     100.0         H               347.7  0.091060  0.042461  0.001441  3.611840  0.940755  3.839301  1.225009     64.21    4.9518   42.7214   0.26880   5.32051   0.25888   0.01246  62.47639   5.05259    3335.7  0.609699  0.001425  0.000045  0.000210  0.184772  6.926959  0.783932     96.23  1.000233  1.000027     3.443    25.784      94.9      83.9      80.1     434.5     13.90     -6.32     -3.11     -2.27      3.85      3.11     -1.47      3.51      1.66      3.77     -1.46     -1.02     -5.35      2.08      2.94    -10.35      6.03      5.18     -2.60      3.53
     -19.652857     -91.664108     264.8      0.66      2.62     150.6         2         1      2444      1000   3074.49    -5.122       8.8      23.4   384.546     0.757      96.6   0.18231     100.0         H               347.7  0.091921  0.043377  0.001361  3.664813  0.952904  3.845941  1.233907     74.32    5.6512   54.5192   0.27050   5.55762   0.23727   0.00994  79.54431   5.71802    3793.6  0.620163  0.001164  0.000042  0.000207  0.186625  6.929276  0.796806     98.79  1.000219  1.000028     3.490    27.082      94.9      85.9     104.4     532.7     14.00     -6.68     -3.26     -2.25      3.69      2.80     -1.97      3.37      1.91      3.63     -1.58     -1.66     -5.07      1.94      2.83     -9.85      5.75      4.29     -2.22      3.26
     -19.640308     -91.607605     269.0      0.56      2.62     145.3         2         2      2444      2625   2856.96    -5.441       9.1      23.8   384.499     0.756     117.8   0.18162     100.0         H               347.7  0.092889  0.041024  0.001250  3.584088  0.967484  3.704544  1.231646     59.95    5.2245   47.5286   0.26993   5.41489   0.25017   0.01144  69.39855   5.31934    3518.6  0.619410  0.001588  0.000063  0.000216  0.182515  6.897441  0.794592     91.97  1.000237  1.000029     3.435    25.330      94.9      84.7      89.6     475.5     13.61     -6.77     -2.76     -1.44      3.66      2.85     -1.45      3.49      1.98      3.54     -1.59     -0.96     -5.07      1.54      2.85     -8.86      6.00      4.31     -2.51      2.95
     -19.627974     -91.552155     279.9      0.65      2.62     148.8         2         3      2444      4250   2581.05    -5.882       9.0      24.3   380.024     0.738      90.0   0.17319     100.0         H               347.7  0.087309  0.042830  0.001319  3.552194  0.935283  3.797987  1.218464     81.32    4.6743   38.4198   0.26400   5.21790   0.26834   0.01378  56.55462   4.80155    3144.8  0.606408  0.001016  0.000028  0.000207  0.188816  6.952875  0.775576    105.00  1.000208  1.000023     3.347    24.179      92.7      82.9      71.4     412.5     14.07     -6.74     -3.85     -2.76      4.16      3.83     -1.37      3.51      1.56      4.28     -1.93     -1.32     -5.35      1.92      2.51    -10.67      6.00      6.37     -2.66      3.90
     -19.600101     -91.676743     269.0      0.57      2.62     145.3         3         1      3888      1000   3118.31    -5.061       9.0      23.4   387.156     0.762      87.8   0.18386     100.0         H               347.7  0.094057  0.041116  0.001324  3.497314  0.965271  3.623142  1.237920     57.89    5.7275   55.8762   0.26975   5.58226   0.23504   0.00969  81.60725   5.79427    3860.1  0.625253  0.001039  0.000033  0.000212  0.182494  6.884881  0.801300     92.87  1.000212  1.000028     3.594    30.146      94.9      86.1     107.7     569.2     13.80     -6.58     -3.06     -1.86      4.27      3.34     -1.41      3.08      1.59      3.10     -1.48     -0.78     -5.52      2.06      2.91     -9.62      7.07      5.70     -2.50      3.98
     -19.587559     -91.620270     279.9      0.56      2.62     148.8         3         2      3888      2625   2950.75    -5.301       9.5      23.8   383.679     0.752      89.9   0.18017     100.0         H               347.7  0.092273  0.039498  0.001150  3.569318  0.965061  3.698540  1.229769     51.49    5.4026   49.9980   0.26662   5.47870   0.24344   0.01062  73.33491   5.48832    3628.5  0.618845  0.001211  0.000045  0.000212  0.177207  6.871175  0.790389     87.77  1.000216  1.000027     3.524    27.951      94.9      85.3      95.2     522.5     13.40     -4.98     -2.69     -1.19      3.25      3.03     -1.10      3.02      1.77      3.11     -0.98     -0.77     -3.94      1.67      2.27     -8.67      4.64      4.74     -1.56      3.04
     -19.575230     -91.564842     279.9      0.65      2.62     148.8         3         3      3888      4250   2724.27    -5.647       9.6      24.3   381.064     0.741      98.2   0.17395     100.0         H               347.7  0.089524  0.041293  0.001252  3.543635  0.966351  3.667027  1.218815     67.06    4.9516   42.4378   0.26279   5.32263   0.25804   0.01239  62.57074   5.06281    3320.4  0.608048  0.001214  0.000048  0.000206  0.182158  6.916282  0.777947     93.24  1.000218  1.000024     3.406    25.761      92.7      84.0      79.7     452.9     13.84     -6.51     -3.63     -2.43      4.07      3.48     -1.20      2.86      1.64      3.57     -2.07     -1.04     -4.79      2.28      2.64    -10.28      6.43      5.91     -3.29      4.11
