corner points
-158.9513855    -4.386221409
-158.9897003    -4.205439091
-158.7749939    -4.347797394
-158.813385    -4.167053699
========== RESULTS WAVE VERSION 16.10.2018 ====================
IMAGE SIZE  X: 5471     Y:4930    col:row     POLARIZATION:VV
COVERAGE    X: 19.97107623km       Y: 20.4989642km 
RESOLUTION dX: 3.65035208m       dY:4.158004908m  
resolution of original product 3.65035208m x 4.158004908m;   raster step x:5997.528468m  
===============================================================
FLAGS: H=HIGH PROBABILITY SEA STATE, I=LAND(ISLAND), O=OUTLIER NO SEA STATE, N=NO WIND AVAILABLE, SEA STATE NOT VISIBLE, M=MEAN PROBABILITY SEA STATE, L= LOW PROBABILITY SEA STATE
Filtering wave length
 integration  Lmin=1m
 integration  Lmax=2200m
  peak        Lmin=100m
               FFT=1024pixels, 3737.96053m 
   mean-Hs (SWH_c)=0.2m
         mean-wind=6.548971176m/s
--------------0--------------1---------2---------3---------4---------5---------6---------7---------8---------9--------10--------11--------12--------13--------14--------15--------16--------17--------18--------19------------------20--------21--------22--------23--------24--------25--------26--------27--------28--------29--------30--------31--------32--------33--------34--------35--------36--------37--------38--------39--------40--------41--------42--------43--------44--------45--------46--------47--------48--------49--------50--------51--------52--------53--------54--------55--------56--------57--------58--------59--------60--------61--------62--------63--------64--------65--------66--------67--------68--------69--------70--------71--------72--------73
            LAT            LON  P-LENGHT     SWH_o     SWH_c     P-DIR      LINE     POINT     ROW-Y     COL-X  M-INTENC        dB      WIND INC-ANGLE  ENERGY-M  ENERGY-N  ENERGY-R ENERGY-NN  FG-DEPTH      FLAG         HEADING-DEG    E30-75   E75-390  E390-600 meanincut   meanout   cut/out  STD-NORM  SPEC-MAX   GL-MEAN    GL-VAR      CORR   ENTROPY   HOMOGEN    ENERGY  CONTRAST  DISSIMIL     STD-O    E 1-30 E600-2000   E2000 >      GODA  LONG-HIG     Tmean  CONVOLUT  MEAN-DIR  relation     Sy/Sx  SKEWNESS  KURTOSIS  cutoff-A >50/10000     INT*V   INT-LOG  S-1_g1f1  S-2_g1f2  S-3_g1f3  S-4_g2f1  S-5_g2f2  S-6_g2f3  S-7_g3f1  S-8_g3f2  S-9_g3f3 S-10_g1f4 S-11_g2f4 S-12_g3f4 S-13_g1f5 S-14_g2f5 S-15_g3f5 S-16_g4f1 S-17_g4f2 S-18_g4f3 S-19_g4f4 S-20_g4f5
--------------1--------------2---------3---------4---------5---------6---------7---------8---------9--------10--------11--------12--------13--------14--------15--------16--------17--------18--------19--------20------------------21--------22--------23--------24--------25--------26--------27--------28--------29--------30--------31--------32--------33--------34--------35--------36--------37--------38--------39--------40--------41--------42--------43--------44--------45--------46--------47--------48--------49--------50--------51--------52--------53--------54--------55--------56--------57--------58--------59--------60--------61--------62--------63--------64--------65--------66--------67--------68--------69--------70--------71--------72--------73--------74
      -4.342348    -158.926117     387.5      0.39      1.79      24.5         1         1      1000      1000   2242.71    -6.492       6.4      23.7   412.454     0.702      61.5   0.15704     100.0         H               348.0  0.085440  0.037004  0.001454  3.924258  0.888345  4.417494  1.188335     24.75    3.9985   27.9056   0.25341   4.94707   0.29429   0.01757  41.66764   4.15140    2664.9  0.578073  0.000769  0.000019  0.000209  0.164148  6.836880  0.737309     91.16  1.000155  1.000017     3.131    21.216      81.3      80.5      51.7     331.8     11.56     -2.20     -1.79      2.62     -3.39      4.92      2.65      1.61      0.54     -2.07      0.42     -1.89     -1.84     -2.56      1.60     -7.51     -4.99     11.24      4.82     -3.25
      -4.330698    -158.872604     141.0      0.41      1.79     119.8         1         2      1000      2643   2087.99    -6.803       6.6      24.1   415.577     0.711      68.6   0.16023      13.4         H               348.0  0.085662  0.037054  0.001069  3.965003  0.879656  4.507450  1.195768     22.38    3.6896   24.4697   0.25502   4.80291   0.31015   0.02025  36.45826   3.85894    2496.6  0.586848  0.000833  0.000031  0.000204  0.163736  6.858915  0.746571     91.71  1.000167  1.000018     3.227    22.494      83.0      79.1      45.1     301.9     11.04     -2.67     -0.74      3.83     -3.37      4.19      2.64      0.58      1.65     -1.77     -1.19     -1.92     -1.96     -2.25      1.47     -4.40     -3.93      7.86      1.19     -2.05
      -4.319254    -158.820068     148.0      0.42      1.79     123.8         1         3      1000      4286   1916.84    -7.174       6.8      24.6   413.788     0.708      64.5   0.15888      14.9         H               348.0  0.086225  0.035621  0.000936  3.817844  0.876926  4.353666  1.191840     19.38    3.3545   20.6214   0.25292   4.63614   0.32955   0.02391  30.81132   3.53993    2284.6  0.584657  0.000771  0.000026  0.000221  0.160844  6.827300  0.742814     91.22  1.000177  1.000019     3.173    21.745      83.0      77.2      37.9     293.1     11.30     -2.32     -0.73      3.38     -2.56      3.64      1.83      1.05      1.66     -1.44     -0.56     -1.31     -2.35     -1.42      1.47     -4.19     -2.74      6.82      1.61     -0.48
      -4.289461    -158.937317     138.7      0.39      1.79     121.4         2         1      2442      1000   2234.98    -6.507       6.3      23.7   414.442     0.708      58.6   0.15935      12.9         H               348.0  0.085428  0.037353  0.001034  3.962656  0.883204  4.486683  1.193793     19.27    3.9875   27.9865   0.25538   4.94057   0.29549   0.01775  41.67889   4.14374    2667.8  0.584196  0.000646  0.000022  0.000206  0.162885  6.845795  0.743677     90.90  1.000162  1.000017     3.162    21.480      79.7      80.4      51.7     326.7     11.22     -3.06     -1.17      3.50     -3.14      3.67      2.14      0.83      1.54     -1.44     -0.80     -1.77     -2.55     -2.03      1.08     -4.56     -3.32      7.31      1.46     -1.24
      -4.277814    -158.883835     143.5      0.38      1.79     129.8         2         2      2442      2643   1990.34    -7.011       6.2      24.1   417.653     0.712      53.9   0.15967      13.9         H               348.0  0.086576  0.037325  0.000931  4.001965  0.893016  4.481402  1.196045     19.44    3.4969   22.2798   0.25397   4.70825   0.32063   0.02231  33.24310   3.68125    2380.4  0.587285  0.000681  0.000018  0.000210  0.161037  6.829951  0.747848     90.20  1.000176  1.000020     3.229    23.038      81.3      77.9      41.0     309.4     11.03     -2.93     -0.71      3.93     -2.58      3.79      2.20      1.10      1.96     -1.26     -0.98     -1.03     -2.62     -1.61      1.65     -3.56     -2.42      6.84      0.78     -0.67
      -4.266375    -158.831299     156.1      0.41      1.79     123.4         2         3      2442      4286   1885.02    -7.247       6.6      24.6   412.134     0.700      61.9   0.15532      16.9         H               348.0  0.084710  0.035964  0.001218  3.881435  0.855069  4.539321  1.186890     20.52    3.3007   19.8446   0.25099   4.60962   0.33200   0.02443  29.72758   3.48751    2237.2  0.577992  0.000723  0.000025  0.000219  0.161662  6.822318  0.734868     89.93  1.000178  1.000018     3.118    20.956      83.0      76.9      36.6     269.2     11.53     -2.37     -1.08      2.92     -3.06      4.18      2.22      1.37      1.07     -1.47     -0.20     -1.26     -2.69     -1.81      1.91     -6.34     -3.57      8.70      2.51     -1.04
      -4.236575    -158.948532     134.8      0.39      1.79     110.4         3         1      3884      1000   2241.75    -6.494       6.4      23.7   413.807     0.706      87.6   0.15857      12.1         H               348.0  0.084466  0.036932  0.001090  3.951288  0.890773  4.435796  1.189160     15.17    3.9909   27.9712   0.25413   4.94262   0.29514   0.01768  41.72566   4.14393    2665.6  0.582967  0.001153  0.000059  0.000209  0.161145  6.847463  0.741342     88.96  1.000154  1.000016     3.133    20.880      79.7      80.5      51.7     316.4     11.08     -2.34     -1.22      3.47     -2.76      3.67      2.42      1.08      1.82     -1.22     -0.64     -1.91     -2.34     -1.87      1.18     -4.69     -3.92      7.64      1.88     -1.16
      -4.224931    -158.895035     145.1      0.40      1.79     125.4         3         2      3884      2643   2078.96    -6.822       6.6      24.1   412.911     0.703      54.9   0.15727      14.3         H               348.0  0.085784  0.035260  0.000879  3.755236  0.891917  4.210296  1.188535     15.35    3.6730   24.0356   0.25262   4.79666   0.31040   0.02031  35.92736   3.84098    2470.8  0.581129  0.000664  0.000019  0.000213  0.159323  6.809958  0.737665     89.61  1.000171  1.000018     3.175    21.977      83.0      79.0      44.4     305.1     11.08     -2.46     -1.15      3.68     -2.36      3.47      1.91      0.62      2.08     -1.05     -0.86     -1.35     -2.39     -1.43      1.59     -3.69     -2.12      6.35      0.66     -0.65
      -4.213495    -158.842529     152.9      0.43      1.79     125.1         3         3      3884      4286   1989.61    -7.012       7.1      24.6   407.755     0.695      63.9   0.15532      16.1         H               348.0  0.082219  0.035652  0.001353  3.763347  0.852966  4.412073  1.182345     22.47    3.5056   21.9198   0.25230   4.71580   0.31923   0.02193  32.77917   3.67688    2352.2  0.575827  0.000857  0.000023  0.000213  0.163351  6.847526  0.729887     91.71  1.000183  1.000019     3.095    20.653      84.8      78.1      40.6     280.9     11.37     -2.32     -1.17      2.86     -3.32      4.54      3.07      1.38      1.29     -1.82     -0.25     -1.94     -2.44     -1.60      1.51     -6.90     -4.76      9.34      3.19     -0.64
