corner points
-149.7693024    -33.03778076
-149.8254089    -32.86545563
-149.5614014    -32.98853683
-149.6179199    -32.81631088
========== RESULTS WAVE VERSION 16.10.2018 ====================
IMAGE SIZE  X: 4376     Y:4779    col:row     POLARIZATION:VV
COVERAGE    X: 20.09673198km       Y: 19.81968565km 
RESOLUTION dX: 4.592489028m       dY:4.147245376m  
resolution of original product 4.592489028m x 4.147245376m;   raster step x:5997.79067m  
===============================================================
FLAGS: H=HIGH PROBABILITY SEA STATE, I=LAND(ISLAND), O=OUTLIER NO SEA STATE, N=NO WIND AVAILABLE, SEA STATE NOT VISIBLE, M=MEAN PROBABILITY SEA STATE, L= LOW PROBABILITY SEA STATE
Filtering wave length
 integration  Lmin=1m
 integration  Lmax=2200m
  peak        Lmin=100m
               FFT=1024pixels, 4702.708764m 
   mean-Hs (SWH_c)=1.163437881m
         mean-wind=14.65802479m/s
--------------0--------------1---------2---------3---------4---------5---------6---------7---------8---------9--------10--------11--------12--------13--------14--------15--------16--------17--------18--------19------------------20--------21--------22--------23--------24--------25--------26--------27--------28--------29--------30--------31--------32--------33--------34--------35--------36--------37--------38--------39--------40--------41--------42--------43--------44--------45--------46--------47--------48--------49--------50--------51--------52--------53--------54--------55--------56--------57--------58--------59--------60--------61--------62--------63--------64--------65--------66--------67--------68--------69--------70--------71--------72--------73
            LAT            LON  P-LENGHT     SWH_o     SWH_c     P-DIR      LINE     POINT     ROW-Y     COL-X  M-INTENC        dB      WIND INC-ANGLE  ENERGY-M  ENERGY-N  ENERGY-R ENERGY-NN  FG-DEPTH      FLAG         HEADING-DEG    E30-75   E75-390  E390-600 meanincut   meanout   cut/out  STD-NORM  SPEC-MAX   GL-MEAN    GL-VAR      CORR   ENTROPY   HOMOGEN    ENERGY  CONTRAST  DISSIMIL     STD-O    E 1-30 E600-2000   E2000 >      GODA  LONG-HIG     Tmean  CONVOLUT  MEAN-DIR  relation     Sy/Sx  SKEWNESS  KURTOSIS  cutoff-A >50/10000     INT*V   INT-LOG  S-1_g1f1  S-2_g1f2  S-3_g1f3  S-4_g2f1  S-5_g2f2  S-6_g2f3  S-7_g3f1  S-8_g3f2  S-9_g3f3 S-10_g1f4 S-11_g2f4 S-12_g3f4 S-13_g1f5 S-14_g2f5 S-15_g3f5 S-16_g4f1 S-17_g4f2 S-18_g4f3 S-19_g4f4 S-20_g4f5
--------------1--------------2---------3---------4---------5---------6---------7---------8---------9--------10--------11--------12--------13--------14--------15--------16--------17--------18--------19--------20------------------21--------22--------23--------24--------25--------26--------27--------28--------29--------30--------31--------32--------33--------34--------35--------36--------37--------38--------39--------40--------41--------42--------43--------44--------45--------46--------47--------48--------49--------50--------51--------52--------53--------54--------55--------56--------57--------58--------59--------60--------61--------62--------63--------64--------65--------66--------67--------68--------69--------70--------71--------72--------73--------74
     -32.990368    -149.733002     374.9      1.02      2.26      13.8         1         1      1000      1000    635.71   -11.967      14.0      36.2   255.089     0.571      50.9   0.08243     100.0         H               347.0  0.054879  0.014483  0.000627  1.357616  0.719333  1.887326  1.071935      5.88   12.0467  161.9280   0.12238   6.99839   0.11568   0.00179 284.22339  11.96439     681.5  0.500459  0.000878  0.000063  0.000143  0.160315  6.671047  0.575932     84.26  1.000146  1.000013     2.440    13.369      92.7      96.2     396.8     750.8     11.86      0.25     -1.91      0.62     -0.78      1.67      1.17      0.65     -0.16      0.52      0.94     -0.89     -0.19     -0.39      1.64     -9.35     -1.65      3.83      2.09     -2.10
     -32.975632    -149.670746     220.6      1.10      2.26     152.0         1         2      1000      2306    639.30   -11.943      14.3      36.6   254.361     0.569      71.4   0.08248      42.4         H               347.0  0.054849  0.015019  0.000578  1.380975  0.717596  1.924446  1.069994      7.40   12.1178  163.0573   0.12334   7.00898   0.11501   0.00177 285.89368  12.00904     684.0  0.497372  0.001312  0.000110  0.000139  0.162845  6.691778  0.573935     83.21  1.000098  1.000008     2.409    12.536      92.7      96.4     400.8     705.3     11.90      0.30     -2.23      0.69     -0.09      2.14      0.80      0.88     -0.33      0.77      0.71     -0.77     -0.16     -0.64      1.72     -8.54     -1.22      5.59      1.39     -2.49
     -32.960999    -149.609039     225.4      1.14      2.26     154.4         1         3      1000      3612    632.21   -11.991      14.5      37.0   254.546     0.569      77.4   0.08198      45.6         H               347.0  0.054267  0.015344  0.000761  1.400022  0.709046  1.974515  1.070501     10.70   11.9849  160.5223   0.12257   6.98965   0.11573   0.00181 281.69263  11.90851     676.8  0.497844  0.001265  0.000142  0.000152  0.162920  6.689814  0.574281     84.49  1.000111  1.000009     2.402    12.442      92.7      96.2     391.9     695.0     12.05     -0.34     -2.70      0.11     -0.28      3.17      1.50      1.13     -0.85      0.82      0.63     -1.25      0.31     -0.61      2.08    -10.74     -1.41      8.66      2.04     -3.60
     -32.938225    -149.750015     350.0      1.25      2.26       8.6         2         1      2446      1000    699.23   -11.554      14.8      36.2   256.974     0.579     193.0   0.08662     100.0         H               347.0  0.056051  0.015406  0.000559  1.404413  0.723880  1.940119  1.080194      8.75   13.2061  188.8641   0.12944   7.14824   0.10735   0.00151 328.83264  12.97397     755.3  0.503987  0.002500  0.000544  0.000137  0.163881  6.704264  0.584216     84.07  1.000100  1.000009     2.475    13.317      99.7      96.9     488.7     809.5     11.83      0.44     -2.32      0.92     -0.44      2.32      0.98      0.31      0.12      0.65      0.58     -0.83      0.59     -0.81      1.27     -8.06     -1.39      4.91      1.54     -2.88
     -32.923500    -149.687790     215.7      1.20      2.26     149.7         2         2      2446      2306    678.06   -11.687      14.8      36.6   254.192     0.570     106.6   0.08386      39.4         H               347.0  0.054968  0.014900  0.000634  1.369525  0.716066  1.912567  1.071491     10.28   12.8371  179.2141   0.12523   7.10550   0.10949   0.00158 313.54184  12.64968     726.5  0.498058  0.001669  0.000231  0.000141  0.163659  6.690011  0.575223     84.24  1.000129  1.000010     2.434    13.229      92.7      96.8     453.7     790.9     11.99     -0.13     -2.11      0.45     -0.17      2.26      1.10      0.70     -0.23      1.11      0.25     -1.20      0.04     -0.38      1.78     -9.61     -0.87      5.66      0.92     -2.98
     -32.908875    -149.626129     215.7      1.23      2.26     149.7         2         3      2446      3612    671.74   -11.728      15.0      37.0   253.897     0.567      89.6   0.08199      39.4         H               347.0  0.054404  0.014992  0.000542  1.381899  0.718643  1.922928  1.068964      9.34   12.7222  176.1484   0.12284   7.09106   0.11037   0.00160 309.01855  12.54552     718.1  0.496332  0.001390  0.000176  0.000156  0.162969  6.681058  0.572495     83.25  1.000102  1.000009     2.404    12.599      90.6      96.7     444.3     750.6     11.99     -0.09     -2.23      0.74     -0.24      2.36      0.55      0.58     -0.28      0.60      0.65     -0.32     -0.39     -0.43      1.44     -8.16     -0.40      5.45      0.36     -1.52
     -32.886078    -149.767014     229.9      1.27      2.26     157.0         3         1      3892      1000    714.97   -11.457      15.0      36.2   253.986     0.570      76.2   0.08342      48.9         H               347.0  0.055135  0.014875  0.000588  1.369903  0.720165  1.902207  1.070847      7.46   13.5067  193.4192   0.12369   7.18901   0.10480   0.00142 338.98822  13.22840     765.6  0.498122  0.001347  0.000126  0.000138  0.162691  6.697545  0.574941     83.69  1.000134  1.000013     2.439    12.984      94.9      97.2     507.1     784.4     11.82     -0.21     -1.75      0.93     -0.42      1.94      1.03      0.94     -0.15      0.76      0.63     -0.90      0.56     -0.44      1.20     -8.47     -1.67      4.31      1.59     -2.30
     -32.871361    -149.704819     220.6      1.13      2.26     152.0         3         2      3892      2306    655.63   -11.833      14.5      36.6   254.141     0.571      45.5   0.08297      42.4         H               347.0  0.055260  0.014936  0.000511  1.395233  0.726207  1.921260  1.071475      7.63   12.4186  169.6620   0.12321   7.05055   0.11236   0.00168 297.51743  12.28465     702.5  0.499374  0.000777  0.000045  0.000143  0.161076  6.680867  0.575560     83.75  1.000130  1.000010     2.433    12.970      90.6      96.5     423.3     739.6     11.48     -0.39     -2.01      1.41      0.19      1.95      1.07      0.61     -0.01      0.87      0.55     -0.46     -0.24     -0.21      1.57     -6.88      0.20      4.59      0.65     -1.55
     -32.856743    -149.643204     225.5      1.14      2.26     148.2         3         3      3892      3612    649.34   -11.875      14.8      37.0   254.058     0.568      86.2   0.08216      45.7         H               347.0  0.054346  0.014617  0.000628  1.356141  0.734627  1.846027  1.068950      8.29   12.3072  167.2093   0.12292   7.03618   0.11346   0.00172 293.31256  12.18913     694.1  0.496728  0.001449  0.000160  0.000139  0.162087  6.680860  0.572567     83.61  1.000106  1.000009     2.392    12.389      92.7      96.4     413.8     699.9     11.78     -0.01     -2.10      0.80     -0.53      2.53      1.49      0.98     -0.73      0.03      0.86     -0.44     -0.17     -0.84      1.83     -9.24     -1.46      7.06      2.25     -3.38
