corner points
-170.2361603    45.12785721
-170.2904968    45.3062706
-169.9855957    45.16488647
-170.0390778    45.34334946
========== RESULTS WAVE VERSION 16.10.2018 ====================
IMAGE SIZE  X: 5471     Y:4919    col:row     POLARIZATION:VV
COVERAGE    X: 20.03560053km       Y: 20.24015013km 
RESOLUTION dX: 3.662145957m       dY:4.11468797m  
resolution of original product 3.662145957m x 4.11468797m;   raster step x:5998.595077m  
===============================================================
FLAGS: H=HIGH PROBABILITY SEA STATE, I=LAND(ISLAND), O=OUTLIER NO SEA STATE, N=NO WIND AVAILABLE, SEA STATE NOT VISIBLE, M=MEAN PROBABILITY SEA STATE, L= LOW PROBABILITY SEA STATE
Filtering wave length
 integration  Lmin=1m
 integration  Lmax=2200m
  peak        Lmin=100m
               FFT=1024pixels, 3750.03746m 
   mean-Hs (SWH_c)=5.013919678m
         mean-wind=9.710082054m/s
--------------0--------------1---------2---------3---------4---------5---------6---------7---------8---------9--------10--------11--------12--------13--------14--------15--------16--------17--------18--------19------------------20--------21--------22--------23--------24--------25--------26--------27--------28--------29--------30--------31--------32--------33--------34--------35--------36--------37--------38--------39--------40--------41--------42--------43--------44--------45--------46--------47--------48--------49--------50--------51--------52--------53--------54--------55--------56--------57--------58--------59--------60--------61--------62--------63--------64--------65--------66--------67--------68--------69--------70--------71--------72--------73
            LAT            LON  P-LENGHT     SWH_o     SWH_c     P-DIR      LINE     POINT     ROW-Y     COL-X  M-INTENC        dB      WIND INC-ANGLE  ENERGY-M  ENERGY-N  ENERGY-R ENERGY-NN  FG-DEPTH      FLAG         HEADING-DEG    E30-75   E75-390  E390-600 meanincut   meanout   cut/out  STD-NORM  SPEC-MAX   GL-MEAN    GL-VAR      CORR   ENTROPY   HOMOGEN    ENERGY  CONTRAST  DISSIMIL     STD-O    E 1-30 E600-2000   E2000 >      GODA  LONG-HIG     Tmean  CONVOLUT  MEAN-DIR  relation     Sy/Sx  SKEWNESS  KURTOSIS  cutoff-A >50/10000     INT*V   INT-LOG  S-1_g1f1  S-2_g1f2  S-3_g1f3  S-4_g2f1  S-5_g2f2  S-6_g2f3  S-7_g3f1  S-8_g3f2  S-9_g3f3 S-10_g1f4 S-11_g2f4 S-12_g3f4 S-13_g1f5 S-14_g2f5 S-15_g3f5 S-16_g4f1 S-17_g4f2 S-18_g4f3 S-19_g4f4 S-20_g4f5
--------------1--------------2---------3---------4---------5---------6---------7---------8---------9--------10--------11--------12--------13--------14--------15--------16--------17--------18--------19--------20------------------21--------22--------23--------24--------25--------26--------27--------28--------29--------30--------31--------32--------33--------34--------35--------36--------37--------38--------39--------40--------41--------42--------43--------44--------45--------46--------47--------48--------49--------50--------51--------52--------53--------54--------55--------56--------57--------58--------59--------60--------61--------62--------63--------64--------65--------66--------67--------68--------69--------70--------71--------72--------73--------74
      45.171124    -170.200226     231.2      4.85      5.58      99.5         1         1      1000      1000   3227.96    -4.911       9.7      23.5   470.825     1.059     320.7   0.31946      50.0         H               345.8  0.123568  0.163665  0.005803  8.512776  1.186733  7.173287  1.459413    315.41    5.8833   73.7806   0.35634   5.52956   0.26120   0.01306  94.98015   5.87076    4710.8  0.762791  0.004095  0.000050  0.000363  0.249487  7.732483  1.134628     97.64  1.000461  1.000078     5.311    79.104     174.0      83.3     146.0     861.4     16.58     -2.77     13.42     -0.13     -0.29      3.43     -4.70      1.89     -6.41     -3.25     -0.43      1.82      5.79      2.40     -1.85     -8.23      0.03      2.07      0.51      1.23
      45.182350    -170.124390     265.7      5.49      5.58      97.2         1         2      1000      2638   2989.75    -5.244       9.9      24.0   477.070     1.080     398.3   0.32956     100.0         H               345.8  0.123143  0.179766  0.007775  8.207870  1.173941  6.991720  1.474830    491.33    5.4286   66.0089   0.36593   5.37263   0.27885   0.01562  83.70894   5.43642    4408.6  0.764730  0.004936  0.000102  0.000409  0.259194  7.832092  1.159872    100.67  1.000492  1.000084     5.044    60.749     181.9      81.5     126.9     761.8     17.10     -3.18     14.35     -1.28     -0.06      2.54     -4.66      2.31     -7.13     -4.76      0.29      2.74      6.96      1.90     -2.77    -10.37     -0.36      1.28      1.15      0.86
      45.193325    -170.049927     243.2      4.83      5.58     103.4         1         3      1000      4276   2664.80    -5.743       9.6      24.4   464.371     1.028     315.5   0.30226      61.9         H               345.8  0.116364  0.157792  0.006423  7.558872  1.104935  6.841012  1.439355    320.04    4.8019   51.9567   0.35254   5.17194   0.29532   0.01817  67.27842   4.87020    3835.3  0.744271  0.003866  0.000064  0.000365  0.250146  7.740726  1.099773    100.24  1.000460  1.000075     4.913    58.037     174.0      80.0      96.2     658.3     16.63     -2.95     13.39     -0.79     -0.43      3.11     -4.05      2.09     -6.11     -3.26     -0.57      1.82      5.97      1.89     -1.19     -9.32     -0.50      2.61      0.23      0.63
      45.224018    -170.216263     278.2      5.42      5.58     105.3         2         1      2458      1000   3344.90    -4.756      10.1      23.5   471.552     1.063     380.9   0.32093     100.0         H               345.8  0.118596  0.174363  0.006216  8.285885  1.159435  7.146486  1.462234    381.46    6.1177   78.4590   0.36193   5.60067   0.25477   0.01204 100.12329   6.05339    4890.3  0.759269  0.004867  0.000111  0.000397  0.254656  7.853554  1.140416     99.13  1.000491  1.000083     5.305    80.237     181.9      84.0     158.5     853.2     16.80     -3.60     14.09     -0.44      0.27      3.15     -4.53      2.27     -6.39     -4.68      0.47      2.30      6.94      2.07     -2.03     -8.59      0.38      1.80      1.58      0.38
      45.235252    -170.140366     243.2      4.62      5.58     103.4         2         2      2458      2638   2876.50    -5.411       9.5      24.0   457.852     1.017     302.1   0.29936      61.9         H               345.8  0.115766  0.152915  0.005669  7.701521  1.116942  6.895185  1.430744    333.55    5.2220   59.7247   0.35227   5.32330   0.27960   0.01567  77.36919   5.26255    4115.4  0.740248  0.003509  0.000074  0.000346  0.250066  7.732884  1.087948    101.32  1.000467  1.000074     4.597    44.852     166.7      81.5     112.3     647.1     16.37     -2.86     12.78      0.05     -0.17      3.75     -4.12      2.15     -5.58     -3.97      0.08      2.23      5.64      2.43     -1.30     -8.35     -0.52      2.03      1.01      0.82
      45.246231    -170.065826     243.2      4.98      5.58     103.4         2         3      2458      4276   2593.80    -5.861       9.3      24.4   463.586     1.029     337.9   0.30507      61.9         H               345.8  0.115917  0.162335  0.004910  8.137937  1.144123  7.112819  1.436737    361.40    4.6810   50.5204   0.35559   5.11811   0.30271   0.01957  65.11130   4.76053    3725.9  0.742356  0.003992  0.000107  0.000376  0.253817  7.773032  1.101074    100.15  1.000500  1.000082     4.584    46.411     174.0      79.2      91.4     605.4     16.72     -3.45     14.06     -0.11      0.03      2.78     -5.21      2.27     -6.49     -4.30     -0.24      2.77      6.38      1.90     -1.92     -7.52      0.52      0.62      0.35      0.05
      45.276913    -170.232330     255.3      5.29      5.58     107.6         3         1      3916      1000   3427.16    -4.651      10.4      23.5   468.166     1.044     329.9   0.30964      83.1         H               345.8  0.115142  0.166878  0.006048  7.626834  1.134031  6.725421  1.445807    351.27    6.2956   82.0559   0.35560   5.65620   0.24801   0.01129 105.75561   6.24456    4954.2  0.752747  0.004239  0.000067  0.000385  0.252599  7.797108  1.118446     99.75  1.000470  1.000079     4.701    47.041     174.0      84.6     165.9     768.7     16.55     -2.89     13.62     -0.06     -0.18      3.77     -4.61      2.38     -6.92     -3.82      0.31      2.21      6.54      2.31     -1.90     -8.35     -0.90      3.36      0.80      0.78
      45.288151    -170.156357     243.2      4.54      5.58     103.4         3         2      3916      2638   2886.44    -5.396       9.5      24.0   463.841     1.034     317.3   0.30504      61.9         H               345.8  0.119201  0.152758  0.005498  7.929310  1.155140  6.864373  1.440894    246.52    5.2306   59.9235   0.35085   5.32622   0.27930   0.01562  77.79854   5.27535    4159.1  0.752927  0.003740  0.000107  0.000335  0.245072  7.695109  1.104818    100.85  1.000475  1.000075     4.959    62.314     160.0      81.5     114.2     726.1     16.14     -3.42     12.21      0.28     -0.55      4.03     -3.70      2.42     -4.74     -3.96     -0.89      1.96      4.79      2.77     -0.55     -8.26     -0.67      2.07      0.41      1.44
      45.299137    -170.081757     267.3      5.10      5.58      93.6         3         3      3916      4276   2567.41    -5.905       9.2      24.4   468.181     1.043     348.8   0.31014     100.0         H               345.8  0.117116  0.166911  0.007652  8.158325  1.138319  7.166993  1.448357    312.56    4.6252   49.9281   0.35712   5.09237   0.30685   0.02034  64.19490   4.71150    3718.0  0.748078  0.004104  0.000067  0.000367  0.256701  7.782837  1.117635     96.63  1.000523  1.000084     4.606    44.579     174.0      78.7      90.4     583.7     17.17     -2.97     13.75     -1.78      0.32      2.39     -4.26      1.75     -6.65     -3.48      0.23      1.85      6.68      1.74     -2.13    -11.48      1.01      1.15      1.48     -0.11
