corner points
-168.132843    46.33058167
-168.178833    46.50391006
-167.8779755    46.36218262
-167.9231262    46.53552628
========== RESULTS WAVE VERSION 16.10.2018 ====================
IMAGE SIZE  X: 4376     Y:4773    col:row     POLARIZATION:VV
COVERAGE    X: 19.83278933km       Y: 19.54414573km 
RESOLUTION dX: 4.532173065m       dY:4.094729882m  
resolution of original product 4.532173065m x 4.094729882m;   raster step x:5996.064965m  
===============================================================
FLAGS: H=HIGH PROBABILITY SEA STATE, I=LAND(ISLAND), O=OUTLIER NO SEA STATE, N=NO WIND AVAILABLE, SEA STATE NOT VISIBLE, M=MEAN PROBABILITY SEA STATE, L= LOW PROBABILITY SEA STATE
Filtering wave length
 integration  Lmin=1m
 integration  Lmax=2200m
  peak        Lmin=100m
               FFT=1024pixels, 4640.945219m 
   mean-Hs (SWH_c)=3.993007202m
         mean-wind=12.0298357m/s
--------------0--------------1---------2---------3---------4---------5---------6---------7---------8---------9--------10--------11--------12--------13--------14--------15--------16--------17--------18--------19------------------20--------21--------22--------23--------24--------25--------26--------27--------28--------29--------30--------31--------32--------33--------34--------35--------36--------37--------38--------39--------40--------41--------42--------43--------44--------45--------46--------47--------48--------49--------50--------51--------52--------53--------54--------55--------56--------57--------58--------59--------60--------61--------62--------63--------64--------65--------66--------67--------68--------69--------70--------71--------72--------73
            LAT            LON  P-LENGHT     SWH_o     SWH_c     P-DIR      LINE     POINT     ROW-Y     COL-X  M-INTENC        dB      WIND INC-ANGLE  ENERGY-M  ENERGY-N  ENERGY-R ENERGY-NN  FG-DEPTH      FLAG         HEADING-DEG    E30-75   E75-390  E390-600 meanincut   meanout   cut/out  STD-NORM  SPEC-MAX   GL-MEAN    GL-VAR      CORR   ENTROPY   HOMOGEN    ENERGY  CONTRAST  DISSIMIL     STD-O    E 1-30 E600-2000   E2000 >      GODA  LONG-HIG     Tmean  CONVOLUT  MEAN-DIR  relation     Sy/Sx  SKEWNESS  KURTOSIS  cutoff-A >50/10000     INT*V   INT-LOG  S-1_g1f1  S-2_g1f2  S-3_g1f3  S-4_g2f1  S-5_g2f2  S-6_g2f3  S-7_g3f1  S-8_g3f2  S-9_g3f3 S-10_g1f4 S-11_g2f4 S-12_g3f4 S-13_g1f5 S-14_g2f5 S-15_g3f5 S-16_g4f1 S-17_g4f2 S-18_g4f3 S-19_g4f4 S-20_g4f5
--------------1--------------2---------3---------4---------5---------6---------7---------8---------9--------10--------11--------12--------13--------14--------15--------16--------17--------18--------19--------20------------------21--------22--------23--------24--------25--------26--------27--------28--------29--------30--------31--------32--------33--------34--------35--------36--------37--------38--------39--------40--------41--------42--------43--------44--------45--------46--------47--------48--------49--------50--------51--------52--------53--------54--------55--------56--------57--------58--------59--------60--------61--------62--------63--------64--------65--------66--------67--------68--------69--------70--------71--------72--------73--------74
      46.374260    -168.083557     218.3      3.78      6.02      99.0         1         1      1000      1000    455.99   -13.410      11.8      36.7   290.163     0.721     157.8   0.14004      40.9         H               345.7  0.069660  0.069012  0.002751  4.672066  0.806123  5.795725  1.204533     99.90    8.5293  104.4379   0.19623   6.33869   0.16357   0.00408 167.88779   8.68503     549.2  0.577890  0.002154  0.000123  0.000265  0.237220  7.540971  0.735529     97.88  1.000517  1.000068     3.562    31.858     236.0      92.0     228.7     819.6     15.75     -2.23     13.23      1.78     -0.47      5.10     -3.20      1.31     -5.32     -3.17     -0.40      1.25      6.31      4.17     -1.29     -7.83     -0.14      1.74      0.79      2.13
      46.383869    -168.006180     246.4      4.05      6.02     107.1         1         2      1000      2323    446.72   -13.500      11.9      37.1   292.418     0.728     222.7   0.14306      66.1         H               345.7  0.069175  0.072592  0.003305  4.508710  0.824127  5.470894  1.210676    174.73    8.3459  101.3890   0.20085   6.29648   0.16705   0.00428 162.05142   8.50385     540.9  0.580176  0.003294  0.000254  0.000287  0.248765  7.605469  0.743934    100.74  1.000513  1.000068     3.522    28.512     250.9      91.6     221.2     760.3     16.67     -2.96     14.46     -0.06     -0.03      3.12     -4.74      1.86     -7.58     -3.18     -0.82      2.22      7.40      2.23     -2.21     -9.31      0.52      1.17     -0.52     -0.23
      46.393341    -167.929459     250.4      3.87      6.02     103.8         1         3      1000      3646    447.56   -13.492      12.3      37.4   291.064     0.721     161.9   0.13939      72.4         H               345.7  0.068730  0.068563  0.002728  4.522632  0.800211  5.651803  1.204077    149.62    8.3666  101.0573   0.19666   6.30343   0.16557   0.00420 162.36519   8.52988     538.8  0.578820  0.002174  0.000132  0.000274  0.241220  7.540993  0.734617     99.07  1.000539  1.000070     3.470    27.118     250.9      91.9     220.6     731.3     16.26     -2.28     14.18      0.70     -0.01      3.69     -4.07      1.29     -6.57     -2.70     -0.29      1.70      7.10      2.94     -2.10     -8.19      0.57      1.47     -0.27      1.20
      46.427471    -168.097610     259.6      4.23      6.02     108.0         2         1      2465      1000    461.77   -13.356      11.9      36.7   294.603     0.736     225.9   0.14654      98.7         H               345.7  0.069628  0.075873  0.003305  4.602477  0.808448  5.692975  1.216972    122.31    8.6301  107.8833   0.20367   6.35512   0.16291   0.00403 171.82124   8.77044     562.0  0.584361  0.003152  0.000247  0.000288  0.248444  7.621883  0.752192     95.67  1.000542  1.000075     3.583    30.341     267.9      92.0     238.8     831.8     16.58     -2.02     14.32     -0.04     -0.31      3.28     -4.24      1.25     -7.02     -2.11     -0.69      1.04      7.37      2.37     -1.93     -9.17     -0.19      1.66     -0.32      0.21
      46.437080    -168.020157     259.6      3.74      6.02     108.0         2         2      2465      2323    432.38   -13.641      11.7      37.1   289.575     0.712     166.8   0.13555      98.7         H               345.7  0.068231  0.068019  0.002805  4.452005  0.799114  5.571177  1.197074    128.54    8.0822   95.2098   0.19434   6.24181   0.17049   0.00450 153.41135   8.26778     517.6  0.571334  0.002262  0.000131  0.000261  0.244442  7.547205  0.726082     99.43  1.000495  1.000064     3.378    26.106     236.0      91.4     203.6     710.4     16.27     -2.07     13.60      0.45     -0.20      3.80     -4.00      1.18     -6.29     -2.58     -0.34      1.14      6.37      2.98     -1.71     -8.39      0.41      2.07      0.83      2.08
      46.446560    -167.943344     250.4      4.21      6.02     103.8         2         3      2465      3646    474.21   -13.240      12.7      37.4   291.766     0.727     194.6   0.14404      72.4         H               345.7  0.069709  0.072960  0.002875  4.488927  0.824815  5.442347  1.209383    142.16    8.8695  112.2582   0.20297   6.40607   0.15982   0.00382 178.94385   8.97365     573.5  0.578880  0.002812  0.000172  0.000289  0.244778  7.576596  0.742392    101.56  1.000473  1.000064     3.444    26.185     250.9      92.5     250.1     777.0     16.41     -3.08     14.16      0.51     -0.02      3.67     -4.33      1.97     -6.59     -3.96     -0.03      2.04      6.46      3.06     -1.30     -8.28      0.37      1.30      1.42      0.90
      46.480686    -168.111664     246.4      4.08      6.02     107.1         3         1      3930      1000    474.75   -13.235      12.1      36.7   290.730     0.721     205.1   0.14005      66.1         H               345.7  0.067772  0.071848  0.002875  4.618834  0.806099  5.729861  1.204375    161.31    8.8832  111.6361   0.19823   6.41195   0.15872   0.00377 179.01190   8.99551     571.8  0.575856  0.002771  0.000222  0.000274  0.248077  7.604194  0.736348    103.34  1.000475  1.000061     3.485    28.618     250.9      92.5     249.2     816.8     16.39     -2.80     13.40      0.15      0.19      3.74     -4.31      1.88     -6.63     -3.10     -0.17      2.47      5.80      3.16     -1.37     -8.45      0.81      2.43     -0.11      1.80
      46.490299    -168.034149     259.6      4.19      6.02     108.0         3         2      3930      2323    449.09   -13.477      12.0      37.1   290.260     0.720     173.3   0.14054      98.7         H               345.7  0.067026  0.073473  0.002590  4.580794  0.789324  5.803439  1.203733    182.45    8.4002  102.4565   0.20133   6.30853   0.16639   0.00425 163.65805   8.55250     540.5  0.575108  0.002300  0.000134  0.000293  0.246079  7.620956  0.735309    101.82  1.000493  1.000067     3.361    24.916     250.9      91.6     222.0     710.8     16.51     -2.50     14.19      0.62     -0.06      3.79     -4.92      2.15     -7.27     -3.36      0.30      1.99      6.58      3.05     -1.88     -7.64     -0.74      1.92      1.11      1.03
      46.499775    -167.957260     279.6      3.80      6.02     105.5         3         3      3930      3646    432.70   -13.638      12.0      37.4   289.586     0.713     170.7   0.13522     100.0         H               345.7  0.067199  0.067439  0.002947  4.524955  0.797250  5.675702  1.198050    122.09    8.0851   94.9074   0.19221   6.24312   0.16992   0.00448 153.33255   8.27402     518.3  0.573537  0.002258  0.000165  0.000263  0.240628  7.554844  0.726567     95.73  1.000497  1.000061     3.419    26.145     250.9      91.5     204.1     709.3     16.24     -2.41     13.75      0.51      0.52      3.70     -3.77      1.19     -6.33     -2.46     -0.02      1.54      6.75      3.09     -2.07     -9.01      1.43      1.32      0.14      1.45
