corner points
-162.9688416    23.40973091
-163.0049133    23.5845623
-162.7781982    23.44287491
-162.8140106    23.61768341
========== RESULTS WAVE VERSION 16.10.2018 ====================
IMAGE SIZE  X: 4376     Y:4781    col:row     POLARIZATION:VV
COVERAGE    X: 19.75307716km       Y: 19.7372836km 
RESOLUTION dX: 4.513957304m       dY:4.128275172m  
resolution of original product 4.513957304m x 4.128275172m;   raster step x:5999.049257m  
===============================================================
FLAGS: H=HIGH PROBABILITY SEA STATE, I=LAND(ISLAND), O=OUTLIER NO SEA STATE, N=NO WIND AVAILABLE, SEA STATE NOT VISIBLE, M=MEAN PROBABILITY SEA STATE, L= LOW PROBABILITY SEA STATE
Filtering wave length
 integration  Lmin=1m
 integration  Lmax=2200m
  peak        Lmin=100m
               FFT=1024pixels, 4622.292279m 
   mean-Hs (SWH_c)=2.484360962m
         mean-wind=13.91296291m/s
--------------0--------------1---------2---------3---------4---------5---------6---------7---------8---------9--------10--------11--------12--------13--------14--------15--------16--------17--------18--------19------------------20--------21--------22--------23--------24--------25--------26--------27--------28--------29--------30--------31--------32--------33--------34--------35--------36--------37--------38--------39--------40--------41--------42--------43--------44--------45--------46--------47--------48--------49--------50--------51--------52--------53--------54--------55--------56--------57--------58--------59--------60--------61--------62--------63--------64--------65--------66--------67--------68--------69--------70--------71--------72--------73
            LAT            LON  P-LENGHT     SWH_o     SWH_c     P-DIR      LINE     POINT     ROW-Y     COL-X  M-INTENC        dB      WIND INC-ANGLE  ENERGY-M  ENERGY-N  ENERGY-R ENERGY-NN  FG-DEPTH      FLAG         HEADING-DEG    E30-75   E75-390  E390-600 meanincut   meanout   cut/out  STD-NORM  SPEC-MAX   GL-MEAN    GL-VAR      CORR   ENTROPY   HOMOGEN    ENERGY  CONTRAST  DISSIMIL     STD-O    E 1-30 E600-2000   E2000 >      GODA  LONG-HIG     Tmean  CONVOLUT  MEAN-DIR  relation     Sy/Sx  SKEWNESS  KURTOSIS  cutoff-A >50/10000     INT*V   INT-LOG  S-1_g1f1  S-2_g1f2  S-3_g1f3  S-4_g2f1  S-5_g2f2  S-6_g2f3  S-7_g3f1  S-8_g3f2  S-9_g3f3 S-10_g1f4 S-11_g2f4 S-12_g3f4 S-13_g1f5 S-14_g2f5 S-15_g3f5 S-16_g4f1 S-17_g4f2 S-18_g4f3 S-19_g4f4 S-20_g4f5
--------------1--------------2---------3---------4---------5---------6---------7---------8---------9--------10--------11--------12--------13--------14--------15--------16--------17--------18--------19--------20------------------21--------22--------23--------24--------25--------26--------27--------28--------29--------30--------31--------32--------33--------34--------35--------36--------37--------38--------39--------40--------41--------42--------43--------44--------45--------46--------47--------48--------49--------50--------51--------52--------53--------54--------55--------56--------57--------58--------59--------60--------61--------62--------63--------64--------65--------66--------67--------68--------69--------70--------71--------72--------73--------74
      23.453985    -162.932327     332.1      2.44      4.25      30.2         1         1      1000      1000    590.40   -12.289      14.0      36.9   233.896     0.605     108.9   0.09482     100.0         H               347.6  0.051708  0.034509  0.003166  2.607424  0.717985  3.631588  1.102800    117.04   11.1672  148.7794   0.14694   6.85428   0.12657   0.00220 253.83461  11.13969     651.1  0.514329  0.001145  0.000100  0.000189  0.224218  7.229825  0.612595     39.07  1.000105  1.000008     2.562    13.986     133.1      95.3     352.5     700.2     15.75     11.37     -1.60     -7.24     -8.36      6.80      3.36      1.42     -0.68     -1.65      5.60     -0.31     -3.83      4.52      1.75    -23.66    -20.09     13.70     10.16      7.62
      23.464092    -162.874222     356.0      2.56      4.25      32.6         1         2      1000      2329    554.82   -12.558      13.8      37.3   235.373     0.610     125.7   0.09580     100.0         H               347.6  0.051631  0.036966  0.004168  2.596364  0.733484  3.539771  1.108440    140.07   10.4907  135.0992   0.14943   6.74159   0.13393   0.00250 229.82233  10.51501     615.0  0.516505  0.001183  0.000118  0.000199  0.233635  7.293242  0.619023     33.70  1.000087  1.000007     2.589    14.183     137.8      94.7     310.6     657.4     16.47     12.42     -2.61     -9.10     -9.77      7.50      3.83      2.19     -1.36     -2.48      6.71     -1.30     -3.68      4.11      1.56    -27.99    -24.29     15.58     13.40      7.06
      23.474092    -162.816589     343.9      2.60      4.25      26.5         1         3      1000      3658    558.02   -12.534      14.1      37.7   235.654     0.611     118.7   0.09546     100.0         H               347.6  0.051555  0.036766  0.003861  2.602268  0.723734  3.595613  1.108761    122.56   10.5516  136.4854   0.14985   6.75226   0.13304   0.00248 232.06535  10.57975     618.6  0.517693  0.001283  0.000091  0.000202  0.230341  7.275748  0.619988     37.42  1.000100  1.000009     2.596    14.449     137.8      94.7     314.7     679.5     16.25     12.49     -2.03     -8.64     -9.69      6.96      3.92      2.15     -1.10     -2.01      6.46     -0.94     -3.72      4.36      1.49    -26.83    -23.83     14.77     12.98      7.53
      23.507128    -162.943268     332.1      2.61      4.25      30.2         2         1      2453      1000    582.26   -12.349      13.9      36.9   235.235     0.610     119.1   0.09581     100.0         H               347.6  0.051211  0.037080  0.003693  2.612158  0.725378  3.601102  1.108083    124.53   11.0099  146.5246   0.14991   6.82689   0.12845   0.00228 249.11624  10.99876     645.1  0.516944  0.001222  0.000094  0.000205  0.232420  7.296129  0.618824     39.72  1.000073  1.000005     2.561    13.737     137.8      95.1     343.8     666.2     16.31     12.32     -2.30     -8.30     -9.26      7.66      3.28      1.35     -1.53     -1.72      5.95     -1.01     -3.74      4.50      2.27    -26.11    -22.18     16.33     11.52      6.10
      23.517235    -162.885132     346.6      2.46      4.25      42.4         2         2      2453      2329    553.95   -12.565      13.8      37.3   234.770     0.608     120.1   0.09463     100.0         H               347.6  0.051831  0.035806  0.003901  2.553025  0.734132  3.477609  1.105949    123.34   10.4765  134.5033   0.14866   6.74087   0.13362   0.00250 229.01733  10.50764     612.6  0.515016  0.001396  0.000099  0.000199  0.228394  7.257589  0.616448     41.16  1.000095  1.000008     2.580    14.270     137.8      94.7     309.0     683.1     16.21     12.64     -1.91     -8.52     -9.63      6.94      3.97      1.95     -1.04     -1.86      6.11     -1.11     -4.92      5.88      1.45    -27.29    -23.95     14.55     12.54     10.39
      23.527231    -162.827484     341.2      2.51      4.25      36.2         2         3      2453      3658    555.92   -12.550      14.0      37.7   235.194     0.607     108.9   0.09343     100.0         H               347.6  0.051354  0.035619  0.003520  2.528674  0.729906  3.464385  1.104905    136.64   10.5156  135.1077   0.14587   6.74801   0.13302   0.00248 230.79736  10.55770     614.2  0.515319  0.001083  0.000087  0.000203  0.229541  7.263958  0.614939     39.38  1.000121  1.000010     2.573    14.115     137.8      94.7     310.7     656.0     16.22     13.01     -1.64     -8.44    -10.38      6.16      3.44      2.03     -0.62     -1.85      5.66     -0.98     -6.08      6.45      1.12    -26.00    -25.28     12.34     11.29     12.87
      23.560270    -162.954224     326.4      2.22      4.25      39.5         3         1      3906      1000    579.45   -12.370      13.8      36.9   232.996     0.598     101.3   0.09103     100.0         H               347.6  0.050568  0.031585  0.003480  2.320084  0.715262  3.243682  1.096979     91.80   10.9654  143.5523   0.14153   6.82409   0.12751   0.00226 246.47018  10.97060     635.6  0.511526  0.001099  0.000080  0.000176  0.221093  7.200575  0.604979     45.49  1.000082  1.000006     2.521    13.541     128.8      95.2     336.2     688.6     15.85     11.46     -2.14     -8.12     -9.41      6.94      4.14      2.43     -1.81     -1.57      5.16     -1.38     -3.74      4.36      2.14    -26.69    -23.64     16.68     12.13      6.17
      23.570374    -162.896057     326.4      2.45      4.25      39.5         3         2      3906      2329    572.92   -12.419      14.0      37.3   233.714     0.603     101.4   0.09342     100.0         H               347.6  0.051011  0.034528  0.003289  2.512468  0.714042  3.518654  1.101164    133.54   10.8409  141.4460   0.14537   6.80294   0.12954   0.00233 241.76729  10.84355     630.9  0.513053  0.001006  0.000067  0.000197  0.226648  7.247201  0.610277     42.06  1.000141  1.000012     2.533    13.536     133.1      95.0     329.9     653.7     16.03     12.80     -0.31     -7.89     -9.84      4.66      3.29      1.80      0.38     -0.91      4.27      0.54     -6.43      7.21      0.75    -24.43    -23.70      8.22      6.87     14.75
      23.580370    -162.838379     389.9      2.52      4.25      42.4         3         3      3906      3658    548.77   -12.606      13.9      37.7   235.798     0.612     135.5   0.09589     100.0         H               347.6  0.051569  0.036207  0.004928  2.538221  0.713701  3.556420  1.109869    127.13   10.3734  132.6915   0.14987   6.72152   0.13491   0.00256 225.61180  10.41726     609.1  0.518071  0.001518  0.000123  0.000205  0.231715  7.278979  0.621294     37.73  1.000089  1.000007     2.599    14.342     142.7      94.6     304.0     649.1     16.52     12.93     -2.37     -9.84    -10.88      7.28      4.71      2.70     -2.50     -2.82      6.63     -2.47     -4.66      5.08      1.49    -31.01    -27.78     17.60     15.71      9.28
