corner points
-167.8349304    36.33269119
-167.8809052    36.51207733
-167.6160889    36.36843491
-167.6615143    36.54784012
========== RESULTS WAVE VERSION 16.10.2018 ====================
IMAGE SIZE  X: 5471     Y:4924    col:row     POLARIZATION:VV
COVERAGE    X: 19.95509285km       Y: 20.31695274km 
RESOLUTION dX: 3.647430607m       dY:4.12610738m  
resolution of original product 3.647430607m x 4.12610738m;   raster step x:5996.375918m  
===============================================================
FLAGS: H=HIGH PROBABILITY SEA STATE, I=LAND(ISLAND), O=OUTLIER NO SEA STATE, N=NO WIND AVAILABLE, SEA STATE NOT VISIBLE, M=MEAN PROBABILITY SEA STATE, L= LOW PROBABILITY SEA STATE
Filtering wave length
 integration  Lmin=1m
 integration  Lmax=2200m
  peak        Lmin=100m
               FFT=1024pixels, 3734.968942m 
   mean-Hs (SWH_c)=2.756080322m
         mean-wind=12.76193523m/s
--------------0--------------1---------2---------3---------4---------5---------6---------7---------8---------9--------10--------11--------12--------13--------14--------15--------16--------17--------18--------19------------------20--------21--------22--------23--------24--------25--------26--------27--------28--------29--------30--------31--------32--------33--------34--------35--------36--------37--------38--------39--------40--------41--------42--------43--------44--------45--------46--------47--------48--------49--------50--------51--------52--------53--------54--------55--------56--------57--------58--------59--------60--------61--------62--------63--------64--------65--------66--------67--------68--------69--------70--------71--------72--------73
            LAT            LON  P-LENGHT     SWH_o     SWH_c     P-DIR      LINE     POINT     ROW-Y     COL-X  M-INTENC        dB      WIND INC-ANGLE  ENERGY-M  ENERGY-N  ENERGY-R ENERGY-NN  FG-DEPTH      FLAG         HEADING-DEG    E30-75   E75-390  E390-600 meanincut   meanout   cut/out  STD-NORM  SPEC-MAX   GL-MEAN    GL-VAR      CORR   ENTROPY   HOMOGEN    ENERGY  CONTRAST  DISSIMIL     STD-O    E 1-30 E600-2000   E2000 >      GODA  LONG-HIG     Tmean  CONVOLUT  MEAN-DIR  relation     Sy/Sx  SKEWNESS  KURTOSIS  cutoff-A >50/10000     INT*V   INT-LOG  S-1_g1f1  S-2_g1f2  S-3_g1f3  S-4_g2f1  S-5_g2f2  S-6_g2f3  S-7_g3f1  S-8_g3f2  S-9_g3f3 S-10_g1f4 S-11_g2f4 S-12_g3f4 S-13_g1f5 S-14_g2f5 S-15_g3f5 S-16_g4f1 S-17_g4f2 S-18_g4f3 S-19_g4f4 S-20_g4f5
--------------1--------------2---------3---------4---------5---------6---------7---------8---------9--------10--------11--------12--------13--------14--------15--------16--------17--------18--------19--------20------------------21--------22--------23--------24--------25--------26--------27--------28--------29--------30--------31--------32--------33--------34--------35--------36--------37--------38--------39--------40--------41--------42--------43--------44--------45--------46--------47--------48--------49--------50--------51--------52--------53--------54--------55--------56--------57--------58--------59--------60--------61--------62--------63--------64--------65--------66--------67--------68--------69--------70--------71--------72--------73--------74
      36.375862    -167.803238     252.4      2.75      4.15      61.5         1         1      1000      1000   4024.39    -3.953      12.9      23.6   442.788     0.882     126.1   0.23914      76.2         H               346.8  0.108556  0.086423  0.002267  7.613109  1.083998  7.023175  1.333890    101.16    7.4321   94.5472   0.30825   6.02377   0.20356   0.00667 130.80484   7.31167    5367.7  0.684198  0.001423  0.000030  0.000269  0.195132  7.220203  0.933346     88.67  1.000289  1.000042     4.512    51.786     121.0      88.9     202.0     863.6     13.61      5.34      5.85      1.84     -1.10      5.01     -0.09     -2.17      0.08      4.27      0.90     -2.08     -1.41      3.13      3.19     -5.90     -3.24      5.07      0.00      3.45
      36.386730    -167.736801     259.4      2.59      4.15      56.5         1         2      1000      2644   3584.39    -4.456      12.5      24.1   439.512     0.861     119.9   0.22780      97.9         H               346.8  0.103669  0.082249  0.001945  6.989092  1.045406  6.685530  1.317569    101.78    6.6105   77.5515   0.30328   5.81377   0.22068   0.00824 108.06294   6.58524    4722.5  0.672342  0.001221  0.000030  0.000263  0.199317  7.220283  0.908206     88.52  1.000269  1.000038     4.091    36.732     121.0      87.3     156.7     704.0     13.94      5.87      6.18      1.40     -1.08      4.47     -0.97     -3.01     -0.25      4.98      0.21     -2.30     -1.77      3.69      3.32     -5.70     -2.36      4.32     -1.10      4.56
      36.397366    -167.671555     230.2      2.71      4.15      67.6         1         3      1000      4288   3510.24    -4.547      13.4      24.5   438.003     0.866     112.8   0.23234      49.2         H               346.8  0.104037  0.082572  0.001947  6.954121  1.028173  6.763571  1.320337     82.74    6.4559   74.1910   0.30408   5.77205   0.22389   0.00856 103.26124   6.43497    4634.6  0.676562  0.001086  0.000022  0.000262  0.202595  7.265069  0.913495     85.83  1.000286  1.000041     4.560    60.306     121.0      87.0     149.6     797.3     13.80      5.73      6.88      2.15     -0.81      5.10     -0.67     -2.43     -0.23      5.22      0.75     -2.28     -0.38      3.66      2.74     -5.02     -2.71      4.48     -0.76      3.95
      36.428844    -167.816788     259.4      2.88      4.15      64.5         2         1      2454      1000   4024.55    -3.953      12.9      23.6   443.323     0.876     122.5   0.23481      97.9         H               346.8  0.104201  0.087896  0.001958  7.321893  1.087021  6.735743  1.326538    103.44    7.4351   94.8921   0.30769   6.02325   0.20415   0.00673 131.38873   7.32284    5338.3  0.681882  0.001128  0.000033  0.000266  0.203725  7.296927  0.925999     85.60  1.000284  1.000040     4.181    39.633     124.8      88.8     201.3     805.1     13.93      5.51      7.00      1.97     -0.81      5.02     -1.08     -2.54     -0.24      5.07      0.69     -2.19     -0.46      4.03      3.18     -4.74     -1.93      4.34     -0.22      4.24
      36.439716    -167.750290     268.1      2.89      4.15      59.5         2         2      2454      2644   3506.21    -4.552      12.2      24.1   445.918     0.892     139.6   0.24477     100.0         H               346.8  0.107095  0.092365  0.002507  7.638884  1.098920  6.951265  1.338671    118.05    6.4628   75.5453   0.31275   5.76694   0.22551   0.00871 103.83600   6.42873    4693.4  0.689268  0.001497  0.000029  0.000265  0.207096  7.287562  0.943980     85.23  1.000295  1.000041     4.551    51.165     124.8      86.9     153.9     764.5     14.21      5.70      7.17      1.41     -1.03      4.88     -1.27     -3.06     -0.96      5.03      0.24     -2.55     -0.00      3.95      2.43     -5.99     -2.63      4.55     -1.41      4.41
      36.450352    -167.684982     245.1      2.63      4.15      58.5         2         3      2454      4288   3505.01    -4.553      13.4      24.5   432.552     0.846     106.1   0.22237      64.2         H               346.8  0.100859  0.079384  0.001810  7.035074  1.044081  6.738056  1.307094     73.05    6.4606   73.9120   0.30123   5.77604   0.22304   0.00846 103.29472   6.44028    4581.2  0.664068  0.000993  0.000022  0.000257  0.200823  7.257765  0.892531     88.70  1.000317  1.000043     4.129    41.679     121.0      87.2     147.5     730.6     13.46      4.63      6.83      2.75     -0.73      5.76     -0.08     -1.85      0.26      3.74      0.75     -1.50      0.23      4.00      2.84     -4.44     -2.67      4.91     -0.62      4.19
      36.481823    -167.830338     268.1      2.84      4.15      59.5         3         1      3908      1000   4003.11    -3.976      12.8      23.6   440.826     0.867     126.0   0.23112     100.0         H               346.8  0.103130  0.086841  0.002190  7.152015  1.049127  6.817114  1.318427     80.83    7.4050   93.7895   0.30429   6.01881   0.20372   0.00670 130.50093   7.30381    5277.3  0.674485  0.001408  0.000034  0.000270  0.200792  7.281018  0.915908     86.84  1.000289  1.000042     4.166    40.736     124.8      88.9     197.7     792.3     13.51      5.30      6.32      2.38     -0.63      5.72      0.10     -2.08      0.52      4.60      1.15     -2.18     -0.70      3.97      2.92     -5.39     -3.31      4.94     -0.56      4.96
      36.492699    -167.763794     254.4      2.67      4.15      48.5         3         2      3908      2644   3480.59    -4.583      12.1      24.1   442.089     0.873     124.1   0.23398      80.8         H               346.8  0.105005  0.086370  0.002199  7.558230  1.051256  7.189717  1.324852     81.33    6.4223   74.2486   0.30681   5.75869   0.22624   0.00876 102.93724   6.40305    4610.8  0.679172  0.001399  0.000025  0.000256  0.203523  7.271928  0.923103     88.29  1.000291  1.000042     4.294    43.492     124.8      86.9     149.7     739.1     13.63      4.63      6.24      2.29     -1.19      5.98     -0.16     -2.03      0.42      3.05      0.54     -1.65     -0.65      4.36      3.37     -5.03     -3.09      5.87     -0.38      4.90
      36.503338    -167.698441     259.4      2.86      4.15      64.5         3         3      3908      4288   3297.96    -4.818      12.6      24.5   446.509     0.894     118.8   0.24561      97.9         H               346.8  0.106644  0.090541  0.001914  7.424568  1.077408  6.891141  1.339573     93.72    6.0428   68.0207   0.31237   5.64190   0.23688   0.00995  93.54582   6.05120    4417.6  0.694399  0.001145  0.000026  0.000269  0.200842  7.281778  0.944723     86.26  1.000297  1.000044     4.421    45.885     124.8      85.8     135.2     760.0     13.47      4.96      6.86      2.55     -0.57      5.50     -0.22     -2.05      0.34      4.42      0.75     -1.59     -0.15      3.98      3.03     -3.98     -1.82      5.12     -0.24      4.55
